<svg xmlns="http://www.w3.org/2000/svg" width="64" height="65">
    <path fill="#F52093" fill-rule="evenodd" d="M31.86.95c17.597 0 31.862 14.265 31.862 31.862 0 17.596-14.265 31.861-31.862 31.861-17.596 0-31.861-14.265-31.861-31.861C-.001 15.215 14.264.95 31.86.95z"/>
    <path fill="#FFF" fill-rule="evenodd" d="M44.999 42.999h-9l-12 8v-8h-4.001c-1.851 0-2.999-1.148-2.999-3v-17c0-1.852 1.148-3 2.999-3h25.001c1.852 0 3 1.148 3 3v17c0 1.852-1.148 3-3 3zm-6-13h-13c-1.234-.019-1.996.747-2 2-.003 1.25.75 2.001 2 2.001h13c1.25 0 2-.751 2-2.001s-.75-2-2-2z"/>
</svg>
