<svg xmlns="http://www.w3.org/2000/svg" width="64" height="65">
    <path fill="#FAC200" fill-rule="evenodd" d="M31.86.95c17.597 0 31.862 14.265 31.862 31.862 0 17.596-14.265 31.861-31.862 31.861-17.596 0-31.861-14.265-31.861-31.861C-.001 15.215 14.264.95 31.86.95z"/>
    <path fill="#FFF" fill-rule="evenodd" d="M41.74 16.349H21.98c-1.579 0-2.865 1.285-2.865 2.864v26.898c0 1.579 1.286 2.864 2.865 2.864h19.76c1.579 0 2.865-1.285 2.865-2.864V19.213c0-1.579-1.286-2.864-2.865-2.864zM27.514 43.237h-.177v.151c0 .527-.428.955-.955.955-.527 0-.955-.428-.955-.955v-.151h-.178c-.527 0-.954-.428-.954-.955 0-.527.427-.955.954-.955h.178v-.151c0-.527.428-.955.955-.955.527 0 .955.428.955.955v.151h.177c.527 0 .955.428.955.955 0 .527-.428.955-.955.955zm5.479 0h-.178v.151c0 .527-.428.955-.955.955-.527 0-.955-.428-.955-.955v-.151h-.176c-.528 0-.956-.428-.956-.955 0-.527.428-.955.956-.955h.176v-.151c0-.527.428-.955.955-.955.527 0 .955.428.955.955v.151h.178c.527 0 .954.428.954.955 0 .527-.427.955-.954.955zm1.525-6.467v-4.458h-5.315v4.458c0 .264-.214.477-.478.477h-3.348c-.263 0-.477-.213-.477-.477V23.552c0-.263.214-.477.477-.477h3.348c.264 0 .478.214.478.477v4.458h5.315v-4.458c0-.263.214-.477.477-.477h3.348c.264 0 .478.214.478.477V36.77c0 .264-.214.477-.478.477h-3.348c-.263 0-.477-.213-.477-.477zm3.952 6.467h-.176v.151c0 .527-.428.955-.955.955-.528 0-.956-.428-.956-.955v-.151h-.177c-.526 0-.955-.428-.955-.955 0-.527.429-.955.955-.955h.177v-.151c0-.527.428-.955.956-.955.527 0 .955.428.955.955v.151h.176c.528 0 .955.428.955.955 0 .527-.427.955-.955.955z"/>
</svg>
