4832764,"Korinthou 242, Patra 26221, Greece",83
4832564,"Korinthou 245, Patra 262 21, Greece",83
4823308,"Korinthou 252, Patra 262 21, Greece",83
4832571,"Korinthou 270, Patra 262 21, Greece",83
4832569,"Korinthou 297-303, Patra 262 21, Greece",83
4832775,"Korinthou 321, Patra 262 21, Greece",83
4826379,"Korinthou 323, Patra 262 21, Greece",83
4832914,"Korinthou 335, Patra 262 22, Greece",83
4832746,"Korinthou 34, Patra 262 23, Greece",83
4832780,"Korinthou 353, Patra 262 22, Greece",83
4832851,"Korinthou 368, Patra 262 22, Greece",83
4826378,"Korinthou 387, Patra 262 22, Greece",83
4832985,"Korinthou 67, Patra 262 23, Greece",83
4826403,"Korinthou 71, Patra 262 23, Greece",83
4832750,"Korinthou 73, Patra 262 23, Greece",83
4832754,"Korinthou 92, Patra 262 23, Greece",83
4826634,"Korinthou ke Astiggos, Patra 262 23, Greece",83
4826387,"Korinthou ke Pl. Geor. A, Patra 262 21, Greece",83
1377528,"Korissia 490 80, Greece",83
1441876,"Korissia 490 80, Greece",83
1439663,"Korissia, Municipality of Korissia, Greece",83
1508885,"Koritsas 14, Kalampaka 422 00, Greece",83
5018675,"Koritsas 39, Ag. Nikolaos 721 00, Greece",83
1633378,"Korkidi 29, Chania 731 36, Greece",83
1701411,"Kornarou 90, Sitia 723 00, Greece",83
1667448,"Koronaiou Panou 13, Rethymno 741 00, Greece",83
1693876,"Koroneou 10, Iraklio 712 02, Greece",83
5100666,"Koroneou 13, Chania 731 36, Greece",83
1633406,"Koroneou 18, Chania 731 36, Greece",83
1697537,"Koroneou 23, Iraklio 712 02, Greece",83
1697437,"Koroneou 26, Iraklio 712 02, Greece",83
1695961,"Koroneou 3, Iraklio 712 02, Greece",83
1675331,"Koroneou 4, Iraklio 712 01, Greece",83
1673199,"Koroneou 5, Iraklio 712 02, Greece",83
1696776,"Koroneou 7, Iraklio 712 02, Greece",83
1694192,"Koroneou to 25is Avgoustou, Iraklio 712 02, Greece",83
1697546,"Kos 6 Amoudara, Gazi 714 14, Greece",83
1582265,"Kos Str.14, R?dos 851 00, Greece",83
1583126,"Koskinou 851 00, Greece",83
1583774,"Koskinou Municipal District, Koskinou 85105, Greece",83
1583571,"Koskinou, Greece",83
1583663,"Koskinou, Greece",83
1584586,"Koskinou, Greece",83
1659600,"Kosmon 12, Iraklio 712 01, Greece",83
4832856,"Kosti Palama 95, Patra 264 42, Greece",83
5017984,"Kosti Palama, Stalos 731 00, Greece",83
5110285,"Kothri Michail 22, Ierapetra 722 00, Greece",83
4832878,"Kotopouli 52, Patra 264 42, Greece",83
5177498,"Koufonissia, Koufonisi - Chora 843 00",83
1505182,"Koumaries, Kalambaka 422 00, Greece",83
1505154,"Koumaries, Kalampaka 422 00, Greece",83
1667382,"Kounavon 33, Giofyros, Iraklio 713 04, Greece",83
1698413,"Koundourou 1, Ag. Nikolaos 721 00, Greece",83
5235380,"Koundourou 1, Ag. Nikolaos 721 00, Greece",83
1700749,"Koundourou 16, Ag. Nikolaos 721 00, Greece",83
5235704,"Koundourou 17, Ag. Nikolaos 721 00, Greece",83
1700478,"Koundourou 3, Ag. Nikolaos 721 00, Greece",83
1699770,"Koundourou 30, Ag. Nikolaos 721 00, Greece",83
5018738,"Koundourou 34, Ag. Nikolaos 721 00, Greece",83
1699713,"Koundourou 5, Ag. Nikolaos 721 00, Greece",83
1699978,"Koundourou 6, Ag. Nikolaos 721 00, Greece",83
1700259,"Koundourou 8, Ag. Nikolaos 721 00, Greece",83
1701454,"Koundourou 9, Ag. Nikolaos 721 00, Greece",83
1700141,"Koundourou, Ag. Nikolaos 721 00, Greece",83
1700997,"Koundourou, Ag. Nikolaos 721 00, Greece",83
4819926,"Kounopetra, Lixouri, Kefalonia, Kefalonia 282 00, Greece",83
1658767,"Kounoupidiana ,, Knossou, Chania 731 00, Greece",83
1591953,"Kounoupidiana 731 00, Greece",83
1591813,"Kounoupidiana, Chania 731 00, Greece",83
1591949,"Kounoupidiana, Greece",83
1633931,"Kountoura Selinou, Paleochora 730 01, Greece",83
1671114,"Kountouriotou 1, Rethymno 741 00, Greece",83
1658803,"Kountouriotou 100, Rethimno 741 00, Greece",83
1659755,"Kountouriotou 109, Rethymno 741 00, Greece",83
5235865,"Kountouriotou 127, Rethymno 741 00, Greece",83
5018254,"Kountouriotou 139, Rethimno 741 00, Greece",83
5018249,"Kountouriotou 153, Rethymno 741 00, Greece",83
1658611,"Kountouriotou 158, Rethymno 741 00, Greece",83
1671946,"Kountouriotou 158, Rethymno 741 00, Greece",83
1669391,"Kountouriotou 159, Rethymno 741 00, Greece",83
1670865,"Kountouriotou 162, Rethymno 741 00, Greece",83
1669385,"Kountouriotou 17, Rethymno 741 00, Greece",83
1670856,"Kountouriotou 174, Rethymno 741 00, Greece",83
1667438,"Kountouriotou 23, Rethymno 741 00, Greece",83
1658605,"Kountouriotou 29, Rethymno 741 00, Greece",83
1671965,"Kountouriotou 33, Rethymno 741 00, Greece",83
1658609,"Kountouriotou 77, Rethymno 741 00, Greece",83
5236068,"Kountouriotou 77, Rethymno 741 00, Greece",83
1658756,"Kountouriotou 78, Rethymno 741 00, Greece",83
1658749,"Kountouriotou 84, Rethymno 741 00, Greece",83
1667153,"Kountouriotou to Hortatzi, Gonia 741 00, Greece",83
1658750,"Kountouriotou, Rethymno 741 00, Greece",83
1700649,"Kouper 47, Ierapetra 722 00, Greece",83
5110302,"Kouper 97, Ierapetra 722 00, Greece",83
1374342,"Kouramaditika 491 00, Greece",83
1699886,"Kouremenos - Plakopoules Area, Palekastro 723 00, Greece",83
1699871,"Kouremenos 723 00, Greece",83
5018791,"Kouremenos 723 00, Greece",83
5018777,"KOUREMENOS BAY, Palekastro 723 00, Greece",83
5235576,"Kouremenos Beach Rd, Kouremenos 723 00, Greece",83
1699909,"Kouremenos Beach Rd, Palekastro 723 00, Greece",83
5018529,"Kouremenos of Palekastro, Palekastro 723 00, Greece",83
5018763,"Kouremenos, Palekastro 723 00, Greece",83
1673629,"Kournas, 730 07, Greece",83
1655298,"Kournidaki Joseph Oasis of Varypetrou, Chania 731 00, Greece",83
1677043,"Kouses 704 00, Greece",83
1439910,"Kouspades 490 80, Greece",83
1440295,"Kouspades 490 80, Greece",83
5100583,"Kouspades 490 80, Greece",83
1440484,"Kouspades, Boukari 49080, Greece",83
1441557,"Kouspades, Greece",83
1673227,"koutelos beach, Vouvas 730 11, Greece",83
1701463,"koutsounari 177, ierapetra 722 00, Greece",83
1699749,"Koutsounari 722 00, Greece",83
1699761,"Koutsounari 722 00, Greece",83
5235408,"Koutsounari 722 00, Greece",83
1701467,"koutsounari Greece, Ierapetra 722 00, Greece",83
1701799,"Koutsouras 720 55, Greece",83
5018757,"Koutsouras 720 55, Greece",83
5018818,"Koutsouras 720 55, Greece",83
5235176,"Koutsouras 720 55, Greece",83
1701416,"Koutsouras, 720 55, Greece",83
1696364,"Koziri 5, Iraklio 712 01, Greece",83
1585782,"Krana Square, Lindos 851 07, Greece",83
1590408,"Krana, Lindos 851 07, Greece",83
5387650,"Krasi 700 05, Greece",83
1700081,"Krasi, Greece",83
1701129,"Krasi, Greece",83
1583980,"Kremasti 851 04, Greece",83
1584696,"Kremasti 851 04, Greece",83
1584931,"Kremasti 851 04, Greece",83
5112639,"Kremasti 851 04, Greece",83
5238466,"Kremasti 851 04, Greece",83
5112644,"Kremasti Area, R?dos, Greece",83
1700807,"Krhth, Ierapetra, Greece",83
1669402,"Kriari 1, Rethymno 741 00, Greece",83
1658952,"Kriari 32, Chania 73100, Greece",83
1588764,"Kriari 34, Chania 731 35, Greece",83
1591988,"Kriari 40, Chania 73100, Greece",83
1655022,"Kriari 40, Chania 73100, Greece",83
1656042,"Kriari 40, Chania, Greece",83
5384928,"Kriari 40, Chania, Greece",83
1672864,"Kriari 57, Rethymno 741 00, Greece",83
5235080,"krikri, Ag. Nikolaos 721 00, Greece",83
1440572,"krioneri, Parga 480 60, Greece",83
5235819,"Kriti, Hrakleio 700 02, Greece",83
1586408,"Kritinia box 265, Rhodos - Kamiros Skala 851 08, Greece",83
1694264,"Kritis, Iraklio 714 09, Greece",83
1700543,"Kritis, Iraklio 714 09, Greece",83
1700257,"Kritsa, Agios Nikolaos 72051, Greece",83
5018704,"Kritsas 1, Ag. Nikolaos 721 00, Greece",83
1701473,"Kritsotopoula, Kritsa 720 51, Greece",83
1700013,"Kritsotopoulas, Kritsa 720 51, Greece",83
1701459,"Kritsotopoulas, Kritsa 720 51, Greece",83
1670778,"Krousonas, Greece",83
1679333,"Krousonas, Greece",83
1697906,"Krousonas, Greece",83
5387644,"Kroustas 721 00, Greece",83
1667858,"Kryoneritis, Finikas 740 60, Greece",83
1439231,"Ksamil 9706, Albania",83
5238302,"Ksamil 9706, Albania",83
5238164,"Ksamil, Albania",83
5238165,"Ksamil, Albania",83
5238166,"Ksamil, Albania",83
1589551,"Ktistaki 6, Chania 731 34, Greece",83
5177425,"Kyllini - Lixouri, Lixouri, Kefalonia 282 00",83
1701057,"Kyprou kai Kozyri (corner), Agios Nikolaos Lassithiou 721 00, Greece",83
1695596,"Kyriakou Skepetzis 9, Iraklio 714 09, Greece",83
5704646,"K???? 2, ?????? 412 22",83
5704644,"K???? 4, ?????? 412 22",83
5704639,"K???? 46, ?????? 412 23",83
5235590,"L.IKAROU 61, NEA ALIKARNASSOS, Iraklio 716 01, Greece",83
5018544,"Lachana 10, Iraklio 712 02, Greece",83
1590074,"Lachania 851 09, Greece",83
1590085,"Lachania 851 09, Greece",83
5112850,"Lachania 851 09, Greece",83
5112838,"Lachania street 1, Lachania, Greece",83
1590079,"Lachania, Lachania, Greece",83
1589507,"Lachania, Lachania, Rhodos 851 09, Greece",83
5238774,"Lachitos, Rodos 851 00, Greece",83
5019207,"Ladiko, Faliraki 851 03, Greece",83
5376377,"Ladochoriou, Ladochorion 461 00, Greece",83
5238735,"Laerma 851 09, Greece",83
1679168,"Lagolio - square, Lagolio 702 00, Greece",83
1590178,"Lake Kournas, Georgioupoli 730 07, Greece",83
1699599,"Lake Voulismeni, 721 00, Greece",83
1701561,"Lakerda and Kalimeraki corner, Ierapetra 722 00, Greece",83
4819676,"Lakithra 281 00, Greece",83
4819868,"Lakithra 281 00, Greece",83
4819980,"Lakithra 281 00, Greece",83
4819633,"Lakithra Kefalonia, Kefalonia 281 00, Greece",83
5017925,"Lakka 490 82, Greece",83
5017896,"Lakka Bay, Lakka 490 82, Greece",83
1442518,"Lakka bay, Paxos 490 82, Greece",83
5017702,"Lakka, Greece",83
5017906,"Lakka, Greece",83
1443421,"Lakka, Paxos 490 82, Greece",83
5018072,"Lakki beach ,, Chora Sfakion 730 11, Greece",83
5017762,"Lakones, Paleocastritsa, Lakones, Greece",83
1583586,"Lalisou, ????? 851 00, Greece",83
1669844,"lameriana, Rethymno 740 52, Greece",83
1680026,"Lampraki 101, Epano Archanes 701 00, Greece",83
5110297,"Lampraki 45, Ierapetra 722 00, Greece",83
1700215,"Landscaping of Thick Sand, Ierapetra 722 00, Greece",83
1677028,"Lappa 1, Iraklio 713 05, Greece",83
1585043,"Lardos 851 09, Greece",83
1585564,"Lardos 851 09, Greece",83
1587721,"Lardos 851 09, Greece",83
1588312,"Lardos 851 09, Greece",83
1589075,"Lardos 851 09, Greece",83
1589076,"Lardos 851 09, Greece",83
1589920,"Lardos 851 09, Greece",83
5238706,"Lardos 851 09, Greece",83
1583576,"LARDOS 85109, Lardos, Lardos, Greece",83
1588037,"Lardos Bay, Lardos 85109, Greece",83
1589917,"Lardos Lindos Provincial Road, Lindos 851 07, Greece",83
5110526,"Lardos main square, Lardos, Greece",83
1589875,"Lardos, 851 09, Greece",83
1583589,"Lardos, Afandou 851 00, Greece",83
1583633,"Lardos, Greece",83
1585042,"Lardos, Greece",83
1587957,"Lardos, Greece",83
1587960,"Lardos, Greece",83
1588319,"Lardos, Greece",83
5110547,"Lardos, Greece",83
5238694,"Lardos, Greece",83
5019235,"lardos, Rodos 851 09, Greece",83
5019289,"Lardos, rodos 851 09, Greece",83
1588300,"lardos-lothiarika-pefkoi, lindos 851 09, Greece",83
1584460,"lardou - lindou ave, Lindos 851 07, Greece",83
4819883,"Larniou1, Fiskardo 280 84, Greece",83
4823141,"Lase, Argostoli 281 00, Greece",83
4819723,"Lassi, Argostoli 281 00, Greece",83
4819911,"Lassi, Argostoli 281 00, Greece",83
4819988,"LASSI, Argostoli 281 00, Greece",83
4819919,"Lassi, Kefalonia 281 00, Greece",83
5236257,"Lassiti, Greece, Pitsidia, Greece",83
5018746,"Lasthenous 23, Ag. Nikolaos 721 00, Greece",83
1700047,"Lasthenous 23, Ierapetra 722 00, Greece",83
1699408,"Lasthenous 26, Ierapetra 722 00, Greece",83
5110298,"Lasthenous 27, Ierapetra 722 00, Greece",83
1675007,"Lasthenous 28, Ierapetra 722 00, Greece",83
1701744,"Lasthenous 36, Ierapetra 722 00, Greece",83
1679394,"Lasthenous and Venizelou square, Ierapetra 722 00, Greece",83
1701669,"Lasthenous to Sfakianaki, Ag. Nikolaos 721 00, Greece",83
5388346,"Lastros 720 57, Greece",83
5387329,"Latous 2, Ag. Nikolaos 721 00, Greece",83
1701341,"Latous 25, Ag. Nikolaos 721 00, Greece",83
1701003,"Latous 28, Ag. Nikolaos 721 00, Greece",83
1699253,"Latous, Ag. Nikolaos 721 00, Greece",83
1669841,"Laurels, RETHYMNO 740 54, Greece",83
1352960,"Lavrenti Mavili 2, Kerkira 491 00, Greece",83
1348713,"Lavrenti Mavili 21, Kerkira 491 00, Greece",83
1383296,"Lazaretto, Greece",83
1655604,"Lefka Ori, Sfakia 730 11, Greece",83
1350754,"lefka perouladon, sidari, kerkyra 490 81, Greece",83
1384425,"Lefkada 311 00, Greece",83
1384426,"Lefkada 311 00, Greece",83
1386939,"Lefkada 311 00, Greece",83
5238216,"Lefkada, Greece",83
1695599,"Lefkadia Rodias Gazi pob 517, Iraklio 714 14, Greece",83
1439896,"Lefkimmi 490 80, Greece",83
1440504,"Lefkimmi 490 80, Greece",83
1443028,"Lefkimmi 490 80, Greece",83
1443029,"Lefkimmi 490 80, Greece",83
1443035,"Lefkimmi 490 80, Greece",83
1443038,"Lefkimmi 490 80, Greece",83
5100589,"Lefkimmi 490 80, Greece",83
1440304,"Lefk?mmi Buka, Lefk?mmi 49080, Greece",83
1351494,"Lefkimmi National Road, Kerkira, Greece",83
1347819,"Lefkimmi, Greece",83
1350562,"Lefkimmi, Greece",83
1389857,"Lefkimmi, Greece",83
1439685,"Lefkimmi, Greece",83
1440518,"Lefkimmi, Greece",83
1442484,"Lefkimmi, Greece",83
5373341,"Lefkimmi, Greece",83
1378728,"Lefkimmis Rd (3rd km), Kanalia, Kerkyra, 49100, Greece",83
5238175,"Lefkimmis, Kerkira 491 00, Greece",83
1381484,"Lefkimmis, Lefkimmi 490 80, Greece",83
1439683,"Lefkimmis, Lefkimmi 490 80, Greece",83
1443027,"Lefkimmis, Lefkimmi 490 80, Greece",83
1443745,"Lefkimmis, Lefkimmi 490 80, Greece",83
4832973,"Lefkosias 156, Patra 264 41, Greece",83
4832686,"Lefkosias 21, Patra 264 41, Greece",83
1696141,"Lefkosias 27, Iraklio 713 04, Greece",83
1697555,"Lefteri Skepetzi 14, Iraklio 713 07, Greece",83
1674697,"Legends ,, 700 12, Greece",83
1349286,"Legends Hotel & Apartments, Sidari 490 81, Greece",83
1584962,"Lemesou, Pastida 851 06, Greece",83
5018690,"Lenika 67 Elounda, Ag. Nikolaos 721 00, Greece",83
5018519,"Lenikou Street, Analipsi 700 14, Greece",83
5018572,"Lentas 704 00, Greece",83
1350783,"Leof. 49 Martiron 15, Igoumenitsa 461 00, Greece",83
5018382,"Leof. 62 Martiron 1, Iraklio, Greece",83
5385347,"Leof. 62 Martiron 105, Iraklio 713 04, Greece",83
1668061,"Leof. 62 Martiron 176, Iraklio 713 03, Greece",83
1668068,"Leof. 62 Martiron 192, Iraklio 713 03, Greece",83
1696575,"Leof. 62 Martiron 193, Iraklio 713 04, Greece",83
5385360,"Leof. 62 Martiron 213, Xeropotamos 713 03, Greece",83
1668036,"Leof. 62 Martiron 310, Iraklio 713 03, Greece",83
1678855,"Leof. 62 Martiron 310, Iraklio 713 03, Greece",83
1678856,"Leof. 62 Martiron 362, Xeropotamos 713 03, Greece",83
1695212,"Leof. 62 Martiron 40, Iraklio, Greece",83
1694281,"Leof. 62 Martiron 422, Iraklio 713 03, Greece",83
1680427,"Leof. 62 Martiron 52, Iraklio 713 03, Greece",83
1696363,"Leof. 62 Martiron 58, Iraklio 713 03, Greece",83
1680656,"Leof. 62 Martiron 62, Iraklio 713 04, Greece",83
1677087,"Leof. 62 Martiron 84, Iraklio 713 03, Greece",83
1678427,"Leof. 62 Martyron 11, Iraklio, Greece",83
1696790,"Leof. 62 Martyron 124-126, Iraklio 713 03, Greece",83
1699248,"Leof. 62 Martyron 124-126, Iraklio 713 03, Greece",83
1696614,"Leof. 62 Martyron 145, Iraklio, Greece",83
1695251,"Leof. 62 Martyron 148, Iraklio 713 04, Greece",83
1668041,"Leof. 62 Martyron 160-162, Iraklio 713 03, Greece",83
1680424,"Leof. 62 Martyron 165, Iraklio 713 04, Greece",83
1695202,"Leof. 62 Martyron 377, Iraklio 713 04, Greece",83
5235967,"Leof. 62 Martyron 38, Iraklio 713 03, Greece",83
1699274,"LEOF. 62 WITNESSES No. 56, Iraklio 713 03, Greece",83
1361750,"Leof. Alexandras 25, Kerkira 491 00, Greece",83
1353344,"Leof. Alexandras 27, Kerkira 491 00, Greece",83
1360776,"Leof. Alexandras 27, Kerkira 491 00, Greece",83
1353351,"Leof. Alexandras 27-31, Kerkira 491 00, Greece",83
1347772,"Leof. Alexandras 31, Kerkira 491 00, Greece",83
1384433,"Leof. Alexandras 33, Kerkira 491 00, Greece",83
1382587,"Leof. Alexandras 36, Kerkira 491 00, Greece",83
1693902,"Leof. Andrea Papandreou 1, Iraklio 713 05, Greece",83
1677456,"Leof. Andrea Papandreou 100, Gazi 714 14, Greece",83
1696281,"Leof. Andrea Papandreou 108, Amoudara Herakliou 714 14, Greece",83
1677434,"Leof. Andrea Papandreou 108, Malevizi 714 14, Greece",83
1697016,"Leof. Andrea Papandreou 116, Gazi 714 14, Greece",83
1695249,"Leof. Andrea Papandreou 127, Gazi 714 14, Greece",83
1678848,"Leof. Andrea Papandreou 127, Iraklio 714 14, Greece",83
5235580,"Leof. Andrea Papandreou 140, Malevizi, Greece",83
1674323,"Leof. Andrea Papandreou 15, Gazi 714 14, Greece",83
1660104,"Leof. Andrea Papandreou 150, Ammoudara - Iraklion 714 14, Greece",83
1678846,"Leof. Andrea Papandreou 167, Iraklio 714 14, Greece",83
5236059,"Leof. Andrea Papandreou 187, Ag. Dimitrios 714 14, Greece",83
1697547,"Leof. Andrea Papandreou 187, Gazi 710 02, Greece",83
1695584,"Leof. Andrea Papandreou 201, Iraklio 714 14, Greece",83
1671136,"Leof. Andrea Papandreou 213-219, Gazi 714 14, Greece",83
1674386,"Leof. Andrea Papandreou 22, Gazi 714 14, Greece",83
1693822,"Leof. Andrea Papandreou 22, Gazi 714 14, Greece",83
1697517,"Leof. Andrea Papandreou 239, Iraklio 714 14, Greece",83
1696582,"Leof. Andrea Papandreou 24-26, Iraklio 713 05, Greece",83
5018551,"Leof. Andrea Papandreou 251, Gazi 714 14, Greece",83
1694273,"Leof. Andrea Papandreou 301, Gazi 714 14, Greece",83
1668049,"Leof. Andrea Papandreou 32, Malevizi 714 14, Greece",83
5235797,"Leof. Andrea Papandreou 42, Gazi 714 14, Greece",83
1680657,"Leof. Andrea Papandreou 50, Gazi, Greece",83
1696771,"Leof. Andrea Papandreou 51, Iraklio 713 05, Greece",83
1674390,"Leof. Andrea Papandreou 58, Gazi 714 14, Greece",83
1680428,"Leof. Andrea Papandreou 62, Iraklio 713 05, Greece",83
5018859,"Leof. Andrea Papandreou 72, Gazi 714 14, Greece",83
1695586,"Leof. Andrea Papandreou 72, Iraklio 714 14, Greece",83
5235805,"Leof. Andrea Papandreou 82, Iraklio 714 14, Greece",83
1677437,"Leof. Andrea Papandreou 92, Gazi 714 14, Greece",83
1677448,"Leof. Andrea Papandreou 92, Gazi 714 14, Greece",83
1667364,"Leof. Andrea Papandreou, 714 14, Greece",83
1660114,"Leof. Andrea Papandreou, Greece 714 14, Greece",83
1678842,"Leof. Andrea Papandreou, Iraklio 714 14, Greece",83
1677435,"Leof. Andrea Papandreou, Malevizi 714 14, Greece",83
1358542,"Leof. Democracy, Kerkira 491 00, Greece",83
1375555,"Leof. Democracy, Kerkira 491 00, Greece",83
5238080,"Leof. Democracy, Kerkira 491 00, Greece",83
1351060,"Leof. Dimokratias 1, Kerkira 491 00, Greece",83
1673193,"Leof. Dimokratias 12, Iraklio 713 06, Greece",83
1695237,"Leof. Dimokratias 12, Iraklio 713 06, Greece",83
1677029,"Leof. Dimokratias 16b, Iraklio 713 06, Greece",83
1696336,"Leof. Dimokratias 18, Iraklio 713 06, Greece",83
1347770,"Leof. Dimokratias 2, Kerkira 491 00, Greece",83
1348661,"Leof. Dimokratias 2, Kerkira 491 00, Greece",83
1378794,"Leof. Dimokratias 2, Kerkira 491 00, Greece",83
1677036,"Leof. Dimokratias 26, Iraklio 713 06, Greece",83
1696606,"Leof. Dimokratias 33, Iraklio 713 06, Greece",83
1432628,"Leof. Dimokratias 359, Kerkira 491 00, Greece",83
5235975,"Leof. Dimokratias 53, Iraklio 713 06, Greece",83
1677076,"Leof. Dimokratias 83, Iraklio 713 06, Greece",83
1678852,"Leof. Dimokratias 91, Iraklio 713 06, Greece",83
1696462,"Leof. Dimokratias, Iraklio 713 06, Greece",83
1590530,"Leof. El. Venizelou 18, Kounoupidiana 731 00, Greece",83
1658594,"Leof. El. Venizelou 18, Kounoupidiana 731 00, Greece",83
1658957,"Leof. El. Venizelou 21, Kounoupidiana 731 00, Greece",83
1656141,"Leof. El. Venizelou, Kounoupidiana 731 00, Greece",83
1584500,"Leof. Eleftherias 1, Kremasti 851 04, Greece",83
1584549,"Leof. Eleftherias 19, Kremasti 851 04, Greece",83
1583655,"Leof. Eleftherias 22, Kremasti 851 04, Greece",83
5380924,"Leof. Eleftherias 25, Kremasti 851 04, Greece",83
1584557,"Leof. Eleftherias 37, Kremasti 851 04, Greece",83
1585668,"Leof. Eleftherias 45, Kremasti 851 04, Greece",83
5238650,"Leof. Eleftherias 69, Kremasti 851 04, Greece",83
5238649,"Leof. Eleftherias 90, Kremasti 851 04, Greece",83
1348366,"Leof. Eptanisou, Kerkira 491 00, Greece",83
1384413,"Leof. Eptanisou, Kerkira 491 00, Greece",83
1693887,"Leof. Eth. Antistaseos 108, Iraklio 713 06, Greece",83
1695978,"Leof. Eth. Antistaseos 108, Iraklio 713 06, Greece",83
1697525,"Leof. Eth. Antistaseos 122, Iraklio 713 07, Greece",83
1668069,"Leof. Eth. Antistaseos 133, Iraklio 713 06, Greece",83
5235697,"Leof. Eth. Antistaseos 139, Iraklio 713 06, Greece",83
1695253,"Leof. Eth. Antistaseos 21, Iraklio 713 06, Greece",83
1696775,"Leof. Eth. Antistaseos 26, Iraklio 713 06, Greece",83
1680430,"Leof. Eth. Antistaseos 47, Iraklio 713 06, Greece",83
1680431,"Leof. Eth. Antistaseos 47, Iraklio 713 06, Greece",83
1694128,"Leof. Eth. Antistaseos 5, Iraklio 713 06, Greece",83
1675336,"Leof. Eth. Antistaseos 73, Iraklio 713 06, Greece",83
1695980,"Leof. Eth. Antistaseos 84, Iraklio 713 06, Greece",83
5018421,"Leof. Eth. Antistaseos 89, Iraklio 713 06, Greece",83
1697512,"Leof. Eth. Antistaseos 95, Iraklio 713 06, Greece",83
1699269,"Leof. Eth. Antistaseos 95, Iraklio 713 06, Greece",83
1696970,"Leof. Eth. Antistasis 112, Vasilies 715 00, Greece",83
1694729,"Leof. Eth. Antistasis 91, Vasilies 715 00, Greece",83
4832788,"Leof. Geor. Papandreou 77, Patra 262 26, Greece",83
4826676,"Leof. Geor. Papandreou 79, Patra 263 34, Greece",83
4826644,"Leof. Geor. Papandreou 84, Patra 262 26, Greece",83
1347544,"Leof. Grammou 135, Exochi 454 45, Greece",83
1678815,"Leof. Ikarou 13, Iraklio 713 07, Greece",83
1694848,"Leof. Ikarou 17, Iraklio 713 07, Greece",83
1696793,"Leof. Ikarou 20, Nea Alikarnassos 716 01, Greece",83
5235476,"Leof. Ikarou 23, Nea Alikarnassos 716 01, Greece",83
1674379,"Leof. Ikarou 26, Iraklio 713 06, Greece",83
5235589,"Leof. Ikarou 32, Iraklio 713 06, Greece",83
1695988,"Leof. Ikarou 32, Nea Alikarnassos 716 01, Greece",83
1677019,"Leof. Ikarou 50, Iraklio 716 01, Greece",83
1695245,"Leof. Ikarou 58, Iraklio 713 07, Greece",83
1696791,"Leof. Ikarou 71, Nea Alikarnassos 713 07, Greece",83
1678826,"Leof. Ikarou 76, Iraklio 713 07, Greece",83
1677030,"Leof. Ikarou 8, Nea Alikarnassos 716 01, Greece",83
1693890,"Leof. Ikarou 9, hrakleio 713 06, Greece",83
5385354,"Leof. Ikarou 9, Iraklio 713 06, Greece",83
1697574,"Leof. Ikarou 94, Nea Alikarnassos 716 01, Greece",83
1669353,"Leof. Ikarou, Iraklio 712 02, Greece",83
1699445,"Leof. Ikarou, Iraklio 712 02, Greece",83
1695986,"Leof. Ionias 1, Iraklio 713 05, Greece",83
1693889,"Leof. Ionias 110, Iraklio 713 05, Greece",83
1674394,"Leof. Ionias 150, Iraklio 713 05, Greece",83
5235903,"Leof. Ionias 20, Iraklio, Greece",83
1696367,"Leof. Ionias 231, Iraklio 713 05, Greece",83
1695257,"Leof. Ionias 8, Iraklio 713 05, Greece",83
1680425,"Leof. Ionias, Iraklio 713 06, Greece",83
5236044,"Leof. Ionias, Iraklio, Greece",83
4833183,"Leof. Ippokratous 13, Patra 265 04, Greece",83
4825427,"Leof. Ippokratous, Patra 264 43, Greece",83
1584075,"Leof. Iraklidon 104, Ialisos 851 01, Greece",83
5019083,"Leof. Iraklidon 20, Ialisos 851 01, Greece",83
1583710,"Leof. Iraklidon 33, Ialisos 851 01, Greece",83
5381833,"Leof. Iraklidon 377, Ialisos 851 01, Greece",83
1582649,"Leof. Iraklidon 38, Ialisos 851 01, Greece",83
1583706,"Leof. Iraklidon 40, Ixia 851 01, Greece",83
1583605,"Leof. Iraklidon 41, Ialisos 851 01, Greece",83
1584828,"Leof. Iraklidon 6, Ialisos 851 01, Greece",83
1584494,"Leof. Iraklidon 65, Ialisos 851 01, Greece",83
1584125,"Leof. Iraklidon 80, Ialisos 851 01, Greece",83
5238547,"Leof. Iraklidon 80, Ixia, ialyssos 851 01, Greece",83
5238510,"Leof. Iraklidon 851, Rodos 851 00, Greece",83
1584077,"Leof. Iraklidon 92, Ialisos 851 01, Greece",83
1584121,"Leof. Iraklidon 99, Ialisos 851 01, Greece",83
5238527,"Leof. Iraklidon, Ialisos 851 01, Greece",83
5019064,"Leof. Iraklidon, Ialyssos 851 01, Greece",83
1582278,"Leof. Iraklidon, Rodos 851 01, Greece",83
1584289,"Leof. Iraklidon, Rodos 851 01, Greece",83
1584294,"Leof. Iraklidon, Rodos, Greece",83
5019160,"Leof. Iraklidon, Rodos, Greece",83
1658062,"Leof. Irakliou 20, Chania 731 35, Greece",83
1589599,"Leof. Irakliou 8, Chania 731 00, Greece",83
1676838,"Leof. Kalamakiou 0, Kalamaki 702 00, Greece",83
1696589,"Leof. Kalokerinou 152, Iraklio, Greece",83
1696584,"Leof. Kalokerinou 189, Iraklio 712 01, Greece",83
1695983,"Leof. Kalokerinou 194, Iraklio 712 01, Greece",83
1677025,"Leof. Kalokerinou 195, Iraklio 712 01, Greece",83
1695255,"Leof. Kalokerinou 198, Iraklio 712 01, Greece",83
1674381,"Leof. Kalokerinou 212, Iraklio 712 01, Greece",83
1695204,"Leof. Kalokerinou 217, Iraklio 712 01, Greece",83
1696324,"Leof. Kalokerinou 22, Iraklio 712 01, Greece",83
1659588,"Leof. Kalokerinou 225, Iraklio 712 01, Greece",83
1696351,"Leof. Kalokerinou 25, Iraklio 712 01, Greece",83
1697524,"Leof. Kalokerinou 255-261, Iraklio 712 01, Greece",83
1696341,"Leof. Kalokerinou 27, Iraklio 712 01, Greece",83
1659439,"Leof. Kalokerinou 64, Iraklio 712 01, Greece",83
1696624,"Leof. Kalokerinou, Iraklio 712 02, Greece",83
1699707,"Leof. Kapetanaki 53, Epano Archanes 701 00, Greece",83
5235897,"Leof. Kapetanaki 78, Epano Archanes 701 00, Greece",83
1673191,"Leof. Kapetanaki 80, Epano Archanes 701 00, Greece",83
1673187,"Leof. Knosou 10-16, Iraklio 713 06, Greece",83
5235591,"Leof. Knosou 121, Iraklio 714 09, Greece",83
1696322,"Leof. Knosou 125, Iraklio 714 09, Greece",83
1668059,"Leof. Knosou 136, Iraklio 713 06, Greece",83
5235712,"Leof. Knosou 158, Iraklio 714 09, Greece",83
1674385,"Leof. Knosou 174, Iraklio 714 09, Greece",83
1678926,"Leof. Knosou 174, Iraklio 714 09, Greece",83
1694748,"Leof. Knosou 174, Iraklio 714 09, Greece",83
1677037,"Leof. Knosou 198, Iraklio 714 09, Greece",83
1695228,"Leof. Knosou 203, Iraklio 714 09, Greece",83
5385345,"Leof. Knosou 209, Iraklio 714 09, Greece",83
1677032,"Leof. Knosou 212, Iraklio 714 09, Greece",83
1695974,"Leof. Knosou 218, Iraklio 714 09, Greece",83
5385167,"Leof. Knosou 221, Iraklio 714 09, Greece",83
1695968,"Leof. Knosou 257, Iraklio 714 09, Greece",83
1696763,"Leof. Knosou 258, Iraklio 714 09, Greece",83
1695572,"Leof. Knosou 263, Iraklio 714 09, Greece",83
1697527,"Leof. Knosou 40, Iraklio 713 06, Greece",83
1699275,"Leof. Knosou 62-64, Iraklio 713 06, Greece",83
1696583,"Leof. Knosou 88, Iraklio 713 06, Greece",83
1669363,"Leof. Knosou 90, Knosos 714 09, Greece",83
1697548,"Leof. Knosou 93, Iraklio 713 07, Greece",83
1677035,"Leof. Knosou 96, Iraklio 713 06, Greece",83
1671878,"Leof. Knosou 96a, Iraklio 713 06, Greece",83
1669558,"Leof. Knosou, Iraklio 714 09, Greece",83
1694438,"Leof. Knosou, Iraklio 714 09, Greece",83
5385351,"Leof. Knosou, Knosos 714 09, Greece",83
1667395,"Leof. Kokkinou Pirgou 156, Timpaki 702 00, Greece",83
1694583,"Leof. Kokkinou Pirgou 156, Timpaki 702 00, Greece",83
1694598,"Leof. Kokkinou Pirgou 156, Timpaki 702 00, Greece",83
1699076,"Leof. Kokkinou Pirgou 156, Timpaki 702 00, Greece",83
1667379,"Leof. Kokkinou Pirgou, Timpaki 702 00, Greece",83
1694587,"Leof. Kokkinou Pirgou, Timpaki 702 00, Greece",83
1694578,"Leof. Kokkinou Pirgou, tymbaki 702 00, Greece",83
1659757,"Leof. Machis Kritis 139, Rethymno 741 00, Greece",83
1674597,"Leof. Machis Kritis 139, Rethymno 741 00, Greece",83
1669835,"Leof. Machis Kritis 146, Rethymno 741 00, Greece",83
1672659,"Leof. Machis Kritis 149, Rethymno 741 00, Greece",83
1669065,"Leof. Machis Kritis 149, Rethymno 74132, Greece",83
5235749,"Leof. Machis Kritis 153, Rethymno 741 00, Greece",83
5236117,"Leof. Machis Kritis 155, Rethymno 741 00, Greece",83
5386211,"Leof. Machis Kritis 155, Rethymno 741 00, Greece",83
1659602,"Leof. Machis Kritis 160, Platanes Rethymno 741 00, Greece",83
1672617,"Leof. Machis Kritis 165, Platanias Rethymno 741 00, Greece",83
1660123,"Leof. Machis Kritis 165, Rethymno 741 00, Greece",83
1670345,"Leof. Machis Kritis 167, Rethymno 741 00, Greece",83
5236121,"Leof. Machis Kritis 174, Rethymno 741 00, Greece",83
1659283,"Leof. Machis Kritis 192, Rethymno 741 00, Greece",83
1659927,"Leof. Machis Kritis 192, Rethymno 741 00, Greece",83
5235852,"Leof. Machis Kritis 194, Rethymno 741 00, Greece",83
1591484,"Leof. Machis Kritis 197, Platan?s 741 00, Greece",83
1655894,"Leof. Machis Kritis 197, Rethymno 741 00, Greece",83
5018404,"Leof. Machis Kritis 204, Rethymno 741 00, Greece",83
1671133,"Leof. Machis Kritis 206, Rethymno 741 00, Greece",83
1672665,"Leof. Machis Kritis 26, Rethymno 741 00, Greece",83
5236150,"Leof. Machis Kritis 31, Rethymno 741 00, Greece",83
1659477,"Leof. Machis Kritis 52, Rethymno 741 00, Greece",83
1669064,"Leof. Machis Kritis 6, Rethymno 741 00, Greece",83
5018330,"Leof. Machis Kritis 82, Rethymno 741 00, Greece",83
1660126,"Leof. Machis Kritis 85, Rethymno 741 00, Greece",83
1660000,"Leof. Machis Kritis 91, Rethymno 741 00, Greece",83
1655560,"Leof. Machis Kritis, Rethymno 741 00, Greece",83
1658945,"Leof. Martiron Maiou 1940 110, Rethymno 741 00, Greece",83
5018292,"Leof. Martiron Maiou 1940 110, Rethymno 741 00, Greece",83
4832536,"Leof. Milichou 145, Patra 264 43, Greece",83
4832963,"Leof. Milichou ke Aliartou, Patra 264 43, Greece",83
1669359,"Leof. Mpofor 10, Iraklio 712 02, Greece",83
1669360,"Leof. Mpofor, Iraklio 712 02, Greece",83
1695015,"Leof. Nearchou 10, Iraklio 713 06, Greece",83
1667383,"Leof. Nearchou, Iraklio 712 02, Greece",83
1697341,"Leof. Nearchou, Iraklio 712 02, Greece",83
1679447,"Leof. Nearchou, Iraklio, Greece",83
1697342,"Leof. Nearchou, Iraklio, Greece",83
1672103,"Leof. Panepistimiou 37, Giofirakia 715 00, Greece",83
5385355,"Leof. Papanastasiou 1, Iraklio 713 06, Greece",83
1668052,"Leof. Papanastasiou 132-138, Iraklio 714 09, Greece",83
1674491,"Leof. Papanastasiou 136, Iraklio 713 03, Greece",83
1696786,"Leof. Papanastasiou 152, Iraklio 714 09, Greece",83
1696784,"Leof. Papanastasiou 161, Iraklio 714 09, Greece",83
1693888,"Leof. Papanastasiou 171, Iraklio 714 09, Greece",83
1696371,"Leof. Papanastasiou 186, Iraklio 714 09, Greece",83
1659448,"Leof. Papanastasiou, Iraklio 714 09, Greece",83
1697330,"Leof. Plastira 25, Iraklio 712 01, Greece",83
1697029,"Leof. Plastira 26, Iraklio 712 01, Greece",83
1694852,"Leof. Plastira 47, Iraklio 712 01, Greece",83
5236025,"Leof. Plastira 85, Iraklio 712 01, Greece",83
5386213,"Leof. Sofokli Venizelou 11, Iraklio 712 02, Greece",83
5235992,"Leof. Sofokli Venizelou 11, Iraklio, Greece",83
5235715,"Leof. Sofokli Venizelou 168, Iraklio 713 03, Greece",83
5235982,"Leof. Sofokli Venizelou 3, Iraklio 712 02, Greece",83
1695010,"Leof. Sofokli Venizelou 43, Iraklio 712 02, Greece",83
5235666,"Leof. Sofokli Venizelou 5, Iraklio 712 02, Greece",83
1667365,"Leof. Sofokli Venizelou 95, Iraklio 712 02, Greece",83
1667959,"Leof. Sofokli Venizelou, Iraklio 712 02, Greece",83
1667394,"Leof. Sofokli Venizelou, Iraklio 713 03, Greece",83
1658558,"Leof. Soudas 131, Chania 731 34, Greece",83
1658563,"Leof. Soudas 152, Souda 732 00, Greece",83
1656097,"Leof. Soudas 16, Souda 732 00, Greece",83
1655054,"Leof. Soudas, Chania 731 00, Greece",83
1659654,"Leoforos Andrea Papandreou 195 Gazi, Amoudara, Iraklio 714 14, Greece",83
1680453,"Leoforos Dikeosinis 19, Iraklio 712 02, Greece",83
1699727,"Leoforos Dimokratias, Sitia 723 00, Greece",83
5019093,"Leoforos Eleutherias 34, Kremasti 851 04, Greece",83
4826653,"Leoforos Gounari 223, Patra 263 31, Greece",83
5238513,"Leoforos Iraklidon 185, Ixia, Ialyssos 851 01, Greece",83
1583667,"Leoforos Iraklidon, Ixia 851 01, Greece",83
4832757,"Leoforos Korinthou 161, Patra 262 23, Greece",83
1591812,"Leoforos Mournion 53, Chania 731 00, Greece",83
5019224,"leoforos rodou kalitheas, Faliraki 851 05, Greece",83
1583731,"Leoforos Rodou Kamirou, Rodos 851 06, Greece",83
1583602,"Leoforos Rodou Lindou, Rodos 851 00, Greece",83
1583621,"Leoforos Rodou Lindou, Rodos 851 05, Greece",83
4822414,"Leoforos Vergoti 46,, Argostoli 281 00, Greece",83
1693823,"Leonidou 15-27, Iraklio 713 07, Greece",83
1680611,"Leontaritis 26, Malia 700 07, Greece",83
5380770,"Leontos 12, Rodos 851 00, Greece",83
5382309,"Leontos 16, Rodos 851 00, Greece",83
5019198,"Lepini Hill, Afantou, Greece",83
5110229,"Levinou 70, Iraklio 713 04, Greece",83
1697804,"Levinou 71, Iraklio 713 04, Greece",83
5386414,"Levinou 75-77, Iraklio 713 04, Greece",83
1695235,"Levinou 76, Iraklio 713 04, Greece",83
1674377,"Levinou, Iraklio 713 04, Greece",83
1668054,"Levizi 700 01, Greece",83
5018442,"Levizi 714 14, Greece",83
5018470,"Levizi 714 14, Greece",83
5110244,"Levizi 714 14, Greece",83
1362465,"Leyka Leykimmhs, Kerkira 49100, Greece",83
5110544,"LG.Chora - Cyclades, Kalathos, Greece",83
1505160,"Liakata 4 - Liakata 4, Kalampaka 422 00, Greece",83
1348277,"Liapades 490 83, Greece",83
1353672,"Liapades 490 83, Greece",83
1369310,"Liapades 490 83, Greece",83
5017811,"Liapades 490 83, Greece",83
5238123,"Liapades 490 83, Greece",83
5374238,"Liapades 490 83, Greece",83
1351462,"Liapades, 490 83, Greece",83
5098588,"Liapades, 490 83, Greece",83
1348256,"Liapades, Greece",83
1370055,"Liapades, Greece",83
1370059,"Liapades, Greece",83
1370040,"Liapades, Paleokastritsa, Greece",83
1378200,"Lichnos 480 60, Greece",83
1386951,"Lichnos Beach Parga, Parga 480 60, Greece",83
1591601,"Liha, Lindos 851 07, Greece",83
4826827,"Likeou 4, Patra 263 31, Greece",83
4826837,"Likochorou 18, Patra 263 31, Greece",83
5018007,"Limeniskos 734 00, Greece",83
1383742,"Limni 491 00, Greece",83
1353077,"Limni, Greece",83
5017697,"Limni, Greece",83
1349098,"Limnis Troumpetas, Kerkira 490 83, Greece",83
1357632,"Limnis Troumpetas, Kerkira 490 83, Greece",83
1388354,"Limnis Troumpetas, Kerkira 490 83, Greece",83
5110532,"Lindos 26, Lindos 851 07, Greece",83
1587492,"Lindos 274 A, Lindos 851 07, Greece",83
1583582,"Lindos 851 07, Greece",83
1583900,"Lindos 851 07, Greece",83
1584109,"Lindos 851 07, Greece",83
1584189,"Lindos 851 07, Greece",83
1584629,"Lindos 851 07, Greece",83
1584980,"Lindos 851 07, Greece",83
1585551,"Lindos 851 07, Greece",83
1585592,"Lindos 851 07, Greece",83
1586744,"Lindos 851 07, Greece",83
1586968,"Lindos 851 07, Greece",83
1587975,"Lindos 851 07, Greece",83
1588356,"Lindos 851 07, Greece",83
1588988,"Lindos 851 07, Greece",83
1589562,"Lindos 851 07, Greece",83
1589627,"Lindos 851 07, Greece",83
1589822,"Lindos 851 07, Greece",83
1589892,"Lindos 851 07, Greece",83
1589911,"Lindos 851 07, Greece",83
1591287,"Lindos 851 07, Greece",83
5019240,"Lindos 851 07, Greece",83
5238445,"Lindos 851 07, Greece",83
5238479,"Lindos 851 07, Greece",83
5238483,"Lindos 851 07, Greece",83
5238647,"Lindos 851 07, Greece",83
5238703,"Lindos 851 07, Greece",83
5238722,"Lindos 851 07, Greece",83
5238729,"Lindos 851 07, Greece",83
5238784,"Lindos 851 07, Greece",83
5382895,"Lindos 851 07, Greece",83
5110527,"Lindos 851 09, Greece",83
5238805,"Lindos Beach Villa Kiotari, Epar.Od. Pilonas-Katavias, 851 09, Greece",83
1591573,"lindos beach, Greece",83
5110542,"Lindos Olive Suites, Lindos, Greece",83
1584064,"Lindos, 851 07, Greece",83
1585696,"Lindos, 851 07, Greece",83
1586028,"Lindos, 851 07, Greece",83
1588048,"Lindos, 851 07, Greece",83
1588051,"Lindos, 851 07, Greece",83
1588582,"Lindos, 851 07, Greece",83
1589302,"Lindos, 851 07, Greece",83
1589915,"Lindos, 851 07, Greece",83
5019287,"Lindos, 851 07, Greece",83
1583148,"Lindos, Greece",83
1584583,"Lindos, Greece",83
1585506,"Lindos, Greece",83
1585695,"Lindos, Greece",83
1585745,"Lindos, Greece",83
1585755,"Lindos, Greece",83
1585757,"Lindos, Greece",83
1585758,"Lindos, Greece",83
1585763,"Lindos, Greece",83
1586320,"Lindos, Greece",83
1586600,"Lindos, Greece",83
1586692,"Lindos, Greece",83
1586712,"Lindos, Greece",83
1586721,"Lindos, Greece",83
1586738,"Lindos, Greece",83
1587098,"Lindos, Greece",83
1587271,"Lindos, Greece",83
1587490,"Lindos, Greece",83
1587562,"Lindos, Greece",83
1587643,"Lindos, Greece",83
1587648,"Lindos, Greece",83
1587870,"Lindos, Greece",83
1587980,"Lindos, Greece",83
1588045,"Lindos, Greece",83
1588358,"Lindos, Greece",83
1588360,"Lindos, Greece",83
1588806,"Lindos, Greece",83
1588985,"Lindos, Greece",83
1589360,"Lindos, Greece",83
1589434,"Lindos, Greece",83
1589441,"Lindos, Greece",83
1589446,"Lindos, Greece",83
1589619,"Lindos, Greece",83
1589796,"Lindos, Greece",83
1589817,"Lindos, Greece",83
1589836,"Lindos, Greece",83
1589838,"Lindos, Greece",83
1589841,"Lindos, Greece",83
1589842,"Lindos, Greece",83
1589843,"Lindos, Greece",83
1589878,"Lindos, Greece",83
1590098,"Lindos, Greece",83
1590237,"Lindos, Greece",83
1590248,"Lindos, Greece",83
1591598,"Lindos, Greece",83
1591610,"Lindos, Greece",83
5019239,"Lindos, Greece",83
5019243,"Lindos, Greece",83
5019259,"Lindos, Greece",83
5019260,"Lindos, Greece",83
5019292,"Lindos, Greece",83
5019293,"Lindos, Greece",83
5110531,"Lindos, Greece",83
5110533,"Lindos, Greece",83
5110538,"Lindos, Greece",83
5238612,"Lindos, Greece",83
5238677,"Lindos, Greece",83
5238721,"Lindos, Greece",83
5238850,"Lindos, Greece",83
5380927,"Lindos, Greece",83
5382898,"Lindos, Greece",83
5019241,"Lindos, Lindos, Greece",83
5019271,"Lindos, Lindos, Greece",83
5019272,"Lindos, Lindos, Greece",83
5110541,"Lindos, Lindos, Greece",83
1583583,"Lindos, Lindos, Lindos 851 07, Greece",83
1584719,"Lindou 13 Sgourou, Rodos 851 00, Greece",83
1583906,"Lindou 13, Sgourou 851 00, Greece",83
1583908,"Lindou 13, Sgourou 851 00, Greece",83
1582145,"Lindou 224, Sgourou 851 00, Greece",83
1583591,"Lindou 230, Sgourou 851 00, Greece",83
1587531,"Lindou 233, Sgourou 851 00, Greece",83
1582513,"Lindou 234, Sgourou 851 00, Greece",83
1585154,"Lindou 234, Sgourou 851 00, Greece",83
1583915,"Lindou 237, Sgourou 851 00, Greece",83
1585278,"Lindou 257, Sgourou 851 00, Greece",83
1583911,"Lindou 317, Sgourou 851 00, Greece",83
1584682,"Lindou 317, Sgourou 851 00, Greece",83
1583561,"Lindou Avenue 20th Km, Afantou 851 03, Greece",83
1581669,"Lindou Rodou 5, Rodos 851 00, Greece",83
1588424,"Lindou, Lindos, Greece",83
1584894,"Lindou, Rodos 851 00, Greece",83
1660115,"Linoperamata (Hotel Apollonia), Gazi 715 00, Greece",83
1672955,"Linoperamata,, Linoperamata 715 00, Greece",83
1696379,"Lisimachou Kalokerinou 70, Iraklio 712 02, Greece",83
4832778,"Lisiou 2, Patra 263 31, Greece",83
1680437,"Lisistratis 2, Iraklio 713 04, Greece",83
1696610,"Lisistratis 26, Iraklio 713 04, Greece",83
1680614,"Lisistratis, Iraklio 713 04, Greece",83
1695529,"Listaros, 702 00, Greece",83
1699957,"Lithines 720 55, Greece",83
5018212,"Lithinon 29, Chania 731 32, Greece",83
4819960,"Lithostroto 12 Argostoli Kefalonia, Argostoli 281 00, Greece",83
4820020,"Lithostroto 14, argostolion 281 00, Greece",83
4820013,"Lithostroto 41, Argostoli 281 00, Greece",83
4833522,"Lithostroto, Argostoli 281 00, Greece",83
4819812,"LITHOSTROTOU 16, Argostoli, 28100, Argostoli 281 00, Greece",83
4819981,"Lithostrotou 38, Argostoli 281 00, Greece",83
4820012,"Lithostrotou 62, Argostoli 281 00, Greece",83
1673635,"Litsarda ,, Epar.Od. Vrison-Vafe Apocoronas, 730 08, Greece",83
4823187,"Livada, Lixouri 282 00, Greece",83
5017750,"Livadi 490 81, Greece",83
1368893,"Livadi Ropa, Agios Ioannis area, Ag. Ioannis 491 00, Greece",83
1655698,"Livadia, Amygdalokefali 730 12, Greece",83
1674253,"Livadia, Municipality of Mylopotamos, Rethymno, Perama 740 51, Greece",83
4819627,"Lixouri 282 00, Greece",83
4819682,"Lixouri 282 00, Greece",83
4819703,"Lixouri 282 00, Greece",83
4819705,"Lixouri 282 00, Greece",83
4819807,"Lixouri 282 00, Greece",83
4819830,"Lixouri 282 00, Greece",83
4819949,"Lixouri 282 00, Greece",83
4819950,"Lixouri 282 00, Greece",83
4820029,"Lixouri 282 00, Greece",83
4822337,"Lixouri 282 00, Greece",83
4822410,"Lixouri 282 00, Greece",83
4823177,"Lixouri 282 00, Greece",83
4823180,"Lixouri 282 00, Greece",83
4823181,"Lixouri 282 00, Greece",83
4823189,"Lixouri 282 00, Greece",83
4823191,"Lixouri 282 00, Greece",83
4823149,"Lixouri, Greece",83
4819758,"Lixouriou Chavriaton, Kefalonia 282 00, Greece",83
1358033,"Loc. Kastro Kassiopi, ????????, Kassiopi 491 00, Greece",83
1589605,"LOCATION AMOUTSES, CROSS CROSS OF CHANIA, CHANIA 74100, Greece",83
1660002,"Location: Sternes, Giannoudiou, Rethymno 741 00, Greece",83
5381838,"Lochagou Fanouraki 32-38, Rodos 851 00, Greece",83
1677353,"LOCHRIA-AMARIOU, RETHYMNO 740 61, Greece",83
4826201,"Lontou 122, Patra 262 24, Greece",83
5018695,"Lord Byron 9, Schisma Elounda 720 53",83
1586461,"Lothiarika Beach, Lardos 851 09, Greece",83
1586462,"Lothiarika Beach, Lardos 85100, Greece",83
1584054,"Lothiarika Lardos, Greece",83
1588286,"Lothiarika Lardou, Lardos, Greece",83
1585771,"Lothiarika, Lardos 85109, Greece",83
1588803,"Lothiarika, Lardos 85109, Greece",83
1588815,"Lothiarika, ????????? ??????, Lardos 851 09, Greece",83
1584057,"Lothiarika,, Lardos 851 09, Greece",83
1590040,"Lothiarika-Lardos, Lardos 851 09, Greece",83
1589123,"Louis Creta Princess Hotel, Maleme, PO Box 9. Platanias, Chania 730 14, Greece",83
4819542,"Lourdata 280 83, Greece",83
4819970,"Lourdata 280 83, Greece",83
4819844,"Lourdata 281 00, Greece",83
4819897,"Lourdata 281 00, Greece",83
4819969,"Lourdata 281 00, Greece",83
5018411,"Lousadi Krousonas, Krousonas 700 01, Greece",83
1591921,"Lousakiano Dromo - Politics. Douvleti, Kissamos 734 00, Greece",83
5018106,"Loutro 730 11, Greece",83
5018064,"Loutro Sfakion, Loutro 730 11, Greece",83
5018065,"Loutro, Chania 730 11, Greece",83
5018293,"Loutro, ?????? ???????, Loutro 730 11, Greece",83
5017936,"Loutsa Preveza, Loutsa, Greece",83
5017879,"Loutsas Cemetery, EO Prevezas Igoumenitsas, Vrachos 480 62, Greece",83
1358048,"Loutses, Greece",83
1585186,"Luxemburg Street, 85103 Kolymbia,, Rodos, Greece",83
5017855,"Lygia, Ligia, Greece",83
5017854,"Lygia, Lygia 31100, Greece",83
5017732,"Lygia, Preveza 481 00, Greece",83
5385344,"M. Merkouri 13, Iraklio 713 05, Greece",83
1696773,"M. Merkouri 17, Iraklio 713 05, Greece",83
1699696,"M. Merkouri 64, Iraklio 713 05, Greece",83
5110270,"M. Sakadaki 120, Agios Nikolaos 724 00, Greece",83
1700953,"M. Sfakianaki 7, Ag. Nikolaos 721 00, Greece",83
1701512,"M.ALEXANDROU &amp; PAPANASTASIOU, Al. Papanastasiou 17, Sitia 723 00, Greece",83
5177477,"M.Alexandrou &amp; V.Filippou, Naoussa 592 00",83
4823172,"M.Korgialeniou 2, kefalonia,argostoli 281 00, Greece",83
1374357,"M.METHODIOU 10, Kerkira 491 00, Greece",83
1352966,"M.Methodiou 5, Kerkira 49132, Greece",83
5019234,"Macheria 851 09, Greece",83
5384634,"Macheria 851 09, Greece",83
1674380,"Machi Kritis 61, Iraklio 713 03, Greece",83
1696305,"Machis Kritis (Beach Road), Chersonisos 700 14, Greece",83
1696974,"Machis Kritis 1, Iraklio 713 03, Greece",83
1680624,"Machis Kritis 10, Iraklio 713 03, Greece",83
1659923,"Machis Kritis 122, Missiria 741 00, Greece",83
1659724,"Machis Kritis 196, Rethymno 741 00, Greece",83
1697435,"Machis Kritis 3-13, Iraklio 713 03, Greece",83
1695560,"Machis Kritis, Iraklio, Greece",83
1659709,"Machis Kritis, Rethymno 741 00, Greece",83
1655006,"Machiton schools Chorofilakis 17, Rethymno 741 00, Greece",83
1658612,"Machiton schools Chorofilakis 4, Rethymno 741 00, Greece",83
1672670,"Machiton schools Chorofilakis 48, Rethymno 741 00, Greece",83
1670850,"Machiton schools Chorofilakis 7, Rethymno 741 00, Greece",83
1679443,"Mafsolou 133, Iraklio 716 01, Greece",83
1700918,"Mafsolou 133, Nea Alikarnassos 716 01, Greece",83
1695211,"Mafsolou 152, Iraklio 716 01, Greece",83
1678854,"Mafsolou 201, Nea Alikarnassos 716 01, Greece",83
1696749,"Mafsolou 201, Nea Alikarnassos 716 01, Greece",83
1696751,"Mafsolou 201, Nea Alikarnassos 716 01, Greece",83
1697541,"Mafsolou 201, Nea Alikarnassos 716 01, Greece",83
1442342,"Magazia 490 82, Greece",83
1441038,"Magazia, 498 02, Greece",83
5017803,"Mage Ydri, Sid?rion 49081, Greece",83
1348663,"magoulades, karkyra 490 81, Greece",83
1349071,"Magoulades, Sid?rion 490 81, Greece",83
1700080,"Magoulas, 720 52, Greece",83
1590176,"Maherida, Tersanas, Chania, Greece",83
5236237,"Mahis Kritis &amp; Lasithiou 1, Rethymno 741 00, Greece",83
5018356,"Mahis Kritis 88, Rethymno 741 00, Greece",83
5018221,"Mahis Potamon &amp; Capetan Lemonia, Rethymno 741 00, Greece",83
1659931,"Mahis Potamon / Kapetan Lemonia street, Rethymno 741 00, Greece",83
1590242,"Main Beach of Lindos, Lindos 851 07, Greece",83
1659750,"Main road (old national road Reth.-Chania), Atsipopoulo 741 00, Greece",83
5018546,"Main Road main road, Mirtos 720 56, Greece",83
1671186,"Main Road, Ag. Galini 740 56, Greece",83
5018272,"Main Road, Finikas, Plakias 740 60, Greece",83
5018708,"Main road, Males 720 56, Greece",83
5110233,"Main Road, Malevizi 75100, Greece",83
5017915,"Main road, Mpenitses, Greece",83
1349019,"Main Road, Paleokastritsa 49083,, Greece",83
1669062,"Main road, Plakias 740 60, Greece",83
1589133,"Main road, Platanias, Chania 731 10, Greece",83
1701200,"Main Road, Sisi 724 00, Greece",83
4819987,"main road, Skala 280 86, Greece",83
1694338,"Main SIvas Road, Sivas 704 00, Greece",83
5019409,"Main square Fira, Fira 847 00, Greece",83
5019282,"main square lindos, Greece",83
5110548,"main square, lindos, greece, Greece",83
1585928,"MAIN STREET 23, Archangelos 851 02, Greece",83
1351594,"Main Street Agios Ioannis, Sidari 490 81, Greece",83
1383276,"Main Street of Perama, Gasto?rion 490 84, Greece",83
5236198,"Main Street Platanias, Platanias 730 14, Greece",83
1591455,"Main Street, 730 14, Greece",83
5018930,"Main Street, Adamas 848 00",83
1523233,"Main Street, Adamas, Greece",83
1659722,"Main Street, Adelianos Kampos 741 00, Greece",83
1588129,"Main Street, Afantou 851 03, Greece",83
1584444,"Main Street, Afantou, Greece",83
1388399,"Main Street, Ag. Gordios 490 84, Greece",83
5100569,"Main Street, Ag. Gordios, Greece",83
1580336,"Main Street, Agiou Athanasiou, Fir? 847 00, Greece",83
1585783,"Main Street, Archaggelos 851 02, Greece",83
1585927,"Main Street, Archaggelos 851 02, Greece",83
1351361,"Main Street, Arillas Agiou Georgiou 490 81, Greece",83
1701833,"Main Street, Ay?a Fothi? 722 00, Greece",83
1587075,"Main Street, Charaki 851 02, Greece",83
1547115,"Main Street, Elia 846 00, Greece",83
1369296,"Main Street, Ermones 491 00, Greece",83
5100712,"Main Street, Exopoli, Chania 730 08, Greece",83
5019164,"Main Street, Faliraki 851 05, Greece",83
5019209,"Main Street, Faliraki 851 05, Greece",83
1545711,"Main Street, Fir? 847 00, Greece",83
1546819,"Main Street, Fira 847 00, Greece",83
1546825,"Main Street, Fira 847 00, Greece",83
1580331,"Main Street, Fira 847 00, Greece",83
5019396,"Main Street, Fir? 847 00, Greece",83
1545709,"Main Street, Fira, Greece",83
1580315,"Main Street, Firostefani 847 00, Greece",83
1655001,"Main Street, Gerani 741 00, Greece",83
1548572,"Main street, Imerovigli, Greece, Thira 847 00, Greece",83
1588907,"Main Street, Kaliviani Kissamos 734 00, Greece",83
1545701,"Main Street, Karterados 847 00, Greece",83
1440310,"Main Street, Kavos 490 80, Greece",83
1584433,"Main Street, Kol?mbia 851 03, Greece",83
1439468,"Main Street, Kouspades 490 80, Greece",83
1388554,"Main Street, Kouspades, Greece",83
1440496,"Main Street, Kouspades, Greece",83
1699537,"Main Street, Koutsounari 722 00, Greece",83
1370031,"Main Street, Liapades 491 00, Greece",83
5019285,"Main Street, Lindos 851 07, Greece",83
5018003,"Main Street, Maleme 731 00, Greece",83
1679399,"Main Street, Matala 702 00, Greece",83
1389522,"Main Street, Mesoggi 490 80, Greece",83
5100573,"Main Street, Moraitika 490 84, Greece",83
1546077,"Main Street, O?a 847 02, Greece",83
1580642,"Main Street, O?a 847 02, Greece",83
5239693,"main street, O?a 847 02, Greece",83
5110502,"Main Street, Ornos 846 00, Greece",83
1634103,"Main Street, Palai?chora 730 01, Greece",83
5017666,"Main Street, Paleokastritsa, Greece",83
5019238,"Main Street, Pefkos 851 07, Greece",83
5019370,"Main Street, Perissa 847 03, Greece",83
5019378,"Main Street, Perissa 847 03, Greece",83
1655011,"Main street, Plakias 740 60, Greece",83
1658930,"Main Street, Plakias 740 60, Greece",83
1659274,"Main Street, Plakias 740 60, Greece",83
5018055,"Main Street, Platanias 730 14, Greece",83
5017950,"Main Street, Platanias 731 00, Greece",83
1349062,"Main Street, Prin?las 490 83, Greece",83
5018399,"Main Street, Sfakaki 741 00, Greece",83
1350756,"Main Street, Sidari 490 84, Greece",83
5018396,"Main Street, Skaleta 741 00, Greece",83
5017982,"Main Street, Stalos 731 00, Greece",83
5018020,"Main Street, Stal?s 731 00, Greece",83
1582270,"Main Street, Theologos 851 06, Greece",83
5113205,"Main Street, Thira 847 00, Greece",83
1547661,"Main Street, Thira 84701, Greece",83
5018492,"Main Street, Zaros 700 02, Greece",83
4819954,"Maistrato, Argostoli 281 00, Greece",83
5236130,"Makedoniaz, Rethymno 741 00, Greece",83
5018794,"Makrigialos, Makrygialos 720 55, Greece",83
5018689,"Makrigialos, ?????? ??????, Makrygialos 721 00, Greece",83
5177393,"Makris Gialos, Lassi, Kefalonia 281 00",83
1699760,"Makris Gialos, Makrygialos 720 55, Greece",83
5235180,"Makris Gialos, ?????? ??????, Makrygialos 700 16, Greece",83
1700647,"Makry Gialos 720 55, Greece",83
1700884,"Makry Gialos 720 55, Greece",83
1701756,"Makry Gialos 720 55, Greece",83
5018528,"Makry Gialos 720 55, Greece",83
5018815,"Makry Gialos 720 55, Greece",83
5018819,"Makry Gialos 720 55, Greece",83
5018820,"Makry Gialos 720 55, Greece",83
5235173,"Makry Gialos 720 55, Greece",83
5235194,"Makry Gialos 720 55, Greece",83
5235198,"Makry Gialos 720 55, Greece",83
5235201,"Makry Gialos 720 55, Greece",83
5235473,"Makry Gialos 720 55, Greece",83
5387957,"Makry Gialos 720 55, Greece",83
1701509,"Makry Gialos, Makrygialos 720 55, Greece",83
5018793,"Makrys Gialos, ?????? ??????, Makrygialos 720 55, Greece",83
1589597,"MAKRYS TOIXOS, Chania 73100, Greece",83
1701736,"Makrysgialos Lassithi, Makrygialos 720 55, Greece",83
1588920,"Maleme 730 14, Greece",83
5018005,"Maleme 730 14, Greece",83
5236417,"Maleme 730 14, Greece",83
5100658,"Maleme 9, Chania 731 35, Greece",83
1588922,"Maleme, 731 00, Greece",83
1589122,"Maleme, Greece",83
5390212,"Maleme, Greece",83
1655407,"Maleme, Maleme, Chania 730 14, Greece",83
5017948,"Maleme, Maleme, Maleme 730 14, Greece",83
1656027,"Malia 700 07, Greece",83
1679337,"Malia 700 07, Greece",83
1694053,"Malia 700 07, Greece",83
1697182,"Malia 700 07, Greece",83
1700290,"Malia 700 07, Greece",83
1700902,"Malia 700 07, Greece",83
5235406,"Malia 700 07, Greece",83
1697202,"malia beach road, Malia 700 07, Greece",83
5018426,"Malia Beach Road, Malia, Greece",83
5235083,"Malia Central Beach, Malia 700 07, Greece",83
1698521,"Malia Pediados, Malia 700 07, Greece",83
1678955,"Malia, Greece",83
1698500,"Malia, Greece",83
1698513,"Malia, Greece",83
1698547,"Malia, Greece",83
1699292,"Malia, Greece",83
1701156,"Malia, Greece",83
5387651,"Malia, Greece",83
1699650,"Malia, Malia, Malia 700 07, Greece",83
1697340,"Malikouti 2, Iraklio 712 02, Greece",83
1579957,"Maltezos Square, Imerovigli 847 00, Greece",83
5238451,"Mandilara 68, Town 85100 ,, Rodos, Greece",83
1583146,"Mandraki, Mandraki, Rodos 851 00, Greece",83
1669383,"Manioudaki 19, Rethimno 741 00, Greece",83
5239742,"Manolas, Thirasia 847 02, Greece",83
1656156,"Manousaka 16, Chania 73100, Greece",83
5235188,"Manousou Manousaka, Ag. Nikolaos 721 00, Greece",83
1383466,"Mantzarou &amp; Rizospaston corner, Kerkira 491 00, Greece",83
1384155,"Mantzarou 40, Kerkira 491 00, Greece",83
1362625,"Mantzarou 5, Kerkira 491 00, Greece",83
1353315,"Mantzarou 7, Kerkira 491 00, Greece",83
1383453,"Mantzarou 9, Kerkira 491 00, Greece",83
4826204,"Maragkopoulou 31a, Patra 263 35, Greece",83
1440466,"Marathias 490 80, Greece",83
1439899,"Marathias Beach, Marathias, Korfu, Griechenland 490 80, Greece",83
1436611,"Marathias, Greece",83
1441537,"Marathias, Greece",83
1442488,"Marathias, Kerkyra 49080, Greece",83
1441878,"marathias, marathias,bright-blue 490 80, Greece",83
1443036,"March 21, 340, Lefkimmi 490 80, Greece",83
1443042,"March 21, Melikia Lefkimmis, 490 80, Greece",83
1584307,"March 25, Koskinou 851 00, Greece",83
1667413,"March 6, Rethymno 741 00, Greece",83
1674239,"Margarites, Rethymno 75052, Greece",83
1348251,"Maria A. Stravoravdi-Ziniati, Thomas Beach Studios - Nereids Group, Palaiokastritsa, Paleokastritsa 490 83, Greece",83
1696798,"Marika Capsis, Ag. Pelagia 715 00, Greece",83
5100721,"Marios Agios Vassilios, Rethymno 740 60, Greece",83
1591153,"Mark. Mpotsari 23, Chania, Greece",83
5018165,"Mark. Mpotsari 51, Chania 731 35, Greece",83
1590164,"Mark. Mpotsari 76, Chania 731 36, Greece",83
1659756,"Mark. Portaliou 22, Rethymno 741 00, Greece",83
5389075,"Mark. Portaliou 26, Rethymno 741 00, Greece",83
1673244,"Mark. Portaliou 27, Rethymno 741 00, Greece",83
1658752,"Mark. Portaliou, Rethymno 741 00, Greece",83
4819679,"Markopoulo 280 86, Greece",83
1700010,"Markopoulou 49, Ierapetra, 72200, Greece",83
5110307,"Markopoulou 95, Ierapetra 722 00, Greece",83
1658055,"Markou Mpotsari 104, Chania 731 30, Greece",83
1659440,"Markou Portaliou 5-7, Rethymno 741 00, Greece",83
1632196,"Marmara beach, Sfakia, Greece",83
5019086,"Marmaroto, Kremasti, Ix?s 851 04, Greece",83
1675897,"maroulas, Rethymno 741 00, Greece",83
1658123,"Marouli 50, Rethymno 741 00, Greece",83
1669191,"Martsalos Panagia, 704 00, Greece",83
1667372,"Matala 702 00, Greece",83
1675494,"Matala 702 00, Greece",83
1680572,"Matala 702 00, Greece",83
1680574,"Matala 702 00, Greece",83
1680575,"Matala 702 00, Greece",83
5018415,"Matala 702 00, Greece",83
5018498,"Matala 702 00, Greece",83
1674658,"Matala beach, 702 00, Greece",83
1694013,"Matala Main Road, Matala 702 00, Greece",83
1675493,"Matala old road, Matala 702 00, Greece",83
1679158,"Matala Road, Matala 702 00, Greece",83
1679473,"Matala road, Matala 702 00, Greece",83
1679160,"Matala, Greece",83
1679161,"Matala, Greece",83
1679165,"Matala, Greece",83
1679166,"Matala, Greece",83
1694586,"Matala, Greece",83
1695527,"Matala, Greece",83
5385343,"Matala, Greece",83
1679162,"Matala, Matala, 70200, Greece",83
5235102,"Matheu Zachariadi Kai Dimokratias Gonia, Malia, ???????? 700 07, Greece",83
1679446,"Mattheou Zachariadi 1, Malia 700 07, Greece",83
1698415,"Mattheou Zachariadi 1, Malia 700 07, Greece",83
5387191,"Mattheou Zachariadi 1, Malia 700 07, Greece",83
1701481,"Mattheou Zachariadi 30, Malia 700 07, Greece",83
5018633,"Mattheou Zachariadi 4, Malia 700 07, Greece",83
5235094,"Mattheou Zachariadi 54, Malia 700 07, Greece",83
1700972,"Mattheou Zachariadi 62, Malia 700 07, Greece",83
5385627,"Mattheou Zachariadi 65, Malia 700 07, Greece",83
1694645,"Mattheou Zachariadi 87, Malia 700 07, Greece",83
1694646,"Mattheou Zachariadi 91, Malia 700 07, Greece",83
1700901,"Mattheou Zachariadi, Malia 700 07, Greece",83
5235106,"Mattheou Zachariadi, Malia 700 07, Greece",83
5235603,"Mauritian Mauritian, Schisma Elountas 720 53",83
5018323,"Mavili 1, Rethimno 741 00, Greece",83
4822460,"Mavrata 280 86, Greece",83
1634273,"Mavrogenidon 13, Chania 731 33, Greece",83
5389559,"Mavrokordatou Alexanrou 23, Rethymno 741 00, Greece",83
5236141,"Mavrokordatou Alexanrou 27, Rethymno 741 00, Greece",83
1590124,"Mavrokordatou Alexanrou, Rethymno 741 00, Greece",83
1671937,"Mavrokordatou Alexanrou, Rethymno 741 00, Greece",83
1696461,"Mavrolenis 17, Iraklio 712 01, Greece",83
1677023,"Mavrolenis 8, Iraklio 712 01, Greece",83
1633557,"Mavros Charakas, Sfakia 730 11, Greece",83
1589543,"Mavrou Molos Beach, Kissamos 734 00, Greece",83
1700040,"maxis kritis, Malia 700 07, Greece",83
1668029,"Maxis Kriton 154, Rethymno 741 00, Greece",83
1699551,"Mazida Sand ,, Xerokampos, Greece",83
4833185,"Meg. Alexandrou 219, Patra 263 34, Greece",83
1508881,"Meg. Alexandrou 5, Kalampaka 422 00, Greece",83
5018231,"Meg. Alexandrou, Plakias 740 60, Greece",83
1582380,"Meg. Konstantinou 17, Rhodos Stad 851 00, Greece",83
5238346,"Megalo Papigo of Zagori, 440 04, Greece",83
5017684,"Megalo Papigo, Zagoria 440 04, Greece",83
1547628,"Megalochori 847 00, Greece",83
1580294,"Megalochori 847 00, Greece",83
1580307,"Megalochori 847 00, Greece",83
1580298,"Megalochori Caldera, Thira 847 00, Greece",83
1580297,"Megalochori, 847 00, Greece",83
1546787,"Megalochori, Greece",83
1546806,"Megalochori, Greece",83
1547054,"Megalochori, Greece",83
1548548,"Megalochori, Greece",83
1548923,"Megalochori, Greece",83
1581491,"Megalochori, Greece",83
1522125,"Megalochori, Thira 847 00, Greece",83
1580606,"Megalochori, Thira 847 00, Greece",83
1582705,"Megalochori, Thira 847 00, Greece",83
5239287,"Megalochori, Thira 847 00, Greece",83
1545076,"Megalochori, ??????????, Megalochori 847 00, Greece",83
1548595,"Megalochori, ??????????, Megalochori 847 00, Greece",83
1526256,"Megalochoriou Akrotiriou, Megalochori Thira 847 00, Greece",83
1548924,"Megalohori, Thira 847 00, Greece",83
1368129,"Megalomata, Kerkira 491 00, Greece",83
1582897,"Megalou Alexandrou square, Medieval City, Apellou, Rhodos-Stadt 851 00, Greece",83
1656175,"Megasthenous 3 (1st lane Miaouli), Chrysi Akti, Chania 731 00, Greece",83
1656144,"Megistis Lavras 24, Mournies 733 00, Greece",83
1656150,"Megistis Lavras 24, Mournies 733 00, Greece",83
1633387,"Megistis Lavras 32, Mournies 733 00, Greece",83
1696147,"Meletiou Piga 63, Iraklio 713 06, Greece",83
1699753,"Meletioy Metaxaki 1, Ierapetra 722 00, Greece",83
1701479,"Meletioy Metaxaki 15, Ierapetra 722 00, Greece",83
1699926,"Meletioy Metaxaki 7, Ierapetra 722 00, Greece",83
1588658,"Melidoni 740 52, Greece",83
1667198,"Melidoni, Mylopotamou, Rethymnon 740 52, Greece",83
1669086,"Melidoni, Rethymno 740 52, Greece",83
5385708,"Melidoni, Rethymnon Mylopotamos 740 52, Greece",83
1672600,"Melidoni, ????????, Rethimno 740 52, Greece",83
1589587,"Melidoniou 2, Chania 731 33, Greece",83
1589598,"Melidoniou 2, Chania 731 33, Greece",83
1440507,"Melikia, Greece",83
1655602,"Melindaou, Sfakia 731 00, Greece",83
1440509,"Melitiei, Greece",83
1350755,"Melitsa 490 81, Greece",83
1354115,"Melitsa 490 81, Greece",83
5017781,"Melitsa 490 81, Greece",83
1349246,"melitsa, love channel 490 81, Greece",83
5017614,"Men, 490 83, Greece",83
5238363,"MEN, 490 83, Greece",83
1383740,"Men, 490 84, Greece",83
1384578,"Men, Perama, 491 00, Greece",83
5382664,"Menekleous 17, Rodos 851 00, Greece",83
5236022,"Menelaou 277, Xeropotamos 713 04, Greece",83
1677080,"Menelaou, Parlama 23, Iraklio 713 04, Greece",83
1695030,"Meramvellou 19, Iraklio 712 02, Greece",83
1701456,"Merarchias 9, Ag. Nikolaos 721 00, Greece",83
1699029,"Meseleroi 722 00, Greece",83
1699031,"Meseleroi 722 00, Greece",83
1699950,"Meseleroi, Greece",83
5389720,"Meskla 730 05, Greece",83
1634251,"Meskla, Greece",83
1348594,"Mesoggi 490 80, Greece",83
1352821,"Mesoggi 490 80, Greece",83
1386601,"Mesoggi 490 80, Greece",83
1387858,"Mesoggi 490 80, Greece",83
1377554,"Mesoggi, Greece",83
1383928,"Mesoggi, Greece",83
5238173,"Mesoggi, Greece",83
5238207,"Mesoggi, Greece",83
5238220,"Mesoggi, Greece",83
1658667,"Mesolongiou 32, Rethymno 741 00, Greece",83
1377526,"Mesongi, Mesoggi 490 80, Greece",83
1386721,"Mesongi, Mesoggi, Greece",83
5017720,"Mesongi, Messongi, Greece",83
1388628,"Mesopotamus 480 62, Greece",83
4819714,"Mesovounia 280 84, Greece",83
1668060,"Messaras 2, Xeropotamos 713 04, Greece",83
1678628,"Messaras, Kamilari, Greece",83
5019384,"messaria, Thira 847 00, Greece",83
5113216,"Messaria, Thira 847 00, Greece",83
1673013,"Messolongiou 18, Rethimno 741 00, Greece",83
1387604,"MESSONGHI BEACH 35 MESSONGHI GR 49080, Mora??ika 490 80, Greece",83
1348795,"Messonghi, Kerkira 490 84, Greece",83
1362914,"Messonghi, Kerkira 490 84, Greece",83
1374099,"Messonghi, Kerkira 490 84, Greece",83
1383830,"Messonghi, Kerkira 490 84, Greece",83
1433992,"Messonghi, Kerkira 490 84, Greece",83
1440516,"Messonghi, Kontrakas Chlomos, Greece",83
5100579,"Messonghi, Mesoggi 490 80, Greece",83
1386609,"Messonghi, Mesoggi, Greece",83
1388405,"Messonghi, Messongi 490 80, Greece",83
5100557,"Messongi resort, ???????, Messongi 490 80, Greece",83
5018183,"Meteoron 10, Daratsos 731 00, Greece",83
1697568,"Meteoron 10, Iraklio 713 07, Greece",83
1695574,"Meteoron 46, Iraklio 713 07, Greece",83
1505184,"Meteoron 56 Kastraki, Kalampaka 422 00, Greece",83
1505185,"Meteoron 59, Kalampaka 422 00, Greece",83
1508889,"Meteoron 6, Kalampaka 422 00, Greece",83
1505191,"Meteoron, KALAMBAKA 422 00, Greece",83
1506135,"Meteoron, Kalampaka 422 00, Greece",83
1506274,"Meteoron, Kalampaka 422 00, Greece",83
1676601,"Metochi 702 00, Greece",83
1589535,"Metochi 730 14, Greece",83
1677136,"metochi kamilari, Metochi 702 00, Greece",83
1588903,"Metoxi Viglia, Kissamos 734 00, Greece",83
1545704,"Metropoleos, Next to the Orthodox Cathedral & the Museum, Fir? 847 00, Greece",83
1580319,"Metropolitan Gabriel, Thira, 84700, Greece",83
5238343,"Metsovo, Greece",83
4832705,"Miaouli 17, Patra 262 22, Greece",83
4823309,"Miaouli 39, Patra 262 22, Greece",83
4832708,"Miaouli 60-66, Patra 262 22, Greece",83
4826770,"Miaouli ke Kanakari Roufou, Patra 262 22, Greece",83
5708589,"Miaouli st, Sami 280 80",83
1699803,"Mich. Sfakianaki 18, Ag. Nikolaos 721 00, Greece",83
1694120,"Michail Koraka 97 (Omonia Square), Moires 70400, Greece",83
1700626,"Michail Kothri 23, Ierapetra 722 00, Greece",83
1701584,"Michail Kothri 3, Ierapetra 722 00, Greece",83
1701153,"Michail Kothri 5, Ierapetra 722 00, Greece",83
5110306,"Michail Kothri 50, Ierapetra 722 00, Greece",83
1701120,"Michail Kothri, Ierapetra 722 00, Greece",83
1701437,"Michail Kothri, Ierapetra 722 00, Greece",83
1701651,"Michail Kothri, Ierapetra 722 00, Greece",83
5110308,"Michail Kothri, Ierapetra 722 00, Greece",83
1679289,"Michail Kourmouli 2, Iraklio 714 10, Greece",83
1694127,"Michail Pavlaki 1, Iraklio 713 05, Greece",83
5236024,"Michail Pavlaki 14, Iraklio 713 05, Greece",83
5382586,"Michail Volanaki 77, Rodos 851 00, Greece",83
1696325,"Michelidaki 18, Iraklio 712 02, Greece",83
1658063,"Michelidaki 5, Chania 731 32, Greece",83
1634352,"Michelidaki 6, Chania 731 32, Greece",83
1695011,"Michelidaki 6, Iraklio 712 02, Greece",83
1667436,"Michelidaki to Mourelou, Iraklio 712 02, Greece",83
1699658,"Mihali Kothri 42, Ierapetra 722 00, Greece",83
4819655,"Mikeli Davi 3 2nd floor, Argostoli 281 00, Greece",83
4822378,"Mikeli Davi 3, Argostoli 281 00, Greece",83
1440879,"Mikri Ammos - Sivota, Sivota 461 00, Greece",83
1658893,"Mikro Ammoudi, 740 60, Greece",83
5017675,"Mikro Papigo Zagoriou 440 04, Greece",83
1700451,"Mikro Vathi, Agios Nikolaos (Creta) 721 00, Greece",83
1431495,"Mikrouli, Filiates 463 00, Greece",83
5235390,"Milatos Beach 724 00, Greece",83
5387324,"Milatos Beach 724 00, Greece",83
1695691,"Milatos, Neapoli 724 00, Greece",83
1667366,"Milatou 16, Iraklio 712 02, Greece",83
5235990,"Milatou 17, Iraklio 712 02, Greece",83
5235991,"Milatou 17, Iraklio 712 02, Greece",83
1680449,"Milatou 24, Iraklio 712 02, Greece",83
5386575,"Milatou 29, Iraklio 712 02, Greece",83
4819845,"Mili Petria, Argostoli 281 00, Greece",83
1656036,"Milia Mountain Retreat, Vlatos, Vathi 730 12, Greece",83
4832735,"Milichou 171, Patra 264 42, Greece",83
4832932,"Milichou 218, Patra 264 43, Greece",83
1673411,"Milon, Plakias 740 60, Greece",83
5744842,"Milou 44, Patra 264 42, Greece",83
4826154,"Miltiadou 20, Patra 264 42, Greece",83
4833514,"Minies - Argostoli, Argostoli 281 00, Greece",83
1700624,"Mirabello Beach & Village Havania, Ag. Nikolaos 721 00, Greece",83
1374101,"Miramare Beach, Moraitika 49100, Greece",83
1699528,"Mirampelou, Ag. Nikolaos 721 00, Greece",83
1659358,"Mires 704 00, Greece",83
5100713,"mirthios, odos dichalostratoy leykogeion 2, rethymno 740 60, Greece",83
5235827,"Mirthios, Plakias, Mirthios 740 60, Greece",83
1696175,"Mirtias 12, Iraklio 714 09, Greece",83
1700270,"Mirtos, Mirtos, Ierapetra 722 00, Greece",83
1655890,"Missiria, Rethymno 741 00, Greece",83
1655896,"Missiria, Rethymno 741 00, Greece",83
5017688,"Mitat Hoxha, Saranda, Albania",83
1591842,"Mithimnis, Chania 731 36, Greece",83
4826815,"Mitrodorou 13, Patra 262 24, Greece",83
5656515,"Mitropetrova 12 & Ethnikis antistaseos, ???????? 241 00",83
1581522,"Mitropoleos Street, Thira 847 00, Greece",83
5238190,"Mitropolitou Athanasiou 81, Kerkira 491 00, Greece",83
1351207,"Mitropolitou Athanasiou 9, Kerkira 491 00, Greece",83
1351206,"Mitropolitou Athanasiou 97, Kerkira 491 00, Greece",83
5704614,"Mitropolitou Dorotheou 1, Alkazar, ???????????? ???????? 1, ???????, ?????? 414 47",83
1352968,"Mitropolitou Methodiou 12, Kerkira 491 00, Greece",83
1361744,"Mitropolitou Methodiou 2-4, Kerkira 491 00, Greece",83
1362900,"Mitropolitou Methodiou 20-32, Kerkira 491 00, Greece",83
1697337,"Mitsotaki 1, Iraklio 712 02, Greece",83
1697533,"Mitsotaki 1, Iraklio 712 02, Greece",83
1695975,"Mitsotaki 1-3, Iraklio 712 02, Greece",83
1679440,"Mitsotaki 19, Iraklio 712 02, Greece",83
1655265,"Mitsotaki 38, Chania 731 32, Greece",83
5018513,"Mnisikli 23, Heraklio Town 713 05, Greece",83
5100783,"Mnisikli 23, Iraklio 713 05, Greece",83
1659753,"Moatsou 14, Rethymno 741 00, Greece",83
1673228,"Moatsou 35, Rethymno 741 00, Greece",83
5018393,"Moatsou 35, Rethymno 741 00, Greece",83
5018313,"Moatsou 42, Rethymno 741 00, Greece",83
1669388,"Moatsou 60, Rethymno 741 00, Greece",83
1671964,"Moatsou 7, Rethymno 741 00, Greece",83
5018275,"Moatsou, Rethymno 741 00, Greece",83
5235177,"Mochlos 720 57",83
5235409,"Mochlos 720 57",83
5235404,"Mochlos, 720 57",83
5238135,"Molos - Plataria, Plataria - Igoumenitsa 461 00, Greece",83
1386645,"Molos, Greece",83
1386647,"Molos, Greece",83
1358543,"Molossi, Greece",83
1437875,"Molossi, Greece",83
4823125,"Momferatou, Lixouri 282 00, Greece",83
1693898,"Monastery of Agarathos 7 and I. Mitsotaki, Iraklio 712 02, Greece",83
4819826,"Monastery of Agios Andreas Milapidias, Monastery of Agios Andreas Milapidias - Peratata, Peratata 281 00, Greece",83
1700796,"Monastiraki 722 00, Greece",83
4823559,"Monastiriou 28, Thessalloniki 546 30, Greece",83
1520236,"Money Triovasalos, Greece",83
1589257,"Moni Agias Triados ton Tzagkarolon, Greece",83
1658608,"Moni Arkadiou, 185, Rethymno 741 00, Greece",83
1589255,"Moni Chrisoskalitissis 730 12, Greece",83
1655592,"Moni Gonias street, Chania 731 00, Greece",83
1678636,"Moni Palianis 700 11, Greece",83
1678828,"Monis Aretiou 5, Iraklio, Greece",83
1591957,"monis gonias 2, Chania 731 00, Greece",83
5018118,"Monis Gonias 2, Chania 731 31, Greece",83
5100697,"Monis Gonias 52, Chania 73100, Greece",83
5235907,"Monis Gouvernetou 28, Iraklio 713 07, Greece",83
1695985,"Monis Kardiotissis 27, Iraklio 712 01, Greece",83
1694432,"Monis Odigitrias 1, Iraklio 712 01, Greece",83
1695603,"Monis Prevelis 52, Iraklio 713 06, Greece",83
1697808,"Monis Prevelis 86, Iraklio 713 06, Greece",83
1349046,"Moraitika 490 84, Greece",83
1389396,"Moraitika 490 84, Greece",83
5100567,"Moraitika 490 84, Greece",83
5100566,"Moraitika Main Street, Moraitika 490 84, Greece",83
1387846,"Moraitika PB 16, Moraitika 490 84, Greece",83
1348871,"Moraitika, 490 84, Greece",83
1377555,"MORAITIKA, 490 84, Greece",83
5017913,"Moraitika, 490 84, Greece",83
1388539,"Moraitika, 49100, Greece",83
1348591,"Moraitika, Greece",83
1349044,"Moraitika, Greece",83
1362911,"Moraitika, Greece",83
1386603,"Moraitika, Greece",83
1386619,"Moraitika, Greece",83
1386802,"Moraitika, Greece",83
1387100,"Moraitika, Greece",83
1387132,"Moraitika, Greece",83
1387169,"Moraitika, Greece",83
1387174,"Moraitika, Greece",83
1387180,"Moraitika, Greece",83
1389382,"Moraitika, Greece",83
1389395,"Moraitika, Greece",83
1389530,"Moraitika, Greece",83
1389807,"Moraitika, Greece",83
1389999,"Moraitika, Greece",83
1390010,"Moraitika, Greece",83
1390013,"Moraitika, Greece",83
5017873,"Moraitika, Greece",83
5238152,"Moraitika, Greece",83
5238172,"Moraitika, Greece",83
5238259,"Moraitika, Greece",83
5373293,"Moraitika, Greece",83
5373335,"Moraitika, Greece",83
1428111,"Moraitika, Kastellani Mesis, 49084, Moraitika 490 84, Greece",83
5100576,"moraitika, Kerkira 490 84, Greece",83
1430973,"Moraitika, Kerkira 49100, Greece",83
1389844,"Moraitika, Kerkyra 490 84, Greece",83
1390023,"Mora??ika, Moraitika 490 84, Greece",83
1427629,"moraitika, Moraitika 490 84, Greece",83
1387175,"Moraitika, Moraitika 49084, Greece",83
1386630,"Moraitika, Moraitika, Greece",83
5100578,"Moraitika, Moraitika, Greece",83
5100587,"Moraitika, Moraitika, Greece",83
1430435,"Moraitika, ?????????, Moraitika 490 84, Greece",83
4832866,"Moraitini 15, Patra 264 43, Greece",83
1669200,"Mount Ida, Kouloukonas 740 51, Greece",83
1694390,"Mount Juktas, Archanes 701 00, Greece",83
1670645,"Mount Kedros, Lampi 740 61, Greece",83
5100711,"mouragio apartmens, Georioupoli Chania 730 07, Greece",83
1655293,"Mournies 733 00, Greece",83
1633832,"Mournies, Greece",83
1655520,"Mournies, Greece",83
1654991,"Mournion - Vamvakopoulou Rd (1st Km), Mournies 733 00, Greece",83
1589596,"Mournion 36, Chania 733 00, Greece",83
4832753,"Mourouzi 27, Patra 262 23, Greece",83
4832689,"Mourouzi 40-42, Patra 262 23, Greece",83
4832544,"Mourouzi to Dim. Tofalou, Patra 262 23, Greece",83
1589402,"Mousouron 37-59, Chania 731 32, Greece",83
1670846,"Mousourou 7, Rethymno 741 00, Greece",83
1436769,"Moustoxidi 16, Kerkira 491 00, Greece",83
1350896,"Moustoxidi 19, Kerkira 491 00, Greece",83
1634253,"Mouzouras, Greece",83
1585189,"Mxgaloi Kondtantinoi 34, Afantou 851 03, Greece",83
1587499,"Mxgaloi Kondtantinoi 34, Afantou 851 03, Greece",83
5238603,"Mxgaloi Kondtantinoi 34, Afantou 851 03, Greece",83
5380827,"Mxgaloi Kondtantinoi 34, Afantou 851 03, Greece",83
1584455,"Mykinon street 15, ???????, Ialisos 851 01, Greece",83
5018368,"Mylopotamos 740 52",83
5018401,"Mylopotamos 740 52",83
5100759,"Mylopotamos 740 52",83
5100760,"Mylopotamos 740 52",83
5100761,"Mylopotamos 740 52",83
5100763,"Mylopotamos 740 52",83
5100765,"Mylopotamos 740 52",83
5100768,"Mylopotamos 740 52",83
5100769,"Mylopotamos 740 52",83
5100770,"Mylopotamos 740 52",83
5100772,"Mylopotamos 740 52",83
5100773,"Mylopotamos 740 52",83
5235993,"Mylopotamos 740 52",83
5236108,"Mylopotamos 740 52",83
5236147,"Mylopotamos 740 52",83
5236167,"Mylopotamos 740 52",83
5236199,"Mylopotamos 740 52",83
1659594,"Mylopotamos 740 52, Greece",83
1669950,"Mylopotamos 740 52, Greece",83
5018342,"Mylopotamos 740 52, Greece",83
5100771,"Mylopotamos 740 52, Greece",83
1667116,"Mylopotamos 740 54, Greece",83
1591483,"Mylopotamos 740 57, Greece",83
1659457,"Myriokefala 740 55, Greece",83
1591963,"Myrthios Agios Vassilios, PC, Ag. Vasilios 740 53, Greece",83
5018228,"Myrthios, Mirthios 740 60, Greece",83
5236242,"Myrthios, Rethymno 740 60, Greece",83
1694439,"Myrtia 701 00, Greece",83
1698556,"Myrtos 720 56, Greece",83
1700145,"Myrtos 720 56, Greece",83
1700959,"Myrtos 720 56, Greece",83
5388347,"Myrtos 720 56, Greece",83
5018516,"Myrtos, Myrtos / Ierapetra 720 56, Greece",83
1348857,"Mythos Street, Arillas Agiou Georgiou 490 81, Greece",83
5017963,"N 31.318, 23 51.439, Grigoriou E 35, Chania 731 35, Greece",83
1589865,"N 35 ? 20&#39;29.40 &#39;&#39;, E 24 ? 17&#39;44.73 &#39;&#39;, Paralia Kourna 730 07, Greece",83
1360759,"N. (Behind General Lyceums), Nikoy Lefterioti 13, Kerkira 491 00, Greece",83
1670848,"N. Askoutsi 7, Rethymno 741 00, Greece",83
5235708,"N. Plastira 5, Ag. Nikolaos 721 00, Greece",83
1660133,"N.Alikarnassos, Iraklio 716 01, Greece",83
4832972,"N.E.O. Patron - Athinon 11, Patra 264 41, Greece",83
4825936,"N.E.O. Patron - Athinon 118, Patra 264 42, Greece",83
4826749,"N.E.O. Patron - Athinon 121, Patra 264 42, Greece",83
4832969,"N.E.O. Patron - Athinon 13, Patra 264 43, Greece",83
4832983,"N.E.O. Patron - Athinon 135, Patra 264 42, Greece",83
4832988,"N.E.O. Patron - Athinon 139, Patra 264 42, Greece",83
4833014,"N.E.O. Patron - Athinon 14, Patra 264 41, Greece",83
4832990,"N.E.O. Patron - Athinon 155, Patra 264 42, Greece",83
4832993,"N.E.O. Patron - Athinon 159, Patra 264 43, Greece",83
4826661,"N.E.O. Patron - Athinon 160, Patra 265 00, Greece",83
4832995,"N.E.O. Patron - Athinon 167, Patra 264 41, Greece",83
4826412,"N.E.O. Patron - Athinon 17, Patra 264 41, Greece",83
4832965,"N.E.O. Patron - Athinon 17, Patra 264 41, Greece",83
4826646,"N.E.O. Patron - Athinon 20, Patra 265 00, Greece",83
4833026,"N.E.O. Patron - Athinon 204, Patra 264 43, Greece",83
4832865,"N.E.O. Patron - Athinon 26, Patra 264 41, Greece",83
4832966,"N.E.O. Patron - Athinon 26, Patra 264 41, Greece",83
4832962,"N.E.O. Patron - Athinon 28, Patra 264 41, Greece",83
4826739,"N.E.O. Patron - Athinon 39, Patra 264 42, Greece",83
4832871,"N.E.O. Patron - Athinon 4, Patra 264 41, Greece",83
4826652,"N.E.O. Patron - Athinon 43, Patra 264 43, Greece",83
4826774,"N.E.O. Patron - Athinon 5, Patra 264 41, Greece",83
4832954,"N.E.O. Patron - Athinon 51, Patra 264 42, Greece",83
4832975,"N.E.O. Patron - Athinon 7, Patra 264 41, Greece",83
4832958,"N.E.O. Patron - Athinon 74, Patra 264 43, Greece",83
4832959,"N.E.O. Patron - Athinon 77, Patra 264 43, Greece",83
4826642,"N.E.O. Patron - Athinon ke Ragkavi, Patra 264 43, Greece",83
4832730,"N.E.O. Patron - Athinon, Patra 264 41, Greece",83
4826654,"N.E.O. Patron - Athinon, Patra 264 42, Greece",83
4826632,"N.E.O. Patron - Athinon, Patra 264 43, Greece",83
1697197,"N.NEARHOU 20, Chersonisos 700 14, Greece",83
4832898,"Nafpaktou 29, Patra 263 31, Greece",83
4832899,"Nafpaktou 29, Patra 263 31, Greece",83
5017870,"Nafsikas 108, Kerkira 491 00, Greece",83
4832619,"Nafsikas 11, Patra 264 42, Greece",83
1384575,"Nafsikas 19, Kerkira 491 00, Greece",83
1348792,"Nafsikas 29, Kerkira 491 00, Greece",83
1359975,"Nafsikas 39, Kerkira 491 00, Greece",83
1377535,"Nafsikas 39, Kerkira 491 00, Greece",83
5373288,"Nafsikas 39, Kerkira 491 00, Greece",83
1379887,"Nafsikas 41, Kerkira 491 00, Greece",83
1368069,"Nafsikas, Kerkira 491 00, Greece",83
1696181,"Nana Beach, Chersonisos 700 14, Greece",83
4826401,"Naomi 2, Patra 262 21, Greece",83
1379173,"Napoleontos Zampeli 4, Kerkira 491 00, Greece",83
1358027,"National Paleokastritsa 100, Kerkira 491 00, Greece",83
1656016,"National Road Aerodromiou-Soudas, Chania 731 00, Greece",83
5235172,"National Road Agios Nikolaos Sitia, Kavousi 722 00, Greece, Kavousi 722 00, Greece",83
1589541,"National Road Souda Airport 3 PO Box 233, Kounoupidiana 731 00, Greece",83
1505144,"National Road, Trikalon - Kalampaka, Kalampaka 422 00, Greece",83
1377525,"National Street Lefkimmis, Mpenitses 490 84, Greece",83
5658754,"Nauarinou 4, ???????? 241 00",83
1352690,"Nausikas str, Kanoni Kerkira 491 00, Greece",83
4832794,"Naval Battle Ellis 42, Patra 264 41, Greece",83
5235419,"Navarchou Nearchou, Chersonisos 700 14, Greece",83
4826758,"Navarinou 21, Patra 262 22, Greece",83
4832808,"Navmachias Ellis 44, Patra 264 41, Greece",83
1671542,"Naxou 5, Iraklio, Greece",83
1680640,"Naxou 8, Iraklio 713 07, Greece",83
5018542,"naxou str. 1, Iraklio 713 07, Greece",83
1668055,"Nea Alikarnassos, Greece",83
1668058,"Nea Alikarnassos, Greece",83
1677027,"Nea Alikarnassos, Greece",83
1695016,"Nea Alikarnassos, Greece",83
1696715,"Nea Alikarnassos, Greece",83
1696794,"Nea Alikarnassos, Greece",83
1697440,"Nea Alikarnassos, Greece",83
1505153,"Nea Dimotiki Odos (behind the train station), Kalambaka 422 00, Greece",83
1632206,"Nea Kydonia, Greece",83
1698954,"Neapoli 724 00, Greece",83
1699140,"Neapoli 724 00, Greece",83
1699231,"Neapoli, Neapoli Kritis 724 00, Greece",83
1701135,"Neapolis, Gerania Lasithi, Neapoli 724 00, Greece",83
1587672,"near Epar.Od. Pylonas-Kattavias, 851 09, Kiotari 851 09, Greece",83
5100657,"Nearchou - Agii Apostoli, Chania 73100, Greece",83
1701340,"Nearchou 1, Ierapetra 722 00, Greece",83
5236317,"Nearchou 39, Rethymno 741 00, Greece",83
5236474,"Nearchou 426, Chania 731 00, Greece",83
1589141,"Nearchou 426, Daratsos 731 00, Greece",83
1668132,"Nearchou 47, Rethymno 741 00, Greece",83
1658488,"Nearchou 50, Chania 731 34, Greece",83
5100656,"Nearchou Agii Apostoli, Chania 731 00, Greece",83
1589142,"Nearchou, Chania, Greece",83
1672960,"Nearchou, Chersonisos 700 14, Greece",83
1591802,"Nearchou, Daratsos 731 00, Greece",83
1655941,"Nearchou, Rethymno 741 00, Greece",83
5236151,"Nearchou, Rethymno 741 00, Greece",83
5236367,"Nearchou, Rethymno 741 00, Greece",83
1588655,"Nearchus Holy Apostles, Daratsos 731 00, Greece",83
1677464,"Nearhou 20, Box 41, Chersonisos 700 14, Greece",83
5018355,"Nees Fokees St., Platanias 741 00, Greece",83
4832655,"Nestoros 8, Patra 264 43, Greece",83
1667759,"New Door, Chalidon 10, Iraklio 712 01, Greece",83
1547490,"New Port Tourlos, New Port Tourlos, Tourlos 846 00, Greece",83
1581489,"next to the cable car, Fira 847 00, Greece",83
1546797,"Next to the Laografik/Foklor Museum, Thira 847 00, Greece",83
5239086,"Nick. Law, O?a 84700, Greece",83
1694842,"Nick. Plastira 100, Iraklio, Greece",83
1680622,"Nidas 85, Gazi 714 14, Greece",83
1669349,"Nik, Nik. Plastira, Iraklio 712 01, Greece",83
5018619,"Nik. Grammatikaki Str. Malia - Stalis, Stalida 700 07, Greece",83
1701182,"Nik. Grammatikaki, Malia 700 07, Greece",83
1698520,"Nik. Grammatikakis Street, Malia 700 07, Greece",83
1698414,"Nik. Plastira 1, Ag. Nikolaos 721 00, Greece",83
1699600,"Nik. Plastira 12, Ag. Nikolaos 721 00, Greece",83
5110344,"Nik. Plastira 18, Sitia 723 00",83
1700854,"Nik. Plastira 18-22, Ag. Nikolaos 721 00, Greece",83
1698411,"Nik. Plastira 2, Ag. Nikolaos 721 00, Greece",83
5235183,"Nik. Plastira 20, Ag. Nikolaos 721 00, Greece",83
1655261,"Nik. Plastira 20, Mournies 733 00, Greece",83
1678853,"Nik. Plastira 2A, Nea Alikarnassos 716 01, Greece",83
1658682,"Nik. Plastira 45, Mournies 733 00, Greece",83
1696377,"Nik. Plastira, Kollivas 715 00, Greece",83
1658567,"Nik. Skoula 10, Chania 731 35, Greece",83
1698402,"Nik. Vasamidi 3, Ierapetra 722 00, Greece",83
5110322,"Nik. Vasamidi 54, Ierapetra 722 00, Greece",83
1659483,"Nikeas 24, Rethymno 741 00, Greece",83
1659765,"Nikeas 3, Rethymno 741 00, Greece",83
5238350,"nikiana lefkadas, Nikiana 311 00, Greece",83
1672658,"Nikiforou Foka 27, Rethymno 741 00, Greece",83
1590166,"Nikiforou Foka 3, Chania 731 32, Greece",83
1658047,"Nikiforou Foka 5, Chania 731 32, Greece",83
5018172,"Nikiforou Foka, Chania, Greece",83
1583127,"Nikiforou Litra street, ????????? ?????, Rodes 851 00, Greece",83
5384016,"Nikiforou Mandilara 52-68, Rodos 851 00, Greece",83
4833105,"Nikita 4, Patra 262 24, Greece",83
4833032,"Nikita 60, Patra 262 24, Greece",83
1697558,"Nikolaidi 2, Iraklio 713 05, Greece",83
1698524,"Nikolaou Grammatikaki, Malia 700 07, Greece",83
5018403,"Nikomidieas 7, Platanes 741 00, Greece",83
1696778,"Nikou Krasadaki 21-23, Iraklio 714 09, Greece",83
1362897,"Nikoy Lefterioti 1, Kerkira 491 00, Greece",83
1350688,"Nikoy Lefterioti 12, Kerkira 491 00, Greece",83
1379131,"Nikoy Lefterioti 4, Kerkira 491 00, Greece",83
1360546,"Nikoy Lefterioti, Kerkira 491 00, Greece",83
1694436,"Nimfon 2, Iraklio 713 07, Greece",83
5018662,"Niovis 1, Iraklio 713 05, Greece",83
4832657,"Nireos 9-11, Patra 264 42, Greece",83
1350684,"Nisi Gerekou Iridos, Kerkira 491 00, Greece",83
5017806,"Nisi Gerekou, Kontokali 49100, Greece",83
1634275,"Nisida Souda, Greece",83
5110238,"Nisirou 2, Iraklio 713 07, Greece",83
1355293,"Nissaki 491 00, Greece",83
1353124,"Nissaki Beach, Katavolos ,, Greece",83
5017641,"Nissaki Dimou Kassiopeon, Nis?kion 491 00, Greece",83
1363218,"Nissaki, 490 83, Greece",83
1348782,"Nissaki, 491 00, Greece",83
1357055,"Nissaki, 491 00, Greece",83
1353319,"Nissaki, Greece",83
1352564,"Nissaki, Kerkira 490 83, Greece",83
1360577,"Nissaki, Kerkira 490 83, Greece",83
5238293,"Nissaki, Kerkira 490 83, Greece",83
5238137,"No 5 Beach Road on Agios Stefanos., Acharavi, Greece",83
4832952,"Notara 111, Patra 264 42, Greece",83
4832957,"Notara 122, Patra 264 42, Greece",83
4832800,"Notara 141, Patra 264 42, Greece",83
4833009,"Notara 141, Patra 264 42, Greece",83
4832723,"Notara 157, Patra 264 42, Greece",83
4832722,"Notara 56, Patra 264 42, Greece",83
4832956,"Notara 83, Patra 264 42, Greece",83
4832532,"Notara 84, Patra 264 42, Greece",83
1349053,"Notio Steno Kerkiras, Greece",83
5238233,"Notio Steno Kerkiras, Greece",83
1443737,"notos, Kerkira 490 80, Greece",83
1693886,"Ntaliani 25, Iraklio 713 06, Greece",83
4819631,"Ntomata 59, Svoronata, Kefalonia 281 00, Greece",83
1655717,"Oasis of Agyia, Chania 731 00, Greece",83
1679149,"Odigitrias St., Sivas 702 00, Greece",83
4826662,"Odissea Eliti 224, Patra 263 33, Greece",83
5236213,"Odo Kapstan Galianos 19, Gallos 741 00, Greece",83
1672652,"Odo Kapstan Galianos 9, Gallos 741 00, Greece",83
1659470,"Odo Kapstan Galianos, Gallos 741 00, Greece",83
1673214,"Odos Oniro, Plakias 740 60, Greece",83
1678829,"Odos R, Vi Pe, Iraklio 716 01, Greece, Iraklio 716 01, Greece",83
4819624,"Odos Skala - Poros, Kefalonia 280 86, Greece",83
1583869,"Odos Timocreonta, Faliraki 851 00, Greece",83
4832922,"Odyssey Elite 65, Patra 263 32, Greece",83
5018332,"Of Macedonia, Rethymno 741 00, Greece",83
5113197,"Off Main Street - 84700, Imerov?glion, 847 00, Greece",83
5019420,"Oia (Ia), O?a 847 02, Greece",83
1520132,"Oia 847 02, Greece",83
1547052,"Oia 847 02, Greece",83
1581492,"Oia 847 02, Greece",83
1581535,"Oia 847 02, Greece",83
1581536,"Oia 847 02, Greece",83
1581538,"Oia 847 02, Greece",83
5019345,"Oia 847 02, Greece",83
5019410,"Oia 847 02, Greece",83
5239005,"Oia 847 02, Greece",83
5239266,"Oia 847 02, Greece",83
5239286,"Oia 847 02, Greece",83
5239692,"Oia 847 02, Greece",83
5377111,"Oia 847 02, Greece",83
1526253,"Oia 84702, Thira 847 02, Greece",83
1521077,"Oia, Greece",83
1526017,"Oia, Greece",83
1545079,"Oia, Greece",83
1546978,"Oia, Greece",83
1546980,"Oia, Greece",83
1547057,"Oia, Greece",83
1549149,"Oia, Greece",83
1581471,"Oia, Greece",83
1581504,"Oia, Greece",83
1582213,"Oia, Greece",83
1582214,"Oia, Greece",83
5239003,"Oia, Greece",83
5239288,"Oia, Greece",83
5239765,"Oia, Greece",83
5377110,"Oia, Greece",83
5377526,"Oia, Greece",83
5377656,"Oia, Greece",83
5377660,"Oia, Greece",83
5377332,"oia, O?a 847 02, Greece",83
1582211,"Oia, Thira 847 00, Greece",83
1580133,"Oia, Thira 847 02, Greece",83
1581513,"OIA, Thira 847 02, Greece",83
5019331,"Oia, Thira 847 02, Greece",83
5239731,"Oia, Thira 847 02, Greece",83
5377394,"Oia, Thira 847 02, Greece",83
1582103,"Oia, Thira 84700, Greece",83
4832693,"Oktovriou 25 28is, Patra 262 23, Greece",83
5235398,"Old Chersonissos / Hersonissos, Chersonisos 700 14, Greece",83
5018196,"OLD NATIONAL ROAD CHANIA KISSAMOS, 731 31, Greece",83
5018333,"Old National Road Chania-Rethymnon, Kalyva 730 03, Greece",83
1680618,"Old National Road Malia-Ag.nikolaos, Malia, Greece",83
5235802,"Old National Road, Kokkini Hani 715 00",83
5235641,"old port, Iraklio, Greece",83
5019063,"Olimpiados 7, Ialyssos 851 01, Greece",83
4832933,"Olinthou 6, Patra 263 35, Greece",83
4819734,"Omala 280 80, Greece",83
4819678,"Omala 281 00, Greece",83
1590970,"Omalos - White Mountains, Omalos 730 14, Greece",83
5236243,"Omalos 730 05, Greece",83
5018104,"Omalos Kydwnias, Chania, Omal?s 73005, Chania 730 05, Greece",83
1348271,"On the beach, Gouvia 491 00, Greece",83
1701564,"Oplarchigou Lakerda 11, Ierapetra 722 00, Greece",83
1699850,"Oplarchigou Lakerda 16, Ierapetra 722 00, Greece",83
1658719,"Oplarchigou Pachla 110, Rethymno 741 00, Greece",83
5235878,"Oplarchigou Pachla 162, Rethymno 741 00, Greece",83
4826197,"Orivatikou 10, Patra 263 31, Greece",83
1546522,"?rmos Athini?s, Greece",83
1546523,"?rmos Athini?s, Greece",83
1546560,"?rmos Athini?s, Greece",83
1580109,"?rmos Athini?s, Greece",83
1541861,"Ornos 846 00, Greece",83
1544070,"Ornos 846 00, Greece",83
1544409,"Ornos 846 00, Greece",83
1545762,"Ornos 846 00, Greece",83
1545764,"Ornos 846 00, Greece",83
1545848,"Ornos 846 00, Greece",83
1546946,"Ornos 846 00, Greece",83
1547101,"Ornos 846 00, Greece",83
1548183,"Ornos 846 00, Greece",83
5110503,"Ornos 846 00, Greece",83
1542190,"Ornos Beach, Ornos 846 00, Greece",83
1542244,"Ornos Beach, Ornos 846 00, Greece",83
1548806,"Ornos beach, Ornos, Greece",83
1542248,"Ornos Korfos, Ornos 846 00, Greece",83
5110496,"Ornos Korfos, Ornos 84600, Greece",83
1546492,"Ornos, 846 00, Greece",83
5018998,"Ornos, 846 00, Greece",83
5019004,"Ornos, 846 00, Greece",83
1544520,"Ornos, Greece",83
1544521,"Ornos, Greece",83
1544525,"Ornos, Greece",83
1545973,"Ornos, Greece",83
1548808,"Ornos, Greece",83
5018989,"Ornos, Greece",83
