5723052,"35 ??? ????? ???? ??????? ????????????????????? ??????????? 34000",212
5718441,"35 ??? ?????????????? ???? ???????????? ??????????????????????? ????????????? 80000",212
5720064,"35 ??? ?????????????? ???? ???????????? ??????????????????????? ????????????? 80000",212
5265769,"35 ???? BKK Grill, ??? ???????? ???? ???????? ??? ???????? ????????????? 10240, Thailand",212
4233950,"35, Srinin3 Road, Tambol Hatyai, Amphor Hatyai, Songkhla, 90110, Thailand",212
4241648,"35, ???????????, ??????????? ????????????????????? ?????????????????, 30000 30000, Thailand",212
5655992,"35-37 ??? 2 ?.?????????????? ????? ??????? ????? 90110",212
4949951,"35/1 ???? 9 ???????????, ??????????? ?????????? ???????????????, 22000 Thailand",212
5717072,"35/1, Jerm Jompon Road, ???? ??????? ????? ??????? ?????? 20110",212
5722155,"35/1, ????????????, ???????????? ?????????? ???????????????, 41000 41000",212
5723527,"35/11 ???????? ???? ??????? ????????????????????? ??????????? 34000",212
718654,"35/2 Bangna-Trad Bang Kaeo, Bang Phli, Samut Prakan 10540, Thailand",212
5717484,"35/303 Soi Mu Ban Siwali, Tambon Bang Khun Kong ??? ????????????? ???? ????????? ????? ??????? ??????? 11130",212
5270223,"35/54 Soi 5 Bohput, ????? ???????? ???????????? 84320, Thailand",212
5368752,"35/75 Moo 1, Rimtai, ????? ?????? ????????? 50180, Thailand",212
5172873,"350 Moo 1 Hua Hin 77110, Thailand",212
5721931,"350/1 ?????????? ???? ???????? ?????????????????? ???????? 41000",212
5721842,"350/77 350 Thanon Second Muang Pattaya ????? ???????? ?????? 20150",212
5710660,"351 ??? ??????? ???? ??????? ??????????????????? ????????? 71000",212
4236581,"351/41, ?????????? ?????????? ????????????????????, 80000 80000, Thailand",212
5355252,"351/5 ?????????? 17 ???????? 55 ???????????????? ????? ???????? 10110, Thailand",212
5730711,"351/9 cha thalaep 6, Muaeng, ???????? 22000",212
785309,"352 Moo 2, Koh Lanta District 81150, Thailand",212
5714726,"352 ??????? 1, ???????? ??????????? ????????????, 52130",212
4239197,"352, 350 ?????????? ???? ??????? ????????????????????? ??????????? 34000, Thailand",212
4231757,"352/11 ???? 26, ???18 ??????, ????????? ?????????? ???????????????, 57000 57000, Thailand",212
5722042,"352/242 M12 Khao Pratumnak Soi 5, ?????????? ?????? 20150",212
4240113,"352/323 Phra Tam Nak 4 Alley, Muang Pattaya, Amphoe Bang Lamung, Chang Wat Chon Buri 20150, Thailand",212
5717037,"352/323 ??? ????????? 4 ?????????? ????? ???????? ?????? 20150",212
5718803,"352/323 ??? ????????? 4 ?????????? ????? ???????? ?????? 20150",212
4242387,"352/33 Moo 12, Soi 6, Phratumnak Road, Pattaya, Bang Lamung District Chonburi 20260, Thailand",212
4239490,"352/430 Phratamnak Soi 5, Pattaya, Chon Buri 20150, Thailand",212
5717495,"352/551 ??? ????????? 4 ?????????? ????? ???????? ?????? 20150",212
4240486,"352/69-70 Phratamnak soi 4 Nongprue, Banglamung, ?????????? ????? ???????? ?????? 20150, Thailand",212
5357824,"3522 ??????????? ???????????? ?????????? ???????????????? ???? 1 ???????? 10240, Thailand",212
5265525,"3522, ????????????? ??????? ???? 3, ???????????, ???????????? ?????????? ?????????????, 10240 10240, Thailand",212
4228929,"353/17 Moo 6 Muang Chiang Rai 57100, Thailand",212
5066524,"353/2 Moo 3, Taling Ngam, Koh Samui Taling Ngam Beach 84140, Thailand",212
4243775,"354/170, ??? ??????????????????????? 2 ???? ???????? ????? ???????? ?????? 20150, Thailand",212
4236319,"354/175 Moo 12, Tappraya 12 Pattaya Central 20150, Thailand",212
742671,"354/2 Samsen Rd, Dusit, Krung Thep Maha Nakhon 10300, Thailand",212
4231457,"354/28 U-Thong Road, Pak Phraek District, Amphur Muang, ????????? 71000, Thailand",212
756649,"355 Moo 19 Suksawat Road, Bang Phueng, Phra Pradaeng, Samutprakarn 10130, Phrapradaeng, Samutprakarn, 10130, Thailand",212
5713773,"355/28-30 ??? ??? ????? ???? ??? ???? ??? ??? ??????????????? ????? 52000",212
5710624,"355/3 ??? ??????? ???? ??????? ??????????????????? ????????? 71000",212
5722130,"355/7 ????????? ???? ???? ?????????????????????? ???????????? 84000",212
5710677,"356 ??? ????????? ???? ??????? ??????????????????? ????????? 71000",212
5272083,"356 ?.2, ?.????????? ?.?????????, ??????, 81130, Thailand",212
5717118,"356/102 ? .4 ? ???? ??? ????? ???????????? 84000",212
4241712,"356/7 Moo 12, Nong Prue Subdistrict, Mueang Pattaya District, Chon Buri 12130, Thailand",212
4239642,"356/74 ??? ??? ??? ??? ???? ??? ???? ????? ????? ????? ???? ? ? ?? ????, ???????????? 84000, Thailand",212
5717097,"356|82 ?????????? ????? ???????????? 84000",212
5269025,"357 Moon Muang Road, Thailand",212
4242179,"357, ?.??????????, ?.??????? ?.????? ???????????, 34000 34000, Thailand",212
5172774,"357/83 The Emerald, Moo 13 Baan Wangkata Tabtail Hua Hin 77110, Thailand",212
5722055,"357/83 ????????? 5 ?????????? ????? ???????? ?????? 20150",212
5722204,"357/83 ????????? 5 ?????????? ????? ???????? ?????? 20150",212
4243200,"358 Chaloem Phrakiat 19, Central, Pattaya, 20150, Thailand",212
5711869,"358/1401 Moo 1 ,, Bang Bao, ????? ???????? 23170",212
784640,"359 moo 3, andaman beach koh jum 81130, Thailand",212
5173131,"359 Moo 7 Hin Lek Fai Hua Hin Prachuap Khiri Khan 77110, Thailand",212
5266006,"359, ?????????????? ??? 7 ???? ?????? ??? ??????? ????????????? 10900, Thailand",212
4243920,"359/109 Moo 12 Phra Tamnak Soi 5 Nongprue Pattaya, 20150, Thailand",212
5711745,"359/2, ??????????, ??????????? ?????????? ??????????????, 40000",212
4950386,"359/3 ?.???????? ?.??????? ?????????? Rayong 21000, Thailand",212
5070193,"36 Aonang Soi 1 Moo.2, Ao Nan, Jia Mi, Tai Guo Klong Muang Beach 81180, Thailand",212
5374718,"36 Bophut,, 39 Bontji Moo 4 ???? ?????? ????? ???????? ???????????? 84320, Thailand",212
5717150,"36 ????????????? ??????? ???? ???????? ?????????????????? ???????? 41000",212
5719838,"36 ???? 1 ???????????? ????? ???????? ??????? 11120",212
4241200,"36 ???? 5 ? ???? ? ??? ? ????? ??? ?? ? ???? ? ?, ??????????? 34190, Thailand",212
5645997,"36 ??????? 4, ????????, ????????????? ????????????? ??????????????????????, 13170 13170",212
5272813,"36, 38, 34 ?????????? ?????????? Kathu, ?????? 83150, Thailand",212
4234026,"36, ??? ???????? ???? ???????? ??????????????? ????? 52000, Thailand",212
4571699,"36/1 Hua Hin 57, Tambon Hua Hin, Amphoe Hua Hin, Chang Wat Prachuap Khiri Khan 77110, Thailand",212
5707767,"36/1 Petchkasem Road ?????????? ????? ?????? ??????????????? 77110",212
5269260,"36/1,36/2 Nimmanhaemin Lane 11, Muang, Thailand",212
5173436,"36/10/8 moo4, pearl beach, Koh Chang, Trat, Thailand",212
5716428,"36/11 ?.???????? ???????? ????????? ???????? 41000",212
4250129,"36/110???????2 ?.?????????.?????? ?.??????? ?????? Chon Buri 20110, Thailand",212
5353163,"36/2 Soi Kasemsan 1, Rama 1 Road,, ????????????? 10330, Thailand",212
5717481,"36/2 ??? ???????????? ???? ?????? ????????????????? ??????? 11000",212
5265907,"36/20, ??? ???????????? 1 ???? ??????? ??? ??????? ????????????? 10330, Thailand",212
240772,"36/3 Nawamin Road, Klongkum, Bungkum, Bungkum, ???? ??? ??? 10230, Thailand",212
5173430,"36/4 Moo 3, Klong Son, Koh Chang 23170, Thailand",212
5718830,"36/56 ???? 9 ??????? ????? ???????????? 84100",212
5266524,"36/6 Soi Kasemsan 1, Rama 1 Road,, ???? ??????? ????????????? 10330, Thailand",212
5354651,"36/6, 36/6 ????? 20, ???? ??????? ??? ??????? ????????????? 10330, Thailand",212
5721913,"36/9, ???????????, ???????????? ?????????? ???????????????, 41000",212
4244897,"36/9, ????????????, ???????????? ????????????? ???????????????, 41000 Thailand",212
5722614,"360 ?????????? ???? ??????? ????????????????????? ??????????? 34000",212
4950382,"360 ???? 1 ??????????? Amphoe Khao Saming, Chang Wat Trat 23150, Thailand",212
788877,"361 Moo 2, Klong Khong Beach, Saladan, Koh Lanta District 81150, Thailand",212
5711282,"361 ???? 14, ?.????????, ?.?????, ??????? 40000",212
275451,"362 Sukhumvit Rd, Tambon Pak Nam, Amphur Muang Samut Prakan 10270, Thailand",212
5723634,"362 ??? ?????????? ??. 30 ???? ???????? ????????????????????? ??????????? 10280",212
4236768,"362 ???? 1, ?????????? ??????????????????????? ????????????????????, 80000 Thailand",212
5716986,"362, ? ???? ???????? ????? ???????? ?????????????",212
5722226,"362/4, ???????????, ???????? ?????????????????????? ???????????????????, 84000 84000",212
5718751,"363-365 ??? ??????? ??????? ????? ?????????? 30000",212
5646367,"363/1 ???? ??????? ?????????????????? ???????? 57100",212
4235194,"363/1,, ?.?????????, ?.?????? ?.????? ?.?????, 52100 52100, Thailand",212
5722192,"363/26 ? .10 ? ? 16 ? ??? ????? ????? ??? ? ???? ???? ?, ????? ???????? ?????? 20150",212
4242782,"364, ??? ??????? ???? ??????? ????????????????????? ??????????? 34000, Thailand",212
5717500,"365 Second Rd, ?????????? Pattaya, ?????? 20150",212
4239482,"365/3 M.10 Pattaya 2nd Road, Pattaya, Chonburi 20150, Thailand",212
5717973,"365/7-8 M.10 T Nongprue, Banglamung, ?????????? 20150",212
4243705,"366 M.",212
4229224,"366 ???? 1 ??????????? ????????????? Chiang Rai, Thailand",212
5717511,"366/11 Moo 12 Phra Tam Nak 4 Road ?????????? Nongprue Banglamung ?????? 20150",212
4247601,"366/5 ??????? 8, ????????????? ???????????? ?????????????, 20000 Thailand",212
128997,"367 / 63-64 Yaowaraj Rd, Taladyai, Muang, 83000, 83000, Thailand",212
5656965,"367 ???? 14 ???? ?????????? ????? ?????? ??????????????? 77110",212
4243756,"367/4 ????10 ??? ????????16 ???????? ???????? ?????? 20150, Thailand",212
4241840,"369 Moo 9 Pattaya 2Nd Road Pattaya, Pattaya, 20260, Thailand",212
4230625,"369-371, Supphasanrangsan Road, Tambon Hatyai, Amphoe Hatyai, Songkhla, 90110, Thailand",212
4243791,"369/1 ???????????, ????????????, ???????????? ????????????? ??????, 20150 20150, Thailand",212
4236146,"369/1 ???? 9 ??? ?.????????, Central Pattaya Rd, Bang Lamung District, Chon Buri 20150, Thailand",212
759181,"369/2 Moo 4, Ban Klong Suan Subdistrict, Phra Samut Chedi District, Samut Prakan 10290, Thailand",212
5269673,"37 Gate,, Charoen Rat Rd, ???? ?????? ??????????????????? ????????? 50000, Thailand",212
5066969,"37 moo 4 drum namuang Koh Samui 84140, Thailand",212
5267800,"37 sarika BLDG., Surawong Road, ???? ???? ????????????? 10500, Thailand",212
5655791,"37 ?.14 ?.?????????? ??????? ????? 90110",212
5716380,"37 ?.?????????? ?.????? ???? ?????????? ?????????????????????? ???????????? 84000",212
5716335,"37 ??? ?????????? ???? ??????? ???????????????????? ?????????? 30000",212
5062186,"37 ?????????? ??? 17, ????????????, ??? ???????? ????????????? 10230, Thailand",212
4235622,"37 ???? 1, ????????, ?????????????? ??????????????????????? ????????????????????, 80000 80000, Thailand",212
4235042,"37, ??????????, ??????????? ???????????? ????????????, 90110 90110, Thailand",212
5364702,"37-9 moo 6 layan cherngtallay, thalang, ?????? Thailand",212
5272582,"37/1 ??????? 3 ???????????, ????????????, ????, ?????? 83110, Thailand",212
5656679,"37/1, ??????????????????? 1, ??????????? ???????????? ????????????, 90110 90110",212
4232518,"37/10-13 ???2, ?????????????, ?.??????? ?.??????? ?.?????, 90110 90110, Thailand",212
5721814,"37/112 ????8 ?????? ????? ???????????? ???????????? ?????????? ??????? 11000",212
4244899,"37/16 4, ????????????????????????????????? ???? ?????????? ?????????????????? ???????? 41000, Thailand",212
5711862,"37/2 Moo1, Lonely Beach / Koh Chang, Koh Chang, ???? 23170",212
5711797,"37/2, ???????, ??????????? ????????????????? ??????????????, 40000",212
5650857,"37/20 ?????????? ???? ???????? ???????????????? ?????? 20000",212
4235766,"37/37-41 Moo 10, Pattaya Tai Road, Tambon Nong Prue, Amphoe Bang Lamung, Chon Buri, 20150, 20150, Thailand",212
5712050,"37/4 Moo 1, Lonely Beach, ????? ???????? ???? 23170",212
5065853,"37/8 moo 4 Lipa noi Koh samui Ban Na We 84140, Thailand",212
4242923,"370 ? .17 ? ????? ?, ???? ??????? ????????????????????? ??????????? 34000, Thailand",212
5656791,"370/1, ??????????????, ??????????? ???????????? ????????????, 90110 90110",212
4229038,"370/8 Moo 15 Sankhongluang Rd, Tambon Rob Wiang, Amphur Muang, Chiang Rai 57000, Thailand",212
4229640,"370/8 ?.24 ??? ??????? ???????? ????????????? Chiang Rai 57000, Thailand",212
5715345,"371/20 ????8 ???????????? ???????????????? ?????????? ??????????? 10280",212
5715533,"371/21, ?????????, ???????????????? ????????????????????? ??????????????????, 10280 10280",212
4233930,"372 Samchai, ??????? Songkhla 90110, Thailand",212
4229655,"373/1 Moo.1, Robwiang, Chiangrai, Chiang Rai 57000, Thailand",212
5717057,"373/13 Mu9 Nongprue, Banglamung ?????????? ?????? 20150",212
4229441,"373/4 ???? 19, ???????????? ?????????????????? ???????????????, 57000 57000, Thailand",212
5647802,"374/1 ???? 21 ???????? ????? ???????? 57000",212
5719303,"374/14 S.Marine south pattaya ?????????? ??????",212
5714715,"375/31-32, ??????????, ?????????? ?????????? ????????????, 52100 52100",212
4231086,"376 M19 Robviang Muang Chiangrai Chiang Rai 57000, Thailand",212
5272082,"376 Moo.3 Tambol Nuea Khlong Amphoe Nuea Khlong 81130, Thailand",212
4231492,"376/1 ???? 1, ?????????? 3199, ??????????? ??????????????????? ????????????????, 71190 Thailand",212
4229742,"377 Ngam Muang Rd, ?????????? Chiang Rai 57000, Thailand",212
5713385,"377 ???? 1 ? ???????? ? ????????, ????? 52190",212
5723533,"377-379 ????????????? ???? ??????? ????????????????????? ??????????? 34000",212
5717575,"377-9 ?????????? ??? ?????????? 9 ??????????? ????????????????????? ??????????? 34000",212
4247470,"377/158 ??????? 2 ?????????????????????????????? 2 ????????? ??????? Chon Buri 20110, Thailand",212
4231758,"377/2 ????? ????? Chiang Rai 57000, Thailand",212
4236075,"378/16 Moo 12 Pattaya, 20260, Thailand",212
5721841,"378/62 moo 12 kasetsin soi 9 pattaya, Nongproue, ????? ???????? ?????? 20150",212
4236095,"378/93 Moo.12, Kasetsin soi 9 Pattaya South 20150, Thailand",212
5020865,"379 Moo 3, Saladan, Ko Lanta, 81150, Thailand",212
5272093,"379 ??????? 2, ???????, ???????????, ?????? 81180, Thailand",212
5721771,"379, ???????????, ??????????? ???????????????????? ?????????????????, 30000",212
4236590,"379/9 Ratchadamnoen Rd Tambon Nai Mueang, ??????????????????????? ????????????? 80000, Thailand",212
5710783,"38 River Kwai Road, Tamacarm City, ????????? 71000",212
205367,"38 Soi Suwinthawong 110, Thailand",212
5647862,"38 ???? 14, ????????? ?????????????????? ???????????????, 57000 57000",212
277174,"38, 39 Bangna - Trad Road 10540, Thailand",212
277175,"38, 39 Bangna - Trad Road 10540, Thailand",212
277176,"38, 39 Bangna - Trad Road 10540, Thailand",212
761923,"38, 39 Bangna - Trad Road 10540, Thailand",212
761924,"38, 39 Bangna - Trad Road 10540, Thailand",212
4231848,"38, Sutthipatchara Road, Tambon Hatyai, Amphoe Hatyai, Songkhla, 90110, Thailand",212
4239117,"38, ????????, ?????????????? ??????????????? ??????????????????, 34190 34190, Thailand",212
4256109,"38, ????????? 1, ??????????? ???????????? ?????????????, 20110 20110, Thailand",212
5714966,"38,38/1-3 No; 1645/1 floor 1, Moo 6 Bangna-trat Rd.,, Bang Kaeo, Bang Phli, Samut Prakan 10540",212
252163,"38-39 Bangna - Trad Road 10540, Thailand",212
279380,"38-39 Bangna - Trad Road 10540, Thailand",212
279433,"38-39 Bangna - Trad Road 10540, Thailand",212
720124,"38-39 Bangna - Trad Road 10540, Thailand",212
750695,"38-39 Bangna - Trad Road 10540, Thailand",212
758496,"38-39 Bangna - Trad Road 10540, Thailand",212
761919,"38-39 Bangna - Trad Road 10540, Thailand",212
5267160,"38-39 Bangna - Trad Road 10540, Thailand",212
5267330,"38-39 Bangna - Trad Road 10540, Thailand",212
5358044,"38-39 Bangna - Trad Road 10540, Thailand",212
4245113,"38-40 ?.??????? 3 ?.??????? ?.??????? ?????? Chon Buri 20110, Thailand",212
5265080,"38/-, Pratuchai, Surawong Road, Surawong,, 1 ??? ???????? 2 ??? ?????? ????????????? 10500, Thailand",212
5659225,"38/1 srasrong road, ?????????? ????? ?????? ??????????????? 77110",212
4949839,"38/11 ???? 8, ??????????, ???????????? ?????????????????? ???????????????, 22000 Thailand",212
5711870,"38/12/22 Moo 4, Kai Bae, ????? ???????? ???? 23170",212
5717963,"38/14 ??? ?????????????????? ??????????? ????????????????? ??????? 11000",212
5722248,"38/15, ???????????-??????, ?????????????? ?????????????????????? ???????????????????, 84000",212
5661998,"38/169 Soi Huahin 88, Rotfai Road, Hua Hin, Prachuab Khiri Khan 77110",212
5065400,"38/2 Moo 3, Borput, Chaweng Beach, Bophut, Koh Samui 84320 Bangrak 84320, Thailand",212
4949993,"38/23 ???? 3, ????????????? ???????????? ???????????????, 22170 Thailand",212
5171841,"38/25 Grand Hill 88, Hua Hin, Prachaup Khiri Khan Huahin 77110, Thailand",212
4243890,"38/3 ?.???? ?. ???????, ?. ????? ?. ??????????, ?????????? 30000, Thailand",212
5718428,"38/3 ??? ???? ???? ??????? ???????????????????? ?????????? 30000",212
5721490,"38/3 ??? ???? ???? ??????? ???????????????????? ?????????? 30000",212
5721491,"38/3 ??? ???? ???? ??????? ???????????????????? ?????????? 30000",212
5667366,"38/39, ?????????? ??????????? ??????????????????????, 77110 77110",212
5171697,"38/49 Soi Hua Hin 68, Petchakasem Road, ?????????? ??????????????? 77110",212
5645610,"38/6 ???? 7 ????????? ???????? ??????????????? 13170",212
5374946,"38/63, Chaweng Beach ????? ???????? ???????????? 84320, Thailand",212
5372588,"38/69 moo 3 chaweng beach road, koh samui, Thailand",212
5065948,"38/7 ??????? 4, ???????????? ????????????? ???????????????????, 84140 Thailand",212
5174086,"380/41 Moo 9, Beach Road Soi 2, North Pattaya, Banglamong District Chonburi Chonburi 20150",212
5720063,"381/127 ??? ???????? 3 ???? ??????? ???????????????????? ?????????? 30000",212
5173503,"381220 moo 4 Koh Chang Trat, Koh Chang District TT 23170, Thailand",212
4230199,"382 ???? 7, ????????-?????, ?????????? ?????????? ????????????, 52000 Thailand",212
4231039,"382/13, Baanpa Pragarn Road, Tambol Wiang, Amphoe Mueang, Chiang Rai, 57000, 57000, Thailand",212
4231242,"382/15 Thanon Baanpa Pragarn Rd, ????? ????? Chiang Rai 57000, Thailand",212
4949713,"383, ?????????????, ??????????? ???????????? ???????????????, 22120 22120, Thailand",212
5721102,"383/2, ??? ????????-????? 75 ?????????? ????? ???????? ?????? 20150",212
5647893,"383/7 ??????? 10, ??????????? ?????????????????? ???????????????, 57100",212
5717007,"384 ?.5 ?.???????????????? ???? ?????? ?.?????, ????????????? 80000",212
4229601,"384/15 ?.6 ?.????????????? ??????????????????, Chiang Rai 57100, Thailand",212
5720678,"384/46 M.6, ?????-??????? ?????????? ????? ???????? ?????????? 20150",212
4236341,"384/94 Banglamung, ??? ?????????? 10 ?????????? +66861559142, 20150, Thailand",212
5647880,"385 ???? 1, ???????????-??????, ???????????? ?????????????????? ???????????????, 57000 57000",212
4240879,"385/4, Khao Makok Intersection Road, Muang Pattaya, Bang Lamung District, Chonburi 20150, Thailand",212
5656558,"387/ 8-10 ??? ??????????? ????? ??????? ????? 90110",212
5170910,"387/2 moo.8 soi.Payang 12 Wiang Phang Kham Mae Sai District, Chiang Rai 57130, Thailand",212
4231070,"388 ???? 2, ????????? ?????????? ???????????????, 57100 57100, Thailand",212
5718833,"388/24 ???????? ???? ?????????? ?????????????????????? ???????????? 84000",212
4239465,"388/6 Pratamnak Road, ?????????? ?????? 20150, Thailand",212
4232629,"389 ??????? 4, ????????? ??????????? ????????????, 52130 Thailand",212
4232259,"389, ?????????????????, ??????????? ???????????? ????????????, 90110 90110, Thailand",212
5722109,"389/16 ???????? ???? ?????????? ?????????????????????? ???????????? 84000",212
4240415,"389/480 M12, Pratumnak Soi 6, Nongprue, Bang Lamung District, Chon Buri, Thailand, ?????????? ????? ???????? ?????? 20150, Thailand",212
5270299,"389/68, ??? ??? ?? 41/1, ????? ????? ??????? ???? ? ? ?? ???? 84000, ???????? ???? ?????????? ?????????????????????? ???????????? 84000, Thailand",212
5711616,"389/9 Moo. 12 Baankok Road, Ban Pet, Mueang, ??????? 40000",212
749575,"389/953, Moo 12, Nongprue, Banglamung, Chon Buri 20150, Thailand",212
749817,"39 1st, 2nd Floor, Room 1102,2102, Moo 6, Bangna-Trad Road., Bangkaew, Bangplee, Samutprakarn. Bangkaew Bangplee Samut Prakan 10540, Thailand",212
5265253,"39 Boulevard Tower, 2 floor, Soi Sukhumvit 39( Soi Phrom Chit), BTS phromphong, ????????????? 10110, Thailand",212
5267269,"39 M.6 T.Bangkaew? A. Bangplee Samutprakan, Thailand",212
749702,"39 Mega-Bangna department store Bangna-Trad Road Km.8, Bang Kaeo, Bang Phli, Samut Prakan 10540, Thailand",212
277102,"39 Moo 1 Mega-Bangna Department Store Bang Na-Trat Rd, Bang Kaeo Subdistrict Bang Phli, Samut Prakan 10540, Thailand",212
5272485,"39 Moo 3, Tambon Phru Nai, Phang Nga 83100, Koh Yao Yai, Thailand",212
759410,"39 Moo 4 Soi Sukaphiban 11, Suksawat Rd., Bang Khru Subdistrict, Phra Pradaeng District, Samut Prakan 10130, Thailand",212
279466,"39 Moo 6 Bang Na-Trat Rd, Bang Kaeo Subdistrict Bang Phli, Nakhon Pathom 10540, Thailand",212
186973,"39 Moo 6 Mega-Bangna Shopping Center Bangna-Trad Road Km.8, Bang Kaeo, Bang Phli, Samut Prakan 10540, Thailand",212
279271,"39 Moo 6 Mega-Bangna Shopping Center Bangna-Trad Road Km.8, Bang Kaeo, Bang Phli, Samut Prakan 10540, Thailand",212
750697,"39 Moo 6 Mega-Bangna Shopping Center Bangna-Trad Road Km.8, Bang Kaeo, Bang Phli, Samut Prakan 10540, Thailand",212
278555,"39 Moo 6 Mega-Bangna Shopping Center, Bangna-Trad Road, Km.8, Bang Kaeo, Bang Phli, Samut Prakan 10540, Thailand",212
278901,"39 Moo 6 Mega-Bangna, Bangna-Trad Road, Km.8, Bang Kaeo, Bang Phli, Samut Prakan 10540, Thailand",212
277104,"39 Moo 6 Megha-Bangna Department Store, Bang Trat Road, Bang Kaeo Subdistrict, Bang Phli, Samut Prakan 10540, Thailand",212
278608,"39 Moo 6, Bang Kaeo Subdistrict, Bang Phli, Samut Prakan 10540, Thailand",212
278597,"39 Moo 6, Bang Kaeo, Bang Phli, Samut Prakan 10540, Thailand",212
750694,"39 Moo 6, Bangna-Trad Rd., Km.8 Bangkaew, Megabangna Building, Suite 1502,1504, 1st Floor, Bangplee, Samut Prakarn, TH-11 10540, Thailand",212
749704,"39 Moo 6, Mega Bang Na, 1st Floor, Tambon Bang Kaeo, Amphoe Bang Phli, Samut Prakan, 10540, Thailand",212
5267159,"39 Moo 6, Mega Bang Na, Bang Na-Trat Km.8 Road, Tambon Bang Kaeo, Amphoe Bang Phli, Samut Prakan, 10540, 1235 Thailand",212
182885,"39 Moo 6, Mega Bang Na, Bang Na-Trat Road, Tambon Bang Kaeo, Amphoe Bang Phli, Samut Prakan, 10540, Thailand",212
278552,"39 Moo 6, Mega Banga Mall, 1st Floor, Lot No. 1324, 1326, 1328, Bangna-Trad Rd, Bangplee, Samut Prakan 10540, Thailand",212
5267103,"39 Moo 6, Mega Bangna, 1st Fl., Room 1238-1239 Bangna-Trat Rd, 1238-1239 Bang phli, Bang kaeo, ??????????? 10540, Thailand",212
744319,"39 Moo 6, Mega Bangna, Bang Na-Trat Road, Tambon Bang Kaeo, Amphoe Bang Phli, Samut Prakan, 10540, Thailand",212
749703,"39 Moo 6, Room 1760 Bang Na-Trat Rd, Bang Kaeo Subdistrict Bang Phli, Samut Prakan 10540, Thailand",212
279455,"39 Moo6, Bangna - Trad Road, Bangkaew, Bangplee, Samutprakarn, 1st Floor, Room No. 1366,1367, MEGA Bangna Shopping Center, Bangplee, Samut Prakan 10540, Thailand",212
5715309,"39 Room No. 1128, Mega Food L1 Mega Bangna, Moo 6, Bang Kaeo, Samut Prakan, ??????????? 10540",212
5266413,"39 Sukhumvit Soi8, Sukhumvit Road, Klongtoey, ????????????? 10110, Thailand",212
5355249,"39 ??????????? 11 ??????????, ????????????, ??? ????? ????????????? 10400, Thailand",212
5730724,"39 ?. ????????? ?.???????, ?????, ???????? 22000",212
5267100,"39 ???? 6 ???????????????????? ???? G ????11208-1209 ????????-???? ??.8 ??????????? ??????????? 1208-1209 Bang Na-Trat Frontage Rd, Bang Phli, Samut Prakan 10540, Thailand",212
5266601,"39 ????6 MEGA-BANGNA Bang Na-Trat Rd, ??????????? Bang Phli, Samut Prakan 10540, Thailand",212
4949816,"39 ???? 7, ???????????, ?????????????? ?????????? ???????????????, 22000 22000, Thailand",212
5364132,"39, 39/1 ?.??????? ?.?????? ?.??????, ?????? 83150, Thailand",212
789528,"39, Kan Tang Road, Tambon Thap Thiang, Amphoe Muang Trang, Trang, 92000, Thap Thiang Subdistrict, Mueang Trang District, Trang 92000, Thailand",212
205237,"39, Moo 6, Meka Bangna, 1st Floor, Bang Na-Trad, Tambon Bang Kaeo, Amphoe Bang Phli, Samut Prakan, 10540, 1228 Thailand",212
5365197,"39, ??? ????????? ?????????? ????? ????? ?????? 83150, Thailand",212
5353688,"39, ??????? ????????????? ???????? ??? ??? ????? ???? F10, ???????????, ???????????? ??????????? ?????????????, 10170 10170, Thailand",212
4234657,"39,41,43,45 ?????????? 1 ??????????? ????????????, ????? 90110, Thailand",212
5019766,"39-41 Soi Phromjitr, Khlong Tan Nuea Sub-District, Wattana District, Kamphaeng Phet 10110, Thailand",212
5653379,"39/ 5, ??????????? 5 ???? ???????? ???????????????? ?????? 20000",212
5722151,"39/1 ??????? 4, ???????-???, ??????????? ?????????????????? ???????????????, 41000 41000",212
5656793,"39/1, ??????????????, ??????????? ???????????? ????????????, 90110 90110",212
4241470,"39/112 .6, ??? ?????????-???????? 39 ????? ???????? ??????? 11120, Thailand",212
761953,"39/12-14, Moo 6, Praditsamosorn Road, Tambon Bangmuangmai, Amphoe Samutprakan, Samutprakan, 10270, 10270, Thailand",212
755261,"39/19 Moo 15, Pu Chao Saming Sai Road, Samrong Subdistrict, Phra Pradaeng District, Samut Prakan 10130, Thailand",212
4244049,"39/19 Soi Mooban Silarom 19, Samet, Mueang Chon Buri 20000, Thailand",212
758324,"39/23 Soi Epchrh ? g ? s 25, Bang Yo, Phra Pradaeng District, Samut Prakan 10130, Thailand",212
5173433,"39/4 Moo 4, Bann Klong Prao Koh Chang Trat 23170, Thailand",212
5709631,"39/407 ????????? ????????? 102, ??????????, ?????????? ??????????? ??????????????????????, 77110 77110",212
5658860,"39/413 Soi 1 ???? ?????? ????? ?????? ??????????????? 77110",212
5708615,"39/413 Soi 1 ???? ?????? ????? ?????? ??????????????? 77110",212
4236759,"39/5 ???? 5 ?????????????????, ??????????? ??????????????????????? ????????????????????, 80000 Thailand",212
5709438,"39/586 Soi 102 ???? ?????? ????? ?????? ??????????????? 77110",212
5171917,"39/784, Soi Hua Hin 102, Tambon Hua Hin, Prachuap Khiri Khan 77110, Thailand",212
763127,"39/8 Bophut Surrattanni Chaweng Beach 84320, Thailand",212
5170987,"39/9 Moo 3, Don Hua Lo Subdistrict, Mueang Chon Buri 20000, Thailand",212
171655,"39/99 Moo 4, Vichitsongkram Rd., Soi Na Seau 1 ,, T. Vichit ,, A. Muang, 83000, Thailand",212
4236323,"390 Moo 9, Pattaya Sai 2 Road, Nong Prue Subdistrict, Bang Lamung District, Chon Buri 20150, Thailand",212
4239335,"390 ?.???????? ?.??????? ?.????????????????, ????????????????????? ??????????? 34000, Thailand",212
4244495,"390 ??????? 1, ??????????-??????, ??????????? ???????????????????? ?????????????????, 30000 Thailand",212
4230198,"390, ?????????? ?????????? ????????????, 52000 52000, Thailand",212
4243938,"390/14 Moo 9, pattaya sai 3 road ,, soi chalarmprakiat 21 ,, Bang Lamung District, Chonburi 20150, Thailand",212
4240153,"391 Thap Phraya 15 Alley, Muang Pattaya, Amphoe Bang Lamung, Chang Wat Chon Buri 20150, Thailand",212
4236292,"391/129 Moo 10, Soi Thappraya, Thappraya Road 15, Nongprue, Banglamung, Pattaya, Chon Buri 20260, Thailand",212
5721837,"391/154 ???????? ?????????? ????? ???????? ?????? 20150",212
5717030,"391/6 ??? ???????? ???? ??????? ????? ?????????? ?????? 20260",212
4245081,"391/72 Thappraya Rd, Muang Pattaya, Amphoe Bang Lamung, Chang Wat Chon Buri 20150, Thailand",212
5721844,"391/72 ???????? ?????????? ????? ???????? ?????? 20150",212
5665850,"392 ?????? 101 ???? ?????? ????? ?????? ??????????????? 77110",212
4232064,"392/1 Prachayindee Road, HatYai, Songkhla 90110, Thailand",212
5647537,"393, ???? ?????? ??? ?????????? ???? ????? ?????????????????? ???????? 57000",212
5717502,"394/122 M. 9 Pattaya 3rd Road, Nongprue, Banglamung, ?????????? ?????? 20150",212
4230661,"395 ???? 2, ??????????? ?????????? ???????????????, 57100 57100, Thailand",212
4233620,"395, Moo 12, Bankudkwang, Mittraphap Road, Tambon Naimuang, Amphoe Muang Khonkaen, Khonkaen, 40000, 40000, Thailand",212
4231042,"395/1 ????????? ?????????????? ????? ????????????? Chiang Rai 57000, Thailand",212
5720924,"39511 ????????????? ????????????? ??????????? ????? ??????? ?????? 20110",212
5174085,"396 / 80-83 Soi Kasetsin 5 Ratchawarun Rd., Phra Tamnak Hill, Pattaya, Thailand Pattaya South 20150",212
4230531,"398/1 ??????? 17 ??????? ?????????????? ?????, ??????? 40000, Thailand",212
4249883,"399/27-28 ???? 11, ??????????? ???????????? ?????????????, 20230 20230, Thailand",212
5716942,"399/57 ???? ??????? ???????????????????? ?????????? 30000",212
5717166,"399/7 ???????? ???? ???????? ?????????????????? ???????? 41000",212
4240494,"399/9 Moo 10, pattaya 2nd Road,, (Near the Avenue Pattaya and next to, Villa Supermarket), Nong Prue, Banglamung, Chon Buri 20150, Thailand",212
4236004,"399/9 Moo 10, The Avenue Pattaya, 1st Floor, Pattaya Sai 2 Road, Tambon Nong Prue, Amphoe Bang Lamung, Chon Buri, 20150, Thailand",212
5720073,"399/9 ??????????? ?? ?????? ????? ???? ???????? ????? ???????? ?????? 20260",212
4235798,"399/9 ???? 10 ??????????? 2 ?.???????? ????????, Chon Buri 20150, Thailand",212
5717503,"399/9 ??????? 10 ??? ???????? 2 ???? ???????? ????? ???????? ?????? 20150",212
4240411,"399/9, Moo 10, The Avenue Pattaya, 1st Floor, Room B104, Tambon Nong Prue, Amphoe Banglamung, Chonburi, 20150, Thailand",212
4242182,"3rd Fl. of Harbor Pattaya Shopping Mall, 190/25 ???? 9 ????????????, ????????, ????????, Chon Buri 20150, Thailand",212
4248006,"3rd Fl. of Tukcom Sriracha, 135/99 Sukhumvit Rd., Sriracha, Sriracha ,Chonburi, 20110, Thailand",212
5266707,"3rd floor 31/5, 31/5 ??? ???????? ???? ??????? ??? ???????? ????????????? 10310, Thailand",212
736683,"3rd Floor Methawattana Building Soi 19 Sukhumvit, Thailand",212
4243198,"3rd Floor The Avenue Pattaya 2nd Road, Line ID: clubwax, ?????????? ????? ???????? ?????? 20150, Thailand",212
4243838,"3rd Ln, Krishna Nagar, Guntur, Andhra Pradesh 522006, India",212
4571703,"4 / 90-95 Phet Kasem Rd, Tambon Hua Hin, Amphoe Hua Hin, Chang Wat Prachuap Khiri Khan 77110, Thailand",212
5731178,"4 5 8/4-5 ??? ???????? ???? ??????? ?????????????????? ???????? 22000",212
4231672,"4 71190, 70 ??? ???? 3 ???? ??????? ??????????????????? ????????? 71000, Thailand",212
5172508,"4 Damrongrat Rd, Soi Hua Hin 51, Hua Hin, Prachuap Khiri Khan 77110, Thailand",212
4247458,"4 Jermjompol Road, Soi Leamkate, Sriracha Chon Buri 20110, Thailand",212
5173411,"4 Moo 1 Aumper, Koh Chang District 23170, Thailand",212
5717021,"4 Prachanivate, ??? ??????? 58/18 ???? ??????? ????????????????? ??????? 11000",212
239554,"4 Sanam Chan Subdistrict, Mueang Nakhon Pathom District, Nakhon Pathom 73000, Thailand",212
5171820,"4 Soi Bintabat, Poonsuk Road, Prachuap Khiri Khan Province, Hua Hin, 77110, Thailand",212
5768059,"4 Sukhumvit Rd, Khwaeng Khlong Toei, Khet Khlong Toei, Krung Thep Maha Nakhon 10110, Thailand",212
4951006,"4 ?????????????? 1, ??????????????, ???????? ?????????????????? ???????????????, 22000 22000, Thailand",212
5662000,"4 ?????????? ????? ?????? ??????????????? 77110",212
5272622,"4, 177/99 Moo 6 ???? ???????? ????? ???? ?????? 83110, Thailand",212
4232670,"4, 6, ????????????????????? 1, ??????????? ???????????? ????????????, 90110 90110, Thailand",212
5270892,"4, 99 ??? 2 ???? ?????? ????? ???????? ???????????? 84320, Thailand",212
4256102,"4, Jermjomphon Road, Sriracha Subdistrict, Sriracha District, Chonburi, 20110 20110, Thailand",212
4571918,"4, Tambon Hua Hin, ???????????????, Chang Wat Prachuap Khiri Khan 44110, Thailand",212
4232262,"4, ?????????????, ???? ??????? ????? ???????, 90110, ??????? ????? 90110, Thailand",212
5267831,"4,,, 23/1 ??? ???????? ???? ???????????? ??? ????? ????????????? 10110, Thailand",212
4245102,"4-16, Siracha Nakorn 3 Road, Tumbol Siracha, Amphon Siracha, Chonburi, 20110, 20110, Thailand",212
5272676,"4-5, 110 ?????????? ?????????? ????? ????? ?????? 83150, Thailand",212
5357697,"4/, ??? ???????? 164 ??? 11 ??????????? ???? ??????? ????????????? 10510, Thailand",212
277391,"4/1 Esso oil pump Namdang-Bangplee Rd, Bang Kaeo Subdistrict Bang Phli, Samut Prakan 10540, Thailand",212
716580,"4/1 Phraproklao, 50200, Thailand",212
5714711,"4/1, ?????????, ?????????? ?????????? ????????????, 52100 52100",212
779797,"4/10 Moo 4 Baan Tha Khao Koh Yao Noi Phang-nga 82160, Thailand",212
5714764,"4/11 Moo 4 Soi Vorvan, Klong Prao, ????? ???????? ???? 23170",212
5644403,"4/11-12 ??? ????? ???? ????????? ????? ??????????????? ??????????????? 13000",212
4235058,"4/13, ???????????????, ??????????? ???????????? ????????????, 90110 90110, Thailand",212
5711936,"4/15 Moo.1 Lonely Beach South, ????? ???????? 23170",212
5171952,"4/153 Golfview Village, Hua Hin, Prachuap Khiri Khan Hua Hin 77110, Thailand",212
5730801,"4/19 ???? 7 ????????????? ???? ???????? ????? ????????????? ???????? 22000",212
756945,"4/2 Moo 9, Petchhuengs Road, Songkhanong Subdistrict, Phra Pradaeng District Samut Prakan Province, 10130 Thailand",212
4237463,"4/208, ??????????? ?????????? ????????????????????, 80000 80000, Thailand",212
5173701,"4/22 Moo 1, Koh Chang Subdistrict, Koh Chang District, Trat Province, 23170 Thailand",212
5718000,"4/222 ??? ???????? ???? ????????? ????? ??????? ?????? 20230",212
4249644,"4/222 ?.10 ??????????? ?.????????? ?.??????? ?.?????? 20110 ??????? ?????? 20110, Thailand",212
4249695,"4/222 ???? 10, ???????????????????????????? ????G, ???? ??????? ?????? 20110, Thailand",212
5718003,"4/222, ??? ???????? ?????????????, ????? ??????? ?????? 20230",212
5173484,"4/28 Moo 1 Lonely Beach, Koh Chang South, Trat 23170, Thailand, Koh Chang District Trat 23170, Thailand",212
5711906,"4/29 m.1 blockhouse lonely beach tambon, south kohchang, ????? ???????? 23170",212
4950319,"4/36 ???? 2 ?????????1, ??????????? ?????????? ???????????????, 22000 Thailand",212
4238503,"4/38-39 ???? 1 ??????????? ??????? ?????????????????, ??????, ???????????? 84000, Thailand",212
5173667,"4/4 Moo 1, Koh Chang Subdistrict, Koh Chang District, Trat Province, 23170 Thailand",212
5374865,"4/4 ?????????????????, ???????-????????, ?????????? ????????????? ???????????????????, 84320 Thailand",212
5173467,"4/40 Moo 1, Tambon Koh Chang Tai Koh Chang District, Trat Province, 23170 Thailand",212
5711914,"4/47 Moo 1 Lonely Beach, Koh Chang South, ????? ???????? ???? 23170",212
279412,"4/5 Moo 5, Namdaeng - Bangplee Road Bangkaew, Bangplee, Samutprakarn 10540 Thailand, Thailand",212
5714963,"4/5 ????1 ??? ????????? ????????????? ????????????????????? ??????????? 10270",212
5731223,"4/50 ???????9, ?????????? 1, ??????????? ?????????????????? ???????????????, 22000 22000",212
5711929,"4/51 ??? ?????? ???????????1 ???? ??????????? ????? ???????? ???? 23170",212
5709908,"4/56 ??? ?????????? ?????????? ????? ????? ??? ?????????? ?????????? ????? ????? ??????????????? 77110",212
5658527,"4/56 ??? ?????????? ?????????? ????? ?????? ??????????????? 77110",212
762827,"4/6 Chaweng, Moo 3, Bophut, Koh Samui, 84320, Thailand",212
239710,"4/6 Moo 7 Bang Na-Trat Rd, Bang Kaeo Subdistrict Bang Phli, Samut Prakan 10540, Thailand",212
4230758,"4/6 Sankhongnoi Soi 6, Chiang Rai 57000, Thailand",212
5659002,"4/62 ??? ?????????? ?????????? ????? ?????? ??????????????? 77110",212
5173686,"4/7 Moo 1, Koh Chang Subdistrict, Koh Chang District, Trat Province, 23170 Thailand",212
5711868,"4/70 Moo 1, Lonely Beach, ????? ???????? TT",212
5722152,"4/8-10 ?????? ?????? ???????????? ?????????????????? ???????? 41000",212
5720945,"4/88 ?.???????????.?.???? 1 ???? ????????? ???????????? 84000",212
4226284,"4/89 ??????? 8, ????????? ???????????????????? ??????????????????????, 13000 ? Thailand",212
5266616,"4/90-91 ??????? ??.?? ?????? ???????? ?.?????????-??????? ???????????? ???????? ???????? 10230, Thailand",212
5268678,"4/91 SOI MOOBAN NONGKAE, Nong Kae, AMPUR HUA HIN, Prachuap Khiri Khan 77110, Thailand",212
5659234,"4/91 ?????????????????, ?????????? ??????????? ??????????????????????, 77110 77110",212
5266464,"4/99, 4/99 ????????????????? ???? ???????? ??? ???????? ????????????? 10230, Thailand",212
5718074,"40 216 ???? ?????????? ?????????????????? ???????? 41000",212
4231645,"40 Moo 3, Doi Hang Subdistrict, Chiang Rai Province, Thailand",212
85204,"40 Ratuthit 200 Pee Road, Patong Beach, PU, Thailand",212
5711518,"40 ??? ????????? ???? ??????? ????????????????? ??????? 40000",212
5711665,"40 ??? ????????? ???? ??????? ????????????????? ??????? 40000",212
5710615,"40 ??? ??????? ???? ??????? ??????????????????? ????????? 71000",212
4235289,"40 ????????????1 ??????? Songkhla 90110, Thailand",212
5721475,"40 ????????????????????????????? ??? ???????????? ???????????????????? ?????????? 30000",212
4231172,"40 ???? 12 ??????????, ???????????? ??????????, ???????????????, Chiang Rai 57000, Thailand",212
5271381,"40, ??? ????? ???????????????? ?????? 83150, Thailand",212
5649548,"40/ 28 1, ??????????? 18 - ??? ??????????? 7 ???? ????? ???????????????? ?????? 20000",212
5653748,"40/1 ??? ???????????? ?????????? ???????????????? ?????? 20130",212
5712034,"40/11 MOO.4 KAIBAE ROAD Koh Chang,, ????? ???????? ???? 23170",212
5715334,"40/11 ???? 4 ???????? ???? 23170",212
5723624,"40/11/26 Moo 4, Ban Kai Bae, ???? ???????? ????? ???????? 23170",212
5721783,"40/12-13 ?.??????? ????? ?????????? 30000",212
5650715,"40/19 ????9 ???????????? ????????? ??????????? ?????? 20000",212
278456,"40/2 Moo14, Soi King Kaew 37 / 2King Kaew Road, Tambon Rachathewa, Amphoe Bangplee, Samutprakarn, 10540, 10540, Thailand",212
5731230,"40/2 ???? 5 ?????????????????? ???? ??????? ????? ??????? ???????? 22120",212
187693,"40/202 Moo 10, Bangna-Trad Rd, Bangkaew, Bangplee, Samut Prakan, 10540, 10540, Thailand",212
5709721,"40/21 ???????? ??? ???????? ?????????? ????? ?????? ??????????????? 77110",212
5363733,"40/24 39, 32/9 ??? ?????????????? ???? ???? ???????????????? ?????? 83000, Thailand",212
4571910,"40/24-25, Thai Khu Fa Shop, Phetkasam Road, Tambon Hua Hin, Amphoe Hua Hin, Prachuap Khiri Khan, 77110, Thailand",212
5718783,"40/34 ??????????????????????? ????????????? 80000",212
5716922,"40/4 ?.?????? ??????? ???????????????????? ?????????? 30000",212
4949970,"40/5 ???? 6 ???????????, ????????? ?????????? ???????????????, 22000 Thailand",212
5173413,"40/6 Moo 4, Kaibae Beach, Koh Chang, Trat 23000 Thailand, Buri Ram, Thailand",212
4949947,"40/7 ???? 7, ??????????, ??????????? ?????????????????? ???????????????, 22000 Thailand",212
5653868,"40/74 ??? ????????? ???? ????? ???????????????? ?????? 20000",212
5653869,"40/74 ??? ????????? ???? ????? ???????????????? ?????? 20000",212
4237474,"40/83, ?????????????????, ??????????? ??????????????????????? ????????????????????, ??????????????????, 80000 80000, Thailand",212
183260,"40/85 M.8 Vibhavadi-Rangsit Road, Don Mueng 10210, 10210, Thailand",212
4951089,"400 Phahonyothin Rd, Khwaeng Samsen Nai, Khet Phaya Thai, Krung Thep Maha Nakhon 10400, Thailand",212
4236076,"400 Soi Pratamnuk Road, 20260, Ratchawarun, Muang Pattaya, Amphoe Bang Lamung, Chonburi 20150, Thailand",212
5720663,"400 ??? ??????????? ???? ??????? ????????????????? ??????? 11000",212
5716957,"400 ??????????8 ???? ???????,???????????????????? ?????????? ??????? ????? ?????????? 30000",212
5711310,"40000 ????????????????? ???????",212
5711363,"40000 ????????????????? ???????",212
5711511,"40000, ????????????????? ???????",212
5711652,"40000, ????????????????? ???????",212
5711750,"40000, ????????????????? ???????",212
4232804,"40000, ????????????????? ??????? Thailand",212
4234832,"40000, ????????????????? ??????? Thailand",212
4234881,"40000, ????????????????? ??????? Thailand",212
5711286,"40000,, ????????????????? ???????",212
5711304,"40000,, ????????????????? ???????",212
4233032,"40000,, ????????????????? ??????? Thailand",212
4235383,"40002, ??????? ???? ??????? ????????????????? ??????? 40000, Thailand",212
4232217,"402 ?.2 ?.?????-??????? ???????????????, ????? 52000, Thailand",212
4239247,"402, ???????????, ???????? ?????????????????????? ???????????????????, 10130 84000, Thailand",212
4239260,"402, ???????????, ???????? ?????????????????????? ???????????????????, 10130 84000, Thailand",212
4236327,"403 / 162-166 jomtien, Pattaya 20150, Thailand",212
784808,"403, Na Tham Tai, Mueang Trang District, Trang 92190, Thailand",212
4243765,"403/171 ?.????????-???????????, ?.????????, ?.???????? ?.???????? ?.??????, 20150 20150, Thailand",212
4231644,"404 Ban Du Soi 2, Ban Du Mueang, Chiang Rai 57100, Thailand",212
4229222,"404 Moo 10,Tambon Bandu Distr., ????? Chiang Rai 57100, Thailand",212
4230161,"404 Moo 13, Rat Bamrung Road, Tambon Rop Wiang, Amphoe Mueang, Chiang Rai, 57000, Thailand",212
4228940,"404 moo 4 Ban Du - Rim Kok Ban Du - Rim Kok Amphoe Chiang Rai 57000, Thailand",212
4229204,"404 Moo.10 Bandu Muang Chiang Rai 57100, Thailand",212
5721881,"404, ????????????????, ??????????? ?????????? ??????????????????, 34000 34000",212
4244753,"404-406, ???????? 11, ????, ?????, ???????????? 84000, Thailand",212
770265,"404/23 Moo 1 Tambon Maret Samui, 84310, Thailand",212
772614,"404/33 Moo March 1 Sub-district, Koh Samui, Thailand",212
5717430,"405 ? ? ? ?? ? ?? ? ?? ? ????? ???? ??????? ???????????????????? ?????????? 30000",212
4229572,"405 ??????? 1, ??????????-?????????, ????????? ????????????????? ???????????????, 57170 Thailand",212
4239547,"405, ??? ???????? 11 ???? ??????? ????????????????????? ??????????? 34000, Thailand",212
5020913,"406 Moo 2, T.Saladan, Ko Lanta, Ko Lanta Yai, 81150, Thailand",212
5649923,"406 ????????????? ???? ??????????? ???????????????? ?????? 20000",212
4226602,"406 ???? 4, ?????????? ?????????? ??????????????????????, 13210 13210, Thailand",212
5721870,"406, ???????????, ??????????? ????????????????????? ??????????????????, 34000",212
5019916,"407/1 Khachon Wit, Phraek Sa Mai, Mueang Samut Prakan District, Samut Prakan 10540, Thailand",212
5721869,"408, ???????????, ??????????? ????????????????????? ??????????????????, 34000",212
5170836,"41 Moo 10 T.Ban Du, A Mueang, Chiang Rai (41 Moo 10, Ban Du Subdistrict, Mueang District, Chiang Rai Province) Ban Du 57100, Thailand",212
5020215,"41 Moonmuang Rd. Lane 6 T.Sripoom A.Muang, 50200, Thailand",212
133930,"41 Rat-U-Thit 200 Year Road, Patong Beach, Thailand",212
4949242,"41, ?????????, ???????? ?????????? ???????????????, 22000 22000, Thailand",212
4233365,"41, ????????-???????, ?????????? ??????????????? ????????????, 52000 Thailand",212
5719228,"41-43 ??? ?????? ???? ??????? ???????????????????? ?????????? 30000",212
5272735,"41/1 ????????, ???????????????? ?????? 83000, Thailand",212
5717087,"41/10 ???? 9 ???.?????????????10 (????????????) ?????? ???? ??????? ?????? 20110",212
4256026,"41/118 ???? 3, ???????????, ????????????? ???????????? ????????????? 20110, Thailand",212
4249654,"41/121 ???? 3 ?????????????, ???? ??????? ?????? 20110, Thailand",212
4236401,"41/18 S Pattaya Rd, Muang Pattaya, Amphoe Bang Lamung, Chang Wat Chon Buri 20260, Thailand",212
4231836,"41/197, ??????????????????? 1, ??????????? ???????????? ????????????, 90110 90110, Thailand",212
5731234,"41/2 ??????? 3, ?????????????? ???????????? ???????????????, 22120",212
5722086,"41/23 ??? ????????????? ???? ????????? ????? ??????? ?????? 20110",212
5722103,"41/23 ??? ????????????? ???? ????????? ????? ??????? ?????? 20110",212
4241788,"41/25 ???? 10, ???????????, ???????????? ????????????? ?????????????, 20150 20150, Thailand",212
4250045,"41/30 Moo 7, Sukhumvit Road, Tungsukla, Sriracha, Chonburi, 20110 Thailand",212
4255964,"41/30, ??????????? ???????????? ?????????????, 20110 20110, Thailand",212
5658850,"41/408 ?????????????????? ?????????? ????? ?????? ??????????????? 77110",212
4256038,"41/59 ???? 9 ?.???????? ?????? ???????, Chon Buri, Thailand",212
4248012,"41/62 Moo 9, Bang Phra Subdistrict, Sriracha District, Chon Buri, 20110 20110, Thailand",212
4571973,"41/8 Phetchkasem Rd. Hua-Hin Soi 7, Hua Hin, PK, Thailand",212
4250277,"41/86 moo3 Kao Kilo rd., surasak, sriracha, Chon Buri 20110, Thailand",212
134742,"41/9 Rat Uthit 200 Years Road, Patong Subdistrict, Kathu District 83150, Thailand",212
5716016,"41000, ?????????????????? ????????",212
5716424,"41000, ?????????????????? ????????",212
5716436,"41000, ?????????????????? ????????",212
5718878,"41000, ?????????????????? ????????",212
5721918,"41000, ?????????????????? ????????",212
5721938,"41000, ?????????????????? ????????",212
4244279,"41000, ?????????????????? ???????? Thailand",212
4244372,"41000, ?????????????????? ???????? Thailand",212
5716429,"411 ? .7 ???? ??? ???????? ??? ???? ???? ????? ????? ???????? ? ??????? ?????? ????? ???????? 41330",212
5170997,"411/20 Ban Suan-Setthakit 10 Soi 9, Baan Suan, muang, Chonburi Chon Buri 20000, Thailand",212
5716010,"4112 ????? ?????? ???????????? 84130",212
4235899,"412/1 Moo2, bankho, muang, ?????????? 30000, Thailand",212
5647543,"412/5 ??????? 4 ????? ????????????? ???????? 57000",212
4238731,"413/, ??? ??????? 1 ???? ??????? ????????????????????? ??????????? 34000, Thailand",212
5717061,"413/103 ???????? ?????????? ????? ???????? ?????? 20150",212
5717516,"413/4, Moo 3 ????? ??????? ?????? 20110",212
5647471,"414 1 ???? ????? ?????????????????? ???????? 57100",212
5720743,"415 ???? 3 ???????? ???? G ????? ???????? ????????????? 41000",212
4244538,"415 ???? 3, ??????????????, ???????????? ?????????????????? ???????????????, 41000 Thailand",212
4242063,"415 ??????? 3 ???????? ?????????????, ???????? 41000, Thailand",212
759238,"4153/4 soi bearing 40 sukumvit107 Samrongnua Muang Samut Prakan 10270, Thailand",212
4233994,"416-417, Phetkasame Road, Tambon Hadyai, Amphoe Hadyai, Songkhla, 90110, Thailand",212
5065988,"4170 Tambon Maret Koh Samui Koh Samui 84310, Thailand",212
5266405,"418 4th floor., ????????????? Siam Tower ??? ????????? 1 ???? ??????? ??? ??????? ????????????? 10330, Thailand",212
4240414,"418/19-20, ?.?????????, ??????, 20150 ?.???????? Bang Lamung District, Chon Buri 20150, Thailand",212
4243188,"418/4 ?, ???????? ?????????? ????? ???????? ?????? 20150, Thailand",212
758215,"419 / 49-52, Moo 10, Tambon Klongplakod Phra, Amphoe Samut Chedi, Samutprakan, 10290, 10290, Thailand",212
4234129,"419, ????????????, ???????????? ??????????????????? ????????????????, 71000 71000, Thailand",212
758722,"419/1 Sailaut RD., T.paknam A.maung., Samut Prakan 10270, Thailand",212
5170832,"419/4 Moo. 4, Maekok Soi 7, Rimkok District, Amphur Muang ,, Chiang Rai 57100, Thailand",212
716291,"42 /, 36/149 Km 11 Alley, Thailand",212
5269262,"42 Charoenprathet Rd., T.Chang Klan A.Muang, 50100, Thailand",212
5173473,"42 Moo 2 Salakphet Bay, Tambon Koh Chang Tai Koh Chang District, Trat Province, 23170 Thailand",212
4234679,"42, ??? ??????? 1 Muang, ????? 52000, Thailand",212
4236572,"42, ????????? (???????????), ??????????? ?????????? ????????????????????, 80000 80000, Thailand",212
5711801,"42, ?????????????????, ??????????? ????????????????? ??????????????, 40000 40000",212
4250222,"42-44, Jermjompol Road, Tambon Sriracha Amphoe Sriracha, Chonburi, 20110, 20110, Thailand",212
5065914,"42/128 M6 Bophut Koh Samui 84320, Thailand",212
5711346,"42/14 ??????? ???? ??????? ????? ???????????? ??????? 40000",212
5354787,"42/27 ??? 14, 42/27 ??? ????????? ???? ??????????? ??? ??????? ????????????? 10210, Thailand",212
4949963,"42/3 ???? 4 ????????, ???????? ?????????? ???????????????, 22000 Thailand",212
5173551,"42/4 Moo 3, Koh Chang Subdistrict, Koh Chang District, Trat Province, 23170 Thailand",212
5270131,"42/4, Moo 8, Unit 1a,, Srithanu, Koh Phangan, ???????????? 84280, Thailand",212
279394,"42/698 Soi Baan Jamjuree 2, Racha Thewa, Bang Phli, Samut Prakan 10540, Thailand",212
4225218,"42/7-8 ???? 2, ??????? ?????????? ??????????????????????, 13210 13210, Thailand",212
5716364,"420 ??? ?????? ?????????? ????? ???????? ?????? 20150",212
5174075,"420/13 Soi Boukaow, Nongprue, Banglamung, Chonburi, Pattaya CB",212
4240479,"420/145 Muang Pattaya, Amphoe Bang Lamung, 2015 145, 420 ??? ?????? ????? ???????? ?????? 20150, Thailand",212
5722210,"420/153 ??? ?????? ?????????? ????? ???????? ?????? 20150",212
5719301,"420/163 moo9 soi buakhaow Thanon Pattaya Nuea, ?????????? ????? ???????? ?????? 20150",212
4235792,"420/18 Soi Buakhao, Muang Pattaya, Amphoe Bang Lamung, Chang Wat Chon Buri 20150, Thailand",212
4240144,"420/18 Soi Buakhao, Muang Pattaya, Amphoe Bang Lamung, Chang Wat Chon Buri 20150, Thailand",212
5718469,"420/18 ??? ?????? ?????????? ????? ???????? ?????? 20150",212
5720896,"420/18 ??? ?????? ?????????? ????? ???????? ?????? 20150",212
5722049,"420/18 ??? ?????? ?????????? ????? ???????? ?????? 20150",212
5170889,"420/2 Moo 13, Phaholyothin Road, Tambon Rop Wiang, Amphoe Mueang, Chiang Rai, 57100",212
4242957,"420/200 Beach Road, Moo 9, Banglamung, Pattaya, Chonburi 20150, Thailand",212
5715526,"420/88, ????????????? ????????????????????? ??????????????????, 10270 10270",212
5647878,"421 ???? 1, ??????????-??????, ???????????? ?????????????????? ???????????????, 57000 57000",212
5721901,"421/1, ???????????, ?????????? ??????????????? ??????????????????, 34190 34190",212
5647061,"421/4-5 ?????????? ???? ????? ?????????????????? ???????? 57000",212
208386,"422 Marupong Maruphong Rd, Na Muang, Mueang Chachoengsao District, Chachoengsao 24000, Thailand",212
4229219,"422 Mo 10 T. Ban Du Ban Du Muang Chiang Rai 57100, Thailand",212
4236788,"422 ???? 7 ??????????, ????????? ???????????????? ????????????????????, 80350 Thailand",212
4230308,"422 ??????? 10 ??????? ????????????? Chiang Rai 57100, Thailand",212
5714717,"423 ?.??????? ?????? ??????????????? ????? 52100",212
5710749,"423 ????????? ??? ????????? ???? ??????? ??????????????????? ????????? 71000",212
4230932,"423/25 Moo 21 Chiang Rai, 57000, Thailand",212
4229027,"423/28, muang, Muang Chiang Rai, Chiang Rai 57000, Thailand",212
5717159,"423/3 Rimkong Road",212
4240502,"424/25-27, Kasetsin road, soi 5, Ratchavarun, ?????????? ?????? 20150, Thailand",212
4229216,"424/7 ??????? 9, ???????????? ?????????????????? ???????????????, 57000 Thailand",212
4240152,"424/86 Thap Phraya 15 Alley, Muang Pattaya, Amphoe Bang Lamung, Chang Wat Chon Buri 20150, Thailand",212
5714577,"425 ??? ?????????????? ???????? ????? ????? 52000",212
5715040,"425 ??? ??????????? ?????????????? ?????????? ??????????? 10270",212
5715038,"425 ?.5, ?.???????????, ?.?????????? ?.????? ?.???????????, 10270 10270",212
5715973,"425 ???? 5 ????????????????? ?????????????? ????????????????????? ??????????? 10270",212
5723331,"425 ????5 ??? ??????????? ?????????????? ?????????? ??????????? 10270",212
5717512,"425/10 ???????9 ??? ???????? 2 ???? ??????? ????? ???????? ?????? 20150",212
5646365,"425/7 ?? ?????? ?????? ??? ???????? ????? ???????? 57000",212
4242950,"425/9- Moo9 Pattaya 2nd Road, Central Pattaya, 20150, Thailand",212
744252,"426 /, Pranee Soi 1, Mae Rim District, Thailand",212
749759,"427 Moo 12, Jomtien Beach Road, Banglamung, Nongprue, Chon Buri 20150, Thailand",212
5718018,"428 ????????? ???? ???? ?????????????????????? ???????????? 84000",212
4239489,"429 Moo 9, Pattaya Beach Road, Nong Prue Subdistrict, Bang Lamung District, Chon Buri 20150, Thailand",212
4244112,"429 Moo.9 Pattaya Beach Road Nongprue Banglamung Chon Buri 20150, Thailand",212
5710762,"429 ??? ????????? ???? ??????? ??????????????????? ????????? 71000",212
278877,"43 / 2-3 King Kaew Road 41, Racha Thewa Subdistrict, Bang Phli District, Samut Prakan, Samut Prakan 10540, Thailand",212
5171455,"43 Moo 4, Tedsaban 1 Road, Chonburi, 20110, Thailand",212
5717068,"43 ??? ??????? 1 ????? ??????? ?????? 20110",212
5711922,"43 ??? ????????? ???? ??????????? ????? ???????? ???? 23170",212
5645077,"43 ??? ?????? 5 ???? ?????? ????? ??????????????? ??????????????? 13000",212
5710760,"43 ??????? ??? 22 ???? ??????? ??????????????????? ????????? 71000",212
5710870,"43 ??????? ??? 22 ???? ??????? ??????????????????? ????????? 71000",212
4249604,"43-43 / 1 Surasak3 Road, Sriracha, Chonburi 20110, Thailand",212
4241286,"43-45 ??????????, ??????????? ??????????? ???????????????????, 84130 Thailand",212
4229917,"43.45 Juti Uthit 3 Rd ,, Hatyai, Songkhla 90110, Thailand",212
5657993,"43/1 Phetkasem Beach Road, Hua Hin,, Prachuap Khiri Khan, 77110",212
5173390,"43/10 Moo 2 Salak Phet Bay Rong Than Village, Koh Chang District Trat 23170, Thailand",212
5711126,"43/117 ??? ????????? 1/3 ???? ??????? ????????????????? ??????? 40000",212
4950307,"43/171 ???? 6, ???????????, ????????????? ?????????? ???????????????, 22000 22000, Thailand",212
5020101,"43/18 41, Soi King Kaew 45, Racha Thewa Subdistrict, Bangplee, Samut Prakan 10540, Thailand",212
5370225,"43/2 M.1 Walking Street Koh phangan Thailand 84280, Thailand",212
5173462,"43/2 Moo 2, Tambon Koh Chang Tai, Amphoe Koh Chang, Trat, 23170, Thailand",212
5720742,"43/2 ??? ?????? ???? ?????????? ?????????????????? ???????? 41000",212
5711468,"43/28 ?.????????? ?.??????? ?.????? ?.??????? 40000",212
5184972,"43/3 4002 ???? ??????? ????? ??????? ???????? 22120",212
5730687,"43/3 4002 ???? ??????? ????? ??????? ???????? 22120",212
5645989,"43/3 ???? 7, ?????????? 3477, ????????????? ???????????????????? ??????????????????????, 13000",212
5713503,"43/37 ??????????? ??????????????? ????? 52100",212
4949241,"43/52 ???? 6, ????????????? ?????????? ???????????????, 22000 22000, Thailand",212
244084,"43/6 Moo Baan Kokesehti Tambon Na Yang, Na Yang Subdistrict, Cha-am District, Phetchaburi 76120, Thailand",212
4243943,"43/64 Moo 10, South Pattaya Soi 10, South Pattaya Road, Nongpure Chon Buri 20150, Thailand",212
5171252,"43/70 Moo 10, Soi South Pattaya 10, Nong Prue, Bang Lamung, Chonburi 20150, Nongprue, Banglamung, Chon Buri 20150, Thailand",212
5711374,"43/72 ?.14 ?.????????? ??????? ?????????? ??????? 40000",212
4240425,"43/835 ???? 8 ??? 5/5 ???????????????????????, ?????????? ????????????? ??????????????, 11120 11120, Thailand",212
4230175,"43/9 Moo 22, T.Robwiang, Muang Chaing Rai, ????????? 57000, Thailand",212
5649545,"43/9 ???????????????????? ???? ??????? ???????????????? ?????? 20000",212
5656091,"43/92 ?????? 8 ?.????????? ??????? ????? 90110",212
4236049,"431, ???????????????, ?????????? ????????????? ??????????????, 11120 11120, Thailand",212
5710569,"431/1 ????????? ????????? ???? ??????? ??????????????????? ????????? 71000",212
4230162,"432, Phahon Yothin Road, Tambon Wiang, Amphoe Mueang, Chiang Rai, 57150, 57100, Thailand",212
4234391,"433/99 Moo2, Mittraparp Road, Tambol Sila, Amphoe Mueang, Khonkaen, 40120, 40120, Thailand",212
4230387,"434/3 ???? 19, ????????, ???????????? ?????????????????? ????????, 57000 Thailand",212
4237019,"435/1, ?????????????, ??????????? ?????????? ????????????????????, 80000 80000, Thailand",212
4236087,"436 / 11-13 Moo 9 Pattaya 1 Alley, Nong Prue Subdistrict Bang Lamung District, Chon Buri 20150, Thailand",212
5717907,"436 ???????? ??? 8 ???? ??????? ???????????????????? ?????????? 30000",212
83905,"436, Thai Chang, Mueang Phang-nga District, Phang-nga, Thailand",212
4232263,"436, ??????????????, ??????????? ???????????? ????????????, 90110 90110, Thailand",212
5646362,"436-437 ??????? ???? ????? ?????????????????? ???????? 57000",212
5721871,"436/2, ??????????, ??????????? ????????????????????? ??????????????????, 34000",212
4240397,"436/24 Moo 9, Soi 1, Pattaya-nue Road, Tambon Naklua, Amphoe Bang Lamung, Chon Buri, 20150, Thailand",212
5722056,"436/49 ????9 ??????????? ????? ??? 1 ???????? ????? ???????? ?????? 20150",212
5174129,"436/542 Soi 1, Pattaya 2nd road, Pattaya",212
4239582,"437 / 46-47 Moo 9, Pattaya 6 Road, Muang Chon Buri, Chon Buri 20150, Thailand",212
785085,"437 Moo 1, Tambon Saladan, Amphur Koh Lanta, Thailand",212
5708395,"437 ???? 7 ???? ?????????? ????? ?????? ??????????????? 77110",212
5722020,"437/7, ?????????????????, ???????? ?????????? ????????????????????, 80000 80000",212
5717034,"437/87-88, soi 6 / Beach Road, ?????????? ?????? 20150",212
5270244,"438/1 Moo 1, T. Maret, Koh Samui, ???????????? 84310, Thailand",212
5270893,"438/18 ????1, ?.?????? ?.???????? ????????????, 84310 84310, Thailand",212
5270323,"438/2 Moo 1, at Royal Beach Boutique Resort & Spa, Amphoe Koh Samui, ???????????? 84310, Thailand",212
4241342,"439/15 Pattayasainueang, Muang Pattaya, Amphoe Bang Lamung, Chang Wat Chon Buri 20150, Thailand",212
5719293,"439/15 ????????????? ?????????? ????? ???????? ?????? 20150",212
4243333,"439/37 Arunotai 2 Alley, Muang Pattaya, Amphoe Bang Lamung, Chang Wat Chon Buri 20150, Thailand",212
749774,"439/8-9 Moo.12 Thuppraya Road, Dongtarn Beach, Nongprue, Banglamung,, Bang Lamung District, Chon Buri 20150, Thailand",212
204345,"44 Moo 2, Hin Tang Subdistrict, Mueang District, Nakhon Nayok, Thailand",212
239363,"44 Sukhaphiban 5 Soi 5 Yaek 1, 10220, Thailand",212
4243523,"44 ???? 12, ???????????-??????, ???????????? ?????????????????? ???????????????, 41000 41000, Thailand",212
4232816,"44, 172 ??? ????????? ????????????????? ??????? 40000, Thailand",212
5267072,"44, 3240 ??? ???????? 101 ???? ???????? ??? ??????? ????????????? 10240, Thailand",212
4235057,"44, ???????????????, ??????????? ???????????? ????????????, 90110 90110, Thailand",212
269918,"44/1 Moo 6 Hwy 3310, Tambon Krathum Lom Sam Phran District, Nakhon Pathom 73220, Thailand",212
5723665,"44/1, ???????????? 3 ????????????, ??????????? ???????????? ?????????????, 20110 20110",212
5717080,"44/18 ???? 9 ??????????? ????????? ??????? ?????? 20230",212
5722217,"44/1???????????? 3, ??????????? ???????????? ?????????????, 20110 20110",212
5711966,"44/2 moo1, ????????? ???? ??????????? ????? ???????? ???? 23170",212
4236750,"44/2 ???? 4 ???????????, ??????? ??????????????????????? ????????????????????, 80000 80000, Thailand",212
4240421,"44/2 ??????? 3, ??????????? ????????????? ??????????????, 11120 11120, Thailand",212
4242107,"44/2 ????-??? ??????? ?????????????, ???????? 41000, Thailand",212
4231677,"44/3 ? .12, ???? ???????? ????? ??????? ????????? 71160, Thailand",212
5730919,"44/4 Moo 5 Restaurant Klongkud Thamai ???????? 22120",212
4232181,"44/4 ???? 4, ?????????? ???????????? ????????????, 90110 Thailand",212
5711799,"44/41, ????????????, ??????????? ????????????????? ??????????????, 40000 40000",212
758314,"44/7, Moo 7, Ban Khlong Bang Krachao, Tambon Bang Yo, Amphoe Phra Pradaeng, Samut Prakan, 10130, Thailand",212
4244478,"44/75 Moo 12, Jomtien Beach, Pattaya, 20260, Thailand",212
4949397,"44/8 Moo 5 Chao Lao Beach Khlong Khut, CT, Thailand",212
762156,"440/1, T. Maret, Koh Sa-Mui, 84310, Thailand",212
5065982,"440/83 had Lamai beach, wat chang, maret, koh samui Ban Lamai 84310, Thailand",212
4242322,"441-443, ??????????, ??????????? ?????????? ?????????????????, 30000 30000, Thailand",212
4236557,"442/137 ??????? 1, ??????????-??????, ??????????? ???????????????????? ?????????????????, 30000 Thailand",212
4243027,"442/34, ??? ???????? ???? ???? ?????????????????????? ???????????? 84000, Thailand",212
5065987,"443 Moo 1, Tambon Maret, Koh Samui, ???????????? 84310, Thailand",212
5065989,"443/12 Moo1. Tambon Maret, Hua Thanon Ban Na We 84310, Thailand",212
5065984,"443/22 Moo 1, Maret, Koh samui Koh samui 84310, Thailand",212
765519,"443/4 Moo 1 Samui, Thailand",212
5363553,"444 , 5th Floor , Zone A , Tokyu side, Phayathai Rd., ???? ??????? ????????????? 10330, Thailand",212
4249609,"444 Moo 5, Surasak Subdistrict, Sriracha District, Chonburi, 20110 Thailand",212
5768064,"444 Phayathai Rd, Khwaeng Wang Mai, Khet Pathum Wan, Krung Thep Maha Nakhon 10330, Thailand",212
4256156,"444 ???? 5, ????????????? ???????????? ?????????????, 20110 20110, Thailand",212
4236571,"444/10, ????????????, ??????????? ?????????? ????????????????????, 80000 80000, Thailand",212
4242313,"445, ????????????, ??????????? ???????????????????? ?????????????????, 30000 30000, Thailand",212
5065991,"445/13 moo 1 maret Laem Set Beach 84310, Thailand",212
4240400,"445/3 Moo 5, Soi Wong Amat, Pattaya-naklue Road, Tambon Naklua, Amphoe Bang Lamung, Chon Buri, 20150, Thailand",212
4230237,"448 ?.???????? ?.??????? ?.??????? Songkhla 90110, Thailand",212
5717558,"448-50 ??????? ??? ??????? ??????????? ????????????????????? ??????????? 34000",212
4229044,"448/16 Singhaclai Rd, Viang Sub-District, Mueang District,, ?????????????????? ???????? 57000, Thailand",212
4225897,"45 Moo 12 Rojana Industrial Park, Tambol Thanu, Amphur Uthai, Ayutthaya, 13210, Thailand",212
124191,"45 Moo 2 Kukkak, Khao Lak, 82190, Thailand",212
4248017,"45 Moo 6 Bangpra Ban Sriracha Chon Buri 20110, Thailand",212
5019596,"45 Rama IX Soi 53, Khwaeng Sunlaung, Sunlaung Bang Kapi 10250, Thailand",212
785109,"45 Sriraya Road, Moo 2 | Lanta Old Town, Ko Lanta 81150, Koh Lanta District 81150, Thailand",212
5656252,"45 ??? ??????????? ???? ??????? ????? ??????? ????? 90110",212
5656258,"45 ??? ??????????? ???? ??????? ????? ??????? ????? 90110",212
5645974,"45 ??? ?????? ???? ????????? ????? ??????????????? ??????????????? 13000",212
4229114,"45 ?.1 ??????? ???????? ??????????????, ????????? 71000, Thailand",212
4230020,"45 ?.5 ?.??????? ???????????????????, ????????? 71000, Thailand",212
4229113,"45 ?.5 ??????? ???????? ??????????????, ????????? 71000, Thailand",212
4233011,"45 ???? 9, ?????????? ?????????? ??????????????, 40000 40000, Thailand",212
5645978,"45 ??????? 1, ?????????, ???????????? ???????????????????? ??????????????????????, 13000 13000",212
5716406,"45, ??? ????? ???? ??????? ????????????????????? ??????????? 34000",212
5722061,"45/, ???????-??????? 6 ?????????? ????? ???????? ?????? 20150",212
5272296,"45/1 ?, ???? ??????? ???????????????? ?????? 81180, Thailand",212
4234738,"45/1, ??????????, ?????????????? ?????????? ?.?????, 52000 52000, Thailand",212
4225103,"45/2 Mu 1 Rochana Road Pratuchai, ??????????????? 13000, Thailand",212
5716447,"45/2 ???? ?? ????? ? ?????, ???????? 41000",212
5720297,"45/288 ??? ???????? 59 ???? ?????????? ?????????????????????? ???????????? 84000",212
5171126,"45/4 Ban Sedop, Phanat Nikhom, Chonburi Province, Ban Sad Phanat Nikhom, Chon Buri 20140, Thailand",212
4248072,"45/4, ????????? 3, ??????????? ???????????? ?????????????, 20110 20110, Thailand",212
717317,"45/68 Moo 7, Bangpakong ,, Khao Din Subdistrict, Bangpakong District, Chachoengsao 24130, Thailand",212
5715350,"45/7 ??? ???????? 107 ???? ?????????? ????????????????????? ??????????? 10260",212
4232079,"45/7, ???????? ???? ???????? ??????????????? ????? 52100, Thailand",212
5711347,"45/95, ??????? ???? ??????? ????????????????? ??????? 40000",212
5721895,"450 ???? 18, ??????????, ??????????? ????????????????????? ??????????????????, 34000 34000",212
4228937,"450/18 Moo 13, Tambon Rop Wiang, Amphur Muang, Chiang Rai 57000, Thailand",212
5172457,"451 Hua Huay Mongkol Road Hin Kiri khan Thailand, ???? ?????????? ????? ?????? ??????????????? 77110, Thailand",212
4240102,"452/163-164, ?.????????, ?.???? ?.????? ?.????????????, 84000 84000, Thailand",212
4234436,"452/30 ?.???????? ??????? Songkhla 90110, Thailand",212
4238286,"452/64, ???????????, ???????? ?????????????????????? ???????????????????, 84000 84000, Thailand",212
4229602,"453 ?.13, ?.????????, ?.???????? ?.????? ?.????????, 57000 Thailand",212
4229782,"453/1 Moo 9, Robwiang, Muang, CR, Thailand",212
4571963,"454/25/26 Moo 2, Paknampran Drum, Hua Hin, 77220, Thailand",212
4230939,"455 Moo 1 T.Wiang A.Chiangsan Chiang Rai, Thailand",212
245673,"456 / 1-2 Lad Phrao soi 94 sriwara Rd, Thailand",212
5711130,"456 ??? ??????? ???? ???????? ????????????????? ??????? 40000",212
4231439,"456 ???? 5 ???? ??? ??? ??? ? ??? ? ?? ? ?????, ???????? 57100, Thailand",212
5711602,"456/109 ??????? ??? 24 ???? ???????? ????????????????? ??????? 40000",212
4243128,"456/3, ???????????, ???????? ?????????? ????????????, 84000 84000, Thailand",212
4242359,"457, ?????????, ???????? ?????????????????????? ???????????????????, 84000 84000, Thailand",212
5717559,"457-459 ??? ????????????? ???? ??????? ????????????????????? ??????????? 34000",212
5070192,"458 Soi Khaw Keaw 1 soi khaw geaw 1 Ao Nang 81000, Thailand",212
5268262,"458 ?????????????? Sri Kuankan - Soi Sri Kuankan 2, Song Khanong, Phra Pradaeng District, Samut Prakan 10130, Thailand",212
5717576,"458/6 ?.????????? ??????? ????? ??????????? 34000",212
4244872,"459 1, ??????????????????????????? ???????? 41000, Thailand",212
757567,"459 Moo 1, Suksawat Road, Pak Khlong Bang Pla Kot, Phra Samut Chedi District, Samut Prakan 10290, Thailand",212
749782,"459, Moo 12,, Rimhaad Jomtien Beach Condominium,, Jomtiensaineung Rd.,, Nong Prue, Bang Lamung, Chon Buri 20150, Thailand",212
5020820,"46 / 32 Moo 3 Bophut, Samui, 84320, Thailand",212
4242715,"46 M.",212
777173,"46 Moo 1 T.Koh Tao A.Koh Pha-Ngan, Koh Tao, 84360, Thailand",212
4245040,"46, ???????????, ??????????? ???????????? ?????????????, 20110 20110, Thailand",212
4231087,"46/1 ???? 19, ???????????? ?????????? ???????????????, 57000 57000, Thailand",212
4225367,"46/1 ???? 4, ???????????? ???????????????????? ??????????????????????, 13000 Thailand",212
4225040,"46/1 ???? 4, ????????????????????????, ?????????, ???????????? ???????????????????? ??????????????????????, 13000 13000, Thailand",212
5720664,"46/120 Prachacheun Nonburi Prachacheun Nonburi Mueng, Other Zone, ???????",212
123455,"46/157 Kathu Subdistrict Kathu, Thailand",212
5730929,"46/22 7, ??? ???????? ?????????????????? ????????",212
4249563,"46/23 ???? 3, ?????????? ???????????? ?????????????, 20110 20230, Thailand",212
5656799,"46/28 ??? 14, ??????????????????? 1, ??????????? ???????????? ????????????, 90110 90110",212
84423,"46/5 Thepkrasattri Rd., Muang,, Thailand",212
4949986,"46/5 ???? 1, ???????? ???????????? ???????????????, 22170 22170, Thailand",212
5720072,"46/88 ????3 ??? ??????? ???????????? ????? ???????? ??????? 11120",212
5357196,"460, 30 Sukhonthasawat Rd, ???? ???????? ??? ???????? ????????????? 10230, Thailand",212
762527,"461/121 Wararom Village Pracha Uthit Road, Soi 98, Nai Khlong Bang Pla Kot, Phra Samut Chedi District, Samut Prakan 10290, Thailand",212
762532,"461/121 Wararom Village Soi Pracha Uthit 98, Pracha Uthit Road Nai Khlong Bang Pla Kot Subdistrict, Phra Samut Chedi District, Samut Prakan 10290, Thailand",212
4571627,"462 Moo 7, Hin Lek Fai, Hua HIn, Prachuap Khiri Khan 77110, Thailand",212
762139,"463 Pracha Uthit, Phra Samut Chedi, Samut Prakan, Samut Prakan 10290, Thailand",212
5717979,"463/22 Pattaya Sai 1 Rd, ?????????? ????? ???????? ?????? 20150",212
5721103,"463/68 Pattaya Sai 1 Rd, ?????????? ????? ???????? ?????? 20150",212
4236326,"463/79 Moo 9, Pattaya Second Road, Pattaya 20150, Thailand",212
4240394,"464/19, South Pattaya Road, Tambon Banglamung, Amphoe Bang Lamung, Chon Buri, 20150, Thailand",212
5721894,"464/9 ???? 18, ??????????, ??????????? ????????????????????? ??????????????????, 34000 34000",212
4238531,"466, ?.?????????, ?.??????? ?.????? ?.???????????, 34000 34000, Thailand",212
4231210,"468/18 ??????????????????? ??????? ????? Chiang Rai 57100, Thailand",212
4236315,"469/96 Soi 15 (Norway) Tappraya Road, South Pattaya, Pattaya 20260, Thailand",212
5174135,"469/96 Thapraya soi 15 - M.10, Nongprue, Banglamung, Chonburi, Thapraya, Pattaya, 20150",212
5020666,"47 Phang Nga Road Soi 2, 83000, Thailand",212
240187,"47 Sukhumvit 15 Road, Khwaeng Khlong Toei, Khet Khlong Toei, 10110, Thailand",212
5711913,"47 ??? ????????? ???? ??????????? ????? ???????? ???? 23170",212
4950794,"47, ??????????, ??????????? ?????????? ???????????????, 22000 22000, Thailand",212
4232849,"47, ???????? ???? ??????? ????? ??????? ????? 90110, Thailand",212
5721753,"47-49, ??????????????????, ??????????? ???????????????????? ?????????????????, 30000 30000",212
4240452,"47/1 Moo 2, Parallel Pattaya Motorway Road, Nongplalai Pattaya, Thailand",212
5716427,"47/111 ??????????? ???? ???????? ?????????????????? ???????? 41000",212
5650116,"47/16 ??????? 6, ????????????? ????????????????, Chon Buri 20000",212
5171275,"47/17 Moo 9, Nongprue Subdistrict, Bang Lamung District, Chon Buri 20150, Thailand",212
5650717,"47/21, ????????????? ????????????????? ???? ?????????? ???????????????? ?????? 20000",212
5717095,"47/23-4 ??? 14 ???????? ???? ?????????????????????? ???????????? 84000",212
5720271,"47/295 ?.????????? ???????? ???????? ??????? 11120",212
4250241,"47/33 M.6, T. BangPra, A. Sriracha, Chon Buri 20110, Thailand",212
5656784,"47/42 ??? ??????-?????? ???? ?????? ????? ??????? ????? 90110",212
772999,"47/5 Moo 5 Koh Phangan, 84280, Thailand",212
5645980,"47/54 ???? 4 ????? ??????????????? ??????????????? 13000",212
770322,"47/6 moo 2, NaMuang, Koh Samui, Thailand",212
4234016,"47/82 ??????????????????? 2, ????? ??????? ????? 90110, Thailand",212
5645300,"47/9 ????? ???? ??? ??? ?? ??, ????? ??????????????? ??????????????? 13000",212
4225476,"47/93 3, ??? ??????????????????? ???? ??????? ????? ???????? ??????????????? 13160, Thailand",212
5721504,"470 24 ???? ??????? ????????????????????? ??????????? 34000",212
5170982,"471/249 Moo 5, Khlong Tamru, Mueang, Chon Buri 20000, Thailand",212
205052,"472 Prapawan Village, Nong Chok Subdistrict, Minburi District, Krung Thep Mahanakorn, 10510 Thailand",212
5721442,"472/7 ???????????? ?????????? ?????????? ??????????? 10280",212
4228913,"473 Singhaclai Rd, Wiang, Chiang Rai 57000, Thailand",212
4231725,"473/35 Soi Sing Khlai, Wiang Road, Tambon Muang, Amphoe Muang Chiang Rai, Chiang Rai, 57000, Thailand",212
5272619,"474 ?.?????? ?.???????? ?.?????, ?????? 83110, Thailand",212
5647873,"474, ??????????, ????????? ?????????? ???????????????, 57000 57000",212
5714714,"476 ???? 7, ????????-?????, ?????????? ??????????????? ????????????, 52000",212
4243504,"477/4 ???? 1, ??????????? ?????????????????? ???????????????, 41000 41000, Thailand",212
4233823,"478-80 ?????????, ????????????????? ??????? 40000 40000, Thailand",212
5717052,"478/10 ???????? ?????????? ????? ???????? ?????? 20150",212
5721897,"478/9, ???????????, ?????????????? ??????????????? ??????????????????, 34190 34190",212
5669075,"479 Moo 2, Tambon Nong Phlap, Amphoe Hua Hin, Prachuap Khiri Khan, 77110",212
4236748,"479, ????????????, ??????????? ?????????? ????????????????????, 80000 80000, Thailand",212
4239830,"479/26 ? .10 S Pattaya Rd, Muang Pattaya, Amphoe Bang Lamung, Chang Wat Chon Buri 20150, Thailand",212
5272809,"48 2, Ruamchai, ?????????? ????? ????? ?????? 83150, Thailand",212
4225026,"48 Moo.10 Tambon Kramang, PA 13160, Thailand",212
5268452,"48 Oriental Avenue, ????????????? 10500, Thailand",212
5355482,"48 Oriental Avenue, ????????????? 10500, Thailand",212
5356269,"48 Oriental Avenue, ????????????? 10500, Thailand",212
725283,"48 Soi 3 Thapae Rd., ChangklanChiamgmai, Thailand",212
5020120,"48 Soi 3 Thapae Road, 50100, Thailand",212
5718034,"48 ??? ??????????? ???? ??????? ????????????????????? ??????????? 34000",212
5723525,"48 ??? ??????????? ???? ??????? ????????????????????? ??????????? 34000",212
5711752,"48 ??? ????????? ???? ??????? ????????????????? ??????? 40000",212
4233650,"48 ?????????-?????-??? ???????? ??????????, ????? 52100, Thailand",212
5713762,"48 ?????????? ??? ???????? ???? ?????? ??????????????? ????? 52000",212
5714113,"48 ?????????? ??? ???????? ???? ?????? ??????????????? ????? 52000",212
5714574,"48 ?????????? ??? ???????? ???? ?????? ??????????????? ????? 52000",212
5723642,"48 ?????????????? ?????????? ?????????? ??????????? 10270",212
4235449,"48, ??????????????????, ??????????? ???????????????????? ?????????????????, 30001 30000, Thailand",212
83704,"48/1 Ruamchai Rd, Patong, Kathu District, 83150, Thailand",212
762850,"48/10 Moo 3, Chaweng Beach, Koh Samui, Thailand, 84320, Thailand",212
5065993,"48/10 Moo 3, Chaweng, Chaweng 84320, Thailand",212
5656233,"48/108 Supasarnrangsan Road, ???? ??????? ????? ??????? ????? 90110",212
5656249,"48/108 Supasarnrangsan Road, ???? ??????? ????? ??????? ????? 90110",212
5656269,"48/108 Supasarnrangsan Road, ???? ??????? ????? ??????? ????? 90110",212
5656250,"48/108 ??? ?????????????? ???? ??????? ????? ??????? ????? 90110",212
5656251,"48/108 ??? ?????????????? ???? ??????? ????? ??????? ????? 90110",212
5711921,"48/12 ??? ????????? ???? ??????????? ????? ???????? ???? 23170",212
5711923,"48/12 ??? ????????? ???? ??????????? ????? ???????? ???? 23170",212
184511,"48/120 Moo7 Bang Lamung District, Chon Buri 20150, Thailand",212
5173465,"48/13 Moo 2, Tambon Koh Chang Tai Koh Chang District, Trat Province, 23170 Thailand",212
5173463,"48/2 Moo 2, Tambon Koh Chang Tai Koh Chang District, Trat Province, 23170 Thailand",212
5717584,"48/20 Markkhaeng, Muang 41000, ?????????????????? ????????",212
5723373,"48/20?.9?.???????? ?????? ??????? ?????? 20110",212
5712178,"48/4 ????4, ???????????? ????????????? ???????????, 23170",212
5171194,"48/49 Moo 9 Sukprayool Road, Napa, Chonburi, Pattaya 20000, Thailand",212
5265726,"48/60 ??????? 1, ??????, ????????????? 10220, Thailand",212
5711965,"48/7 M.4 Klong Prao Koh Chang, ???? 23170",212
205066,"480 Thanon Luang Phaeng Khwaeng Thap Yao Khet Lat Krabang Krung Thep Maha Nakhon 10520, Thailand",212
5713993,"480 ??? ?????-????? ???? ???? ??????????????? ????? 52100",212
4243404,"481 ???? 4, ???????-???????, ???????????? ?????????????????? ???????????????, 41000 41000, Thailand",212
4235545,"481, ????????????, ??????????? ??????????????????????? ????????????????????, 80000 80000, Thailand",212
5718802,"482 South Pattaya Rd., Pattaya 20260",212
4239923,"482/12 Soi Map Yai Lia 12, Muang Pattaya, Amphoe Bang Lamung, Chang Wat Chon Buri 20150, Thailand",212
4229594,"483 ?.5 ?.???????? ??????????????????, Chiang Rai 57000, Thailand",212
4240919,"483, ???????????, ??????????? ???????????????????? ?????????????????, 30000 Thailand",212
4236308,"484 Moo 10, Pattaya Second Road Soi 15, Pattaya, Chon Buri 20150, Thailand",212
5020828,"484 Moo 3 Saladan, Koh Lanta District 81150, Thailand",212
4240656,"485 1 Moo 10 Pattaya 2nd Road, Nongprue, Pattaya 20150, Thailand",212
757958,"485 Phraya Payap Phiriyakit Phraya Phayap Phiriyakit, Talat, Phra Pradaeng District, Samut Prakan 10130, Thailand",212
5019917,"485 Phuchao Saming Phray, Samrong Tai Subdistrict, Phra Pradaeng District, Samut Prakan 10130, Thailand",212
5717505,"485/4 M.10 Pattaya Sai Song, ?????? 20150",212
