4721805,"Derevoobdelochnaya Ulitsa, 2, ???????? ????, ??????????? ?`???, Nizhnij Novgorod, Nizhegorodskaya oblast', Russia, 603011",177
4695317,"Derevoobdelochnaya Ulitsa, 7-9, Nizhnij Novgorod, Nizhegorodskaya oblast', Russia, 603011",177
4721359,"Derevoobdelochnaya Ulitsa, ?.2, Nizhnij Novgorod, Nizhegorodskaya oblast', Russia, 603011",177
4715418,"Dolomanovskiy Pereulok, 124, Rostov, Rostovskaya oblast', Russia, 344018",177
4715419,"Dolomanovskiy Pereulok, 183, Rostov, Rostovskaya oblast', Russia, 344018",177
4715548,"Dolomanovskiy Pereulok, 68, Rostov, Rostovskaya oblast &#39;, Russia, 344011",177
4716770,"Dolomanovskiy Pereulok, 82, Rostov, Rostovskaya oblast', Russia, 344011",177
4712763,"Don River, Russia, Russia",177
4696520,"Gornaya St, 11, Nizhnij Novgorod, Nizhegorodskaya oblast', Russia, 603062",177
4696050,"Gornaya St, 13 ?????? 3, Nizhnij Novgorod, Nizhegorodskaya oblast', Russia, 603062",177
4693863,"Gornaya St, 13, Nizhnij Novgorod, Nizhegorodskaya oblast', Russia, 603009",177
4697267,"Gornaya St, 13, Nizhnij Novgorod, Nizhegorodskaya oblast', Russia, 603062",177
4694066,"Gornaya St, 30, Nizhnij Novgorod, Nizhegorodskaya oblast', Russia, 603062",177
4696251,"Gornaya St, 4, Nizhnij Novgorod, Nizhegorodskaya oblast', Russia, 603009",177
4696369,"Gornaya St, 5, Nizhnij Novgorod, Nizhegorodskaya oblast &#39;, Russia, 603009",177
4695280,"Gornaya St, 52, Nizhnij Novgorod, Nizhegorodskaya oblast', Russia, 603062",177
4723035,"Gorodishche, Rostov Oblast, Russia, 346741",177
4695629,"Gorokhovetskaya Ulitsa, 12, Nizhnij Novgorod, Nizhegorodskaya oblast &#39;, Russia, 603033",177
4721103,"Gorokhovetskaya Ulitsa, 18A, Nizhnij Novgorod, Nizhegorodskaya oblast &#39;, Russia, 603033",177
4695886,"Gorokhovetskaya Ulitsa, 46, Nizhnij Novgorod, Nizhegorodskaya oblast', Russia, 603033",177
4695627,"Gorokhovetskaya Ulitsa, Nizhnij Novgorod, Nizhegorodskaya oblast &#39;, Russia, 603033",177
4717581,"Gorshkova Prospekt, 2?, Rostov, Rostovskaya oblast', Russia, 344016",177
4695231,"Grebnoy kanal Embankment, 108, Nizhnij Novgorod, Nizhegorodskaya oblast &#39;, Russia, 603155",177
4697290,"Grebnoy kanal Embankment, 108, Nizhnij Novgorod, Nizhegorodskaya oblast &#39;, Russia, 603155",177
4694805,"Grebnoy kanal Embankment, 109, Nizhnij Novgorod, Nizhegorodskaya oblast &#39;, Russia, 603000",177
4694744,"Grebnoy kanal Embankment, 109, Nizhnij Novgorod, Nizhegorodskaya oblast &#39;, Russia, 603093",177
4695685,"Grebnoy kanal Embankment, Nizhnij Novgorod, Nizhegorodskaya oblast &#39;, Russia, 603155",177
4722866,"Grecheskaya Ulitsa, 104, Taganrog, Rostovskaya oblast', Russia, 347900",177
4722841,"Grecheskaya Ulitsa, 105, Taganrog, Rostovskaya oblast &#39;, Russia, 347900",177
4715077,"Grecheskiy Pereulok, 11, Rostov, Rostovskaya oblast', Russia, 344000",177
4715707,"Griboyedovskiy Pereulok, 33, Rostov, Rostovskaya oblast', Russia, 344000",177
4715494,"Griboyedovskiy Pereulok, 6, Rostov, Rostovskaya oblast', Russia, 344082",177
4714206,"Grushevskaya Ulitsa, 8, Aksay, Rostovskaya oblast &#39;, Russia, 346720",177
4713165,"Gulaeva St., 66, Aksay, Rostovskaya oblast &#39;, Russia, 346720",177
4713217,"Gvardeyskiy Pereulok, 11 B, Rostov, Rostovskaya oblast &#39;, Russia, 344000",177
4716370,"Gvardeyskiy Pereulok, 11 B, Rostov, Rostovskaya oblast &#39;, Russia, 344002",177
4717737,"Gvardeyskiy Pereulok, 11?, Rostov, Rostovskaya oblast', Russia, 344011",177
4715410,"Gvardeyskiy Pereulok, 38?, Rostov, Rostovskaya oblast', Russia, 344011",177
4696102,"Gvozdil'naya Ulitsa, 9, Nizhnij Novgorod, Nizhegorodskaya oblast', Russia, 603034",177
4714764,"Instrumental'naya Ulitsa, 2, Rostov, Rostovskaya oblast', Russia, 344029",177
4716418,"Instrumental'naya Ulitsa, 2, Rostov, Rostovskaya oblast', Russia, 344029",177
4717170,"Inzhenernaya Ulitsa, 5?, Rostov, Rostovskaya oblast', Russia, 344064",177
4695608,"Izhevskaya Ulitsa, 40, Nizhnij Novgorod, Nizhegorodskaya oblast &#39;, Russia, 603034",177
4696874,"Izhorskaya Ulitsa, 18, Nizhnij Novgorod, Nizhegorodskaya oblast', Russia, 603000",177
4696865,"Izhorskaya Ulitsa, 18, Nizhnij Novgorod, Nizhegorodskaya oblast', Russia, 603024",177
4696872,"Izhorskaya Ulitsa, 18, Nizhnij Novgorod, Nizhegorodskaya oblast', Russia, 603024",177
4696873,"Izhorskaya Ulitsa, 18, ?. ????????, Nizhegorodskaya oblast', Russia, 603005",177
4694863,"Izhorskaya Ulitsa, 3, Nizhnij Novgorod, Nizhegorodskaya oblast', Russia, 603006",177
4723456,"Izmail'skiy Pereulok, 41, Rostov, Rostovskaya oblast', Russia, 344068",177
4714365,"Izyskatel'skiy Pereulok, 2, Rostov, Rostovskaya oblast', Russia, 344064",177
4714556,"Izyskatel'skiy Pereulok, 4, Rostov, Rostovskaya oblast', Russia, 344064",177
4714558,"Izyskatel'skiy Pereulok, 4/9, Rostov, Rostovskaya oblast', Russia, 344064",177
4716807,"Izyskatel'skiy Pereulok, 6, Rostov, Rostovskaya oblast', Russia, 344064",177
3472534,"Kalanchevskaya ul., 10, ??????????? ???????????????? ?????, Russia",177
4721874,"Kamchatskiy Pereulok, 7, Nizhnij Novgorod, Nizhegorodskaya oblast', Russia, 603124",177
4713450,"Kamyshevakha, Rostov Oblast, Russia, 346715",177
4696028,"Kanavinskaya Ulitsa, 2 a, N. Novgorod, Nizhegorodskaya oblast &#39;, Russia, 603002",177
4720282,"Kanavinskaya Ulitsa, 2, Nizhnij Novgorod, Nizhegorodskaya oblast', Russia, 603002",177
4721169,"Kanavinskaya Ulitsa, 27, Nizhnij Novgorod, Nizhegorodskaya oblast &#39;, Russia, 603002",177
4695139,"Kanavinskaya Ulitsa, 2?, Nizhnij Novgorod, Nizhegorodskaya oblast', Russia, 603002",177
4720481,"Kanavinskaya Ulitsa, 2?, Nizhnij Novgorod, Nizhegorodskaya oblast', Russia, 603002",177
4722070,"Kanavinskaya Ulitsa, 2?, Nizhnij Novgorod, Nizhegorodskaya oblast', Russia, 603002",177
4722065,"Kanavinskaya Ulitsa, 3, Nizhnij Novgorod, Nizhegorodskaya oblast', Russia, 603002",177
4694143,"Kanavinsky Bridge, Nizhnij Novgorod, Nizhegorodskaya oblast &#39;, Russia, 603001",177
4722846,"Kashirskaya Ulitsa, 11/55, Rostov, Rostovskaya oblast &#39;, Russia, 344091",177
4716612,"Kashirskaya Ulitsa, 20, Rostov, Rostovskaya oblast', Russia, 344091",177
4722830,"Kashirskaya Ulitsa, 24, Rostov, Rostovskaya oblast', Russia, 344000",177
4713372,"Kashirskaya Ulitsa, 5, Rostov, Rostovskaya oblast', Russia, 344091",177
4714241,"Kashirskaya Ulitsa, 6, Rostov, Rostovskaya oblast', Russia, 344091",177
4716491,"Kashirskaya Ulitsa, 6, Rostov, Rostovskaya oblast', Russia, 344091",177
4722847,"Kashirskaya Ulitsa, 8 building 2, Rostov, Rostovskaya oblast &#39;, Russia, 344091",177
4722956,"Kashirskaya Ulitsa, 8, Rostov, Rostovskaya oblast', Russia, 344091",177
4722980,"Kashirskaya Ulitsa, 8, ?. 3, Rostov, Rostovskaya oblast', Russia, 344091",177
4722783,"Kashirskaya Ulitsa, 8?5, Rostov, Rostovskaya oblast', Russia, 344090",177
4714231,"Kashirskaya Ulitsa, 9, Rostov, Rostovskaya oblast', Russia, 344091",177
4714238,"Kashirskaya Ulitsa, 9, Rostov, Rostovskaya oblast', Russia, 344091",177
4715836,"Kashirskaya Ulitsa, 9/53?, Rostov, Rostovskaya oblast', Russia, 344091",177
4714838,"Kazakhstanskiy Pereulok, 19?, Rostov, Rostovskaya oblast', Russia, 150000",177
4696944,"Kazbekskiy Pereulok, 4, Nizhnij Novgorod, Nizhegorodskaya oblast &#39;, Russia, 603000",177
4695140,"Kerchenskaya ul., 20?, Nizhnij Novgorod, Nizhegorodskaya oblast', Russia, 603159",177
4713244,"Khabarovskiy Pereulok, Rostov, Rostovskaya oblast', Russia, 344018",177
4735147,"Khovd, Mongolia",177
4762885,"Khrizolitovyy, Sverdlovsk Oblast, Russia, 624054",177
4712519,"Kirgizskaya Ulitsa, 38-?, ???????? ??????, ?????? ? 5221/0228, Rostov, Rostovskaya oblast', Russia, 344065",177
4715321,"Kirgizskaya Ulitsa, 38?, Rostov, Rostovskaya oblast', Russia, 344065",177
4713973,"Kirgizskaya Ulitsa, 38?, Rostov, Rostovskaya oblast &#39;, Russia, 344065",177
4714725,"Kirgizskaya Ulitsa, 38?, Rostov, Rostovskaya oblast', Russia, 344065",177
4714810,"Kirgizskaya Ulitsa, 41, Rostov, Rostovskaya oblast', Russia, 344065",177
4715222,"Kirgizskaya Ulitsa, 9/1, Rostov, Rostovskaya oblast', Russia, 344065",177
4715379,"Kirgizskaya Ulitsa, 9/3, Rostov, Rostovskaya oblast &#39;, Russia, 344065",177
4713613,"Kirgizskaya Ulitsa, 9/3, Rostov, Rostovskaya oblast', Russia, 344065",177
4722799,"Kirovskiy Prospekt, 116, Rostov, Rostovskaya oblast', Russia, 344010",177
4712720,"Kirovskiy Prospekt, 126/23, Rostov, Rostovskaya oblast', Russia, 344000",177
4716502,"Kirovskiy Prospekt, 35, Rostov, Rostovskaya oblast', Russia, 344006",177
5738650,"Kirovskiy Prospekt, 35/113, Rostov, Rostovskaya oblast', Russia, 344010",177
4712715,"Kirovskiy Prospekt, 40 ?, ????????? ??? ""????????????"", Rostov, Rostovskaya oblast', Russia, 344022",177
4715076,"Kirovskiy Prospekt, 44, Rostov, Rostovskaya oblast', Russia, 344000",177
4715855,"Kirovskiy Prospekt, 53, Rostov, Rostovskaya oblast', Russia, 344006",177
4712453,"Kirovskiy Prospekt, 55, Rostov, Rostovskaya oblast &#39;, Russia, 344022",177
4715857,"Kirovskiy Prospekt, 57, Rostov, Rostovskaya oblast', Russia, 344002",177
4713149,"Kirovskiy Prospekt, 57B, Rostov, Rostovskaya oblast &#39;, Russia, 344022",177
4713747,"Kirovskiy Prospekt, 80, Rostov, Rostovskaya oblast &#39;, Russia, 344022",177
4712717,"Kirovskiy Prospekt, 84/1, Rostov, Rostovskaya oblast', Russia, 344006",177
4714156,"Kirovskiy Prospekt, 90, Rostov, Rostovskaya oblast &#39;, Russia, 344010",177
4714909,"Kirovskiy Prospekt, 92, Rostov, Rostovskaya oblast', Russia, 344022",177
4695628,"Klubnaya ul., 5, Nizhnij Novgorod, Nizhegorodskaya oblast &#39;, Russia, 603033",177
4716253,"Knizhnyy Pereulok, 11?, Bataysk, Rostovskaya oblast', Russia, 346880",177
4723164,"Kolontayevskiy Pereulok, 82, Azov, Rostovskaya oblast &#39;, Russia, 346782",177
4714798,"Kolontayevskiy Pereulok, 89 b, Azov, Rostovskaya oblast &#39;, Russia, 346787",177
3384596,"Koltushi, Leningrad Oblast, Russia, 188680",177
4713037,"Komitetskiy Pereulok, 1, Rostov, Rostovskaya oblast', Russia, 344023",177
4695965,"Kommunisticheskaya Ulitsa, 24, Nizhnij Novgorod, Nizhegorodskaya oblast', Russia, 603002",177
4696945,"Kommunisticheskaya Ulitsa, 27, Nizhnij Novgorod, Nizhegorodskaya oblast &#39;, Russia, 603002",177
4721867,"Kommunisticheskaya Ulitsa, 39, Nizhnij Novgorod, Nizhegorodskaya oblast', Russia, 603002",177
4720901,"Kommunisticheskaya Ulitsa, 47, Nizhnij Novgorod, Nizhegorodskaya oblast', Russia, 603002",177
4721575,"Kommunisticheskaya Ulitsa, 75, Nizhnij Novgorod, Nizhegorodskaya oblast', Russia, 603002",177
4714289,"Kommunisticheskiy Prospekt, 10, Rostov, Rostovskaya oblast &#39;, Russia, 344058",177
4717738,"Kommunisticheskiy Prospekt, 11, Rostov, Rostovskaya oblast', Russia, 344058",177
4714007,"Kommunisticheskiy Prospekt, 14, Rostov, Rostovskaya oblast &#39;, Russia, 344000",177
4722964,"Kommunisticheskiy Prospekt, 25/2, Rostov, Rostovskaya oblast', Russia, 344058",177
4722854,"Kommunisticheskiy Prospekt, 27, Rostov, Rostovskaya oblast &#39;, Russia, 344091",177
4713696,"Kommunisticheskiy Prospekt, 27, Rostov, Rostovskaya oblast', Russia, 344091",177
4713699,"Kommunisticheskiy Prospekt, 27, Rostov, Rostovskaya oblast', Russia, 344091",177
4716489,"Kommunisticheskiy Prospekt, 27, Rostov, Rostovskaya oblast', Russia, 344091",177
4716436,"Kommunisticheskiy Prospekt, 29, Rostov, Rostovskaya oblast', Russia, 344091",177
4714291,"Kommunisticheskiy Prospekt, 30, Rostov, Rostovskaya oblast &#39;, Russia, 344091",177
4723148,"Kommunisticheskiy Prospekt, 30, Rostov, Rostovskaya oblast', Russia, 344058",177
4713601,"Kommunisticheskiy Prospekt, 30, Rostov, Rostovskaya oblast', Russia, 344090",177
4713602,"Kommunisticheskiy Prospekt, 30, Rostov, Rostovskaya oblast', Russia, 344091",177
4713692,"Kommunisticheskiy Prospekt, 30, Rostov, Rostovskaya oblast', Russia, 344091",177
4722963,"Kommunisticheskiy Prospekt, 30, Rostov, Rostovskaya oblast', Russia, 344091",177
4723341,"Kommunisticheskiy Prospekt, 30, Rostov, Rostovskaya oblast', Russia, 344091",177
4713598,"Kommunisticheskiy Prospekt, 30, Rostov, ?????????? ???, Russia, 344091",177
4713599,"Kommunisticheskiy Prospekt, 30, ?/? ""????? ??????"", Rostov, Rostovskaya oblast', Russia, 344091",177
4713600,"Kommunisticheskiy Prospekt, 30, ?/? ""????? ??????"", Rostov, Rostovskaya oblast', Russia, 344091",177
4713694,"Kommunisticheskiy Prospekt, 30, ?/? ""????? ??????"", Rostov, Rostovskaya oblast', Russia, 344091",177
4723339,"Kommunisticheskiy Prospekt, 31, 1 ????, Rostov, Rostovskaya oblast', Russia, 344091",177
4717698,"Kommunisticheskiy Prospekt, 31, 2 ????, 1 ????, Rostov, Rostovskaya oblast', Russia, 344091",177
4717554,"Kommunisticheskiy Prospekt, 31, Rostov, Rostovskaya oblast', Russia, 344091",177
4723340,"Kommunisticheskiy Prospekt, 31, Rostov, Rostovskaya oblast', Russia, 344091",177
4714292,"Kommunisticheskiy Prospekt, 32, Rostov, Rostovskaya oblast &#39;, Russia, 344091",177
4715827,"Kommunisticheskiy Prospekt, 32, Rostov, Rostovskaya oblast &#39;, Russia, 344091",177
4722851,"Kommunisticheskiy Prospekt, 32, Rostov, Rostovskaya oblast &#39;, Russia, 344091",177
4713584,"Kommunisticheskiy Prospekt, 32, Rostov, Rostovskaya oblast', Russia, 344091",177
4713589,"Kommunisticheskiy Prospekt, 32, Rostov, Rostovskaya oblast', Russia, 344091",177
4713590,"Kommunisticheskiy Prospekt, 32, Rostov, Rostovskaya oblast', Russia, 344091",177
4713593,"Kommunisticheskiy Prospekt, 32, Rostov, Rostovskaya oblast', Russia, 344091",177
4714255,"Kommunisticheskiy Prospekt, 32, Rostov, Rostovskaya oblast', Russia, 344091",177
4716250,"Kommunisticheskiy Prospekt, 32, Rostov, Rostovskaya oblast', Russia, 344091",177
4716783,"Kommunisticheskiy Prospekt, 32, Rostov, Rostovskaya oblast', Russia, 344091",177
4713680,"Kommunisticheskiy Prospekt, 32, ??????????? ""???????????"", Rostov, Rostovskaya oblast', Russia, 344091",177
4716416,"Kommunisticheskiy Prospekt, 32/3, Rostov, Rostovskaya oblast', Russia, 344091",177
4716410,"Kommunisticheskiy Prospekt, 32?, Rostov, Rostovskaya oblast', Russia, 344091",177
4717821,"Kommunisticheskiy Prospekt, 344091, Rostov, Rostovskaya oblast &#39;, Russia, 344091",177
4717818,"Kommunisticheskiy Prospekt, 36/3, Rostov, Rostovskaya oblast &#39;, Russia, 344091",177
4717042,"Kommunisticheskiy Prospekt, 36/4, Rostov, Rostovskaya oblast &#39;, Russia, 344090",177
4717824,"Kommunisticheskiy Prospekt, 36/4, Rostov, Rostovskaya oblast &#39;, Russia, 344090",177
4716411,"Kommunisticheskiy Prospekt, 37/1, Rostov, Rostovskaya oblast', Russia, 344000",177
4717394,"Kommunisticheskiy Prospekt, 37/1, Rostov, Rostovskaya oblast', Russia, 344091",177
4713182,"Kommunisticheskiy Prospekt, 38, Rostov, Rostovskaya oblast &#39;, Russia, 344091",177
4714794,"Kommunisticheskiy Prospekt, 38, Rostov, Rostovskaya oblast &#39;, Russia, 344091",177
4717393,"Kommunisticheskiy Prospekt, 42, Rostov, Rostovskaya oblast', Russia, 344091",177
4722979,"Kommunisticheskiy Prospekt, 42/4, Rostov, Rostovskaya oblast', Russia, 344000",177
4714000,"Kommunisticheskiy Prospekt, 43/1, Rostov, Rostovskaya oblast &#39;, Russia, 344091",177
4716784,"Kommunisticheskiy Prospekt, 45, Rostov, Rostovskaya oblast', Russia, 344091",177
4713567,"Kommunisticheskiy Prospekt, 46, Rostov, Rostovskaya oblast', Russia, 344090",177
4723095,"Kommunisticheskiy Prospekt, 46, Rostov, Rostovskaya oblast', Russia, 344091",177
4723122,"Kommunisticheskiy Prospekt, 46, Rostov, Rostovskaya oblast', Russia, 344091",177
4713674,"Kommunisticheskiy Prospekt, 46, ?-? ""??????"", Rostov, Rostovskaya oblast', Russia, 344090",177
4722945,"Kommunisticheskiy Prospekt, 46/1, Rostov, ??????-??-????, Russia, 344091",177
4723140,"Kommunisticheskiy Prospekt, 46/2, Rostov, Rostovskaya oblast', Russia, 344000",177
4722890,"Kommunisticheskiy Prospekt, 48/1, Rostov, Rostovskaya oblast', Russia, 344091",177
4713569,"Kommunisticheskiy Prospekt, 51, Rostov, Rostovskaya oblast', Russia, 344090",177
4713677,"Kommunisticheskiy Prospekt, 51, Rostov, Rostovskaya oblast', Russia, 344091",177
4713678,"Kommunisticheskiy Prospekt, 51, Rostov, Rostovskaya oblast', Russia, 344091",177
4717396,"Kommunisticheskiy Prospekt, 53, ???????????????? ??-?? 53, Rostovskaya oblast', Russia, 344090",177
4716494,"Kommunisticheskiy Prospekt, 55, Rostov, Rostovskaya oblast', Russia, 344091",177
4714334,"Kommunistichesky prospect, 34/3, Rostov, Rostovskaya oblast &#39;, Russia, 344091",177
4713845,"Kommunistichesky prospect, 36/4, Rostov, Rostovskaya oblast &#39;, Russia, 344091",177
4696927,"Komsomol&#39;skaya Ploshchad &#39;, Nizhnij Novgorod, Nizhegorodskaya oblast&#39;, Russia, 603011",177
4714290,"Komsomol&#39;skaya Ulitsa, 47, Rassvet, Rostovskaya oblast &#39;, Russia, 346735",177
4721203,"Komsomol&#39;skoye Shosse, 3, Nizhnij Novgorod, Nizhegorodskaya oblast &#39;, Russia, 603034",177
4721222,"Komsomol&#39;skoye Shosse, 3, Nizhnij Novgorod, Nizhegorodskaya oblast &#39;, Russia, 603034",177
4721187,"Komsomol&#39;skoye Shosse, 7, Nizhnij Novgorod, Nizhegorodskaya oblast &#39;, Russia, 603034",177
4695692,"Komsomol&#39;skoye Shosse, Nizhnij Novgorod, Nizhegorodskaya oblast &#39;, Russia, 603010",177
4720304,"Komsomol'skaya Ploshchad', 1, Nizhnij Novgorod, Nizhegorodskaya oblast', Russia, 603011",177
4720305,"Komsomol'skaya Ploshchad', 1, Nizhnij Novgorod, Nizhegorodskaya oblast', Russia, 603140",177
4695961,"Komsomol'skaya Ploshchad', 10/2, Nizhnij Novgorod, Nizhegorodskaya oblast', Russia, 603140",177
4694469,"Komsomol'skaya Ploshchad', 1?, Nizhnij Novgorod, Nizhegorodskaya oblast', Russia, 603011",177
4720317,"Komsomol'skaya Ploshchad', 2, Nizhnij Novgorod, Nizhegorodskaya oblast', Russia, 603011",177
4720318,"Komsomol'skaya Ploshchad', 2, Nizhnij Novgorod, Nizhegorodskaya oblast', Russia, 603011",177
4720319,"Komsomol'skaya Ploshchad', 2, Nizhnij Novgorod, Nizhegorodskaya oblast', Russia, 603011",177
4720320,"Komsomol'skaya Ploshchad', 2, Nizhnij Novgorod, Nizhegorodskaya oblast', Russia, 603011",177
4720306,"Komsomol'skaya Ploshchad', 2, Nizhnij Novgorod, ????????????? ???, Russia, 603140",177
4721394,"Komsomol'skaya Ploshchad', 2, ??????????? ""????????"", Nizhnij Novgorod, Nizhegorodskaya oblast', Russia, 603140",177
4721802,"Komsomol'skaya Ploshchad', 2, ??????????? ""????????"", Nizhnij Novgorod, Nizhegorodskaya oblast', Russia, 603140",177
4721800,"Komsomol'skaya Ploshchad', 2, ??????????? ????????, Nizhnij Novgorod, Nizhegorodskaya oblast', Russia, 603140",177
4722165,"Komsomol'skaya Ploshchad', 3, Nizhnij Novgorod, Nizhegorodskaya oblast', Russia, 603000",177
4694989,"Komsomol'skaya Ploshchad', 3?, Nizhnij Novgorod, Nizhegorodskaya oblast', Russia, 603000",177
4720315,"Komsomol'skaya Ploshchad', 3?, Nizhnij Novgorod, Nizhegorodskaya oblast', Russia, 603011",177
4694887,"Komsomol'skaya Ploshchad', 6, Nizhnij Novgorod, Nizhegorodskaya oblast', Russia, 603140",177
4721837,"Komsomol'skaya Ploshchad', 6, Nizhnij Novgorod, Nizhegorodskaya oblast', Russia, 603140",177
4721838,"Komsomol'skaya Ploshchad', 6, Nizhnij Novgorod, Nizhegorodskaya oblast', Russia, 603140",177
4721839,"Komsomol'skaya Ploshchad', 6, Nizhnij Novgorod, Nizhegorodskaya oblast', Russia, 603140",177
4721392,"Komsomol'skaya Ploshchad', 6/1, Nizhnij Novgorod, Nizhegorodskaya oblast', Russia, 603140",177
4722835,"Komsomol'skaya Ulitsa, 4, Azov, Rostovskaya oblast', Russia, 346782",177
4720293,"Komsomol'skoye Shosse, 12, Nizhnij Novgorod, Nizhegorodskaya oblast', Russia, 603010",177
4720933,"Komsomol'skoye Shosse, 14, Nizhnij Novgorod, Nizhegorodskaya oblast', Russia, 603028",177
4720301,"Komsomol'skoye Shosse, 14?, Nizhnij Novgorod, ????????????? ???, Russia, 603034",177
4694987,"Komsomol'skoye Shosse, 2, Nizhnij Novgorod, Nizhegorodskaya oblast', Russia, 603140",177
4694604,"Komsomol'skoye Shosse, 3?, Nizhnij Novgorod, Nizhegorodskaya oblast', Russia, 603011",177
4694988,"Komsomol'skoye Shosse, 3?, Nizhnij Novgorod, Nizhegorodskaya oblast', Russia, 603011",177
4721792,"Komsomol'skoye Shosse, 5?, Nizhnij Novgorod, Nizhegorodskaya oblast', Russia, 603034",177
4695056,"Komsomol'skoye Shosse, 5?, Nizhnij Novgorod, Nizhegorodskaya oblast', Russia, 603034",177
4720935,"Komsomol'skoye Shosse, 5?, Nizhnij Novgorod, Nizhegorodskaya oblast', Russia, 603079",177
4720445,"Komsomol'skoye Shosse, 6, Nizhnij Novgorod, Nizhegorodskaya oblast', Russia, 603028",177
4721602,"Komsomol'skoye Shosse, 7, Nizhnij Novgorod, Nizhegorodskaya oblast', Russia, 603079",177
4720938,"Komsomol'skoye Shosse, Nizhnij Novgorod, Nizhegorodskaya oblast', Russia, 603010",177
4713444,"Konnyy Pereulok, 43, Rostov, Rostovskaya oblast', Russia, 344048",177
4696197,"Kosmicheskaya Ulitsa, 42, Nizhnij Novgorod, Nizhegorodskaya oblast', Russia, 603142",177
4696696,"Kosmicheskaya Ulitsa, 42, ?.1, Nizhnij Novgorod, Nizhegorodskaya oblast', Russia, 603142",177
4695473,"Kosmicheskaya Ulitsa, 42, ??????? ""???????"", 2-? ??., Nizhnij Novgorod, Nizhegorodskaya oblast', Russia, 603142",177
4696701,"Kosmicheskaya Ulitsa, 46, Nizhnij Novgorod, Nizhegorodskaya oblast', Russia, 603142",177
4696760,"Kosmicheskaya Ulitsa, 48, Nizhnij Novgorod, Nizhegorodskaya oblast', Russia, 603142",177
4696195,"Kosmicheskaya Ulitsa, 51, ??. 156, Nizhnij Novgorod, Nizhegorodskaya oblast', Russia, 603142",177
4696756,"Kosmicheskaya Ulitsa, 51, ???.1, Nizhnij Novgorod, Nizhegorodskaya oblast', Russia, 603142",177
4693730,"Kosmicheskaya Ulitsa, 52, Nizhnij Novgorod, Nizhegorodskaya oblast', Russia, 603018",177
4694758,"Kosmicheskaya Ulitsa, 58?, Nizhnij Novgorod, Nizhegorodskaya oblast', Russia, 603018",177
4716320,"Kovalevskoy Ulitsa, 43, Rostov, Rostovskaya oblast', Russia, 344090",177
4694094,"Kovalikhinskaya Ulitsa, 14/43, Nizhnij Novgorod, Nizhegorodskaya oblast', Russia, 603006",177
4696308,"Kovalikhinskaya Ulitsa, 28?, Nizhnij Novgorod, Nizhegorodskaya oblast', Russia, 603006",177
4697578,"Kovalikhinskaya Ulitsa, 4, Nizhnij Novgorod, Nizhegorodskaya oblast', Russia, 603006",177
4721037,"Kovalikhinskaya Ulitsa, 49?, Nizhnij Novgorod, Nizhegorodskaya oblast', Russia, 603006",177
4696970,"Kovalikhinskaya Ulitsa, 4?, Nizhnij Novgorod, Nizhegorodskaya oblast &#39;, Russia, 603006",177
4697387,"Kovalikhinskaya Ulitsa, 4?, Nizhnij Novgorod, Nizhegorodskaya oblast', Russia, 603006",177
4694484,"Kovalikhinskaya Ulitsa, 8, Nizhnij Novgorod, Nizhegorodskaya oblast', Russia, 603006",177
4697573,"Kovalikhinskaya Ulitsa, 8, Nizhnij Novgorod, Nizhegorodskaya oblast', Russia, 603006",177
4694099,"Kovalikhinskaya Ulitsa, 8, Nizhnij Novgorod, ?????????????, Russia, 603006",177
4694102,"Kovalikhinskaya Ulitsa, 8, Nizhnij Novgorod, ?????? ????????, Russia, 603006",177
4693902,"Kovalikhinskaya Ulitsa, 8, ??? ""????? ????????????? ????????"", ?. ????????, Nizhegorodskaya oblast', Russia, 603006",177
4714004,"Kovalivskogo St., 74-a, Bataysk, Rostov Oblast, Russia, 346880",177
4697311,"Kozhevennyy Pereulok, 10/13, Nizhnij Novgorod, Nizhegorodskaya oblast &#39;, Russia, 603001",177
4714653,"Krasnaya Ulitsa, 87, Rostov, Rostovskaya oblast', Russia, 344058",177
4715439,"Krasnoarmeyskaya Ulitsa, 101, Rostov, Rostovskaya oblast &#39;, Russia, 344000",177
4716976,"Krasnoarmeyskaya Ulitsa, 101, Rostov, Rostovskaya oblast', Russia, 344000",177
4715083,"Krasnoarmeyskaya Ulitsa, 103, Rostov, Rostovskaya oblast', Russia, 344010",177
4714432,"Krasnoarmeyskaya Ulitsa, 103, Rostov, Rostovskaya oblast', Russia, 344025",177
4716975,"Krasnoarmeyskaya Ulitsa, 103/123, Rostov, Rostovskaya oblast', Russia, 344010",177
4713769,"Krasnoarmeyskaya Ulitsa, 104, Rostov, Rostovskaya oblast &#39;, Russia, 344011",177
4714161,"Krasnoarmeyskaya Ulitsa, 105, Rostov, Rostovskaya oblast &#39;, Russia, 344000",177
4715438,"Krasnoarmeyskaya Ulitsa, 105, Rostov, Rostovskaya oblast &#39;, Russia, 344000",177
4713537,"Krasnoarmeyskaya Ulitsa, 105, Rostov, Rostovskaya oblast', Russia, 344000",177
4716763,"Krasnoarmeyskaya Ulitsa, 105, Rostov, Rostovskaya oblast', Russia, 344006",177
4716033,"Krasnoarmeyskaya Ulitsa, 105, Rostov, Rostovskaya oblast', Russia, 344010",177
4713955,"Krasnoarmeyskaya Ulitsa, 105, Rostov, Rostovskaya oblast', Russia, 344022",177
4716027,"Krasnoarmeyskaya Ulitsa, 105, Rostov, Rostovskaya oblast', Russia, 344022",177
4716429,"Krasnoarmeyskaya Ulitsa, 105, Rostov, ??????-??-????, Russia, 344010",177
4716031,"Krasnoarmeyskaya Ulitsa, 105, ?.??????-??-????, Rostovskaya oblast', Russia, 344010",177
4712719,"Krasnoarmeyskaya Ulitsa, 105, ?? ""???????"", Rostov, Rostovskaya oblast', Russia, 344022",177
4716028,"Krasnoarmeyskaya Ulitsa, 105, ?? ""???????"", Rostov, Rostovskaya oblast', Russia, 344022",177
4713536,"Krasnoarmeyskaya Ulitsa, 105?, Rostov, Rostovskaya oblast', Russia, 344022",177
4723447,"Krasnoarmeyskaya Ulitsa, 108, Rostov, Rostovskaya oblast', Russia, 344082",177
4716024,"Krasnoarmeyskaya Ulitsa, 109?, Rostov, Rostovskaya oblast', Russia, 344010",177
4716765,"Krasnoarmeyskaya Ulitsa, 109?, Rostov, Rostovskaya oblast', Russia, 344010",177
4717009,"Krasnoarmeyskaya Ulitsa, 117-135, Rostov, Rostovskaya oblast', Russia, 344022",177
4714430,"Krasnoarmeyskaya Ulitsa, 119, Rostov, Rostovskaya oblast', Russia, 344006",177
4716430,"Krasnoarmeyskaya Ulitsa, 119, Rostov, Rostovskaya oblast', Russia, 344010",177
4716023,"Krasnoarmeyskaya Ulitsa, 121, Rostov, Rostovskaya oblast', Russia, 344010",177
4712714,"Krasnoarmeyskaya Ulitsa, 127, Rostov, Rostovskaya oblast', Russia, 344022",177
4716966,"Krasnoarmeyskaya Ulitsa, 131, Rostov, Rostovskaya oblast', Russia, 344010",177
4717708,"Krasnoarmeyskaya Ulitsa, 132, 201, Rostov, Rostovskaya oblast', Russia, 344006",177
4713925,"Krasnoarmeyskaya Ulitsa, 133, Wolrd Class, 1 ????, Rostov, Rostovskaya oblast', Russia, 344000",177
4716531,"Krasnoarmeyskaya Ulitsa, 133/117, Rostov, Rostovskaya oblast &#39;, Russia, 344010",177
4714154,"Krasnoarmeyskaya Ulitsa, 133/117, Rostov, Rostovskaya oblast &#39;, Russia, 344022",177
4716965,"Krasnoarmeyskaya Ulitsa, 133/117, Rostov, Rostovskaya oblast', Russia, 344000",177
4713631,"Krasnoarmeyskaya Ulitsa, 133/117, Rostov, Rostovskaya oblast', Russia, 344010",177
4715050,"Krasnoarmeyskaya Ulitsa, 134, Rostov, Rostovskaya oblast', Russia, 344010",177
4713261,"Krasnoarmeyskaya Ulitsa, 157, Rostov, Rostovskaya oblast &#39;, Russia, 344022",177
4714269,"Krasnoarmeyskaya Ulitsa, 157, Rostov, Rostovskaya oblast &#39;, Russia, 344022",177
4716960,"Krasnoarmeyskaya Ulitsa, 157, Rostov, Rostovskaya oblast', Russia, 344000",177
4717006,"Krasnoarmeyskaya Ulitsa, 157, Rostov, Rostovskaya oblast', Russia, 344000",177
4713088,"Krasnoarmeyskaya Ulitsa, 157, Rostov, Rostovskaya oblast', Russia, 344010",177
4713090,"Krasnoarmeyskaya Ulitsa, 157, Rostov, Rostovskaya oblast', Russia, 344010",177
4716769,"Krasnoarmeyskaya Ulitsa, 157, Rostov, Rostovskaya oblast', Russia, 344010",177
4716959,"Krasnoarmeyskaya Ulitsa, 157, Rostov, Rostovskaya oblast', Russia, 344010",177
4713086,"Krasnoarmeyskaya Ulitsa, 157, Rostov, Rostovskaya oblast', Russia, 344022",177
4716007,"Krasnoarmeyskaya Ulitsa, 157, Rostov, Rostovskaya oblast', Russia, 344022",177
4716010,"Krasnoarmeyskaya Ulitsa, 157, Rostov, Rostovskaya oblast', Russia, 344022",177
4716011,"Krasnoarmeyskaya Ulitsa, 157, Rostov, Rostovskaya oblast', Russia, 344022",177
4716013,"Krasnoarmeyskaya Ulitsa, 157, Rostov, Rostovskaya oblast', Russia, 344022",177
4716962,"Krasnoarmeyskaya Ulitsa, 157, Rostov, Rostovskaya oblast', Russia, 344022",177
4716008,"Krasnoarmeyskaya Ulitsa, 157/124, Rostov, Rostovskaya oblast', Russia, 344010",177
4717380,"Krasnoarmeyskaya Ulitsa, 158, Rostov, Rostovskaya oblast', Russia, 344002",177
4714898,"Krasnoarmeyskaya Ulitsa, 168/99, Rostov, Rostovskaya oblast', Russia, 344002",177
5738655,"Krasnoarmeyskaya Ulitsa, 168/99, Rostov, Rostovskaya oblast', Russia, 344002",177
4712444,"Krasnoarmeyskaya Ulitsa, 170, Rostov, Rostovskaya oblast &#39;, Russia, 344002",177
4715055,"Krasnoarmeyskaya Ulitsa, 170, Rostov, Rostovskaya oblast', Russia, 344002",177
4715049,"Krasnoarmeyskaya Ulitsa, 170, Rostov, ?????????? ???, Russia, 344010",177
4723352,"Krasnoarmeyskaya Ulitsa, 170/84, Rostov, Rostovskaya oblast', Russia, 344010",177
4717080,"Krasnoarmeyskaya Ulitsa, 176/46, Rostov, Rostovskaya oblast', Russia, 344002",177
4754756,"Krasnoarmeyskaya Ulitsa, 19, ??????, Samarskaya oblast', Russia, 446390",177
4717077,"Krasnoarmeyskaya Ulitsa, 194, Rostov, Rostovskaya oblast', Russia, 344010",177
4722798,"Krasnoarmeyskaya Ulitsa, 198, Rostov, Rostovskaya oblast', Russia, 344000",177
4712722,"Krasnoarmeyskaya Ulitsa, 206, Rostov, Rostovskaya oblast', Russia, 344000",177
4713826,"Krasnoarmeyskaya Ulitsa, 208, Rostov, Rostovskaya oblast', Russia, 344010",177
4713399,"Krasnoarmeyskaya Ulitsa, 210, Rostov, Rostovskaya oblast', Russia, 344022",177
4716032,"Krasnoarmeyskaya Ulitsa, 220/117, Rostov, Rostovskaya oblast', Russia, 344022",177
4716026,"Krasnoarmeyskaya Ulitsa, 224, Rostov, Rostovskaya oblast', Russia, 344022",177
4715052,"Krasnoarmeyskaya Ulitsa, 23, Rostov, Rostovskaya oblast', Russia, 344002",177
4716936,"Krasnoarmeyskaya Ulitsa, 232, Rostov, Rostovskaya oblast', Russia, 344022",177
4712963,"Krasnoarmeyskaya Ulitsa, 236, Rostov, Rostovskaya oblast', Russia, 344022",177
4715703,"Krasnoarmeyskaya Ulitsa, 236, Rostov, Rostovskaya oblast', Russia, 344022",177
4716970,"Krasnoarmeyskaya Ulitsa, 236, Rostov, Rostovskaya oblast', Russia, 344022",177
4716969,"Krasnoarmeyskaya Ulitsa, 240, Rostov, Rostovskaya oblast', Russia, 344022",177
4715694,"Krasnoarmeyskaya Ulitsa, 262?, Rostov, Rostovskaya oblast', Russia, 344022",177
4712471,"Krasnoarmeyskaya Ulitsa, 278, Rostov, Rostovskaya oblast', Russia, 344022",177
4715693,"Krasnoarmeyskaya Ulitsa, 278, Rostov, Rostovskaya oblast', Russia, 344022",177
4716305,"Krasnoarmeyskaya Ulitsa, 33, Rostov, Rostovskaya oblast &#39;, Russia, 344002",177
4717710,"Krasnoarmeyskaya Ulitsa, 33, Rostov, Rostovskaya oblast', Russia, 344010",177
4713795,"Krasnoarmeyskaya Ulitsa, 3?, Rostov, Rostovskaya oblast &#39;, Russia, 344011",177
4716939,"Krasnoarmeyskaya Ulitsa, 43/94, Rostov, Rostovskaya oblast', Russia, 344022",177
4723007,"Krasnoarmeyskaya Ulitsa, 5, Rostov, Rostovskaya oblast', Russia, 344011",177
4717697,"Krasnoarmeyskaya Ulitsa, 5?, Rostov, Rostovskaya oblast', Russia, 344002",177
4713189,"Krasnoarmeyskaya Ulitsa, 61/101, Rostov, Rostovskaya oblast', Russia, 344010",177
4715059,"Krasnoarmeyskaya Ulitsa, 63, Rostov, Rostovskaya oblast', Russia, 344000",177
4715060,"Krasnoarmeyskaya Ulitsa, 63, Rostov, Rostovskaya oblast', Russia, 344000",177
4714197,"Krasnoarmeyskaya Ulitsa, 65-61, Rostov, Rostovskaya oblast &#39;, Russia, 344010",177
4723375,"Krasnoarmeyskaya Ulitsa, 7, 1 ????, Rostov, Rostovskaya oblast', Russia, 344011",177
4715086,"Krasnoarmeyskaya Ulitsa, 87, Rostov, Rostovskaya oblast', Russia, 344022",177
4714440,"Krasnoarmeyskaya Ulitsa, 89, Rostov, Rostovskaya oblast', Russia, 344006",177
4713917,"Krasnoarmeyskaya Ulitsa, 90, Rostov, Rostovskaya oblast', Russia, 344010",177
4723353,"Krasnoarmeyskaya Ulitsa, 94, Rostov, Rostovskaya oblast', Russia, 344001",177
4716245,"Krasnoarmeyskaya Ulitsa, Rostov, Rostovskaya oblast', Russia, 344010",177
4723004,"Krasnoarmeyskiy Pereulok, 90, Azov, Rostovskaya oblast', Russia, 346780",177
4726788,"Krasnoglinskoye Shosse, 5?, ?. ??????, ??? ??????????????, Samarskaya oblast', Russia, 443000",177
4717210,"Krasnokursantskaya Ulitsa, 3, Rostov, Rostovskaya oblast', Russia, 344068",177
4713158,"Krasnosel&#39;skaya Ulitsa, 3, Rostov, Rostovskaya oblast &#39;, Russia, 344041",177
4721650,"Krasnosormovskaya Ulitsa, 4?, Nizhnij Novgorod, Nizhegorodskaya oblast', Russia, 603068",177
4713466,"Krasnosulinskiy Pereulok, Rostov, Rostovskaya oblast', Russia, 344056",177
4696759,"Krasnoural'skaya Ulitsa, 7?, Nizhnij Novgorod, Nizhegorodskaya oblast', Russia, 603041",177
4721285,"Kremenchugskaya Ulitsa, 1, Nizhnij Novgorod, Nizhegorodskaya oblast', Russia, 603034",177
4721214,"Kremlin territory, Nizhnij Novgorod, Nizhegorodskaya oblast &#39;, Russia, 603082",177
4693955,"Kremlin, 10, Nizhnij Novgorod, Nizhegorodskaya oblast', Russia, 603005",177
4696975,"Kremlin, 11?, Nizhnij Novgorod, Nizhegorodskaya oblast &#39;, Russia, 603005",177
4697305,"Kremlin, 1B, Nizhnij Novgorod, Nizhegorodskaya oblast &#39;, Russia, 603082",177
4695660,"Kremlin, 2B, Nizhnij Novgorod, Nizhegorodskaya oblast &#39;, Russia, 603001",177
4695595,"Kremlin, 2B, Nizhnij Novgorod, Nizhegorodskaya oblast &#39;, Russia, 603082",177
4694609,"Kremlin, 2?, Nizhnij Novgorod, Nizhegorodskaya oblast &#39;, Russia, 603082",177
4695662,"Kremlin, 2?, Nizhnij Novgorod, Nizhegorodskaya oblast', Russia, 603001",177
4695648,"Kremlin, 3, Nizhnij Novgorod, Nizhegorodskaya oblast &#39;, Russia, 603082",177
4695250,"Kremlin, 4B, Nizhnij Novgorod, Nizhegorodskaya oblast &#39;, Russia, 603001",177
4695251,"Kremlin, 4B, Nizhnij Novgorod, Nizhegorodskaya oblast &#39;, Russia, 603001",177
4697301,"Kremlin, 6, Nizhnij Novgorod, Nizhegorodskaya oblast &#39;, Russia, 603005",177
4695658,"Kremlin, 6, Nizhnij Novgorod, Nizhegorodskaya oblast &#39;, Russia, 603082",177
4695248,"Kremlin, 6B, Nizhnij Novgorod, Nizhegorodskaya oblast &#39;, Russia, 603005",177
4695657,"Kremlin, 6?, Nizhnij Novgorod, Nizhegorodskaya oblast &#39;, Russia, 603005",177
4693649,"Kremlin, building 6, Nizhnij Novgorod, Nizhegorodskaya oblast &#39;, Russia, 603005",177
4695505,"Kremlin, Nizhnij Novgorod, Nizhegorodskaya oblast &#39;, Russia, 603001",177
4694671,"Kremlin, Nizhnij Novgorod, Nizhegorodskaya oblast &#39;, Russia, 603005",177
4714619,"Krepostnoy Pereulok, 106, Rostov, Rostovskaya oblast', Russia, 344000",177
4712698,"Krepostnoy Pereulok, 108, Rostov, Rostovskaya oblast', Russia, 344022",177
4715387,"Krepostnoy Pereulok, 128, Rostov, Rostovskaya oblast &#39;, Russia, 344010",177
4714782,"Krepostnoy Pereulok, 129, Rostov, Rostovskaya oblast', Russia, 344010",177
4714853,"Krepostnoy Pereulok, 139, Rostov, Rostovskaya oblast', Russia, 344022",177
4714153,"Krepostnoy Pereulok, 147, Rostov, Rostovskaya oblast &#39;, Russia, 344022",177
4714145,"Krepostnoy Pereulok, 43, Rostov, Rostovskaya oblast &#39;, Russia, 344022",177
4714553,"Krepostnoy Pereulok, 66, Rostov, Rostovskaya oblast', Russia, 344022",177
4715845,"Krepostnoy Pereulok, 66, Rostov, Rostovskaya oblast', Russia, 344022",177
4713202,"Krepostnoy Pereulok, 70, Rostov, Rostovskaya oblast &#39;, Russia, 344022",177
4713751,"Krepostnoy Pereulok, 72, Rostov, Rostovskaya oblast &#39;, Russia, 344022",177
4714144,"Krepostnoy Pereulok, 9, Rostov, Rostovskaya oblast &#39;, Russia, 344022",177
4714429,"Krepostnoy Pereulok, 97, Rostov, Rostovskaya oblast', Russia, 344022",177
4715847,"Krepostnoy Pereulok, 97, Rostov, Rostovskaya oblast', Russia, 344022",177
4715702,"Krepostnoy Pereulok, 99, ???? 18, Rostov, Rostovskaya oblast', Russia, 344022",177
4716036,"Krivorozhskaya Ulitsa, 59, Rostov, Rostovskaya oblast', Russia, 344068",177
4717222,"Krivorozhskaya Ulitsa, 68, Rostov, Rostovskaya oblast', Russia, 344068",177
4715911,"Krivorozhskaya Ulitsa, 70, Rostov, Rostovskaya oblast', Russia, 344068",177
4713042,"Krivoshlykovskiy Pereulok, 42, Rostov, Rostovskaya oblast', Russia, 344030",177
4722792,"Krym, Rostov Oblast, Russia, 346803",177
4714339,"Kudryavaya ul., 132, Rostov, Rostovskaya oblast &#39;, Russia, 344020",177
3419350,"Kuibyshevskoe Reservoir, Russia",177
4722904,"Kuleshovka, Rostov Oblast, Russia, 346779",177
4713732,"Kulikovskaya Ulitsa, 16?, Rostov, Rostovskaya oblast &#39;, Russia, 344064",177
4716335,"Kumzhenskaya Ulitsa, 2?, Rostov, Rostovskaya oblast &#39;, Russia, 344033",177
4716387,"Kumzhenskaya Ulitsa, 2?, Rostov, Rostovskaya oblast &#39;, Russia, 344033",177
4755440,"Kvartal'naya Ulitsa, 115, Novaya Usman', ???????????, Russia, 396311",177
5688175,"K?????-????? ""????????"", ??????, ????????????? ???., 633000",177
4717363,"Landshaftnaya Ulitsa, 6, Rostov, Rostovskaya oblast', Russia, 344068",177
4696190,"Lenin Ave, 57, Nizhnij Novgorod, Nizhegorodskaya oblast', Russia, 603135",177
4693982,"Lenin Ave, 64, Nizhnij Novgorod, Nizhegorodskaya oblast', Russia, 603073",177
4693983,"Lenin Ave, 64, Nizhnij Novgorod, Nizhegorodskaya oblast', Russia, 603073",177
4695438,"Lenin Ave, 65, Nizhnij Novgorod, Nizhegorodskaya oblast &#39;, Russia, 603090",177
3385073,"Leningrad Oblast, Russia, 188643",177
3413292,"Leningrad Oblast, Russia, 188753",177
4723000,"Leningradskaya Ulitsa, 31, Azov, Rostovskaya oblast', Russia, 346780",177
3438104,"Leningradsky Ave, 39, Russia",177
4717232,"Lentochnaya Ulitsa, 1, Rostov, Rostovskaya oblast &#39;, Russia, 344041",177
4715945,"Lesoparkovaya Ulitsa, 14, Rostov, Rostovskaya oblast', Russia, 344041",177
4715947,"Lesoparkovaya Ulitsa, 14, Rostov, Rostovskaya oblast', Russia, 344041",177
4715948,"Lesoparkovaya Ulitsa, 14, Rostov, Rostovskaya oblast', Russia, 344041",177
5739599,"Lesoparkovaya Ulitsa, 32/1, Rostov, Rostovskaya oblast', Russia, 344041",177
4716325,"Lesoparkovaya Ulitsa, 51, Rostov, Rostovskaya oblast', Russia, 344041",177
4717640,"Lesoparkovaya Ulitsa, 90?, Rostov, Rostovskaya oblast', Russia, 344041",177
4716474,"Lesoparkovaya Ulitsa, 90?, Rostov, Rostovskaya oblast', Russia, 344041",177
4713007,"Lesozashchitnaya Ulitsa, 3, Rostov, Rostovskaya oblast', Russia, 344020",177
4715204,"Lesozashchitnaya Ulitsa, 3, Rostov, Rostovskaya oblast', Russia, 344020",177
4714305,"Levoberezhnaya Ulitsa, 131, Rostov, Rostovskaya oblast &#39;, Russia, 344015",177
5739605,"Levoberezhnaya Ulitsa, 27, Rostov, Rostovskaya oblast', Russia, 344002",177
4714899,"Levoberezhnaya Ulitsa, 39, Rostov, Rostovskaya oblast', Russia, 344002",177
4713201,"Levoberezhnaya Ulitsa, 47, Rostov, Rostovskaya oblast', Russia, 344002",177
4714611,"Levoberezhnaya Ulitsa, 61, Rostov, Rostovskaya oblast', Russia, 344002",177
4713234,"Levoberezhnaya Ulitsa, 69, Rostov, Rostovskaya oblast', Russia, 344019",177
4714280,"Levoberezhnaya Ulitsa, Rostov, Rostovskaya oblast &#39;, Russia, 344019",177
4713432,"Levobereznaya, 37, Rostov, Rostovskaya oblast', Russia, 344002",177
4713139,"Likbezovskiy Pereulok, 18, Rostov, Rostovskaya oblast &#39;, Russia, 344068",177
4721278,"Lindovskaya Ulitsa, 15-?, Nizhnij Novgorod, Nizhegorodskaya oblast', Russia, 603157",177
4721475,"Liniya Dubravnaya Ulitsa 1, 1, Nizhnij Novgorod, Nizhegorodskaya oblast', Russia, 603051",177
4721654,"Liniya Dubravnaya Ulitsa 11, 1?, Nizhnij Novgorod, Nizhegorodskaya oblast', Russia, 603051",177
4721978,"Liniya Dubravnaya Ulitsa 2, 1?, Nizhnij Novgorod, Nizhegorodskaya oblast', Russia, 603051",177
4715134,"Lipovaya Ulitsa, 3, Rostov, Rostovskaya oblast', Russia, 346715",177
4696506,"Lyuby Shevtsovoy Ulitsa, 1 ?, ?. ?. ????????, Nizhegorodskaya oblast', Russia, 603142",177
4694140,"M7, Nizhnij Novgorod, Nizhegorodskaya oblast &#39;, Russia, 603058",177
4696110,"M7, Nizhnij Novgorod, Nizhegorodskaya oblast &#39;, Russia, 607611",177
3431273,"Magistral'naya Ulitsa, 14, Russia",177
