<svg xmlns="http://www.w3.org/2000/svg" width="12" height="19">
    <path fill="#999" fill-rule="evenodd" d="M11.741 17.115l-1.555 1.556-7.747-7.747-.047.047L.835 9.415l.048-.047-.048-.048 1.557-1.556.047.047L10.186.065l1.555 1.555-7.746 7.748 7.746 7.747z"/>
</svg>
