<svg 
 xmlns="http://www.w3.org/2000/svg"
 xmlns:xlink="http://www.w3.org/1999/xlink"
 width="20px" height="19px">
<path fill-rule="evenodd"  fill="rgb(50, 201, 132)"
 d="M18.774,18.444 L1.438,18.444 C1.090,18.444 0.788,18.144 0.788,17.795 C0.788,17.448 1.073,17.148 1.438,17.148 L18.759,17.148 C19.123,17.148 19.423,17.448 19.423,17.795 C19.423,18.144 19.138,18.444 18.774,18.444 ZM4.952,14.951 C4.826,15.078 4.667,15.141 4.493,15.141 L1.422,15.157 C1.247,15.157 1.090,15.093 0.963,14.967 C0.836,14.840 0.773,14.667 0.773,14.493 L0.788,11.410 C0.788,11.237 0.868,11.079 0.979,10.952 L9.464,2.497 L11.586,0.363 C11.856,0.110 12.268,0.110 12.521,0.363 L15.560,3.429 C15.813,3.698 15.813,4.109 15.560,4.362 L4.952,14.951 ZM2.102,11.695 L2.087,13.829 L4.240,13.813 L12.062,6.021 L9.923,3.887 L2.102,11.695 ZM12.062,1.754 L10.858,2.955 L12.995,5.089 L14.199,3.887 L12.062,1.754 Z"/>
</svg>