<svg 
 xmlns="http://www.w3.org/2000/svg"
 xmlns:xlink="http://www.w3.org/1999/xlink"
 width="14px" height="12px">
<path fill-rule="evenodd"  fill="rgb(179, 179, 179)"
 d="M10.814,11.823 L2.414,11.823 C1.088,11.823 0.013,10.749 0.013,9.424 L0.013,2.825 C0.013,1.499 1.088,0.424 2.414,0.424 L6.611,0.424 L6.611,1.624 L2.414,1.624 C1.750,1.624 1.213,2.161 1.213,2.825 L1.213,9.424 C1.213,10.087 1.750,10.624 2.414,10.624 L10.814,10.624 C11.476,10.624 12.013,10.087 12.013,9.424 L12.013,7.024 L13.214,7.024 L13.214,9.424 C13.214,10.749 12.140,11.823 10.814,11.823 ZM12.013,2.473 L6.438,8.048 L5.590,7.199 L11.165,1.624 L7.814,1.624 L7.814,0.424 L12.013,0.424 L13.214,0.424 L13.214,1.624 L13.214,5.824 L12.013,5.824 L12.013,2.473 Z"/>
</svg>