<svg 
 xmlns="http://www.w3.org/2000/svg"
 xmlns:xlink="http://www.w3.org/1999/xlink"
 width="17px" height="16px">
<path fill-rule="evenodd"  fill="rgb(64, 128, 255)"
 d="M16.946,4.454 L13.526,7.874 L12.636,6.985 L14.614,5.007 L8.379,5.007 C7.277,5.007 6.384,5.900 6.384,7.002 L6.384,10.992 L5.244,10.992 L5.244,6.717 C5.244,5.143 6.520,3.867 8.094,3.867 L14.615,3.867 L12.636,1.889 L13.526,1.000 L16.946,4.420 L16.929,4.437 L16.946,4.454 ZM1.255,3.298 L1.255,12.702 C1.255,13.647 2.020,14.412 2.965,14.412 L12.940,14.412 C13.884,14.412 14.650,13.647 14.650,12.702 L14.650,9.567 L15.790,9.567 L15.790,12.702 C15.790,14.277 14.514,15.552 12.940,15.552 L2.965,15.552 C1.391,15.552 0.115,14.277 0.115,12.702 L0.115,3.298 C0.115,1.723 1.391,0.448 2.965,0.448 L10.090,0.448 L10.090,1.588 L2.965,1.588 C2.020,1.588 1.255,2.353 1.255,3.298 Z"/>
</svg>