old_id," Place Name","Travooo Id","Place Type",Address,"Not Found",Multiple
1," Radisson Blu Hotel, Abidjan Airport"," ----",---," ------",yes,no
" 2"," Sofitel Abidjan Hôtel Ivoire"," ----",---," ------",yes,no
" 3"," Seen Hotel Abidjan Plateau"," ----",---," ------",yes,no
" 4"," Cypa Hotel"," ----",---," ------",yes,no
" 5"," Villa Residence Inovalis"," ----",---," ------",yes,no
" 6"," NGALIEMA Resort Club"," ----",---," ------",yes,no
" 7"," Pullman Abidjan"," ----",---," ------",yes,no
" 8"," Détente Hôtel"," ----",---," ------",yes,no
" 9"," Villa Mango"," ----",---," ------",yes,no
" 10"," Résidence ECOLOGE"," ----",---," ------",yes,no
" 11"," Ivotel Abidjan"," ----",---," ------",yes,no
" 12"," Nouvelle Villa Mia"," ----",---," ------",yes,no
" 13"," Maison d'Hôtes Stanislas"," ----",---," ------",yes,no
" 14"," Villa Ayaba"," ----",---," ------",yes,no
" 15"," La Rose Blanche"," ----",---," ------",yes,no
" 16"," Villa Anakao"," ----",---," ------",yes,no
" 17"," Hotel Tiama"," ----",---," ------",yes,no
" 18"," Novotel Abidjan"," ----",---," ------",yes,no
" 19"," Le Wafou"," ----",---," ------",yes,no
" 20"," AZALAÏ HOTEL ABIDJAN"," ----",---," ------",yes,no
" 21","Al Diar Mina Hotel",772544,"cafe,lodging,restaurant,food,store,point_of_interest,establishment","Al Meena St, Corniche Area - Abu Dhabi - United Arab Emirates"," no "," no "
22,"Hotel ibis Abu Dhabi Gate",825473,"lodging,point_of_interest,establishment","Al Maqta Street,Al Maqta - Abu Dhabi - United Arab Emirates"," no "," no "
23,"Southern Sun Abu Dhabi",737336,"lodging,restaurant,food,point_of_interest,establishment","Al Mina Street, Al Zahiya, Tourist Club Area - Abu Dhabi - United Arab Emirates"," no "," no "
24,"Four Seasons Hotel",737119,"spa,lodging,health,point_of_interest,establishment","جزيرة المارية - Abu Dhabi - United Arab Emirates"," no "," no "
25,"Khalidiya Palace Rayhaan by Rotana",737051,"lodging,point_of_interest,establishment","Corniche Road West - Opposite Emirate Palace - Abu Dhabi - United Arab Emirates"," no "," no "
26,"Al Diar Capital Hotel",737441,"bar,lodging,restaurant,food,point_of_interest,establishment","Meena Street,Tourist Club Area - Abu Dhabi - United Arab Emirates"," no "," no "
27,"Sheraton Abu Dhabi Hotel & Resort",737165,"lodging,restaurant,food,point_of_interest,establishment","Corniche Road - Abu Dhabi - United Arab Emirates"," no "," no "
28,"Le Méridien Abu Dhabi",737462,"lodging,restaurant,food,point_of_interest,establishment","Tourist Club Area - Abu Dhabi - United Arab Emirates"," no "," no "
29," Downtown Sheraton Khalidiya Hotel"," ----",---," ------",yes,no
" 30"," Radisson Blu Hotel & Resort, Abu Dhabi Corniche"," ----",---," ------",yes,no
" 31","Ramada Abu Dhabi Corniche",753832,"lodging,point_of_interest,establishment","Mina St - Abu Dhabi - United Arab Emirates"," no "," no "
32,"Holiday Inn Abu Dhabi Downtown",737162,"lodging,point_of_interest,establishment ","Sheikh Zayed the 1st RD/Electra Street,Near Al Ansari Exchange - Downtown - Abu Dhabi - United Arab Emirates "," no ","yes "
33,"Aloft Abu Dhabi",738558,"lodging,restaurant,food,point_of_interest,establishment","Abu Dhabi National Exhibition Centre - Abu Dhabi - United Arab Emirates"," no "," no "
34," Premier Inn Abu Dhabi Capital Centre Hotel"," ----",---," ------",yes,no
" 35","Courtyard by Marriott World Trade Center, Abu Dhabi",737345,"lodging,point_of_interest,establishment","Hamdan Bin Mohammad St(5th St) - Abu Dhabi - United Arab Emirates"," no "," no "
36,"Hotel Novotel Abu Dhabi Al Bustan",824238,"lodging,restaurant,food,point_of_interest,establishment","Shk. Rashid Bin Saeed - St / Rabdan St - Abu Dhabi - United Arab Emirates"," no "," no "
37," Golden Tulip Downtown Abu Dhabi"," ----",---," ------",yes,no
" 38","Marriott Hotel Downtown, Abu Dhabi",759686,"lodging,point_of_interest,establishment","Sheikh Rashid Bin Saeed Street - Abu Dhabi - United Arab Emirates"," no "," no "
39,"The Ritz-Carlton Abu Dhabi, Grand Canal",740216,"lodging,point_of_interest,establishment","Al Maqta - Abu Dhabi - United Arab Emirates"," no "," no "
40," Andaz Capital Gate, Abu Dhabi - a concept by Hyatt"," ----",---," ------",yes,no
" 41"," Best Premier Hotel Wuse II"," ----",---," ------",yes,no
" 42"," Hawthorn Suites by Wyndham Abuja"," ----",---," ------",yes,no
" 43"," Transcorp Hilton Abuja"," ----",---," ------",yes,no
" 44"," The Nordic Villa"," ----",---," ------",yes,no
" 45"," Sheraton Abuja Hotel"," ----",---," ------",yes,no
" 46"," Fraser Suites Abuja"," ----",---," ------",yes,no
" 47"," SV Chrome"," ----",---," ------",yes,no
" 48"," The Envoy Hotel, Abuja"," ----",---," ------",yes,no
" 49"," Grand Cubana Hotels,"," ----",---," ------",yes,no
" 50"," Summerset Continental Hotel"," ----",---," ------",yes,no
" 51"," Sandralia Hotel"," ----",---," ------",yes,no
" 52"," Phoenicia Suites"," ----",---," ------",yes,no
" 53"," Onim Luxury Apartments"," ----",---," ------",yes,no
" 54"," Corinthia Villa Hotel"," ----",---," ------",yes,no
" 55"," Immaculate Platinum Luxury Resort"," ----",---," ------",yes,no
" 56"," Starview Palace Hotel"," ----",---," ------",yes,no
" 57"," Bolton White Hotel Abuja"," ----",---," ------",yes,no
" 58"," NAF Conference Centre and Suites"," ----",---," ------",yes,no
" 59"," Hawthorn Suites by Wyndham Abuja"," ----",---," ------",yes,no
" 60"," L'eola Suites"," ----",---," ------",yes,no
" 61"," La Villa Boutique Hotel"," ----",---," ------",yes,no
" 62"," Labadi Beach Hotel"," ----",---," ------",yes,no
" 63"," Tang Palace Hotel"," ----",---," ------",yes,no
" 64"," Suncity Hotel Apartment"," ----",---," ------",yes,no
" 65"," Royal Richester Hotel"," ----",---," ------",yes,no
" 66"," Kempinski Hotel Gold Coast City Accra"," ----",---," ------",yes,no
" 67"," Accra Marriott Hotel"," ----",---," ------",yes,no
" 68"," Villa Monticello boutique hotel"," ----",---," ------",yes,no
" 69"," Kwarleyz Residence Accra"," ----",---," ------",yes,no
" 70"," Accra City Hotel"," ----",---," ------",yes,no
" 71"," The Ritzz Exclusive Guest House"," ----",---," ------",yes,no
" 72"," Clifton Court - Luxury Apartments"," ----",---," ------",yes,no
" 73"," ibis Styles Accra Airport"," ----",---," ------",yes,no
" 74"," Stonehedge Apartments"," ----",---," ------",yes,no
" 75"," Golden Tulip Accra"," ----",---," ------",yes,no
" 76"," Akmary Guest House"," ----",---," ------",yes,no
" 77"," The Congress Hotel"," ----",---," ------",yes,no
" 78"," Grand View Hotel"," ----",---," ------",yes,no
" 79"," Airport View Hotel"," ----",---," ------",yes,no
" 80"," Midindi Hotel"," ----",---," ------",yes,no
" 81"," Elilly International Hotel"," ----",---," ------",yes,no
" 82"," Sheraton Addis, a Luxury Collection Hotel, Addis Ababa"," ----",---," ------",yes,no
" 83"," Radisson Blu Hotel, Addis Ababa"," ----",---," ------",yes,no
" 84"," Hilton Addis Ababa"," ----",---," ------",yes,no
" 85"," Ethiopian Skylight Hotel"," ----",---," ------",yes,no
" 86"," Hyatt Regency Addis Ababa"," ----",---," ------",yes,no
" 87"," Golden Tulip Addis Ababa Hotel"," ----",---," ------",yes,no
" 88"," Marriott Executive Apartments Addis Ababa"," ----",---," ------",yes,no
" 89"," Best Western Plus Addis Ababa"," ----",---," ------",yes,no
" 90"," Swiss Inn Nexus Hotel"," ----",---," ------",yes,no
" 91"," Sapphire Addis Hotel"," ----",---," ------",yes,no
" 92"," Getfam Hotel"," ----",---," ------",yes,no
" 93"," Sherar Addis Hotel"," ----",---," ------",yes,no
" 94"," Best Western Plus Pearl Addis"," ----",---," ------",yes,no
" 95"," ነጋ ቦንገር ሆቴል Nega Bonger Hotel"," ----",---," ------",yes,no
" 96"," Blue Birds International Hotel"," ----",---," ------",yes,no
" 97"," Saro-Maria Hotel"," ----",---," ------",yes,no
" 98"," Miracle Hotel"," ----",---," ------",yes,no
" 99"," Jupiter International Hotel, Bole"," ----",---," ------",yes,no
" 100"," Addis Regency Hotel"," ----",---," ------",yes,no
" "
