{
    "/js/chat.js": "/js/chat.js?id=5c15459ad2ac2993570c",
    "/css/frontend.css": "/css/frontend.css?id=7e6fc8e9b99492e72d9b",
    "/css/backend.css": "/css/backend.css?id=c172847fec10a27ee01f",
    "/js/sort.js": "/js/sort.js?id=f13bb3ac5c2892e3da02"
}
