5658650,"26/21 ??? ???????????? ?????????? ????? ?????? ??????????????? 77110",212
5708065,"26/21 ??? ???????????? ?????????? ????? ?????? ??????????????? 77110",212
4234454,"26/26, Radyindee Road, Tambon Hadyai Amphoe Hadyai Songkhla, 90110, Thailand",212
4234455,"26/26, ???????????????, ??????????? ???????????? ????????????, 90110 90110, Thailand",212
5173669,"26/3 Moo 4, Klong Prao beach, ????? ???????? ???? 23170, Thailand",212
5173662,"26/3 ???? 4, ????????????, ???????????? ????????????? ???????????, 23170 Thailand",212
4234411,"26/3, ??? ?????? ???? ??????? ????? ??????? ????? 90110, Thailand",212
5722077,"26/301 ???????????? ??? 7 ???? ????????? ????? ??????? ?????? 20110",212
763023,"26/33 Moo 6, Chaweng Beach 84320, Thailand",212
4232222,"26/4 ?.??????-?????-??? ?.???? ?.??????????, ?.??????????, ????? 52000, Thailand",212
5657997,"26/41, ???????????, ?????????? ??????????? ??????????????????????, 77110 77110",212
5020560,"26/6 Moo 1 Talad Thongsala Koh Phangan, Thailand",212
5723255,"260 ?????????? ???? ??????? ????????????????????? ??????????? 34000",212
4243865,"260/1 ??? 17, ??????????, ??????????? ?????????? ?????????????????, 30000 30000, Thailand",212
5714096,"260/46 ?.??????? ?.?????? ?.????? ?.????? 52100 ????? ????? 52100",212
5714325,"260/58 ?.??????? ?. ?????? ?.????? ????? 52100",212
4245152,"260/7 Moo 2 Captain Yuth Beach Road Bangpra Siracha 20210, Chonburi Thailand",212
5357653,"2601 ??????? 16 ?.???????? ?.??????? ?.???????, ????????????? 10250, Thailand",212
4234118,"261 ???? 1, ?????????? ?????????? ????????????????, 71190 Thailand",212
4234893,"261/3 ??????? 16 ??????????? ?????????????????, ??????? 40000, Thailand",212
4242897,"261???????????, ?????????? ????????????????????? ???????????, 34000 34000, Thailand",212
4240868,"262 Moo 10 Pattaya 2nd Rd. Banglamung, Pattaya, Chonburi 20260 Thailand",212
4243170,"262 Moo 10, Mike Shopping Mall, Pattaya 2nd Road, Tambon NaKluea, Amphoe Banglamung, Chonburi, 20150, 20150, Thailand",212
4243172,"262 Moo 10, Mike Shopping Mall, Pattaya 2nd Road, Tambon NaKluea, Amphoe Banglamung, Chonburi, 20150, 20150, Thailand",212
4243173,"262 Moo 10, Mike Shopping Mall, Pattaya 2nd Road, Tambon NaKluea, Amphoe Banglamung, Chonburi, 20150, 20150, Thailand",212
4243174,"262 Moo 10, Mike Shopping Mall, Pattaya 2nd Road, Tambon NaKluea, Amphoe Banglamung, Chonburi, 20150, 20150, Thailand",212
4244253,"262 Moo 10, Mike Shopping Mall, Pattaya Sai 2 Road, Tambon NaKluea, Amphoe Banglamung, Chonburi, 20150, 20150, Thailand",212
5722613,"262 ?????????? 1 ??? ??????? ??????? ????? ??????????? 34000",212
4240894,"262 ???? 10 ??????????? 2 (262, Moo 10, Pattaya Sai 2 Road) ???????? (Nongprue) ???????? (Banglamung) Chon Buri 20150, Thailand",212
4241752,"262, Moo 10, Pattaya Tai Sai 2 Road, Tambon Nong Prue, Amphoe Bang Lamung, Chon Buri, 20150, 20150, Thailand",212
5720714,"262/2 ????????????3 ??????? ???????? ????? ???????? 41000",212
4229691,"263 Moo 3, Tambon Wiang Chai, Amphoe Wiang Chai, Chai Rai, 57210, 57210, Thailand",212
787978,"263 Moo 5 Koh Lanta Yai, Koh Lanta District 81150, Thailand",212
5717465,"263 ??? ?????????? ???? ??????? ??????????????????????? ????????????? 80000",212
4234649,"263 ??????????????????? 2 ??????????? ????????????, ????? 90110, Thailand",212
4229710,"263 ????????-???????? Yothathikan Chiang Rai Chai Charoen Mu 5 Rd, Wiang Chai, Wiang Chai District, Chiang Rai 57210, Thailand",212
4231104,"263/1 M., 184/4 ????? ??? 3 ?????????????????? ???????? 57100, Thailand",212
4232166,"263/10 ???27, ???????????, ??????????? ???????????? ????????????, 90110 90110, Thailand",212
5174101,"263/125 Moo12, Nongprue, Pattaya, 20150",212
4242774,"264/1, ??? ?????????? ????????????????????? ??????????? 34000, Thailand",212
726461,"265 Moo 6 Ban Thi, Ban Thi District, Lamphun 51180, Thailand",212
4249521,"265/55 ????3, ?????????? ???????????? ?????????????, 20230 20230, Thailand",212
5070021,"266 Moo 5, Sriboya, Nuaklong Subdistrict, Nuaklong District, Koh Jum 81130, Thailand",212
4231740,"266/50-55, San Khong Noi Road, Tambon Rop Wiang, Amphoe Muang Chiang Rai, Chiang Rai, 57000, Thailand",212
5716933,"2668 ??? ??????? 18 ???? ??????? ???????????????????? ?????????? 30000",212
4233293,"267 ???? 9 ???????????????, ?????????? ?????????? ????????????????, 71190 Thailand",212
4229903,"268 ??? ??????????? ???????????????? ??????? ????? ??????? Songkhla 90110, Thailand",212
5170890,"268/1 Soi 21 Banmai Moo 4, Rimkok Subdistrict, Mueang District, Chiang Rai Province, Chiang Rai 57100",212
5710675,"268/1 ??? ????????? ???? ??????? ??????????????????? ????????? 71000",212
5710754,"268/1, ??? ????????? ???? ??????? ????? ??????? ????????? 71000",212
4232870,"268/2 ??? ???????? ????? ?????, ??? ???????? ???? ???????? ??????????????? ????? 52000, Thailand",212
779278,"269 Moo 2, Ao Nang, Muang, Ao Nang Subdistrict 81000, Thailand",212
4234277,"269 Tippawan Rd., Maung, ????? 52000, Thailand",212
5668237,"269 ?.4 ?????????? ????? ?????? ??????????????? 77110",212
4234693,"269, 271, ??????????????-???, ?????????? ??????????????? ????????????, 52100 52100, Thailand",212
4256023,"269/13, ????????????? ???????????? ?????? 20110, Thailand",212
4239085,"269/3, ????????, ?????????????? ?????????????????????? ???????????????????, 84000 84000, Thailand",212
4250109,"27 2, 19 ??? ???????-??????? ???? ??????? ????? ??????? ?????? 20110, Thailand",212
5020307,"27 Chang Phuak Soi 2 Tambon Si Phum, Amphoe, CM 50200, Thailand",212
5722214,"27-28 ??????? 10 ??? ??????????? ???? ???????? ????? ???????? ?????? 20150",212
5272222,"27/1, Moo 2 ???? ??????? ???????????????? ?????? 81000, Thailand",212
5722028,"27/101, ????????, ?????????????? ??????????????????????? ????????????????????, 80000 80000",212
756951,"27/14 Moo 10, Suksawat Road Bang Kru, Phra Pradaeng District, Samut Prakan 10130, Thailand",212
4235776,"27/18 ???? 10 ??????????? 2 (27/18, Moo 10, Pattaya Sai 2 Road) ???????? (Nongprue) ???????? (Banglamung) Chon Buri 20150, Thailand",212
4226157,"27/2 Moo.11 Rojchana Rd. Ayutthaya, Thailand",212
5713100,"27/3 Moo 3, Koh Chang, Klong Son, Trat 23170",212
5731232,"27/3, ??????????, ??????????? ???????????? ???????????????, 22120",212
5066699,"27/5 Moo 5, Laem Sor 84330, Thailand",212
5174069,"27/50, South Pattaya Road, Muang Pattaya, Bang Lamung District, Chonburi 20150",212
5722027,"27/67 ??????? 1, ????????, ?????????????? ??????????????????????? ????????????????????, 80000 80000",212
4244554,"27/7 Phatthaya Tai 24 Alley, Muang Pattaya, Amphoe Bang Lamung, Chang Wat Chon Buri 20150, Thailand",212
5722211,"27/7 Phatthaya Tai 24 Alley, ?????????? ????? ???????? ?????? 20150",212
5722138,"27/8 ????????? ???? ??????? ?????????????????????? ???????????? 84000",212
4239926,"27/8, Sawangfa Road, Tambon Na Kluea, Amphoe Bang Lamung, Chon Buri, 20150, Thailand",212
4232511,"27/8, ??????????, ??????????? ???????????? ????????????, 90110 90110, Thailand",212
5722025,"27/90, ????????, ?????????????? ??????????????????????? ????????????????????, 80000 80000",212
4242169,"270-276 ??? ???????, ???????, ?????, ??????????? 34000, Thailand",212
5710619,"270/9 ??? ??????? ???? ????????? ??? ??????? ???? ????????? ??????????????????? ????????? 71000",212
4229977,"271 ?.1 ?.??????? ???????????????????, ????????? 71000, Thailand",212
4233274,"271/14 ??? ? ?????, ??? ??????? ???? ??????? ??????????????????? ????????? 71190, Thailand",212
4243517,"272 ???? 13, ?????????? ?????????? ???????????????, 41000 41000, Thailand",212
5713487,"272/10 ??????? ????????????????? ??????????????? ????? 52100",212
5268349,"2725/2, 2725/2 ????????? 4 ???? ??????? ??? ??????? ????????????? 10110, Thailand",212
5271727,"273 Ao Nang, Moo 2 ???? ??????? Muang, ?????? 81000, Thailand",212
4228945,"273 Moo 13, Rajabhat Gate 2, Pa Vaek Soi 10, Nang Lae Muang, Chiang Rai 57100, Thailand",212
5717501,"273 ?????????????? ?????????? ????? ???????? ?????? 20150",212
4243509,"273 ???? 1, ?????????????? ?????????????????? ???????????????, 41000 41000, Thailand",212
5647890,"273 ??????? 5, ???????????, ????????? ?????????? ???????????????, 57100",212
4234741,"273, ???????????? ?????????? ????????????, 52000 52000, Thailand",212
5721775,"273-277, ??????????, ??????????? ???????????????????? ?????????????????, 30000 30000",212
5721772,"273/115 ???????????2 ??????? ????? ?????????? 30000",212
4242875,"273/129 ? ??? ???? ??? ????? ???? ??? ??, ???????????????????? ?????????? Thailand",212
4229735,"274 ???? 5 ??? ???????? ?????? Mae Chan District, Chiang Rai 57110, Thailand",212
4236258,"275 - 277 ?????????? ???????????, ???????????????????? ?????????? 30000, Thailand",212
5367873,"275/ 6-7 nong kwai-hang dong rd, ???? ???????? ????????? 50230, Thailand",212
5721759,"2754 ???18, ??????????, ??????????? ?????????? ?????????????????, 30000 30000",212
4233929,"276 ??? ?????????????? ????????????????,????? ??????? ????? ??????? Songkhla 90110, Thailand",212
5714580,"276, ???????????, ?????????? ??????????????? ????????????, 52100",212
5714708,"276, ???????????, ?????????? ??????????????? ????????????, 52100",212
764904,"276/1 Moo 3, Tambon Taling Ngam, Koh Samui, 84140, Thailand",212
5647859,"276/11 ???? 15 ??? 3, ??????????, ????????? ?????????????????? ???????????????, 57000 57000",212
4249784,"276/18 ??????? 4, ??????? ???????????? ?????????????, 20230 Thailand",212
4242191,"276/82 ??????? 4 ???????? ?????????????? ??????????????????????, ???????????? 84000, Thailand",212
4239404,"277 ???????????????? 7, ????????????????, ??????????? ?????????? ??????????????????, 34000 34000, Thailand",212
5656546,"277 ??? ?????? ???? ?????? ????? ??????? ????? 90110",212
4236089,"277 ???? 5 ???? ?????????? Bang Lamung District, Chon Buri 20150, Thailand",212
5268879,"277, ??? ?????????? ???? ?????? ????? ????????? ??????????? 10130, Thailand",212
5718057,"277/1-2 ???????-?????? ??????? ????? ??????????? 34000",212
5720956,"277/1-3 , 271/5 ?.??????????????? ?. ???????? ?.????? ???????? 41000",212
5716019,"277/1-3 ??????????????? ???? ???????? ?????????????????? ???????? 41000",212
5718543,"277/1-3 ??????????????? ???? ???????? ?????????????????? ???????? 41000",212
5722171,"277/1-3 ??????????????? ???? ???????? ?????????????????? ???????? 41000",212
4243492,"277/2, ??????????????????????????????, ??????????????????, ???????????? ?????????? ???????????????, 41000 41000, Thailand",212
4242095,"277/3 ?????????????????? ???????????? ???? 3 ?????????????????? ???????? 41000, Thailand",212
5720957,"277/3 ?????????? 407-408 ??????? 4, ??????????????????, ???????????? ?????????? ????????",212
4242073,"277/3, ???????????, ???????????? ?????????????????? ????????, 41000 41000, Thailand",212
5722156,"277/3, ???????????????????????????????? ???????? ???? 1, ??????????????????, ???????????? ?????????? ???????????????, 41000 41000",212
5718876,"277/3, ???????????????? ?????????? A417-A418 ??????? 4, ??????????????????, ???????????? ?????????? ???????????????, 41000 41000",212
4244894,"277/44, ??????????????????, ???????????? ?????????????????? ???????????????, 41000 41000, Thailand",212
5710848,"277/66 ??? ??????? ???? ????????? ??????????????????? ????????? 71000",212
5654427,"278/2 ?.??????????? ?????? ???? 1 ????? ?????? ??????????? 20130",212
5653677,"278/2 ??? ??????????? ?????????? ???????????????? ?????? 20000",212
5649555,"278/2, Laemtong Bangsaen, 1st Floor, Lung Hat Bang Saen Road, Tambon Saen Suk, Amphoe Mueang Chon Buri, Chon Buri, 20130",212
5655576,"278/2, Laemtong Bangsaen, 2nd Floor, Lung Hat Bang Saen Road, Tambon Saen Suk, Amphoe Mueang Chon Buri, Chon Buri, 20130",212
5653611,"278/2, Laemtong Bangsaen, Lung Hat Bang Saen Road, Tambon Saen Suk, Amphoe Mueang Chon Buri, Chon Buri, 20130",212
5655107,"278/2, Laemtong Bangsaen, Lung Hat Bang Saen Road, Tambon Saen Suk, Amphoe Mueang Chon Buri, Chon Buri, 20130",212
5650326,"278/2, Lung Hat Bang Saen Road, Tambon Saen Suk, Amphoe Mueang Chon Buri, Chon Buri, 20130",212
5721505,"279/3 Jangsanit Road ???? ?????? ????????????????????? ??????????? 34000",212
5721767,"279/4, ??????????, ??????????? ???????????????????? ?????????????????, 30000 30000",212
5717429,"28 ??? ????? ???? ??????? ???????????????????? ?????????? 30000",212
5721797,"28 ??? ?????????? ???? ??????? ??????????????????????? ????????????? 80000",212
719836,"28, Soi Na Chom Thian 7, Na Chom Thian, Sattahip District, Chon Buri, Thailand",212
4238237,"28, ?????????, ???????? ?????????? ???????????????????, 84000 84000, Thailand",212
5721813,"28, ?????????????, ??????????? ??????????????????????? ????????????????????, 80000 80000",212
4949967,"28, ??????????, ??????????? ???????????? ???????????????, 22120 Thailand",212
4243465,"28-30, ?????????? ???? ???????? ?????????????????? ???????? 41000, Thailand",212
5363603,"28-34, ????????????????????? ??????, ???????????? 1, ???????????? ?????????? ?????????????, 83000 83000, Thailand",212
5716346,"28/1 Moo 6 Tambon ???? ???? ????? ???? ????????????? 80210",212
5722014,"28/1 ???? 7, ??????????, ?????????????? ??????????????????????? ????????????????????, 80000 80000",212
764114,"28/12 Moo 3, South Chaweng Beach Road, Amphur, Chaweng Beach, 84320, Thailand",212
4231437,"28/12-14 ??????? 16 ???????????? ??????????, ???????? 57000, Thailand",212
4231425,"28/12-14 ??????? 16, ???????????, ?.???????? ?.????? ?.???????? 57000, Thailand",212
5720471,"28/183 Bangtalard, ???? ????????? ????? ???????? ??????? 11120",212
5271293,"28/2 ? 1, ???? ???????? ????? ????????? ???????????? 84280, Thailand",212
5730666,"28/20 ???? 7 ???????? ?????????????????? ???????????? ?????????????????? ???????? 22000",212
5065783,"28/4, ?????????, ?????????? ????????????? ???????????????????, 84330 84330, Thailand",212
83854,"28/46 Moo 1, Bzenter Mall, Rawai Subdistrict, Yala, Thailand",212
5645259,"28/5 ????2 ?????????? ???????????????? ????? ???????? ??????????????? 13160",212
4949714,"28/8, ???????????, ??????????? ???????????? ???????????????, 22120 Thailand",212
5357175,"28/9 ???? 1 ??????????? ?????????????, ????????, ???????? 12120, Thailand",212
5366290,"28/9, ??? ????? ???? ?????? Mueng, ?????? 83130, Thailand",212
134173,"280 Prabaramee Road, Patong Beach, 83150, Thailand",212
4229162,"280 ???? 1, ??????????-???????, ????????????? ?????????? ????????????????, 71190 71190, Thailand",212
4243646,"280/4 Moo 10, Walking street, Pattaya, Chonburi, Banglamung, Chon Buri 20150, Thailand",212
4230837,"280/9 ???? 14 ???? ??? ????, ???? ????? ??????????????? ????? Thailand",212
5019698,"2802, New Petchaburi Road, Khwaeng Bang Kapi, Khet Huai Khwang, 10310, Thailand",212
5266973,"2802, ??? ??????????????? ???? ??????? ??? ???????? ????????????? 10310, Thailand",212
4250079,"281 Moo 4 T. Bueng, A. Sri Racha, Cholburi, CB, Thailand",212
5724573,"281 ??? ????????? ????? ??????? ?????? 20110",212
5710912,"281 ??? ??????? ???? ??????? ??????????????????? ????????? 71000",212
4242765,"281-3, ??????????, ??????????? ?????????? ??????????????????, 34000 34000, Thailand",212
4243558,"281/1 ? ??????? ?.???????? ?.????? ?.??????????? 083-3370821 ????? LINE 083, 3370821, Thailand",212
4232081,"281/35 ??????????????????????, ??????????, ?????????????? ?????????? ????????????, 52000 52000, Thailand",212
5717033,"281/7 ??? ?????? ?????????? ????? ???????? ?????? 20150",212
5720494,"282 ??? ?????? ?????????? ????? ???????? ?????? 20150",212
4229979,"282 ?.1 ?.???????-??????? ???????????????????, ????????? 71190, Thailand",212
5721431,"282 ???? 2, ?????????, ?????????? ????????????????????? ??????????????????, 10280",212
4232793,"282, ??? ????????? ??????? 2005 Thailand",212
4237469,"282, ????????????, ??????????? ??????????????????????? ????????????????????, 80000 80000, Thailand",212
5710511,"282/132012 ???? 1, ??????????? ??????????????????? ????????????????, 71190 71190",212
5717577,"282/1?.?????? ????????????????????? ??????????? 34000",212
4242374,"284/20 Pattaya Beach Road Soi 12, Moo 10, Bang Lamung, Chon Buri 20150, Thailand",212
5710565,"284/60 ??? ??????? ???? ??????? ??????????????????? ????????? 71000",212
184056,"285 Sukhumvit, Khwaeng Khlong Toei Nuea, Khet Watthana, 10110, Thailand",212
5717591,"285 ?.5 ??????? ??????? ?.????????????? ?.???????? 41000",212
5716939,"285, ??? ??????? ???? ??????? ???????????????????? ?????????? 30000",212
5721886,"285, ??????????, ??????????? ????????????????????? ??????????????????, 34000 34000",212
4240009,"285/8, ??????????15, ???????????????? ?????????? ?????????????????, 30000 Thailand",212
4232228,"286 ?.8 ???????????????, ????? 52100, Thailand",212
4229068,"286 ???? 1, ??????????? ?????????? ????????????????, 71190 71190, Thailand",212
5171202,"286/4 Kaopratamnak Road Banglamung Phra Tamnak Hill, Pattaya Chonburi, Nhongprue 20260, 20150, Thailand",212
4232848,"287 Nipatuthit 1 Rd, ????????????????? Songkhla 90110, Thailand",212
5271340,"287 ??????? 5 ???? ????????????? ????? ????????? ??????? ?????? 81150, Thailand",212
4229241,"287/15 ???? 19 ???????? ???????? Chiang Rai 57000, Thailand",212
4244445,"2870, ??????????, ??????????? ???????????????????? ?????????????????, 30000 30000, Thailand",212
5172329,"288 Moo 7, Nerntakian Village, Nongplub, Hua Hin, Prachuap Khiri Khan 77110, Thailand",212
5646383,"288 ???????? ?????????????????? ???????? 57000",212
279515,"288/139 Moo 14 Town Plus Village Soi 3 Soi King Kaew 37/4 King Kaew Road Racha Thewa, Bang Phli, Samut Prakan 10540, Thailand",212
4234712,"288/17 Phaholyothin Rd.,, Huawiang Muang, ????? 52000, Thailand",212
5717144,"288/8 ??????? ???? ?????????? ?????????????????? ???????? 41000",212
4229046,"289 Moo 2, Hat Chiang Rai Road, Tambon Rop Wiang, Amphoe Mueang, Chiang Rai, 57000, Thailand",212
4249995,"289/, ??? ????????????????????????? 6 ???? ?????? ????? ??????? ?????? 20230, Thailand",212
186256,"289/11 13 Soi King Kaeo 25/1, Bang Phli Racha Thewa Samut Prakan 10540, Thailand",212
279474,"289/27 Moo 13 Racha Thewa, Bang Phli, Samut Prakan 10540, Thailand",212
5647887,"289/3 ???? 2, ????????? ?????????????????? ???????????????, 57100 57100",212
5722023,"289/7, ??????????, ?????????????? ??????????????????????? ????????????????????, 80000 80000",212
5173475,"29 Moo 3, Chang Island District, Trad, Koh Chang, 23170, Thailand",212
189636,"29 Moo 3, Phutthamonthon Sai 7 Road, Hom Kret, Sam Phran, Nakhon Pathom 73110, Thailand",212
277180,"29 Moo 8, Sukhaphiban Road, Racha Thewa Subdistrict, Bang Phli District, Samut Prakan, 10540 10250, Thailand",212
4571905,"29 Phet Kasem Rd, Tambon Hua Hin, Amphoe Hua Hin, Chang Wat Prachuap Khiri Khan 77110, Thailand",212
4232383,"29 Pracha-thipat Rd., Hadyai, Songkla 90110, 90110, Thailand",212
5171775,"29 Soi Hua Hin 81, Petchakasem Road Highway Hua Hin / Cha-am, 77110, Thailand",212
5722603,"29 ???????? ???? ?????????? ?????????????????????? ???????????? 84000",212
4230066,"29 ????????????? ???????, Songkhla 90110, Thailand",212
4237118,"29 ??????????, ??????????? ?????????? ????????????????????, 80000 80000, Thailand",212
5647562,"29 ?????????? 4 ???? ???????? ?????????????????? ???????? 57000",212
4239405,"29 ??????? 4 ???????????????, ?????????????? ??????????????? ??????????????????, 34190 Thailand",212
4230460,"29, Lee Garden Plaza, 2nd Floor, Prachathipat Road, Tambon Hadyai, Amphoe Hadyai, Songkhla, 90110, Thailand",212
5659235,"29, ???????????, ?????????? ??????????? ??????????????????????, 77110 77110",212
5656785,"29, ??????????? ?????? ???? ??1 ??????021-??032, ???????????????, ??????????? ???????????? ????????????, 90110 90110",212
4249593,"29, ???????-??????? 10 ???? ????????? ????? ??????? ?????? 20110, Thailand",212
5354789,"29-29/1 Sukhumvit Soi 101/1 Road Di Wavery Place Community Mall, ???? ??????, ??? ???????, ????????????? 10260, Thailand",212
4225481,"29/1 M.10 T.Kramang A.Ayuttthaya, PA, Thailand",212
5730932,"29/1 ??????????????????3 ???????????? ???????????? ?????????????????? ???????? 22000",212
4949356,"29/1-4 Moo 7, Tambon Chantanimitr, Amphoe Muang, Chantaburi, 22000, 22000, Thailand",212
778396,"29/10 Moo 3, Koh Tao Subdistrict, Koh Phangan District, Koh Tao 84360, Thailand",212
4236628,"29/11, ?????????, ?????????? ??????????????????????? ????????????????????, 80000 80000, Thailand",212
4230317,"29/17, ???????????, ????????? ?????????? ???????????????, 57000 57000, Thailand",212
725762,"29/2 Moo 15, Suthep Subdistrict, Muang 50200, Thailand",212
4949767,"29/2 Moo8, T.Kaowo, A.Tamai, Chathaburi, 22120, Thailand, 22120, Thailand",212
762427,"29/22 Moo 5, Suphanburi, Thailand",212
5173416,"29/3 Moo 4, Klong Prao, Koh Chang District Trat 23170, Thailand",212
5711852,"29/3 Moo 4, White Sand Beach (Opposite 7Eleven and Chang buri Resort) ????? ???????? ???? 23170",212
5656809,"29/32 ????10, ????????????????, ?????????? ???????????? ????????????, 90110",212
5653876,"29/32-33, ???????????????????? ???? ????? ???????????????? ?????? 20000",212
717302,"29/62 Moo 13, The Connect 6 Village Bang Pli Yai, Amphoe Bang Pli, Samut Prakan 10540, Thailand",212
778163,"29/7 Moo 4, Koh Phangan Massacre, Thailand",212
757648,"29/8 Bangkachao, Phra Pradaeng District, Samut Prakan 10130, Thailand",212
777972,"29/9 Moo 6 Baan Kai, Koh Phangan ST, Thailand",212
787985,"290 Klong Nin Beach Moo6 Koh Lanta Yai, Koh Lanta District 81150, Thailand",212
4244986,"290 ????????? ??????? ???????, ?????? 20110, Thailand",212
4244985,"290, ??? ????????? ???? ??????? ????? ??????? ?????? Thailand",212
4235712,"290, ????????????, ??????????? ??????????????????????? ????????????????????, 80000 80000, Thailand",212
4234931,"290/1 ???? 17  ???????:290/1 ???? 17 ???????????, ????????????, ??????? 40000, Thailand",212
4237458,"290/16, ?????????????, ??????????? ?????????? ????????????????????, 80000 80000, Thailand",212
4230386,"290/2-3, ????????????, ????????? ?????????????????? ???????????????, 57000 57000, Thailand",212
5266414,"290/4 Phaya Thai Rd., 10400, Thailand",212
4241337,"290/51 Beach Rd, Muang Pattaya, Amphoe Bang Lamung, Chang Wat Chon Buri 20150, Thailand",212
4241350,"290/51 Beach Rd, Muang Pattaya, Amphoe Bang Lamung, Chang Wat Chon Buri 20150, Thailand",212
4242180,"290/51 Beach Rd, Muang Pattaya, Amphoe Bang Lamung, Chang Wat Chon Buri 20150, Thailand",212
5715990,"290/51 ?????????????? ?????????? ????? ???????? ?????? 20150",212
5717041,"290/51 ?????????????? ?????????? ????? ???????? ?????? 20150",212
5717064,"290/51 ?????????????? ?????????? ????? ???????? ?????? 20150",212
5719635,"290/51 ?????????????? ?????????? ????? ???????? ?????? 20150",212
5269052,"291 Thapae Rd, Thailand",212
4234310,"292, 260 ??????? ??????????????? ????? 52100, Thailand",212
4233942,"292, Supphasanrangsan Road, Tambon Hatyai, Amphoe Hatyai, Songkhla, 90110, Thailand",212
717295,"293 Thanon Phanit, Tambon Na Muang, Mueang Chachoengsao District, Chachoengsao 24000, Thailand",212
5723374,"293, Moo5, ????? ??????? ?????? 20230",212
5716363,"293/27-28 Soi Buakhao, Nong Prue, ?????????? ?????? 20260",212
4229475,"293/5 ???? 4 ?.???????, ?????????????????????????????, ?????, ???????? 57100, Thailand",212
4242356,"293/79, ???????????, ???????? ?????????? ???????????????????, 84000 84000, Thailand",212
4230652,"294 ?.15, ??????????, ???????????? ?????????? ????????, 57000 ???????? ????? Chiang Rai 57000, Thailand",212
4230046,"294, ???????????, ??????? ??????? ?????, 90110 90110, Thailand",212
788442,"294/15 Trangkaphum Road, Kantang District, Trang 92110, Thailand",212
269954,"295 Moo 11 Soi S. Thai Seri 2 Suksawat Road Nai Khlong Bang Pla Kot Subdistrict, Phra Samut Chedi District, Samut Prakan 10290, Thailand",212
770915,"295 Moo 3, Samui, 84140, Thailand",212
4242343,"295 ???? 7, ???????????????, ??????????? ???????????????????? ?????????????????, 30000 30000, Thailand",212
5721872,"295, ??????????, ??????????? ????????????????????? ??????????????????, 34000 34000",212
5716963,"296 ???? 1 ? ?? ????, ???? ??????? ???????????????????? ?????????? 30000",212
4238551,"296, 298, ?.???????, ?.??????? ?.????? ?.???????????, 34000 34000, Thailand",212
4234127,"296, ????????????, ???????????? ??????????????????? ????????????????, 71000 71000, Thailand",212
770167,"296-45 Moo 3, Taling Ngam, Koh Samui, Thailand",212
4231180,"296/10 ???? 15 ?????????? ???????? ????? Chiang Rai 57000, Thailand",212
784381,"297 Phetkasem Rd., Thaichang, Muang, Phangnga 82000, Thailand",212
5713763,"297 ???????????? ?.????? ????? 52000",212
755392,"298 Pu Chao Saming Prai Road, Samrong Tai Subdistrict, Phra Pradaeng District, Samut Prakan 10130, Thailand",212
5717165,"298 ??? ??????? ???? 11 ???? ???????? ?????????????????? ???????? 41000",212
5723639,"298 ???????? ???? ?????? ????????????????????? ??????????? 10270",212
4248525,"298/11, ????????????, ??????????? ???????????? ?????????????, 20110 20110, Thailand",212
5716958,"298/63 ? ??????? ??? 4 ???????????????????? ?????????? 30000",212
4243224,"298/95 ?.?????13 ????1 ?.????? ?????????? ????????????????? ???????????? 84000, Thailand",212
5721750,"299/1 ??????? 7, ???????????????, ??????????? ???????????????????? ?????????????????, 30000 30000",212
4229523,"299/2 Moo 4, Rimkok, Mueang, Chiang Rai 57100, Thailand",212
725407,"299/22 Siwalee RachapreukMaeHea, Chiangmai, Thailand",212
5658004,"299/8 3218 ???? ?????????? ????? ?????? ??????????????? 77110",212
5721752,"2996 ???? 7, ??????????, ??????????? ???????????????????? ?????????????????, 30000 30000",212
779568,"2moo2 kohlantayai kohlanta. krabo81150, kohlantayai, kohlanta, Thailand",212
5267164,"2nd Floor, Unnamed Rd,, ????????????????????? ????????????? 2 ???????? ?????? ??????????? 10540, Thailand",212
5655519,"3 - ??? ?????????? Saen Suk, Muang, ?????? 20130",212
4235596,"3 / 208 Moo 6, Pattaya 3 Road, Tambol Naklua, Amphor Banglamung, Chonburi, 20150, 20150, Thailand",212
5655787,"3 179/32 ??? ???????????? ???? ??????? ????? ??????? ????? 90110",212
4240474,"3 20260, 293 ??? ?????? ?????????? ????? ???????? ?????? 20150, Thailand",212
5718757,"3 263/3 ?????????? ??? ? ???? ??????? ???????????????????? ?????????? 30000",212
5656257,"3 79 ??? ??????????? ???? ??????? ????? ??????? ????? 90110",212
5020945,"3 83150, 220/3 Phrabarami Rd, 83150, Thailand",212
5714400,"3 9, 599 ??? ?????-????? ???? ???? ??????????????? ????? 52100",212
784477,"3 Moo 4 Wok Tum. Koh Phangan, Thailand",212
779854,"3 Moo Ban Saladan, Koh Lanta District 81150, Thailand",212
4229904,"3 Sanehanusorn Road, ????? ??????? ????? 90110, Thailand",212
5272832,"3 Sawatdirak Road, Patong Beach, ?????? 83150, Thailand",212
729479,"3 Soi 17 Nimmanhemin Rd., Suthep, Muang, 50000, 50200, Thailand",212
4250044,"3 Soi Phulphiphat, Jermjompol, Sriracha Subdistrict, Sriracha District, Chonburi 20110, Sriracha District, Chonburi 20110, Thailand",212
5272218,"3 Thailand",212
5713780,"3 Thanon Rachabuth ???? ???????? ??????????????? ????? 52000",212
5722360,"3 ??? ????????????? 6/4 ???? ??????? ????????????????????? ??????????? 34000",212
5723522,"3 ??? ????????????? 6/4 ???? ??????? ????????????????????? ??????????? 34000",212
5715449,"3 ???? ????????? ????????????????????? ??????????? 10280",212
5714353,"3 ??? ?????? ?????????? ????? ????? 52000",212
5719283,"3 ??? ???????????? ???? ?????? ????????????????? ??????? 11000",212
5658019,"3 ????????????? ?????????? ?????????? ??????????????? 77110",212
4239439,"3 ???? 3, ???????????? ?????????????????????? ???????????????????, 84000 84000, Thailand",212
5724572,"3 ????? ??????? ?????? 20110",212
5272764,"3, 231 ?????????? ???????????????? ?????? 83000, Thailand",212
4249834,"3, Pinthong Industrial Estate 4, Bueng Subdistrict, Sriracha District, Chonburi 20230, Thailand",212
4234111,"3, ???????????????, ??????????? ???????????? ????????????, 90110 90110, Thailand",212
5271890,"3-4, ??? ????? - ??? ???????? ???? ???????? ???????????????? ?????? 83000, Thailand",212
4241643,"3/, 1-2 ??? ???????????? ???? ??????? ???????????????????? ?????????? 30000, Thailand",212
5656783,"3/11-12, ??????????????????? 1, ??????????? ???????????? ????????????, 90110 90110",212
729806,"3/114 Rathanakosin Rd, T.ChangphukA.Muang Chiangmai, 50200, Thailand",212
279506,"3/12 Moo 3, Kingkaew Road Tumbol Rajateva, Ampur Bangplee, Samut Prakan 10540, Thailand",212
5655448,"3/130 ??????? 2, ????????????? ????????????, Chon Buri 20110",212
5272875,"3/17-18 Sawatdirak Road Patong Beach 83150, Thailand",212
5711229,"3/19 Srichan Road, ??????? 40000",212
5354835,"3/2 ??? ???????????? 5, ????????????? 10400, Thailand",212
5647073,"3/2 ??? ????????? ?????????????? ??? ???????? ?????????????????? ???????? 57000",212
5722104,"3/2 ?????? 1 ????? ??????? ?????? 20110",212
5721085,"3/246 ??? ????? ??? 3 ???? ??????? ????? ???????? ?????? 20150",212
762397,"3/28 Moo 1 Fisherman's Village, Bophut, Koh Samui, 84320, Thailand",212
5174110,"3/281 Moo 6, Sai Sam Road, Pattaya, North Chaloem Phrakiat 2, Bang Lamung District, Chonburi 20150",212
4244818,"3/290 Road, Pattaya Sai 3 Road, Bang Lamung District, Chonburi, Thailand",212
5269829,"3/3, ??? ????????????? 2 ??????????????????? ????????? 50100, Thailand",212
4236364,"3/38, ????????, ?????????????? ??????????????????????? ????????????????????, 80000 80000, Thailand",212
4230408,"3/4 ????15, ???????????? ?????????? ???????????????, 57000 57000, Thailand",212
5666187,"3/47, ?????????? ??????????? ??????????????????????, 77110 77110",212
5065602,"3/5 Moo 2 Chaweng Beach, Koh Samui, 84320, Thailand",212
5364530,"3/62 Moo.4 T. Chengtalay Talang 83110 Thailandu, ????? ???? ?????? Thailand",212
4242690,"3/72, ??????????????, ???????? ?????????? ???????????????????, 10130 84000, Thailand",212
5265727,"3/83 ??????? 7 ?.??????? ?.??????? ?.???????, ???????? 12150, Thailand",212
4236574,"3/88 ???????????1, ?????????????????, ???????? ??????????????????????? ????????????????????, 80000 80000, Thailand",212
5644707,"3/9 ??? ?????? ???? ????????? ????? ??????????????? ??????????????? 13000",212
5645865,"3/9 ??? ?????? ???? ????????? ????? ??????????????? ??????????????? 13000",212
5712182,"3/9 ????3, ???????????? ????????????? ???????????, 23170",212
5269090,"3/9, Sukkasame Rd, Suthep, Chiangmai, 50200, Thailand",212
183023,"30 / 39-50 15-16th Fl., The Mall Namwong wan Moo 2 Ngamwongwan Road, Bangkhen, Nonburi, 11000, Thailand",212
5653886,"30 Moo 10, Tambon Nong Ri, Amphoe Mueang Chon Buri, Chon Buri, 20000, 20000",212
4229022,"30 Moo 17, Rob Wieng, Mueang, Chiang Rai 57000, Thailand",212
204742,"30 Soi Sukhumvit 39, Sukhumvit Road, Khlong Toei Nuea, Khet Watthana, Krung Thep Maha Nakhon 10110, Thailand",212
5720636,"30 ????? ??? 1 ???? ??????? ???????????????????? ?????????? 30000",212
4243528,"30 ???? 4, ????????? ?????????????????? ???????????????, 34000 Thailand",212
5713490,"30, 138 ??? ?????? ???? ????? ??????????????? ????? 52000",212
5357136,"30, ??? ??????????? 25 ???? ??????? ????????????????? ??????? 11000, Thailand",212
5656421,"30, ??? ??????????? ???? ??????? ????? ??????? ????? 90110",212
785280,"30/1 M.2 Saladan, Koh Lanta District KR, Thailand",212
5270373,"30/1 Moo 4 Tumbon Bo Phut Koh Gamui, Thailand",212
774413,"30/1 Moo2 Jansom Bay 30/1, Koh Samui, 84360, Thailand",212
186482,"30/140, M13 ,, Bang Kaeo Subdistrict, Bang Phli Samut Prakan 10540, Thailand",212
5375335,"30/19. Noi., Chaweng Walk St, ???? ?????? ????? ???????? ???????????? 84320, Thailand",212
762472,"30/2 Jax Trek, Koh Tao, 84360, Thailand",212
4236329,"30/2 Moo 12 Jomtien 14 Banlamung, Jomtien Beach, Pattaya, 20150, Thailand",212
4571749,"30/2, ?.????????, ?.?????? ?.???????????????, 77110 Thailand",212
5173504,"30/5 M.4 Klong prao koh chang trat Trat 23170, Thailand",212
5173611,"30/5 Moo 3, Koh Chang Trat 23170, Thailand",212
762391,"30/5 Moo 4 Samui 84320, Thailand",212
5270193,"30/5 Moo 8 Srithanu, Koh Phangan, ???????????? 84280, Thailand",212
5173400,"30/9 Moo 1, klong prao beach, Koh Chang District Trat 23170, Thailand",212
5173710,"30/9 Moo 4, Klong Prao, Koh chang, Trat 23170, Thailand",212
5356638,"30/9 Thanon Ngamwongwan, 11000, Thailand",212
4240006,"300 ??? 4, ??????????, ??????????? ?????????? ?????????????????, 30000 Thailand",212
5709692,"300 ??? ???????? ???? ?????? ????? ?????? ??????????????? 77110",212
5356635,"300 ??????? 1 ?.????????? ?.??????????? ?.???????, ????????????? 10210, Thailand",212
4243859,"300, ???????????, ??????????? ???????????????????? ?????????????????, 30000 30000, Thailand",212
5711738,"300/12 ???????????? ???? ??????? ????????????????? ??????? 40000",212
5711739,"300/12 ???????????? ???? ??????? ????????????????? ??????? 40000",212
5717933,"30000 501 ??? ???????? ???????????????????? ?????????? 30000",212
5720430,"30000, ???????????????????? ??????????",212
4240702,"30000, ???????????????????? ?????????? Thailand",212
4244491,"30000, ???????????????????? ?????????? Thailand",212
758723,"3005 Moo 6 Thepharak Rd, Thepharak, Mueang Samut Prakan District 10270, Thailand",212
4949959,"301 Sukhumvit Rd, Muang Pattaya, Amphoe Bang Lamung, Chang Wat Chon Buri 20150, Thailand",212
5711074,"301/2, ??????????, ????????????? ??????????????????? ????????????????, 71000 71000",212
5070484,"302/12, Moo 5 Ao Nang Beach 81000, Thailand",212
5724466,"302/3 Moo 2, Sukhumvit Road, Tambon Samrong Nuea, Amphoe Mueang Samut Prakan, Samut Prakan, 10270",212
4242304,"3026 ???? 7, ??????????, ??????????? ???????????????????? ?????????????????, 30000 30000, Thailand",212
5730928,"303 41 42 ??? ??????? 5 ?????????????????? ???????? 22000",212
4240129,"303 ???? 1 ???????? ??????????, ??????????????????, ??????????????? ?????????? ?????????????????, 30000 Thailand",212
4237439,"303/2 ??? ?????? ????????????, ???? ??????? ????? ?????? ????????????? 80110, Thailand",212
5718867,"303/3 ?.?????????? ??????? ????? ??????????? 34000",212
5716372,"304/4 Moo2, Surasak ????? ??????? ?????? 20110",212
5718490,"304/7 ??????? 2 ???? ????????? ????? ??????? ?????? 20110",212
5656795,"305, ??????????????????? 2 ??? 5/1, ??????????? ???????????? ????????????, 90110 90110",212
5020749,"306 for 5 Koh Yao noi Yao District, Phang-nga 82160, Thailand",212
4240260,"306 ??????? 11, ??????????, ???????????? ????????????? ?????????????????, 30150 30150, Thailand",212
5711067,"306 ??????? 3, ??????????????????? ????????????????, 71000 72160",212
4241516,"306.M.10 Soi 4 Thappra Road, Pattaya CB, Thailand",212
5716360,"306/63 Chateau Dale Plaza, Thappraya Road, 20150, ?????????? 20150",212
4241515,"306/75 Hype Park Residence 1 - Unit 701 Thap Phraya Soi 4, Nongpure, Banglamung, Chonburi Pattaya South 20150, Thailand",212
5265785,"306/89 Chateau Dale Plaza, Moo.12 Thappraya Rd, ?????????? ?????? 20150, Thailand",212
5717923,"307 ???????????????? (????????????? ??????????), ???????????, ??????????? ?????????? ?????????????????, 30000 30000",212
5714722,"307 ????8 ???? ???????? ??????????????? ????? 52100",212
4232642,"307 ??????? 2, ??????????? ??????????? ????????????, 52130 Thailand",212
5715441,"307/1 ??????? 1, ???????????, ????????????? ????????????????????? ??????????????????, 10280",212
4235192,"307/58 ????2, ?????????? ??????????????? ????????????, 52000 52000, Thailand",212
5719239,"3077/7 ?????????? ?.??????? ?.????? ?????????? 30000",212
4239451,"308 ???? 4, ??????????? ?????????????????????? ???????????????????, 84000 84000, Thailand",212
4230255,"308, 310 ?????????????? ??????? ???????, ???????, Songkhla 90110, Thailand",212
4249036,"308/1 ?????????, ???????????, ??????????? ???????????? ?????????????, 20110 20110, Thailand",212
4242378,"308/3 Moo 10, Thappraya Road Soi 15, Pattaya 20150, Thailand",212
4243944,"308/4 Moo 12 Thanon Thap Phraya, Nong Prue Subdistrict Bang Lamung District, Chon Buri 20150, Thailand",212
4239829,"308/77-79 Thappraya rd, Moo 10, Pattaya, Nongprue, Banglamung, Chon Buri 20150, Thailand",212
4229719,"309 Moo 3, Tambon Chom Mok Kaeo, Amphoe Mae Lao, Chiang Rai, 57250, Thailand",212
4248076,"309/37 ???? 11, ??????????? ???????????? ?????????????, 20230 20110, Thailand",212
758652,"3090 Moo9, Soi Samrong-Nua 21, Sukhumvit Rd. ,, T.Samrong-Nua, A.Muang, Samutprakarn, 10270, 10270, Thailand",212
278414,"31 Moo 13 Murnggaow 4 Alley, Bang Kaeo, Bang Phli, Samut Prakan 10540, Thailand",212
5171692,"31 Petchkasem Road ?????????? ????? ?????? ??????????????? 77110",212
5368184,"31 ratchwithi road muang, ??????????????????? ????????? Thailand",212
4248524,"31 Srirachanakorn soi 3 , Sukhumvit road, Sriracha, Chon Buri 20110, Thailand",212
5723252,"31 ??? ???????? ???? ?????? ????????????????????? ??????????? 10270",212
5722007,"31, ?????????????, ??????????? ??????????????????????? ????????????????????, 80000 80000",212
5722008,"31, ?????????????, ??????????? ??????????????????????? ????????????????????, 80000 80000",212
4241287,"31, ????????????, ??????????? ??????????? ???????????????????, 84130 Thailand",212
5721862,"31, ???????????????, ??????????? ????????????????????? ??????????????????, 34000 34000",212
4229899,"31, ????????? ??? 2 ???? ??????? ????? ??????? ????? 90110, Thailand",212
5272171,"31/ 3,, ???? ??????? ???????????????? ?????? 81180, Thailand",212
5720263,"31/1 ?????????? 16/2 ???? ?????????? ????????????????? ??????? 11000",212
4232689,"31/1 ???? 3, ????????????? ???????????? ????????????, 90110 Thailand",212
4238323,"31/1 ???? 4, ???????????????-?????????, ????????? ?????????????? ???????????????????, 84230 Thailand",212
5067887,"31/1 ??????? 6, ???????????? ????????? ?????????????, 83110 Thailand",212
5716353,"31/1, ??? ?????? ???? ??????? ??????????????????????? ????????????? 80000",212
5173488,"31/1/1 Moo 4, Koh Chang District 23170, Thailand",212
5720959,"31/11 Phosri Road, ?????????????????? ???????? 41000",212
279025,"31/17 Soi Kingkaew 45 Kingkaew Road Rachatheva Bangplee Samut Prakan, Thailand",212
205724,"31/2 Moo 4, Soi Sangkasantisuk 11 Sangkhasantisuk Road Krathumrai Subdistrict, Nong Chok District 10530, Thailand",212
777690,"31/22 Moo 1, Koh Phangan, 84280, Thailand",212
778394,"31/3 Moo 1, Koh Tao, 84360, Thailand",212
4239437,"31/3 ?.4, ?.????????? ?.????? ?.????????????, 84000 84000, Thailand",212
5365944,"31/56, ??????????? ???? ?????? muang, ?????? 83130, Thailand",212
5721112,"31/58 ??? ??????? 12 ?????????? ????? ???????? ?????? 20150",212
5171955,"31/669 Soi huahin 94, Parin Resident building, Huahin, Huahin Hua Hin 77110, Thailand",212
4949819,"31/79 ????.5, ????????????????, ??????????? ?????????? ???????????????, 22000 22000, Thailand",212
5722157,"310/1-2, ??????????????, ???????????? ?????????? ???????????????, 41000 41000",212
749771,"310/10 Moo 10 soi10 Beach Road,Banglamung,Chonburi 20150, Thailand",212
5270739,"310/22 Moo 3, Angthong, Koh Samui, ???????????? 84140, Thailand",212
4226366,"310/32, 310/32 ???? ???????? Sam Ruan Tambon Sam Ruan, ???? ???????? ????? ???????? ??????????????? 13160, Thailand",212
5266117,"310/376-7 ???? ??? 3, ????????, ?????, ????????????? 10210, Thailand",212
5356878,"310/86-87 ??????? 3, ??????????? ????????? ???????????, ????????????? 10210, Thailand",212
4236503,"311 Mittaphap Tambon Naimuang Nakhonratchasima 30000, Thailand",212
5716412,"311 ???? 7, ???? ?????? ????????????????????? ??????????? 34000",212
5719556,"311 ???? 7, ???? ?????? ????????????????????? ??????????? 34000",212
5720080,"311 ???? 7, ???? ?????? ????????????????????? ??????????? 34000",212
5720696,"311 ???? 7, ???? ?????? ????????????????????? ??????????? 34000",212
5720701,"311 ???? 7, ???? ?????? ????????????????????? ??????????? 34000",212
4232625,"311 ??????? 2, ???????? ??????????? ????????????, 52130 Thailand",212
5718865,"311 ???????7 ?????????? ?????????? ??????????? 34000",212
5718864,"311, ?????????????????????? ????? ????3, ??????????????, ?????????? ?????????? ??????????????????, 34000 34000",212
5719332,"311/3 ??? ??? 1-??????? ???? ????????? ????? ??????? ?????? 20110",212
4233155,"311/5, Theparak Road, Tambon Naimuang, Amphoe Muang Khonkaen, Khonkaen, 40000, 40000, Thailand",212
271718,"3119, Thailand",212
5170864,"312/2 Moo.4 Rob Wieng Muang Chiang Rai Chiang Rai 57000, Thailand",212
5717504,"312/63 SOI LENGKEY, patts, pattaya, Chon Buri 20150",212
4236382,"312/81 Soi Buakhao, Muang Pattaya, Amphoe Bang Lamung, Chang Wat Chon Buri 20150, Thailand",212
5174074,"312/81 Soi Buakhao, Muang Pattaya, Bang Lamung District, Chonburi 20150",212
5717514,"312/81 ??? ?????? ?????????? ????? ???????? ?????? 20150",212
5721838,"312/81 ??? ?????? ?????????? ????? ???????? ?????? 20150",212
5716320,"3120 ??? ??????? ???? ??????? ???????????????????? ?????????? 30000",212
5718763,"3120 ??? ??????? ???? ??????? ???????????????????? ?????????? 30000",212
4240184,"313 Moo 10 3rd Road, Pattaya, Chon buri 20150, Thailand",212
5656683,"313 ??? ?????????????? ???? ??????? ????? ??????? ????? 90110",212
4236754,"313 ???? 2 ????????????, ??????????? ??????????????????????? ????????????????????, 80000 Thailand",212
4232854,"313, ??? ??????????? 23, ???? ???????, ????? ??????? ????? 90110, Thailand",212
5721843,"313-313/1 Moo. 12 Tappraya Road, Jomtien, Pattaya, ?????? 20150",212
4233943,"313-315, Supphasanrangsan Road, Tambon Khuanlang, Amphoe Hatyai, Songkhla, 90110, Thailand",212
4243193,"313/105-7 Moo10, Pattaya Sai 3 Road, Tambon Na Kluea, Amphoe Bang Lamung, Chon Buri, 20150, 20150, Thailand",212
4239827,"313/250 M.10, Pattaya 3rd Road, Nongprue, Pattaya, Bang Lamung District, Chon Buri 20150, Thailand",212
5717506,"313/37 ??? ???????? ?????????? ????? ???????? ?????? 20260",212
187946,"313/80 Moo 11 Sukaphiban 6 Road, Bang Phli Yai, Bang Phli Samut Prakan 10540, Thailand",212
5650864,"3134 ???????????????? ?????? 20000",212
5653148,"3134 ???????????????? ?????? 20000",212
5272811,"314 Phrabaramee road, Kalim beach, ?????????? ????? ????? ?????? 83150, Thailand",212
5718495,"3144 ???? ?????? ????? ??????? ?????? 20110",212
5649922,"315 ???? ????????? ???????????????? ?????? 20000",212
5721836,"315 ???????? ?????????? ????? ???????? ?????? 20150",212
4242620,"315-3 Sap Soi Gaew, ??????????? 34000, Thailand",212
5716358,"315/17 ??? ??????? 16 ?????????? ????? ???????? ?????? 20150",212
5722063,"315/177-180 M 12, Thappraya, ?????????? 20150",212
5174094,"315/26 Pattaya Sai 3 Pattaya South 20150",212
4241370,"315/29 moo 9 nongprue Banglamung Chonburi Pattaya Central 20150, Thailand",212
5647884,"315/8-9 ?.???????? ?.????? ?.????????????? ?.???????? 57000 ???",212
5730722,"3153 ???? ???? ?????????????????? ???????? 22000",212
5731174,"3153 ?????????????????? ???????? 22000",212
5731190,"3153 ?????????????????? ???????? 22000",212
5730726,"3154 ???? ????????? ?????????????????? ???????? 22000",212
755732,"316 Panich Road, Na Mueang Subdistrict, Mueang District, Chachoengsao 24000, Thailand",212
4238550,"316, ??????????, ??????????? ????????????????????? ??????????????????, 34000 34000, Thailand",212
4235601,"316/135, Moo10, Soi Bua Khao, Nongprue, Banglamung, Chonburi, 20150 Pattaya, (center), Nongprue, Banglamung, Chon Buri 20150, Thailand",212
5716365,"316/142 ??? ?????? ?????????? ????? ???????? ?????? 20150",212
5716361,"316/145-146 ??? ?????? ?????????? ????? ???????? ?????? 20150",212
5720279,"316/66 ??? ?????? ?????????? ????? ???????? ?????? 20150",212
4240500,"316/70 m.10, south pattaya road, soi 22 Buakhaow, ?????????? ?????? 20150, Thailand",212
5720475,"317 ??? ??????? ?????????? ????? ???????? ?????? 20150",212
4233941,"317-319, Supphasanrangsan Road, Tambon Hatyai, Amphoe Hatyai, Songkhla, 90110, Thailand",212
4230885,"317/162 Moo 13 Soi 8/2 Sinthanee Village 3, Tha Sai Subdistrict, Mueang District, Chiang Rai Province, 57000 57000, Thailand",212
4239129,"317/7, ?????????, ???????? ?????????? ???????????????????, 84000 84000, Thailand",212
279135,"318 / 1-2 Moo 1, Bang Bo Subdistrict, Bang Bo District, Samut Prakan 10560, Thailand",212
5711065,"318/2, ????????????, ???????????? ?????????? ????????????????, 71000 71000",212
5267327,"318/5-8, ??? ????????? ???? ????????? ??? ????????? ????????????? 10520, Thailand",212
5267162,"318/6, ?????????? ????? C ???? 1 ???? K106, ????????????, ????????????? ???????????? ?????????????, 10520 10520, Thailand",212
717281,"318/84 Moo 12, Soi Dongtan Police Station, Jomtien, Nongprue, Banglamung, Nong Prue, Bang Lamung, Chonburi Thailand",212
5713766,"319 ? ?? ?? ??, ??????, ?????, ?????????? 52100",212
4230565,"319 ??????-?????-??? ?.??????, ??????????, ????? 52100, Thailand",212
5710563,"3199 ???? ??????? ??????????????????? ????????? 71190",212
5354641,"31st Floor, The Landmark, 138 ??? ???????? ????????????? 10110, Thailand",212
5173425,"32 Moo 2 - Salak Phet - Koh chang Tai, Koh Chang Island, Trat 23170, Thailand",212
5173458,"32 Moo2, Tambon Koh Chang Tai, Amphoe Koh Chang, Trat, 23170, Thailand",212
5658749,"32 Petchkasem Road ?????????? ????? ?????? ??????????????? 77110",212
728730,"32 Rat Chiang Saen 1 Kor Rd, Muang, 50100, Thailand",212
5354777,"32 Sukhumvit Soi 36, Klongton, Klongtoey, ????????????? 10110, Thailand",212
757939,"32 Thanon Phuchao Saming Phray, Phra Pradaeng District, Samut Prakan 10130, Thailand",212
4233288,"32 ? .5 ? ??????? ? ?????, ????????? 71190, Thailand",212
5717991,"32 ???? 1 ??? ????????? 10 ??????????? ???? ?????? ????? ??????? ?????? 20110",212
4225147,"32 ???? 4, ????????????? ????????????? ??????????????????????, 13160 13190, Thailand",212
5716338,"32, ????? ????? ?????????? 35 ?????????? 30000, ??? ??????? ???? ??????????? ???????????????????? ?????????? 30000",212
5713904,"32/12 Surain Rd, ???? ?????? ??????????????? ????? 52100",212
4243167,"32/132, ???????? 13, ?????????? ????? ???????? Chon Buri 20150, Thailand",212
4248890,"32/201 ???? 6 ?.?????? ?.??????? ?.?????? ?????? ??????? Chon Buri 20110, Thailand",212
4250158,"32/212-213 ?.?????? 6, ??????, ???????, ?????? 20110, Thailand",212
4571715,"32/224-225, Mali Shop 3, Liap Khlong Chonlaprathan Road, Tambon Hua Hin, Amphoe Hua Hin, Prachuap Khiri Khan, 77110, Thailand",212
762727,"32/3 Moo 4, Koh Phangan ST, Thailand",212
758784,"32/36 Suksawat Road, Bang Phueng Subdistrict, Phra Pradaeng District, Samut Prakan 10130, Thailand",212
4239879,"32/39 ??????? 5 ?.???????? ?.????????, ????? ???????? ??????? 11120, Thailand",212
5712156,"32/4 moo 1 bang bao klog kloi beach beach, tambon, kochang thai kochang, 23170",212
5173402,"32/4 Moo 1 Bang Bao Klong Kloi Beach Tambon Koh chang tai, Koh chang, Trat 23170, Thailand",212
5712151,"32/4 moo 4, amphur, ????? ???????? 23170",212
5666186,"32/4, ?????????????????, ?????????? ??????????? ??????????????????????, 77110 77110",212
5722219,"32/41 ??????? 6, ?????????? ???????????? ?????????????, 20110",212
5645979,"32/5 ??????? 10 ??????????, ???????????? ?????????? ??????????????????????, 13000",212
777971,"32/6 Moo4, Bankai, Koh Phangan, 84280, Thailand",212
4249997,"32/6 ???? 8, ???????, ????? ??????? ?????? 20230, Thailand",212
83785,"32/7 Moo 5, Pilai Beach, Phang-nga 82140, Thailand",212
744762,"32/70, Moo 2, Tambon Maehea, Amphoe Mueng Chiangmai, Chiangmai, 50100, 50100, Thailand",212
4239711,"32/88 ???? 10, ??? 15 ???????????, ???????????? ????????????? ?????????????, 20150 20150, Thailand",212
5172881,"320 Moo 1, Hin Lek Fai Hua Hin, Prachuap Khiri Khan 77110, Thailand",212
5718782,"320, ??? ?????????? ???? ???? ??????????????????????? ????????????? 80000",212
215587,"320/4, Talat Krathum Baen Subdistrict Krathum Baen District, Samutsakorn Province Krathum Baen Market, Krathum Baen Samut Sakhon 74110, Thailand",212
5271482,"320/9 Moo,, 3 Klongdao Beach, T.Saladan A.Koh Lanta, ?????? 81150, Thailand",212
5719555,"321 ???????????? ?????????? ???????????? 84000",212
5714006,"321 ???????? ??????????????? ????? 52100",212
4238500,"321 ?????????????????, ?????????????????????????? ???????????? ???? 1 ?????????? A07 ????????? ????, ???????????? 84000, Thailand",212
5721768,"321, ??????????, ??????????? ???????????????????? ?????????????????, 30000 30000",212
5721769,"321, ???????????, ??????????? ???????????????????? ?????????????????, 30000",212
4236387,"3212/8-9 ????5 ?. ?????????? ???????? ??????? Chon Buri 20150, Thailand",212
4571706,"3218 Tambon Hin Lek Fai, Amphoe Hua Hin, Chang Wat Prachuap Khiri Khan 77110, Thailand",212
4571708,"3218 Tambon Hin Lek Fai, Amphoe Hua Hin, Chang Wat Prachuap Khiri Khan 77110, Thailand",212
5708647,"3218 ???? ?????? ????? ?????? ??????????????? 77110",212
5666257,"3218 ???? ???????? ????? ?????? ??????????????? 77110",212
5669068,"3218 ???? ???????? ????? ?????? ??????????????? 77110",212
5669070,"3218 ???? ???????? ????? ?????? ??????????????? 77110",212
5707650,"3218 ???? ???????? ????? ?????? ??????????????? 77110",212
5667378,"3218 ???? ?????????? ????? ?????? ??????????????? 77110",212
5663060,"3218 ???? ????????????? ????? ?????? ??????????????? 77110",212
5669073,"3219 ???? ???????? ????? ?????? ??????????????? 77110",212
5708651,"3219 ???? ???????? ????? ?????? ??????????????? 77110",212
5708653,"3219 ???? ???????? ????? ?????? ??????????????? 77110",212
5663061,"3219 ???? ????????????? ????? ?????? ??????????????? 77110",212
4236293,"322 Thappraya Rd, Muang Pattaya, Amphoe Bang Lamung, Chang Wat Chon Buri 20150, Thailand",212
5720478,"322 ???????? ?????????? ????? ???????? ?????? 20150",212
4242270,"322 ???? 8 ??????????, ??????????, ??????????? 34190, Thailand",212
5717147,"322/11 ?????????? ???? ???????? ?????????????????? ???????? 41000",212
4255958,"322/541 ????8, ????????????? ???????????? ?????????????, 20110 20110, Thailand",212
5172471,"323 Moo 2 Tambol Hin Lek Fai, Amphur Hua-Hin, PrachuapKhirikhan Province, 77110 Thailand Thailand",212
4229535,"323 Moo6 Baanpakluay, Phaholyothin Rd. ,, T.Sansai, A.Muang, Chiang Rai, 57000, Thailand, 57000, Thailand",212
5722223,"323/12 ??????? 4, ??????????, ?????????????? ?????????????????????? ???????????????????, 84000 84000",212
4256027,"323/30-1, ????????????? ???????????? ?????? 20110, Thailand",212
5710626,"324 ???? ??????? ????? ?????? ????????? 71140",212
5713325,"324 ????? 319 ??? ????????????????? ????? - ??? ???? ?????? ??????????????? ????? 52000",212
5711078,"324, ??????????? ??????????????????? ????????????????, 71000 71000",212
4240193,"3240, Muang Pattaya, Amphoe Bang Lamung, Chang Wat Chon Buri 20150, Thailand",212
5717992,"3241 ???? ????????? ????? ??????? ?????? 20110",212
5719327,"3241 ???? ????????? ????? ??????? ?????? 20110",212
5720293,"3241 ???? ????????? ????? ??????? ?????? 20110",212
5721859,"3241 ???? ????????? ????? ??????? ?????? 20110",212
5718801,"325 / 20,, SOI 13/3 Near Walking Street, pattaya, Chon Buri 20150",212
4236067,"325, Pratamnak Road, Tambon South Pattaya, Amphoe Pattaya, ChonBuri, 20150, Thailand",212
5721748,"325, ???????????, ??????????? ????????????????????? ?????????????????, 30000 30000",212
5721840,"325/21 moo 10 Soi 13 ?????????? ????? ???????? ?????? 20150",212
5174127,"325/80 Soi 13/4, Moo 10, Pattaya, Nong Prue, Chon Buri 20150",212
5715446,"3256 ???? ????????? ????????????????????? ??????????? 10280",212
4236599,"326/1, ?????????, ??????????? ??????????????????????? ????????????????????, 80000 Thailand",212
4248767,"326/315 8 Assumption Road Surasak Sriracha Chon Buri 20110, Thailand",212
5271414,"327 Moo2 Saladan Koh Lanta ?????? 81150, Thailand",212
183748,"327-335 Chakkrawat Road, Thailand",212
5718468,"327/199 Moo 9, Soi Bongkot Soi 2, ?????????? ?????? 20260",212
4231191,"328 m.11 Daowadung, Nang Lae, Muang, ???????? 57110, Thailand",212
4238913,"328, ??????????, ??????????? ????????????????????? ??????????????????, 34000 34000, Thailand",212
4240399,"328/1 Central Pattaya Rd Bang Lamung District, Chon Buri 20150, Thailand",212
5720925,"328/20 ??? ???????-?????????? ???? ????????? ????? ??????? ?????? 20110",212
4244508,"328/5-6 ?.???????? ?.?????, ???????? 41000, Thailand",212
245780,"329, Soi Ladprao 94 Thailand",212
4231681,"329, ??? ??????? ????? ?????? ????????? Thailand",212
4242371,"329/14 Pratumnak Soi 2 Road Nongprue Banglamung Pattaya, Thailand",212
4242380,"329/14 Pratumnak Soi 2 Road, Pattaya 20260, Thailand",212
5722048,"329/4 Moo9, Pattaya Sai 2 Road, Nongprue, Bang Lamung District, Chon Buri 20150",212
4240654,"33 / 85-86 Soi LK Metro, Soi Boukhao, Central Road, Pattaya 20260, Thailand",212
4231599,"33 Chai Chum Pon Rd., Baan Tai, Muang 71000, 71000, Thailand",212
728452,"33 Moo 12, Hang Dong District, 50230, Thailand",212
764173,"33 Moo 4, Bophut, Koh Samui, 84320, Thailand",212
84311,"33 Moo 5 Klok Kloi Phang Nga 82140, Thailand",212
4229377,"33 Moo.9, Tambon Nang Lae, Amphoe Muang Chiang Rai, Chiang Rai, 57000, Thailand",212
5656665,"33 ??? 2 ?????????????? ??????? ????? 90110",212
5654705,"33 ??? ???????????????? 2 ???? ??????? ???????????????? ?????? 20000",212
4229613,"33 ?.3 ?.???????-?????? ??????????????????, Chiang Rai 57000, Thailand",212
5362706,"33/ 63 ?????? ???? ????? ??? ?????, 5/6 ??? ???????? ???? ???????????? ??? ????? ????????????? 10110, Thailand",212
5710407,"33/1 ??? ????????? ???? ???????? ??????????????????? ????????? 71000",212
4236158,"33/1 ????????????????? ?.??????? ?.?????, ????????????? 80000, Thailand",212
5712181,"33/1 ???? 3, ???????????? ????????????? ???????????, 23170",212
5712285,"33/11 Moo 4, Chai Chet, ???? ???????? ???? 23170",212
4241213,"33/12 Soi L. K Metro, Pattaya, Banglamung 20260, 20150, Thailand",212
5709728,"33/12, Damnoen Kasam Road, Tambon Hua Hin, Amphoe Hua Hin, Prachuap Khiri Khan, 77110",212
4241761,"33/126 L K Metro Alley, Muang Pattaya, Amphoe Bang Lamung, Chang Wat Chon Buri 20150, Thailand",212
4241368,"33/126 LK Metro Alley, Muang Pattaya, Amphoe Bang Lamung, Chang Wat Chon Buri 20150, Thailand",212
5717986,"33/126 ? .13 ??? 2 ???????, ?????????? ????? ???????? ?????? 20150",212
5717040,"33/126 ??? ??? ?? ?????? ?????????? ????? ???????? ?????? 20150",212
5720675,"33/126 ??? ??? ?? ?????? ?????????? ????? ???????? ?????? 20150",212
5718799,"33/133 Soi L K Metro Soi Diana/Soi Buakhao Banglamung,, ?????????? ????? ???????? ?????? 20150",212
4241364,"33/142 LK Metro Alley, Muang Pattaya, Amphoe Bang Lamung, Chang Wat Chon Buri 20150, Thailand",212
183491,"33/153 Chok Chai 4 Soi 52/1, Khwaeng Lat Phrao, Khet Lat Phrao, Krung Thep Maha Nakhon 10230, Thailand, Thailand",212
4239217,"33/19-20 ?.1, ????????????, ??????????? ?????????? ???????????????????, 84000 84000, Thailand",212
4949384,"33/2 Moo 4 Leam Sadej Beach Tambol Klong Kud, Chantaburi, 22120, Thailand",212
762205,"33/2 Moo2, Ban Harn Beach, March, Koh Samui, 84310, Thailand",212
4239865,"33/29 ??????? 8, ????????????, ??????????? ????????????? ??????????????, 11120 11120, Thailand",212
4238240,"33/31-32, ????????????, ??????????? ?????????? ???????????????????, 84000 84000, Thailand",212
5265335,"33/39 ???? 9 ? ? ?? ??? ????? ???? ? ??? ?, ????? ???????? ?????? 20150, Thailand",212
5714718,"33/4, ???????????, ?????????? ??????????????? ????????????, 52100 52100",212
279168,"33/40 Moo 7, Bang Phli-Kingkaew Road Bang Phli Yai Subdistrict Bang Phli, Samut Prakan 10540, Thailand",212
4243925,"33/40, Soi. LK Metro, Nongprue Banglamung, Central Pattaya, Pattaya, 20150, Thailand",212
5708526,"33/47 ?????????????? ???? ?????? ????? ?????? ??????????????? 77110",212
4241365,"33/80 LK Metro Alley, Muang Pattaya, Amphoe Bang Lamung, Chang Wat Chon Buri 20150, Thailand",212
5716002,"33/88 ??? ??????? 14/1 ?????????? ????? ???????? ?????? 20150",212
5712276,"33/9/1 ????3, ???????????? ????????????? ???????????, 23170",212
5019430,"33/99 Lad Prao Wanghin 46, Lat Phrao Wanghin Rd, Bangrak, 10230, Thailand",212
744396,"330 Moo 11 Tambol Chompoo, 52000, Thailand",212
5717919,"330 ???????? ???? ???????,???????????????????? ??????? ??????????",212
4231112,"331 Moo 14, Baan Duu, Muang, Chiang Rai 57100, Thailand",212
4232605,"331/1 ???? 19, ???????? ?????????? ??????????????, 40000 40000, Thailand",212
5667372,"331/12 Moo 1, Tambon Khao Noi, Amphoe Pran Buri, Prachuap Khiri Khan, 77120, 77120",212
742669,"3313/4 Soi Ramkhamhaeng 83/1 10240 10240, Thailand",212
5171689,"332 Moo15, Huahin-Hueymongkol Road, Huahin ?HUAHIN 77110",212
4244272,"332/27 Soi Prachasanti Nittayo Road, Makkeang, Muang, ???????? 41000, Thailand",212
4240270,"3320/2, ??????????, ??????????? ?????????? ?????????????????, 30000 Thailand",212
278833,"333 1, Soi Mooban Prime Nature Villa, Nongprue, Bang Phli, Samut Prakan 10540, Thailand",212
737114,"333 Lao Peng Nguan Building 1, 11th Floor, Soi Vibhavadi Rangsit 10900, Thailand",212
784876,"333 M. 1 Kaw Kwang Beach, Saladan, Koh Lanta Yai, Tambon Koh Lanta Yai KR, Thailand",212
270058,"333 Moo 2 Thammasala, Mueang Nakhon Pathom District, Nakhon Pathom 73000, Thailand",212
4229728,"333 Moo1 Thasud Muang Chiang Rai 57100, Thailand",212
779099,"333 Pier Rd. 81000, Thailand",212
762062,"333 Suk Sawat 76, Bang Chak, Phra Pradaeng District, Samut Prakan 10130, Thailand",212
4230950,"333 ?.10 ??????? ????? Chiang Rai 57000, Thailand",212
4237605,"333 ???? 13???????????? ???????????? ?????????????, 80000 Thailand",212
4244431,"333 ???? 9 ???????????? ????????????, ????????, ?????? 20150, Thailand",212
5722041,"333/101 Moo 9, Level 14, Nong Prue, Bang Lamung, Chon Buri 20260",212
5718497,"333/162 ???? 4 ???? ?????? ????? ??????? ?????? 20110",212
4243356,"333/2 Soi Paniad Chang,Central Pattaya Nongprue Banglamung Chon Buri 20150, Thailand",212
4248613,"333/3 Moo7, Sukhumvit Road, Tambon Tungsukla, Amphur Sriracha, Chonburi, 20230, 20230, Thailand",212
5645273,"333/3 ????2 ??? ???????? ???? ????? ????? ??????? ??????????????? 13170",212
4231896,"333/38 ? .4, ???? ?????? ????? ??????? ????? Thailand",212
4232525,"333/62, ?????????????, ??????????? ?????????? ??????????????, 40000 40000, Thailand",212
5654518,"333/99 Moo 9 Nong Prue Muang Pattaya, Bang Lamung, Chon Buri 20150",212
4244256,"333/99 Moo 9, Central Fastival Pattaya Beach, Tumbon Nong Prue Amphoe Banglamung Chonburi, 20260, Thailand",212
4244427,"333/99 Moo 9, Ground Floor, Nongprue, Banglamung,, Chonburi, 20260, Thailand",212
5654306,"333/99 Moo 9, Nong Prue, Bang Lamung, Chon Buri 20150",212
5721848,"333/99 Nongprue, Banglamung ????? ?????? 20260",212
4243848,"333/99 ???? ???????? Muang Pattaya, Amphoe Bang Lamung, Chang Wat Chon Buri 20150, Thailand",212
4243851,"333/99 ???? ???????? Muang Pattaya, Amphoe Bang Lamung, Chang Wat Chon Buri 20150, Thailand",212
4243853,"333/99 ???? ???????? Muang Pattaya, Amphoe Bang Lamung, Chang Wat Chon Buri 20150, Thailand",212
5720688,"333/99 ???? ???????? ?????????? ????? ???????? ?????? 20150",212
4243360,"333/99 ???? 9 ???? ???????? Muang Pattaya, Amphoe Bang Lamung, Chang Wat Chon Buri 20150, Thailand",212
5718462,"333/99 ???? 9 ???? ???????? ?????????? ????? ???????? ?????? 20150",212
5718464,"333/99 ???? 9 ???? ???????? ?????????? ????? ???????? ?????? 20150",212
5721110,"333/99 ???? 9 ???? ???????? ?????????? ????? ???????? ?????? 20150",212
5721115,"333/99 ???? 9 ???? ???????? ?????????? ????? ???????? ?????? 20150",212
5722205,"333/99 ???? 9 ???? ???????? ?????????? ????? ???????? ?????? 20150",212
5717494,"333/99 ???? 9, ?????????? ????? ???????? ?????? 20150",212
5720488,"333/99 ???? 9, ?????????? ????? ???????? ?????? 20150",212
5357125,"3333-, 134/9 ??? ???????? ???? ??????? ??? ??????? ????????????? 10240, Thailand",212
5719309,"334/117, 334/117 Moo 12, ?????????? ????? ???????? ?????? 20150",212
5731063,"3348 ???? ???????? ?????????????????? ???????? 22000",212
5066696,"335/1 Moo 4 Ban Taling Ngam, Koh Samui Koh Samui 84140, Thailand",212
5721777,"335/11, ??????????, ??????????? ???????????????????? ?????????????????, 30000 30000",212
5716442,"337 moo 5 nongsamrong road, ???? ?????????? muang, ???????? 41000",212
5711064,"337/1, ????????????, ???????????? ?????????? ????????????????, 71000 71000",212
4229883,"337/3, ????????????, ???????????? ?????????? ????????????????, 71000 71000, Thailand",212
758183,"338 / 1-2 Nany Lychee Yan Nawa Thailand",212
131793,"338/1 Phabaramee Road Patong Beach Patong Beach 83150, Thailand",212
4231745,"339 Soi Sri WiChai, Sanam Kila Road, Tambon Rop Wiang, Amphoe Muang Chiang Rai, Chiang Rai, 57000, Thailand",212
4236227,"339 Thappraya Rd, Muang Pattaya, Amphoe Bang Lamung, Chang Wat Chon Buri 20150, Thailand",212
4236410,"339 Thappraya Rd, Muang Pattaya, Amphoe Bang Lamung, Chang Wat Chon Buri 20150, Thailand",212
5265685,"339 ??? ?, 17 ????????????? ???? ?????? ??? ?????? ????????????? 10400, Thailand",212
5722046,"339 ???????? ?????????? ????? ???????? ?????? 20150",212
4241750,"339, Moo 10, Pattaya Sai 2 Road, Tambon Nong Prue, Amphoe Bang Lamung, Chon Buri, 20150, 20150, Thailand",212
5647470,"339/8 ??????? 4, ?.???? ??? ?.?????, Chiang Rai 57100",212
131772,"34 / 50-57 Prachanukhro Rd, Patong, 83150, Thailand",212
5731188,"34 ??? ??????????? 1 ???? ??????? ?????????????????? ???????? 22000",212
5716385,"34 ??????? ???? ??????? ?????????????????????? ???????????? 84000",212
5717528,"34 ??????? ???? ??????? ?????????????????????? ???????????? 84000",212
4230252,"34, 36, 38, ???????????? 4, ??????????? ???????????? ????????????, 90110 90110, Thailand",212
5722255,"34, ?????????????, ??????????? ??????????? ???????????????????, 84130",212
5714713,"34, ???????????, ???????????? ?????????? ????????????, 52000 52000",212
4255962,"34, ????????????, ??????????? ???????????? ?????????????, 20110 20110, Thailand",212
4230250,"34,36,38 ???????????? 4 ?.??????? ?.??????? ????? Songkhla 90110, Thailand",212
4230249,"34,36,38, ???????????? 4, ?.???????, ?.??????? Songkhla 90110, Thailand",212
5721509,"34/, ??? ???????????? 17/4 ???? ??????? ????????????????????? ??????????? 34000",212
784178,"34/1 Khlong Nin Beach, Koh Lanta District 81150, Thailand",212
4243789,"34/1 Moo 12 Sukhumvit 54, Theprasit soi 5, Pattaya, Bang Lamung District, Chon Buri 20150, Thailand",212
5266897,"34/1 Soi Tonson, Ploenchit Road, Lumpini, ????????????? 10330, Thailand",212
5173672,"34/10 Moo 4, Koh Chang Trat 23170, Thailand",212
5715438,"34/10 ??????? 4 ???????? ???? 23170",212
5722072,"34/127 ??????????-??????????? ??? 13 ???? ??????? ????? ??????? ?????? 20110",212
204897,"34/13-14 City Studio 8/21 Sukhumvit Road Soi 1310110, Thailand",212
5709210,"34/175 Petchkasem Road ?????????? ????? ?????? ??????????????? 77110",212
5669078,"34/199 phetkasem road soi 94, ?????????? ??????????????? 77110",212
4571907,"34/2 ???????? ?????? ??????, ??????, Prachuap Khiri Khan 77110, Thailand",212
4571896,"34/2, ?.????????, ?.?????? ?.?????? ?.???????????????, 77110 Thailand",212
5657557,"34/22 ??? ???????? ?????????? ????? ?????? ??????????????? 77110",212
5021181,"34/28 Prachanukore Rd, Patong, 83150, Thailand",212
4240693,"34/32 ?????????????? ????????? ???????, ????????, ??????? 11120, Thailand",212
764628,"34/39 Soi 2, Moo 5, Plai Laem, Koh Samui, 84320, Thailand",212
4225168,"34/4 ???? 3, ?????????????? ???????????????????? ??????????????????????, 13000 13210, Thailand",212
4225169,"34/4, Moo 3, Tambon Klong Suan Plue, Amphoe Muang Phranakhon Sri Ayutthaya, Phranakhon Sri Ayutthaya, 13000, Thailand",212
4235684,"34/54 ????????? ????????? ????????, ??????? 11120, Thailand",212
130582,"34/58 Prachanukroh Road, Patong Beach, 83150, Thailand",212
4231174,"34/6 ???? 19, ???????????? ?????????????????? ???????????????, 57000 57000, Thailand",212
5661546,"34/63 ??? ?????????? 1 ?????????? ????? ?????? ??????????????? 77110",212
5708489,"34/63 ??? ?????????? 1 ?????????? ????? ?????? ??????????????? 77110",212
5020806,"34/73-76 Prachanukhro Road, Patong Beach, Thailand",212
4571900,"34/8 - 9 ??????????? ?.?????? ?.?????? Prachuap Khiri Khan 77110, Thailand",212
5173480,"34/8 Moo 4 T. Koh Chang, A. Koh Chang, Trat, Koh Chang, 23170, Thailand",212
778801,"34/8 Moo 5, Lam Sai, Koh Yao Noi Subdistrict, Phangnga 82160, Thailand",212
5020715,"34/8 Moo 5, Lam Sai, Koh Yao Noi, Phang Nga 82160, Thailand",212
5730681,"34/8, ?????????, ?????, ???????? 22000",212
4232633,"340 ??????? 1, ???????????? ????????????? ????????????, 52190 Thailand",212
4239838,"340/24 ???? 10, ??????????? 3, ???????????? ????????????? ?????????????, 20150 Thailand",212
4239467,"340/95, Sai 3, Chalermphrakiat 22, 3rd Road, Soi 22, ?????????? ????? ???????? ?????? 20150, Thailand",212
4248945,"341 Moo 2, Bang Phra Subdistrict, Sriracha District, Chonburi Province, 20110 Thailand",212
4242844,"342/., ??? ??????? - ??? ??????? 3 ???????????????????? ?????????? Thailand",212
785320,"343 Moo 2, Ban Saladan, Koh Lanta District 81150, Thailand",212
5659585,"343 Nongpranpook Village, Thap Tai",212
4229107,"343/2 ??????? 1, ??????????? ???????????????????????? ????????????????, 71190 Thailand",212
5768304,"344 Thanon Chakkraphatdi Phong, Khwaeng Ban Bat, Khet Pom Prap Sattru Phai, Krung Thep Maha Nakhon 10100, Thailand",212
4256034,"344/22 ??????? 8 ????????????? ????????????, Chon Buri 20110, Thailand",212
4256025,"344/22 ??????? 8, ????????????-???????, ????????????? ???????????? ????????????? 20110, Thailand",212
5717984,"345 Jomtien Beach ?????????? ????? ???????? ?????? 20150",212
4241520,"345 Moo 12 Tabdhraya Rd, Nongprue, Banglamung Pattaya, Thailand",212
4241527,"345 Moo. 12 Thab Phraya Rood, Banglamung, Chonburi Pattaya South 20150, Thailand",212
4236766,"345 ???? 3 ????????????, ???????????? ??????????????????????? ????????????????????, 80280 Thailand",212
5716444,"346 ????14 ???????? ????? ???????? 41000",212
4238236,"346/21, ???????????, ???????? ?????????????????????? ???????????????????, 84000 84000, Thailand",212
5170896,"347 Kiewkan village , Moo 6, Tambol Rimkhong, Amphur Chiang Khong,, Chiang Rai 57140, ???????? 57140",212
5644407,"3477 ???? ????? ????? ??????????????? ??????????????? 13000",212
4243196,"348 ???????????? 13 ???????? ???????? Chon Buri 20150, Thailand",212
5711289,"348/16 Prachasumran Road, Nai Muang, Muang, GoogleMap(16.428924,102.830935101852), ??????? 40000",212
5711138,"348/8 ???????????? 25 (??????????????) ???????????? ??????? ???????????? 40000",212
787967,"349 Moo3 Saladan, Koh Lanta District KR, Thailand",212
5266525,"349 SJ Infinite One Building, 2 nd Floor, Vibhavadi Road, Chomphol, ??? ??????? ????????????? 10900, Thailand",212
4249260,"35 / 10-11 Moo 8 Soi Ketorn-Hin Phoeng, Bang Phra Sub-district, Sriracha District, Chonburi Province, 20110 Thailand",212
279125,"35 / 8-10 Moo 7 Soi King Kaew 64 Racha Thewa Bang Phli, Samut Prakan 10540, Thailand",212
5717452,"35 Moo 4, Cherngtalay Thalang Cherngtalay ?????? 83110",212
5720712,"35 ??? ????????? ???? ??????? ????????????????????? ??????????? 34000",212
5723052,"35 ??? ????? ???? ??????? ????????????????????? ??????????? 34000",212
5718441,"35 ??? ?????????????? ???? ???????????? ??????????????????????? ????????????? 80000",212
5720064,"35 ??? ?????????????? ???? ???????????? ??????????????????????? ????????????? 80000",212
5265769,"35 ???? BKK Grill, ??? ???????? ???? ???????? ??? ???????? ????????????? 10240, Thailand",212
4233950,"35, Srinin3 Road, Tambol Hatyai, Amphor Hatyai, Songkhla, 90110, Thailand",212
4241648,"35, ???????????, ??????????? ????????????????????? ?????????????????, 30000 30000, Thailand",212
5655992,"35-37 ??? 2 ?.?????????????? ????? ??????? ????? 90110",212
4949951,"35/1 ???? 9 ???????????, ??????????? ?????????? ???????????????, 22000 Thailand",212
5717072,"35/1, Jerm Jompon Road, ???? ??????? ????? ??????? ?????? 20110",212
5722155,"35/1, ????????????, ???????????? ?????????? ???????????????, 41000 41000",212
5723527,"35/11 ???????? ???? ??????? ????????????????????? ??????????? 34000",212
718654,"35/2 Bangna-Trad Bang Kaeo, Bang Phli, Samut Prakan 10540, Thailand",212
5717484,"35/303 Soi Mu Ban Siwali, Tambon Bang Khun Kong ??? ????????????? ???? ????????? ????? ??????? ??????? 11130",212
5270223,"35/54 Soi 5 Bohput, ????? ???????? ???????????? 84320, Thailand",212
5368752,"35/75 Moo 1, Rimtai, ????? ?????? ????????? 50180, Thailand",212
5172873,"350 Moo 1 Hua Hin 77110, Thailand",212
5721931,"350/1 ?????????? ???? ???????? ?????????????????? ???????? 41000",212
5721842,"350/77 350 Thanon Second Muang Pattaya ????? ???????? ?????? 20150",212
5710660,"351 ??? ??????? ???? ??????? ??????????????????? ????????? 71000",212
4236581,"351/41, ?????????? ?????????? ????????????????????, 80000 80000, Thailand",212
5355252,"351/5 ?????????? 17 ???????? 55 ???????????????? ????? ???????? 10110, Thailand",212
5730711,"351/9 cha thalaep 6, Muaeng, ???????? 22000",212
785309,"352 Moo 2, Koh Lanta District 81150, Thailand",212
5714726,"352 ??????? 1, ???????? ??????????? ????????????, 52130",212
4239197,"352, 350 ?????????? ???? ??????? ????????????????????? ??????????? 34000, Thailand",212
4231757,"352/11 ???? 26, ???18 ??????, ????????? ?????????? ???????????????, 57000 57000, Thailand",212
5722042,"352/242 M12 Khao Pratumnak Soi 5, ?????????? ?????? 20150",212
4240113,"352/323 Phra Tam Nak 4 Alley, Muang Pattaya, Amphoe Bang Lamung, Chang Wat Chon Buri 20150, Thailand",212
5717037,"352/323 ??? ????????? 4 ?????????? ????? ???????? ?????? 20150",212
5718803,"352/323 ??? ????????? 4 ?????????? ????? ???????? ?????? 20150",212
4242387,"352/33 Moo 12, Soi 6, Phratumnak Road, Pattaya, Bang Lamung District Chonburi 20260, Thailand",212
4239490,"352/430 Phratamnak Soi 5, Pattaya, Chon Buri 20150, Thailand",212
5717495,"352/551 ??? ????????? 4 ?????????? ????? ???????? ?????? 20150",212
4240486,"352/69-70 Phratamnak soi 4 Nongprue, Banglamung, ?????????? ????? ???????? ?????? 20150, Thailand",212
5357824,"3522 ??????????? ???????????? ?????????? ???????????????? ???? 1 ???????? 10240, Thailand",212
5265525,"3522, ????????????? ??????? ???? 3, ???????????, ???????????? ?????????? ?????????????, 10240 10240, Thailand",212
4228929,"353/17 Moo 6 Muang Chiang Rai 57100, Thailand",212
5066524,"353/2 Moo 3, Taling Ngam, Koh Samui Taling Ngam Beach 84140, Thailand",212
4243775,"354/170, ??? ??????????????????????? 2 ???? ???????? ????? ???????? ?????? 20150, Thailand",212
4236319,"354/175 Moo 12, Tappraya 12 Pattaya Central 20150, Thailand",212
742671,"354/2 Samsen Rd, Dusit, Krung Thep Maha Nakhon 10300, Thailand",212
4231457,"354/28 U-Thong Road, Pak Phraek District, Amphur Muang, ????????? 71000, Thailand",212
756649,"355 Moo 19 Suksawat Road, Bang Phueng, Phra Pradaeng, Samutprakarn 10130, Phrapradaeng, Samutprakarn, 10130, Thailand",212
5713773,"355/28-30 ??? ??? ????? ???? ??? ???? ??? ??? ??????????????? ????? 52000",212
5710624,"355/3 ??? ??????? ???? ??????? ??????????????????? ????????? 71000",212
5722130,"355/7 ????????? ???? ???? ?????????????????????? ???????????? 84000",212
5710677,"356 ??? ????????? ???? ??????? ??????????????????? ????????? 71000",212
5272083,"356 ?.2, ?.????????? ?.?????????, ??????, 81130, Thailand",212
5717118,"356/102 ? .4 ? ???? ??? ????? ???????????? 84000",212
4241712,"356/7 Moo 12, Nong Prue Subdistrict, Mueang Pattaya District, Chon Buri 12130, Thailand",212
4239642,"356/74 ??? ??? ??? ??? ???? ??? ???? ????? ????? ????? ???? ? ? ?? ????, ???????????? 84000, Thailand",212
5717097,"356|82 ?????????? ????? ???????????? 84000",212
5269025,"357 Moon Muang Road, Thailand",212
4242179,"357, ?.??????????, ?.??????? ?.????? ???????????, 34000 34000, Thailand",212
5172774,"357/83 The Emerald, Moo 13 Baan Wangkata Tabtail Hua Hin 77110, Thailand",212
5722055,"357/83 ????????? 5 ?????????? ????? ???????? ?????? 20150",212
5722204,"357/83 ????????? 5 ?????????? ????? ???????? ?????? 20150",212
4243200,"358 Chaloem Phrakiat 19, Central, Pattaya, 20150, Thailand",212
5711869,"358/1401 Moo 1 ,, Bang Bao, ????? ???????? 23170",212
784640,"359 moo 3, andaman beach koh jum 81130, Thailand",212
5173131,"359 Moo 7 Hin Lek Fai Hua Hin Prachuap Khiri Khan 77110, Thailand",212
5266006,"359, ?????????????? ??? 7 ???? ?????? ??? ??????? ????????????? 10900, Thailand",212
4243920,"359/109 Moo 12 Phra Tamnak Soi 5 Nongprue Pattaya, 20150, Thailand",212
5711745,"359/2, ??????????, ??????????? ?????????? ??????????????, 40000",212
4950386,"359/3 ?.???????? ?.??????? ?????????? Rayong 21000, Thailand",212
5070193,"36 Aonang Soi 1 Moo.2, Ao Nan, Jia Mi, Tai Guo Klong Muang Beach 81180, Thailand",212
5374718,"36 Bophut,, 39 Bontji Moo 4 ???? ?????? ????? ???????? ???????????? 84320, Thailand",212
5717150,"36 ????????????? ??????? ???? ???????? ?????????????????? ???????? 41000",212
5719838,"36 ???? 1 ???????????? ????? ???????? ??????? 11120",212
4241200,"36 ???? 5 ? ???? ? ??? ? ????? ??? ?? ? ???? ? ?, ??????????? 34190, Thailand",212
5645997,"36 ??????? 4, ????????, ????????????? ????????????? ??????????????????????, 13170 13170",212
5272813,"36, 38, 34 ?????????? ?????????? Kathu, ?????? 83150, Thailand",212
4234026,"36, ??? ???????? ???? ???????? ??????????????? ????? 52000, Thailand",212
4571699,"36/1 Hua Hin 57, Tambon Hua Hin, Amphoe Hua Hin, Chang Wat Prachuap Khiri Khan 77110, Thailand",212
5707767,"36/1 Petchkasem Road ?????????? ????? ?????? ??????????????? 77110",212
5269260,"36/1,36/2 Nimmanhaemin Lane 11, Muang, Thailand",212
5173436,"36/10/8 moo4, pearl beach, Koh Chang, Trat, Thailand",212
5716428,"36/11 ?.???????? ???????? ????????? ???????? 41000",212
4250129,"36/110???????2 ?.?????????.?????? ?.??????? ?????? Chon Buri 20110, Thailand",212
5353163,"36/2 Soi Kasemsan 1, Rama 1 Road,, ????????????? 10330, Thailand",212
5717481,"36/2 ??? ???????????? ???? ?????? ????????????????? ??????? 11000",212
5265907,"36/20, ??? ???????????? 1 ???? ??????? ??? ??????? ????????????? 10330, Thailand",212
240772,"36/3 Nawamin Road, Klongkum, Bungkum, Bungkum, ???? ??? ??? 10230, Thailand",212
5173430,"36/4 Moo 3, Klong Son, Koh Chang 23170, Thailand",212
5718830,"36/56 ???? 9 ??????? ????? ???????????? 84100",212
5266524,"36/6 Soi Kasemsan 1, Rama 1 Road,, ???? ??????? ????????????? 10330, Thailand",212
5354651,"36/6, 36/6 ????? 20, ???? ??????? ??? ??????? ????????????? 10330, Thailand",212
5721913,"36/9, ???????????, ???????????? ?????????? ???????????????, 41000",212
4244897,"36/9, ????????????, ???????????? ????????????? ???????????????, 41000 Thailand",212
5722614,"360 ?????????? ???? ??????? ????????????????????? ??????????? 34000",212
4950382,"360 ???? 1 ??????????? Amphoe Khao Saming, Chang Wat Trat 23150, Thailand",212
788877,"361 Moo 2, Klong Khong Beach, Saladan, Koh Lanta District 81150, Thailand",212
5711282,"361 ???? 14, ?.????????, ?.?????, ??????? 40000",212
275451,"362 Sukhumvit Rd, Tambon Pak Nam, Amphur Muang Samut Prakan 10270, Thailand",212
5723634,"362 ??? ?????????? ??. 30 ???? ???????? ????????????????????? ??????????? 10280",212
4236768,"362 ???? 1, ?????????? ??????????????????????? ????????????????????, 80000 Thailand",212
5716986,"362, ? ???? ???????? ????? ???????? ?????????????",212
5722226,"362/4, ???????????, ???????? ?????????????????????? ???????????????????, 84000 84000",212
5718751,"363-365 ??? ??????? ??????? ????? ?????????? 30000",212
5646367,"363/1 ???? ??????? ?????????????????? ???????? 57100",212
4235194,"363/1,, ?.?????????, ?.?????? ?.????? ?.?????, 52100 52100, Thailand",212
5722192,"363/26 ? .10 ? ? 16 ? ??? ????? ????? ??? ? ???? ???? ?, ????? ???????? ?????? 20150",212
4242782,"364, ??? ??????? ???? ??????? ????????????????????? ??????????? 34000, Thailand",212
5717500,"365 Second Rd, ?????????? Pattaya, ?????? 20150",212
4239482,"365/3 M.10 Pattaya 2nd Road, Pattaya, Chonburi 20150, Thailand",212
5717973,"365/7-8 M.10 T Nongprue, Banglamung, ?????????? 20150",212
4243705,"366 M.",212
4229224,"366 ???? 1 ??????????? ????????????? Chiang Rai, Thailand",212
5717511,"366/11 Moo 12 Phra Tam Nak 4 Road ?????????? Nongprue Banglamung ?????? 20150",212
4247601,"366/5 ??????? 8, ????????????? ???????????? ?????????????, 20000 Thailand",212
128997,"367 / 63-64 Yaowaraj Rd, Taladyai, Muang, 83000, 83000, Thailand",212
5656965,"367 ???? 14 ???? ?????????? ????? ?????? ??????????????? 77110",212
4243756,"367/4 ????10 ??? ????????16 ???????? ???????? ?????? 20150, Thailand",212
4241840,"369 Moo 9 Pattaya 2Nd Road Pattaya, Pattaya, 20260, Thailand",212
4230625,"369-371, Supphasanrangsan Road, Tambon Hatyai, Amphoe Hatyai, Songkhla, 90110, Thailand",212
4243791,"369/1 ???????????, ????????????, ???????????? ????????????? ??????, 20150 20150, Thailand",212
4236146,"369/1 ???? 9 ??? ?.????????, Central Pattaya Rd, Bang Lamung District, Chon Buri 20150, Thailand",212
759181,"369/2 Moo 4, Ban Klong Suan Subdistrict, Phra Samut Chedi District, Samut Prakan 10290, Thailand",212
5269673,"37 Gate,, Charoen Rat Rd, ???? ?????? ??????????????????? ????????? 50000, Thailand",212
5066969,"37 moo 4 drum namuang Koh Samui 84140, Thailand",212
5267800,"37 sarika BLDG., Surawong Road, ???? ???? ????????????? 10500, Thailand",212
5655791,"37 ?.14 ?.?????????? ??????? ????? 90110",212
5716380,"37 ?.?????????? ?.????? ???? ?????????? ?????????????????????? ???????????? 84000",212
5716335,"37 ??? ?????????? ???? ??????? ???????????????????? ?????????? 30000",212
5062186,"37 ?????????? ??? 17, ????????????, ??? ???????? ????????????? 10230, Thailand",212
4235622,"37 ???? 1, ????????, ?????????????? ??????????????????????? ????????????????????, 80000 80000, Thailand",212
4235042,"37, ??????????, ??????????? ???????????? ????????????, 90110 90110, Thailand",212
5364702,"37-9 moo 6 layan cherngtallay, thalang, ?????? Thailand",212
5272582,"37/1 ??????? 3 ???????????, ????????????, ????, ?????? 83110, Thailand",212
5656679,"37/1, ??????????????????? 1, ??????????? ???????????? ????????????, 90110 90110",212
4232518,"37/10-13 ???2, ?????????????, ?.??????? ?.??????? ?.?????, 90110 90110, Thailand",212
5721814,"37/112 ????8 ?????? ????? ???????????? ???????????? ?????????? ??????? 11000",212
4244899,"37/16 4, ????????????????????????????????? ???? ?????????? ?????????????????? ???????? 41000, Thailand",212
5711862,"37/2 Moo1, Lonely Beach / Koh Chang, Koh Chang, ???? 23170",212
5711797,"37/2, ???????, ??????????? ????????????????? ??????????????, 40000",212
5650857,"37/20 ?????????? ???? ???????? ???????????????? ?????? 20000",212
4235766,"37/37-41 Moo 10, Pattaya Tai Road, Tambon Nong Prue, Amphoe Bang Lamung, Chon Buri, 20150, 20150, Thailand",212
5712050,"37/4 Moo 1, Lonely Beach, ????? ???????? ???? 23170",212
5065853,"37/8 moo 4 Lipa noi Koh samui Ban Na We 84140, Thailand",212
4242923,"370 ? .17 ? ????? ?, ???? ??????? ????????????????????? ??????????? 34000, Thailand",212
5656791,"370/1, ??????????????, ??????????? ???????????? ????????????, 90110 90110",212
4229038,"370/8 Moo 15 Sankhongluang Rd, Tambon Rob Wiang, Amphur Muang, Chiang Rai 57000, Thailand",212
4229640,"370/8 ?.24 ??? ??????? ???????? ????????????? Chiang Rai 57000, Thailand",212
5715345,"371/20 ????8 ???????????? ???????????????? ?????????? ??????????? 10280",212
5715533,"371/21, ?????????, ???????????????? ????????????????????? ??????????????????, 10280 10280",212
4233930,"372 Samchai, ??????? Songkhla 90110, Thailand",212
4229655,"373/1 Moo.1, Robwiang, Chiangrai, Chiang Rai 57000, Thailand",212
5717057,"373/13 Mu9 Nongprue, Banglamung ?????????? ?????? 20150",212
4229441,"373/4 ???? 19, ???????????? ?????????????????? ???????????????, 57000 57000, Thailand",212
5647802,"374/1 ???? 21 ???????? ????? ???????? 57000",212
5719303,"374/14 S.Marine south pattaya ?????????? ??????",212
5714715,"375/31-32, ??????????, ?????????? ?????????? ????????????, 52100 52100",212
4231086,"376 M19 Robviang Muang Chiangrai Chiang Rai 57000, Thailand",212
5272082,"376 Moo.3 Tambol Nuea Khlong Amphoe Nuea Khlong 81130, Thailand",212
4231492,"376/1 ???? 1, ?????????? 3199, ??????????? ??????????????????? ????????????????, 71190 Thailand",212
4229742,"377 Ngam Muang Rd, ?????????? Chiang Rai 57000, Thailand",212
5713385,"377 ???? 1 ? ???????? ? ????????, ????? 52190",212
5723533,"377-379 ????????????? ???? ??????? ????????????????????? ??????????? 34000",212
5717575,"377-9 ?????????? ??? ?????????? 9 ??????????? ????????????????????? ??????????? 34000",212
4247470,"377/158 ??????? 2 ?????????????????????????????? 2 ????????? ??????? Chon Buri 20110, Thailand",212
4231758,"377/2 ????? ????? Chiang Rai 57000, Thailand",212
4236075,"378/16 Moo 12 Pattaya, 20260, Thailand",212
5721841,"378/62 moo 12 kasetsin soi 9 pattaya, Nongproue, ????? ???????? ?????? 20150",212
4236095,"378/93 Moo.12, Kasetsin soi 9 Pattaya South 20150, Thailand",212
5020865,"379 Moo 3, Saladan, Ko Lanta, 81150, Thailand",212
5272093,"379 ??????? 2, ???????, ???????????, ?????? 81180, Thailand",212
5721771,"379, ???????????, ??????????? ???????????????????? ?????????????????, 30000",212
4236590,"379/9 Ratchadamnoen Rd Tambon Nai Mueang, ??????????????????????? ????????????? 80000, Thailand",212
5710783,"38 River Kwai Road, Tamacarm City, ????????? 71000",212
205367,"38 Soi Suwinthawong 110, Thailand",212
5647862,"38 ???? 14, ????????? ?????????????????? ???????????????, 57000 57000",212
277174,"38, 39 Bangna - Trad Road 10540, Thailand",212
277175,"38, 39 Bangna - Trad Road 10540, Thailand",212
277176,"38, 39 Bangna - Trad Road 10540, Thailand",212
761923,"38, 39 Bangna - Trad Road 10540, Thailand",212
761924,"38, 39 Bangna - Trad Road 10540, Thailand",212
4231848,"38, Sutthipatchara Road, Tambon Hatyai, Amphoe Hatyai, Songkhla, 90110, Thailand",212
4239117,"38, ????????, ?????????????? ??????????????? ??????????????????, 34190 34190, Thailand",212
4256109,"38, ????????? 1, ??????????? ???????????? ?????????????, 20110 20110, Thailand",212
5714966,"38,38/1-3 No; 1645/1 floor 1, Moo 6 Bangna-trat Rd.,, Bang Kaeo, Bang Phli, Samut Prakan 10540",212
252163,"38-39 Bangna - Trad Road 10540, Thailand",212
279380,"38-39 Bangna - Trad Road 10540, Thailand",212
279433,"38-39 Bangna - Trad Road 10540, Thailand",212
720124,"38-39 Bangna - Trad Road 10540, Thailand",212
750695,"38-39 Bangna - Trad Road 10540, Thailand",212
758496,"38-39 Bangna - Trad Road 10540, Thailand",212
761919,"38-39 Bangna - Trad Road 10540, Thailand",212
5267160,"38-39 Bangna - Trad Road 10540, Thailand",212
5267330,"38-39 Bangna - Trad Road 10540, Thailand",212
5358044,"38-39 Bangna - Trad Road 10540, Thailand",212
4245113,"38-40 ?.??????? 3 ?.??????? ?.??????? ?????? Chon Buri 20110, Thailand",212
5265080,"38/-, Pratuchai, Surawong Road, Surawong,, 1 ??? ???????? 2 ??? ?????? ????????????? 10500, Thailand",212
5659225,"38/1 srasrong road, ?????????? ????? ?????? ??????????????? 77110",212
4949839,"38/11 ???? 8, ??????????, ???????????? ?????????????????? ???????????????, 22000 Thailand",212
5711870,"38/12/22 Moo 4, Kai Bae, ????? ???????? ???? 23170",212
5717963,"38/14 ??? ?????????????????? ??????????? ????????????????? ??????? 11000",212
5722248,"38/15, ???????????-??????, ?????????????? ?????????????????????? ???????????????????, 84000",212
5661998,"38/169 Soi Huahin 88, Rotfai Road, Hua Hin, Prachuab Khiri Khan 77110",212
5065400,"38/2 Moo 3, Borput, Chaweng Beach, Bophut, Koh Samui 84320 Bangrak 84320, Thailand",212
4949993,"38/23 ???? 3, ????????????? ???????????? ???????????????, 22170 Thailand",212
5171841,"38/25 Grand Hill 88, Hua Hin, Prachaup Khiri Khan Huahin 77110, Thailand",212
4243890,"38/3 ?.???? ?. ???????, ?. ????? ?. ??????????, ?????????? 30000, Thailand",212
5718428,"38/3 ??? ???? ???? ??????? ???????????????????? ?????????? 30000",212
5721490,"38/3 ??? ???? ???? ??????? ???????????????????? ?????????? 30000",212
5721491,"38/3 ??? ???? ???? ??????? ???????????????????? ?????????? 30000",212
5667366,"38/39, ?????????? ??????????? ??????????????????????, 77110 77110",212
5171697,"38/49 Soi Hua Hin 68, Petchakasem Road, ?????????? ??????????????? 77110",212
5645610,"38/6 ???? 7 ????????? ???????? ??????????????? 13170",212
5374946,"38/63, Chaweng Beach ????? ???????? ???????????? 84320, Thailand",212
5372588,"38/69 moo 3 chaweng beach road, koh samui, Thailand",212
5065948,"38/7 ??????? 4, ???????????? ????????????? ???????????????????, 84140 Thailand",212
5174086,"380/41 Moo 9, Beach Road Soi 2, North Pattaya, Banglamong District Chonburi Chonburi 20150",212
5720063,"381/127 ??? ???????? 3 ???? ??????? ???????????????????? ?????????? 30000",212
5173503,"381220 moo 4 Koh Chang Trat, Koh Chang District TT 23170, Thailand",212
4230199,"382 ???? 7, ????????-?????, ?????????? ?????????? ????????????, 52000 Thailand",212
4231039,"382/13, Baanpa Pragarn Road, Tambol Wiang, Amphoe Mueang, Chiang Rai, 57000, 57000, Thailand",212
4231242,"382/15 Thanon Baanpa Pragarn Rd, ????? ????? Chiang Rai 57000, Thailand",212
4949713,"383, ?????????????, ??????????? ???????????? ???????????????, 22120 22120, Thailand",212
5721102,"383/2, ??? ????????-????? 75 ?????????? ????? ???????? ?????? 20150",212
5647893,"383/7 ??????? 10, ??????????? ?????????????????? ???????????????, 57100",212
5717007,"384 ?.5 ?.???????????????? ???? ?????? ?.?????, ????????????? 80000",212
4229601,"384/15 ?.6 ?.????????????? ??????????????????, Chiang Rai 57100, Thailand",212
5720678,"384/46 M.6, ?????-??????? ?????????? ????? ???????? ?????????? 20150",212
4236341,"384/94 Banglamung, ??? ?????????? 10 ?????????? ????, 20150, Thailand",212
5647880,"385 ???? 1, ???????????-??????, ???????????? ?????????????????? ???????????????, 57000 57000",212
4240879,"385/4, Khao Makok Intersection Road, Muang Pattaya, Bang Lamung District, Chonburi 20150, Thailand",212
5656558,"387/ 8-10 ??? ??????????? ????? ??????? ????? 90110",212
5170910,"387/2 moo.8 soi.Payang 12 Wiang Phang Kham Mae Sai District, Chiang Rai 57130, Thailand",212
4231070,"388 ???? 2, ????????? ?????????? ???????????????, 57100 57100, Thailand",212
5718833,"388/24 ???????? ???? ?????????? ?????????????????????? ???????????? 84000",212
4239465,"388/6 Pratamnak Road, ?????????? ?????? 20150, Thailand",212
4232629,"389 ??????? 4, ????????? ??????????? ????????????, 52130 Thailand",212
4232259,"389, ?????????????????, ??????????? ???????????? ????????????, 90110 90110, Thailand",212
5722109,"389/16 ???????? ???? ?????????? ?????????????????????? ???????????? 84000",212
4240415,"389/480 M12, Pratumnak Soi 6, Nongprue, Bang Lamung District, Chon Buri, Thailand, ?????????? ????? ???????? ?????? 20150, Thailand",212
5270299,"389/68, ??? ??? ?? 41/1, ????? ????? ??????? ???? ? ? ?? ???? 84000, ???????? ???? ?????????? ?????????????????????? ???????????? 84000, Thailand",212
5711616,"389/9 Moo. 12 Baankok Road, Ban Pet, Mueang, ??????? 40000",212
749575,"389/953, Moo 12, Nongprue, Banglamung, Chon Buri 20150, Thailand",212
749817,"39 1st, 2nd Floor, Room 1102,2102, Moo 6, Bangna-Trad Road., Bangkaew, Bangplee, Samutprakarn. Bangkaew Bangplee Samut Prakan 10540, Thailand",212
5265253,"39 Boulevard Tower, 2 floor, Soi Sukhumvit 39( Soi Phrom Chit), BTS phromphong, ????????????? 10110, Thailand",212
5267269,"39 M.6 T.Bangkaew? A. Bangplee Samutprakan, Thailand",212
749702,"39 Mega-Bangna department store Bangna-Trad Road Km.8, Bang Kaeo, Bang Phli, Samut Prakan 10540, Thailand",212
277102,"39 Moo 1 Mega-Bangna Department Store Bang Na-Trat Rd, Bang Kaeo Subdistrict Bang Phli, Samut Prakan 10540, Thailand",212
