3855006,"82 Lower Rd, Harrow HA2 0DH, United Kingdom",276
3877728,"82 Manor Rd, Wallington SM6 0AB, United Kingdom",276
5572307,"82 Market Pl, Romford RM1 3ER Market Place, Romford RM1 3ER, United Kingdom",276
3844568,"82 Pield Heath Rd, Uxbridge UB8 3NJ, United Kingdom",276
5087606,"82 Shortlands Rd, Bromley BR2 0JP, United Kingdom",276
3850773,"82 South Rd, Southall UB1 1RD, United Kingdom",276
3893112,"82 South St, Romford RM1 1RX, United Kingdom",276
3798873,"82 St Anns Street, Salisbury, Wiltshire SP1 2PT, United Kingdom",276
5708180,"82 St James' St, Newport PO30 1LG",276
3855789,"82 Union St, Barnet EN5 4HZ, United Kingdom",276
5568572,"82 Watling St, Radlett WD7 7AB, United Kingdom",276
3879982,"82, Capital Business Centre, 22 Carlton Rd, South Croydon CR2 0BS, United Kingdom",276
3846318,"82-90 Horsenden Ln N, Southall UB6 7, United Kingdom",276
3857185,"820 Harrow Rd, Wembley HA0 3EL, United Kingdom",276
3882768,"820 Wickham Rd, Croydon CR0 8EB, United Kingdom",276
3885194,"822 High Rd, Romford RM6 4HY, United Kingdom",276
3887420,"822 High Rd, Romford RM6 4HY, United Kingdom",276
3892867,"822 High Rd, Romford RM6 4HY, United Kingdom",276
3895884,"822 High Rd, Romford RM6 4HY, United Kingdom",276
3896770,"822 High Rd, Romford RM6 4HY, United Kingdom",276
3880522,"824 Wickham Rd, Croydon CR0 8EB, United Kingdom",276
5571883,"825 High Rd, Ilford IG3 8TD, United Kingdom",276
3871635,"82A Eden St, Kingston upon Thames KT1 1DJ, United Kingdom",276
3883836,"83 Baston Rd, Bromley BR2 7BS, United Kingdom",276
3799573,"83 Chatham Cl, Salisbury SP1 3JR, United Kingdom",276
3892503,"83 Chippenham Rd, Romford RM3 8HP, United Kingdom",276
3871630,"83 Clarence St, Kingston upon Thames KT1 1RE, United Kingdom",276
4682715,"83 George St, Ryde PO33 2JF, UK",276
3878043,"83 Hayes Ln, Bromley BR2 9EF, United Kingdom",276
5564418,"83 High Rd, Ickenham, Uxbridge UB10 8LH, United Kingdom",276
3855091,"83 High Rd, Watford, Bushey Heath WD2 1EL, United Kingdom",276
5568940,"83 High St, Barnet EN5 5UR, United Kingdom",276
4683276,"83 High St, Cowes PO31 7AJ, UK",276
5708339,"83 High St, Shanklin PO37 6NR",276
3845710,"83 High St, Twickenham TW2 7LD, United Kingdom",276
5571777,"83 Longbridge Rd, Barking IG11 8TG, United Kingdom",276
3878749,"83 Manor Park Rd, West Wickham BR4 0JY, United Kingdom",276
5570438,"83 Maple Rd, Surbiton KT6 4AW, United Kingdom",276
3885553,"83 Nuxley Rd, Belvedere DA17 5JU, United Kingdom",276
3874105,"83 Park Ln, Harrow HA2 8NN, United Kingdom",276
3858881,"83 Station Rd, New Barnet, Barnet EN5 1PX, United Kingdom",276
3846331,"83 Stoke Poges Ln, Slough SL1 3NY, United Kingdom",276
3840449,"83 Townhill Rd, Dunfermline KY12 0BW, United Kingdom",276
3879570,"83 Waddon Way, Croydon CR0 4HY, United Kingdom",276
5571613,"83 Walnuts Rd, Orpington BR6 0TW, United Kingdom",276
5568471,"83 Watling Ave, Edgware HA8, United Kingdom",276
3859898,"83 Weston Dr, Stanmore HA7 2EW, United Kingdom",276
3856620,"83 Wood St, Barnet EN5 4BX, United Kingdom",276
5572016,"83-85 Bellegrove Rd, Welling DA16 3PG, United Kingdom",276
3845785,"83-85 High St, Teddington TW11 8HG, United Kingdom",276
3877821,"83-87 High St, Sutton SM1 1JF, United Kingdom",276
3858777,"83-88 High St, Harrow HA3 5DL, United Kingdom",276
3893236,"83/85 High Street, Barkingside, Ilford IG6 2AQ, United Kingdom",276
3846808,"830 Uxbridge Rd, Hayes UB4 0RR, United Kingdom",276
3857920,"832 Harrow Rd, Wembley HA0 3EN, United Kingdom",276
5564639,"832 Uxbridge Road, Hayes UB4 0RR, United Kingdom",276
3888602,"833 Longbridge Rd, Dagenham RM8 2DA, United Kingdom",276
3887304,"833-835 High Rd, Ilford IG3 8TD, United Kingdom",276
3860470,"835 Cranbrook Rd, Ilford IG6 1JD, United Kingdom",276
3887626,"835 Dagenham Rd, Dagenham RM10 7UP, United Kingdom",276
3895904,"84 Albert Rd, Ilford IG1 1HW, United Kingdom",276
3871496,"84 Alexandra Dr, Surbiton KT5 9AG, United Kingdom",276
5572196,"84 Bellegrove Rd, Welling DA16 3QB, United Kingdom",276
3892487,"84 Brentwood Rd, Romford RM1 2EL, United Kingdom",276
3889088,"84 Broadway, Bexleyheath DA6 7JN, United Kingdom",276
3798456,"84 Bulford Rd, Durrington, Salisbury SP4 8DH, United Kingdom",276
3863770,"84 Chase Side, Enfield EN2 6NX, United Kingdom",276
3881344,"84 Coombe Rd, Croydon CR0 5RA, United Kingdom",276
5571214,"84 Croydon Rd, Coney Hall, West Wickham BR4 9HY, United Kingdom",276
3879558,"84 High St, Banstead SM7 2NN, United Kingdom",276
3857484,"84 High St, Barnet EN5 5SN, United Kingdom",276
3880536,"84 High St, Beckenham BR3 1ED, United Kingdom",276
4684482,"84 High St, Cowes PO31 7AJ, UK",276
4684707,"84 High St, Cowes PO31 7AJ, UK",276
3850876,"84 High St, Rickmansworth WD3 1AQ, United Kingdom",276
4684006,"84 High St, Ryde PO33 2SU, UK",276
3873524,"84 High St, Teddington TW11 8JD, United Kingdom",276
3848552,"84 Kingsley Rd, Hounslow TW3 1QA, United Kingdom",276
3851410,"84 Kingsley Rd, Hounslow TW3 1QA, United Kingdom",276
3852429,"84 Kingsley Rd, Hounslow TW3 1QA, United Kingdom",276
5570973,"84 Manor Rd, Wallington SM6 0AD, United Kingdom",276
4683337,"84 Marlborough Rd, Ryde PO33 1AF, UK",276
3850296,"84 Shenley Rd, Borehamwood WD6 1EH, United Kingdom",276
3856112,"84 Shenley Rd, Borehamwood WD6 1EH, United Kingdom",276
3845770,"84 South Rd, Southall UB1 1RD, United Kingdom",276
3855510,"84 St Anns Road, Harrow 84 St Anns Road HA1 1JX, United Kingdom",276
3889397,"84 Station Rd, Romford RM2 6DB, United Kingdom",276
5667637,"84 Upper St James Street, Newport PO30 1LG",276
5568840,"84 Whitechapel High Street, Aldgate E1 7QX, United Kingdom",276
3882880,"84 Woodcote Rd, Wallington SM6 0NQ, United Kingdom",276
3893243,"84-86 High Rd, Ilford IG1 1BU, United Kingdom",276
5709480,"84-86 High St, Newport PO30 1BA",276
3848160,"84-86 Staines Rd, Hounslow TW3 3LF, United Kingdom",276
3887947,"84-86 Straight Rd, Romford RM3 8AB, United Kingdom",276
3868176,"84-86 West Heath Road, Hampstead NW3 7UN, United Kingdom",276
3895883,"841 High Rd, Ilford IG3 8TG, United Kingdom",276
5572077,"847 High Rd, Ilford IG3 8TG, United Kingdom",276
5569446,"84A Chase Side, Enfield EN2 6NX, United Kingdom",276
4684001,"84A High St, Ryde PO33 2SU, UK",276
4522324,"85 - 87 High St W, Wallsend NE28 8JD, UK",276
3864497,"85 Bell Common, Epping CM16 4DZ, United Kingdom",276
3850885,"85 Bridge St, Pinner HA5 3HZ, United Kingdom",276
3856645,"85 Brookhill Rd, Barnet EN4 8SG, United Kingdom",276
5089373,"85 Brunel House St. James Road, Brentwood CM14 4EL, United Kingdom",276
3799132,"85 Bulford Rd, Durrington, Salisbury SP4 8EX, United Kingdom",276
3798771,"85 Castle St, Salisbury SP1 3SP, United Kingdom",276
5571267,"85 Cherry Orchard Rd, Croydon CR0 6BE, United Kingdom",276
3860736,"85 Crowshott Ave, Stanmore HA7 1HS, United Kingdom",276
3852742,"85 Ealing Rd, Wembley HA0 4BN, United Kingdom",276
3799125,"85 Fisherton St, Salisbury SP2 7ST, United Kingdom",276
3882288,"85 Hayes Rd, Bromley BR2 9AE, United Kingdom",276
3896288,"85 High Rd, Romford RM6 6PB, United Kingdom",276
4682845,"85 High St, Cowes PO31 7AJ, UK",276
3877509,"85 High St, New Malden KT3 4BP, United Kingdom",276
3849633,"85 High St, Ruislip, United Kingdom",276
5708447,"85 High St, Shanklin PO37 6NR",276
3846505,"85 High St, Slough SL1 1EA, United Kingdom",276
3883133,"85 High St, Uckfield TN22 1AS, United Kingdom",276
3845737,"85 High St, West Drayton UB7 7QH, United Kingdom",276
3882036,"85 High St, Westerham TN16 1RE, United Kingdom",276
3847591,"85 High Street Whitton, Whitton TW2 7LD, United Kingdom",276
3849409,"85 Hillingdon Hill, Uxbridge UB10 0JQ, United Kingdom",276
5567583,"85 Lower Addiscombe Rd, Croydon CR0 6PT, United Kingdom",276
3886746,"85 Mayplace Rd W, Bexleyheath DA7 4JL, United Kingdom",276
3848707,"85 Pinner Hill Rd, Pinner HA5 3UJ Pinner Hill Rd, Pinner HA5 3UJ, United Kingdom",276
4684373,"85 Royal Exchange, Newport PO30 2HW, UK",276
3878038,"85 Silver Ln, West Wickham BR4 0RX, United Kingdom",276
3857806,"85 Station Rd, Edgware HA8 7JH, United Kingdom",276
5571449,"85 Stoats Nest Rd, Coulsdon CR5 2JJ, United Kingdom",276
4683360,"85 Upton Rd, Ryde PO33 3JG, UK",276
3889915,"85 Western Rd, Romford RM1 3LS, United Kingdom",276
3881998,"85, The Glades Shopping Centre, High St, Bromley BR1 1DN, United Kingdom",276
5566974,"85-87 Clarence St, Kingston upon Thames KT1 1RB, United Kingdom",276
5570946,"85-87 Kingston Rd, New Malden KT3 3PA, United Kingdom",276
5571592,"85-87 Manor Rd, Wallington SM6 0DE, United Kingdom",276
5572150,"85-87 New Rd, Gravesend DA11 0AF, United Kingdom",276
3881501,"85-87 Sevenoaks Rd, Orpington BR6 9JW, United Kingdom",276
3850311,"85-89 High St, Walton-on-Thames KT12 1DN, United Kingdom",276
3866345,"850 Cranbrook Rd, Ilford IG6 1HW, United Kingdom",276
3897140,"850 High Rd, Romford RM6 4HX, United Kingdom",276
3897326,"851 High Rd, Ilford IG3 8TG, United Kingdom",276
5568001,"851 Honeypot Ln, Stanmore HA7 1AR, United Kingdom",276
3856307,"857 Honeypot Ln, Stanmore HA7 1AR, United Kingdom",276
3846463,"858 Harrow Rd, Wembley HA0 2PX, United Kingdom",276
3885366,"859 High Rd, Ilford IG3 8TG, United Kingdom",276
5571362,"85A Chatterton Rd, Bromley BR2 9QQ, United Kingdom",276
5666602,"85A St James' St, Newport PO30 1LG",276
5083106,"85A Wembley Hill Road, Wembley HA9 8BU, United Kingdom",276
3874228,"86 Alexandra Dr, Surbiton KT5 9AG, United Kingdom",276
5709674,"86 Avenue Rd, Freshwater PO40 9UR",276
3889062,"86 Bellegrove Rd, Welling DA16 3QB, United Kingdom",276
3881383,"86 Benhurst Gardens, South Croydon CR2 8NU, United Kingdom",276
4682719,"86 Condor Close, Woolsbridge Industrial Park, Three Legged Cross, Wimborne BH21 6SU, UK",276
5571031,"86 Cotmandene Cres, Orpington BR5 2RG, United Kingdom",276
3879829,"86 Crofton Ln, Orpington BR5 1HD, United Kingdom",276
3879920,"86 Crofton Ln, Orpington BR5 1HD, United Kingdom",276
3883851,"86 Crofton Ln, Orpington BR5 1HD, United Kingdom",276
3882328,"86 Croydon Rd, Croydon CR0 4PD, United Kingdom",276
5571927,"86 Dagenham Rd, Romford RM7 0TJ, United Kingdom",276
4656144,"86 Esplanade, St Helier JE2 3QA, Jersey",276
3840693,"86 Halbeath Rd, Dunfermline KY12 7RS, United Kingdom",276
3883845,"86 Hayes St, Bromley BR2 7BA, United Kingdom",276
3865002,"86 High St, Cheshunt, Waltham Cross EN8 0AJ, United Kingdom",276
3856758,"86 High St, Harrow HA1 3LW, United Kingdom",276
5564218,"86 High St, Ruislip HA4 8LS, United Kingdom",276
3834958,"86 Raven Way, Salford M6 5HT, United Kingdom",276
3885853,"86 Rogers Rd, Dagenham RM10 8JX, United Kingdom",276
5566737,"86 South Rd, Southall UB1 1RD, United Kingdom",276
5567825,"86 St Anns Road, Harrow HA1 1JP, United Kingdom",276
3845016,"86 The Broadway, Southall UB1 1QD, United Kingdom",276
5568419,"86 Watling Ave, Edgware HA8 0LU, United Kingdom",276
3843996,"86 Welley Rd, Wraysbury, Staines TW19 5EP, United Kingdom",276
3845317,"86 Westhall Rd, Warlingham CR6 9HB, United Kingdom",276
3881737,"86 Westmead Rd, Sutton SM1 4HY, United Kingdom",276
3888482,"86 Wickham St, Welling DA16 3LT, United Kingdom",276
3845614,"86 Winslow Cl, Pinner HA5 2QY, United Kingdom",276
3889326,"86 Wood Ln, Dagenham RM9 5SL, United Kingdom",276
5566523,"86-, 88 Kingsley Rd, Hounslow TW3 1QA, United Kingdom",276
4683497,"86-88 High St, Newport PO30 1BH, United Kingdom",276
3848936,"86-90 N End, Croydon, United Kingdom",276
3871633,"86/, 88 Eden St, Kingston upon Thames KT1 1ED, United Kingdom",276
5570875,"86/90 High St, Beckenham BR3 1ED, United Kingdom",276
5570727,"86/90 N End, Croydon CR0 1UJ, United Kingdom",276
3896267,"861 High Road, Goodmayes, Ilford, Essex IG3 8TG, United Kingdom",276
3885431,"861 Longbridge Rd, Dagenham RM8 2BX, United Kingdom",276
3848448,"862 Uxbridge Rd, Hayes UB4 0RR, United Kingdom",276
3897628,"863 High Rd, Ilford IG3 9FF, United Kingdom",276
5567834,"865 Honeypot Ln, Stanmore HA7 1AR, United Kingdom",276
3884353,"86A Wood Ln, Dagenham RM9 5SL, United Kingdom",276
3852675,"87 Abercorn Rd, Stanmore HA7 2PH, United Kingdom",276
3887720,"87 Barnehurst Rd, Bexleyheath, Dartford DA7 6HD, United Kingdom",276
5565546,"87 Bedfont Ln, Feltham TW14 9BH, United Kingdom",276
3845889,"87 Beechwood Ave, Ruislip HA4 6EQ, United Kingdom",276
3884341,"87 Broad St, Dagenham RM10 9HP, United Kingdom",276
3889312,"87 Broad St, Dagenham RM10 9HP, United Kingdom",276
3799315,"87 Bulford Rd, Durrington, Salisbury SP4 8EX, United Kingdom",276
3897656,"87 Caernarvon Cl, Mitcham CR4 1XE, United Kingdom",276
3844185,"87 Charlock Way, Watford WD18 6JT, United Kingdom",276
3884224,"87 Chase Cross Rd, Romford RM5 3RP, United Kingdom",276
3855120,"87 Chesterfield Rd, Barnet EN5 2RE, United Kingdom",276
3849438,"87 Coldharbour Ln, Hayes UB3 3EF, United Kingdom",276
5571010,"87 Farnborough High Street, Farnborough. BR6 7BB, United Kingdom",276
3889940,"87 Front La, Upminster RM14 1XN, United Kingdom",276
3887228,"87 High Rd, Romford RM6 6PB, United Kingdom",276
3852589,"87 High St, Barnet EN5 5UB, United Kingdom",276
3855913,"87 High St, Harrow HA3 5DL, United Kingdom",276
3895893,"87 High St, Ilford IG6 2AH, United Kingdom",276
3849637,"87 High St, Ruislip HA4 8JB, United Kingdom",276
5707850,"87 High St, Shanklin PO37 6NR",276
3884513,"87 High St, Sidcup DA14 6DL, United Kingdom",276
3848421,"87 High St, West Drayton UB7 7QH, United Kingdom",276
5571303,"87 HIGH STREET, BECKENHAM, Beckenham BR3 1AG, United Kingdom",276
5569276,"87 Lancaster Rd, Enfield EN2 0DW, United Kingdom",276
3877758,"87 Limpsfield Rd, South Croydon CR2 9LE, United Kingdom",276
3883101,"87 Limpsfield Rd, South Croydon CR2 9LE, United Kingdom",276
3885554,"87 Lion Rd, Bexleyheath DA6 8NT, United Kingdom",276
5572037,"87 Longbridge Rd, Barking IG11 8TB, United Kingdom",276
5571374,"87 Main Rd, Sidcup DA14 6ND, United Kingdom",276
3884661,"87 Pelham Rd, Bexleyheath DA7 4LY, United Kingdom",276
4682066,"87 Royal Exchange, Newport PO30 2HW, UK",276
3855633,"87 Russell Ln, Barnet N20 0BA, United Kingdom",276
5569017,"87 St Mark's Rd, Enfield EN1 1BJ, United Kingdom",276
3858916,"87 Station Rd, Edgware HA8 7JG, United Kingdom",276
3858611,"87 Station Rd, Edgware, United Kingdom",276
5086807,"87 Teevan Rd, Croydon CR0 6RQ, United Kingdom",276
5571571,"87 Upper Wickham Ln, Welling DA16 1PA, United Kingdom",276
5570712,"87 Walton Rd, Molesey, East Molesey KT8 0DP, United Kingdom",276
3888639,"87 Warley Hill, Warley, Brentwood CM14 5HN, United Kingdom",276
5571660,"87 Welling High St, Welling DA16 1TY, United Kingdom",276
5568416,"87-89 High St, Edgware HA8 7DB, United Kingdom",276
3887521,"87-89 South St, Romford RM1 1PA, United Kingdom",276
4684776,"87-91 Royal Exchange, Newport PO30 2HW, UK",276
5082355,"87/89 Lampton Rd, Hounslow TW3 4DP, United Kingdom",276
3843954,"871 Field End Rd, Ruislip HA4 0QN, United Kingdom",276
5568110,"873 St Albans Rd, Watford WD25 0NH, United Kingdom",276
3887315,"874 Eastern Ave, Ilford IG2 7HY, United Kingdom",276
5568071,"875 Harrow Rd, Wembley HA0 2RH, United Kingdom",276
5572320,"876-884 High Rd, Romford RM6, United Kingdom",276
3850953,"877 Waldegrave Rd, Twickenham TW1 4SX, United Kingdom",276
4684455,"87A High St, Ryde PO33 2SZ, UK",276
3884935,"87A Queensway, Orpington BR5 1DQ, United Kingdom",276
3892781,"87b High St, Brentwood CM14 4RR, United Kingdom",276
3849846,"88 Capel Gardens, Pinner HA5 5RD, United Kingdom",276
3847158,"88 Castleton Road, Ruislip HA4 9QL, United Kingdom",276
3852990,"88 Constable Gardens, Edgware HA8 5RZ, United Kingdom",276
3887852,"88 Cotmandene Cres, Orpington BR5 2RG, United Kingdom",276
5565338,"88 East Ave, Hayes UB3 2HR, United Kingdom",276
3881806,"88 Falconwood Rd, Croydon CR0 9BD, United Kingdom",276
3845832,"88 Field End Rd, Ruislip, Pinner HA5 1RL, United Kingdom",276
3894632,"88 Goodmayes Rd, Ilford IG3 9UU, United Kingdom",276
3855711,"88 High St, Barnet, United Kingdom",276
3892783,"88 High St, Brentwood CM14 4AP, United Kingdom",276
3892785,"88 High St, Brentwood CM14 4AP, United Kingdom",276
3881063,"88 High St, Croydon CR0 1NA, United Kingdom",276
3844642,"88 Kingsley Rd, Hounslow TW3 1QA, United Kingdom",276
3878735,"88 Limpsfield Rd, South Croydon CR2 9, United Kingdom",276
3886861,"88 Main Rd, Romford RM2 5JB, United Kingdom",276
5571800,"88 Market Pl, Romford RM1 3ER, United Kingdom",276
3888819,"88 North St, Romford RM1 1DA, United Kingdom",276
5565429,"88 South Rd, Southall UB1 1RD, United Kingdom",276
3887153,"88 St James Way, Sidcup DA14 5HF, United Kingdom",276
3887756,"88 Station Rd, Sidcup DA15 7DU, United Kingdom",276
3877612,"88 Station Rd, West Wickham BR4 0PU, United Kingdom",276
3893099,"88 Straight Rd, Romford RM3 8AB, United Kingdom",276
3882595,"88 Woodcote Rd, Wallington SM6 0LY, United Kingdom",276
5569260,"88-90 Chase Side, Enfield EN2, United Kingdom",276
3882019,"88-92 Northey Ave, Ewell, Sutton SM2 7HJ, United Kingdom",276
3847546,"882 Great West Rd, Isleworth TW7 5NG, United Kingdom",276
5089707,"883 Eastern Avenue, Ilford IG2 7SA, United Kingdom",276
3844027,"88A High St, Rickmansworth WD3 1AQ, United Kingdom",276
4656644,"88a Rouge Bouillon, Saint-Helier JE2 3ZB, United Kingdom",276
3850794,"88D The Broadway, Southall UB1 1QF, United Kingdom",276
3887827,"89 Bennetts Castle La, Dagenham RM8 3YB, United Kingdom",276
3845887,"89 Bridge St, Pinner HA5 3HZ, United Kingdom",276
3871723,"89 Denmark Rd, Carshalton SM5 2JE, United Kingdom",276
3878291,"89 Elmers End Rd, Beckenham BR3 4SY, United Kingdom",276
3892895,"89 High St, Ilford IG6 2AH, United Kingdom",276
3848514,"89 High St, Ruislip HA4 8JB, United Kingdom",276
3887949,"89 High St, Sidcup DA14 6DJ, United Kingdom",276
3885604,"89 High St, Sidcup DA14 6ED, United Kingdom",276
5565349,"89 Hillingdon Hill, Uxbridge UB10 0JQ, United Kingdom",276
3847861,"89 Kennel Ride, Ascot SL5 7NU, United Kingdom",276
3866651,"89 Lancaster Rd, Enfield EN2 0DW, United Kingdom",276
5569633,"89 Longbridge Rd, Barking IG11 8TB, United Kingdom",276
5571117,"89 Lower Addiscombe Rd, Croydon CR0 6PT, United Kingdom",276
5571286,"89 Main Rd, Sidcup DA14 6ND, United Kingdom",276
3881297,"89 Manor Rd, Wallington SM6 0DE, United Kingdom",276
3894630,"89 Mawney Rd, Romford RM7 7HX, United Kingdom",276
4682061,"89 Perowne Way, Sandown PO36 9DR, UK",276
3843924,"89 Pinewood Ave, Uxbridge UB8 3LP, United Kingdom",276
3897471,"89 Reigate Rd, Bromley BR1 5JJ, United Kingdom",276
5571390,"89 St Johns Hill, Sevenoaks TN13 3PE, United Kingdom",276
3881583,"89 Station Rd, West Wickham BR4 0PX, United Kingdom",276
3882611,"89 The Walnuts, Orpington BR6 0TW, United Kingdom",276
5568568,"89 Watling Avenue, Edgware, Middlesex HA8 0LA, United Kingdom",276
3834422,"89 Whitton Rd, Hounslow TW3 2EH, United Kingdom",276
3884081,"89-101 West St, Erith DA8 1AG, United Kingdom",276
3883106,"89-91 Banstead Rd, Carshalton SM5 3NP, United Kingdom",276
3859581,"89-91 Station Rd, Edgware HA8 7JG, United Kingdom",276
3848927,"890 Uxbridge Rd, Hayes UB4 0RR, United Kingdom",276
3850922,"891 Greenford Rd, Greenford UB6 0HE, United Kingdom",276
3895002,"891 High Rd, Dagenham, Romford RM6 4HR, United Kingdom",276
3856763,"897 Honeypot Ln, Stanmore HA7, United Kingdom",276
5083376,"89A Queens Road, Walthamstow E17 8QR, United Kingdom",276
3830695,"89A School Rd, Sale M33 7XA, United Kingdom",276
3857943,"89B High St, Harrow HA3 5DL, United Kingdom",276
3889055,"8A Bellegrove Rd, Welling DA16 3PR, United Kingdom",276
3867516,"8A Queen Anne's Pl, Enfield EN1 2PT, United Kingdom",276
3894267,"8a Seven Kings Rd, Ilford IG3, United Kingdom",276
5567247,"8A South St, Isleworth TW7 7BG, United Kingdom",276
5570826,"8A The Heart Shopping Mall, Walton-on-Thames KT12 1GH, United Kingdom",276
5571064,"8A The Mall, Bromley BR1 1TS, United Kingdom",276
3873878,"8A Upper Green W, Mitcham CR4 3AA, United Kingdom",276
3797715,"8a, Glenmore Business Park, Telford Rd, Salisbury SP2 7GL, United Kingdom",276
3878328,"8a, Stafford Cross Business Park, Stafford Rd, Croydon CR0 4TU, United Kingdom",276
3844699,"8AU, The Arches, Harrow HA2 8AA, United Kingdom",276
3888336,"8B Bellegrove Rd, Welling DA16 3PR, United Kingdom",276
5710174,"8b Gloucester St, St Helier JE2 3QA",276
4581597,"8D Prince George St, Havant PO9 1BG, UK",276
5082199,"8DB, Uxbridge UB8, United Kingdom",276
3889282,"8ED,, 19a Farnham Rd, Romford RM3, United Kingdom",276
3797903,"8HA, School Rd, Durrington, Salisbury SP4, United Kingdom",276
3864572,"8HD, Burford St, Hoddesdon EN11, United Kingdom",276
3880028,"8HD, Farnborough Ave, South Croydon CR2, United Kingdom",276
3825788,"8HR, 31 Queen's Ave, Widnes WA8, United Kingdom",276
3881823,"8LL, 33 Lennard Rd, Bromley BR2 8LN, United Kingdom",276
3844131,"8PN, Staines Rd, Chertsey KT16, United Kingdom",276
5082193,"8QX, 603 Uxbridge Rd, Hayes UB4 8HR, United Kingdom",276
3867294,"8RU, Theobalds Ln, Cheshunt, Waltham Cross EN8, United Kingdom",276
3844441,"8T, Perivale Ln, Perivale, Greenford UB6, United Kingdom",276
3887273,"8TB,, 86 Longbridge Rd, Barking IG11, United Kingdom",276
3868288,"8th Floor/Maple House/High St, Potters Bar EN6 5RF, United Kingdom",276
3874147,"8WR, 8 Waldegrave Rd, Teddington TW11 8GT, United Kingdom",276
3798031,"9 - 11 Endless St, Salisbury SP1 1DL, United Kingdom",276
3798628,"9 4th Ave, Salisbury SP4 9BG, United Kingdom",276
3858561,"9 Abney Park Court, 230 Stoke Newington High Street, Stoke Newington N167HF, United Kingdom",276
3882007,"9 Akabusi Cl, Croydon CR0 6YL, United Kingdom",276
3883759,"9 Albemarle Rd, Beckenham BR3 5HZ, United Kingdom",276
5089717,"9 Argyle Rd, Ilford IG1 3BH, United Kingdom",276
3850140,"9 Arkwright Rd, Slough SL3 0HJ, United Kingdom",276
3878468,"9 Augustus Lane, Tesco Orpington Extra, Orpington BR6 0NH, United Kingdom",276
3879848,"9 Augustus Ln, Orpington BR6 0NH, United Kingdom",276
3883291,"9 Augustus Ln, Orpington BR6 0NH, United Kingdom",276
3884476,"9 Augustus Ln, Orpington BR6 0NH, United Kingdom",276
3884620,"9 Augustus Ln, Orpington BR6 0NH, United Kingdom",276
3867765,"9 Balfour Rd, Ilford IG1 4HP, United Kingdom",276
3887211,"9 Balgores Ln, Romford RM2 5JS, United Kingdom",276
5086115,"9 Barb Mews, Kensington W6 7PA, United Kingdom",276
3881413,"9 Beckenham Ln, Bromley BR2 0DA, United Kingdom",276
3878709,"9 Beddington Gardens, Wallington SM6 0HU, United Kingdom",276
5089524,"9 Beehive Ct, Romford RM3 0RS, United Kingdom",276
3847106,"9 Beeston Way, Feltham TW14 0EU, United Kingdom",276
5565112,"9 Belmont Rd, Uxbridge UB8 1QS, United Kingdom",276
4682265,"9 Bowling Green Ln, Newport, PO30 1LL Bowling Green Ln, Newport PO30 1LL, UK",276
4684892,"9 Braxton Meadow, Freshwater, Yarmouth PO41 0RN, UK",276
3887411,"9 Bridge Cl, Romford RM7 0AU, United Kingdom",276
4656145,"9 Broad St, St Helier JE4 8NG, Jersey",276
3889198,"9 Bryant Ave, Romford RM3 0AP, United Kingdom",276
3845830,"9 Bury St, Ruislip HA4 7SX, United Kingdom",276
5710261,"9 Caledonia Pl, St Helier JE2 3NF",276
3857829,"9 Canons Corner, Edgware HA8 8AE, United Kingdom",276
3857283,"9 Cat Hill, Barnet, United Kingdom",276
3881189,"9 Chancery Ln, Beckenham BR3 6NR, United Kingdom",276
3847598,"9 Chapel Rd, Hounslow TW3 1XT, United Kingdom",276
3834129,"9 Chapel St, Salford M3 5AS, United Kingdom",276
4657060,"9 Charing Cross, St Helier JE2 3RP, Jersey",276
3833224,"9 Charnville Rd, Gatley, Cheadle SK8 4HE, United Kingdom",276
3860561,"9 Chester Road, Chigwell IG7, United Kingdom",276
5566454,"9 Claremont Rd, Surbiton KT6 4QR, United Kingdom",276
3892967,"9 Claybury Broadway, Ilford IG5 0LQ, United Kingdom",276
3845751,"9 Clayton Rd, Hayes UB3 1BQ, United Kingdom",276
5089368,"9 Como St, Romford RM7 7DJ, United Kingdom",276
4682788,"9 Connaught Rd, East Cowes PO32 6DP, UK",276
3886225,"9 Crayford Rd, Dartford DA1 4AN, United Kingdom",276
4684020,"9 Cross St, Ryde PO33 2AD, UK",276
4684546,"9 Eastcliff Rd, Shanklin PO37 6AA, UK",276
3888064,"9 Eastern Ave, Grays RM20 3FH, United Kingdom",276
3874407,"9 Eden St, Kingston upon Thames KT1 1BQ, United Kingdom",276
3878978,"9 Egmont Ave, Surbiton KT6 7AU, United Kingdom",276
4656206,"9 Esplanade, St Helier, Jersey JE2 3QA, United Kingdom",276
3894407,"9 Fern Ave, Mitcham CR4 1LS, United Kingdom",276
3886271,"9 Foots Cray High St, Sidcup DA14 6EN, United Kingdom",276
3843843,"9 Forest Ln, Radlett WD7 9HQ, United Kingdom",276
3896596,"9 Gants Hill Cres, Ilford IG2 6TT, United Kingdom",276
4682732,"9 Garfield Rd, Ryde PO33 2PS, UK",276
3844561,"9 Glen Ave, Ashford TW15 2JE, United Kingdom",276
3849593,"9 Grasmere Ave, Hounslow TW3 2JG, United Kingdom",276
5570766,"9 Green Wrythe Ln, Carshalton SM5 2DS, United Kingdom",276
3879542,"9 Hayes Ln, Kenley CR8 5LE, United Kingdom",276
3848833,"9 Hercies Rd, Uxbridge UB10, United Kingdom",276
3859464,"9 High St, Barnet EN5 5UE, United Kingdom",276
3881192,"9 High St, Beckenham BR3 1AZ, United Kingdom",276
4653239,"9 High St, Cowes PO31 7RZ, UK",276
3888457,"9 High St, Orpington BR6 0JE, United Kingdom",276
3882217,"9 High St, Purley CR8 2AF, United Kingdom",276
3843928,"9 Hilliards Rd, Uxbridge UB8 3TA, United Kingdom",276
5566005,"9 Hillingdon Rd, Uxbridge UB10 0AD, United Kingdom",276
3797442,"9 Horne Rd, Bulford Camp, Salisbury SP4 9AE, United Kingdom",276
3799583,"9 Horne Rd, Salisbury SP4 9AE, United Kingdom",276
5566205,"9 Hounslow Rd, Feltham TW14 9DF, United Kingdom",276
3850887,"9 Hoylake Gardens, Ruislip HA4 9SJ, United Kingdom",276
5087407,"9 Hunter Rd, Crawley RH10 6SY, United Kingdom",276
4682998,"9 Hurstake Rd, Newport PO30 5UU, UK",276
5710156,"9 Ingouville Place, St Helier JE2 4GD",276
5564143,"9 Joel St, Northwood HA6 1NU, United Kingdom",276
3873300,"9 Katharine St, Croydon CR9 1, United Kingdom",276
3879514,"9 Kendall Ave S, South Croydon CR2 0QR, United Kingdom",276
4657165,"9 King St, St Helier, Jersey JE2 4WE, United Kingdom",276
3847848,"9 King St, Twickenham TW1 3SD, United Kingdom",276
3849911,"9 King St, Twickenham TW1 3SD, United Kingdom",276
3799304,"9 King St, Wilton, Salisbury SP2 0RS, United Kingdom",276
3849646,"9 Kingsend, Ruislip HA4 7DS, United Kingdom",276
3871728,"9 Leigh Rd, Cobham KT11 2LF, United Kingdom",276
3877671,"9 Majestic Way, Mitcham CR4 2JS, United Kingdom",276
3877820,"9 Majestic Way, St Mark's Rd, Mitcham CR4 2JS, United Kingdom",276
5571992,"9 Manor Rd, Erith DA8 2AE, United Kingdom",276
3887208,"9 Market Pl, Romford RM1 3AF, United Kingdom",276
5565215,"9 Market Square The Mall Pavilions, Uxbridge UB8 1LN, United Kingdom",276
3848414,"9 Marlborough Pde/Uxbridge Rd, Uxbridge UB10 0LR, United Kingdom",276
3799108,"9 Meadow Rd, Bulford, Salisbury SP4 9DN, United Kingdom",276
3799330,"9 Minster St, Salisbury SP1 1TB, United Kingdom",276
3867536,"9 Morson Rd, Enfield EN3 4NQ, United Kingdom",276
3856147,"9 Mount Pleasant, Barnet EN4 9DD, United Kingdom",276
4656813,"9 Mulcaster St, St Helier, St. Helier, Jersey JE2 3NJ, United Kingdom",276
3848832,"9 Murray Grey House UB4 8AY UB4 8AY, United Kingdom",276
5565785,"9 New Broadway, Uxbridge UB10 0LH, United Kingdom",276
3850795,"9 newstead court,, Byron Way, Northolt UB5 6BE, United Kingdom",276
3844891,"9 Norwood Rd, Southall UB2 4EA, United Kingdom",276
5571980,"9 Oak Rd, Romford RM3 0PH, United Kingdom",276
3880026,"9 Palace Green, Croydon CR0 9AJ, United Kingdom",276
4683062,"9 Park Rd, Shanklin PO37 6AY, UK",276
3878959,"9 Patterdale Rd, Dartford DA2 6LP, United Kingdom",276
3828980,"9 Peels Ave, Springhead, Oldham OL4 4RF, United Kingdom",276
3888327,"9 Pickford Ln, Bexleyheath DA7 4RD, United Kingdom",276
5668486,"9 Pier St, Sandown PO36 8JR",276
5564517,"9 Pinner Green, Pinner HA5 2AF, United Kingdom",276
4493372,"9 Pool Bank New Rd, Pool in Wharfedale, Otley LS21 1EH, UK",276
3882639,"9 Purberry Shot, Epsom Road, Epsom KT17 1JX, United Kingdom",276
3864301,"9 Queen Anne's Pl, Enfield EN1 2PX, United Kingdom",276
3852793,"9 Richards Cl, Harrow HA1 2BE, United Kingdom",276
3884458,"9 Rushmore Hill, Orpington BR6 7NJ, United Kingdom",276
5091528,"9 Sandringham Gardens, Salford M7 1AN, United Kingdom",276
4684890,"9 School Green Rd, Freshwater PO40 9AJ, UK",276
3855915,"9 Spencer Rd, Harrow HA3 7AN, United Kingdom",276
4683766,"9 Spring Hill, Ventnor PO38 1PE, UK",276
5089511,"9 Squirrels Heath Ln, Romford RM2 6DP, United Kingdom",276
3858799,"9 St Anns Road, Harrow HA1 1HS, United Kingdom",276
3874373,"9 St James' Rd, Surbiton KT6 4QH, United Kingdom",276
5086956,"9 St Mark's Hill, Surbiton KT6 4LQ, United Kingdom",276
5171713,"9 St Mark's Rd, Gosport PO12 2DA",276
5172181,"9 St Saviour's Rd, St Helier JE2 4GJ, Jersey",276
3882102,"9 Station Approach, Bromley BR2 7EQ, United Kingdom",276
3879546,"9 Station Approach, Coulsdon North, Coulsdon CR5 2NR, United Kingdom",276
5564812,"9 Station Rd, Hayes UB3 4BD, United Kingdom",276
3797480,"9 Station Rd, Tidworth SP9 7NP, United Kingdom",276
3850765,"9 Station Rd, West Drayton UB7 7BT, United Kingdom",276
3888278,"9 Sterry Gardens, Dagenham RM10 8PH, United Kingdom",276
5089378,"9 Stonechat Mews, Bluewater DA9 9TY, United Kingdom",276
3798330,"9 Stonehenge Rd, Durrington, Salisbury SP4 8BW, United Kingdom",276
3851863,"9 The Broadway, Stanmore HA7 4DA, United Kingdom",276
3857120,"9 The Broadway, Stanmore HA7 4DA, United Kingdom",276
3844779,"9 The Cl, Winchester SO23 9LS, United Kingdom",276
5087066,"9 The Crossways, Coulsdon CR5 1LF, United Kingdom",276
3844866,"9 The Green, Feltham TW13 4AF, United Kingdom",276
3878652,"9 The Green, Sutton SM1 1QT, United Kingdom",276
3798573,"9 the maltings, Salisbury SP1 1BD, United Kingdom",276
3872755,"9 The Market Wrythe Lane, Rosehill, Carshalton SM5 1AG, United Kingdom",276
3858044,"9 The Ridgeway, Harrow HA3 0LJ, United Kingdom",276
5569383,"9 The Rows, Harlow CM20 1BL, United Kingdom",276
3893967,"9 The Square, Woodford, Woodford Green IG8 0UJ, United Kingdom",276
3860824,"9 The Town, Enfield EN2 6LE, United Kingdom",276
4656663,"9 The, New Cut, St Helier, Jersey",276
3830665,"9 Union Terrace, Salford M7 4ZH, United Kingdom",276
5571398,"9 Upper Wickham Ln, Welling DA16 3AA, United Kingdom",276
3883456,"9 Wallington Square, Wallington SM6 8RG, United Kingdom",276
4682121,"9 Well Rd, East Cowes PO32 6SP, UK",276
3877904,"9 Wellesley Rd, Croydon CR9 2AA, United Kingdom",276
5571464,"9 Widmore Rd, Bromley BR1 1RL, United Kingdom",276
3883830,"9 Winterborne Ave, Orpington BR6 9RH, United Kingdom",276
5571273,"9 Woodmansterne St, Banstead SM7 3NW, United Kingdom",276
3849476,"9 Woodthorpe Rd, Ashford TW15 2RL, United Kingdom",276
3883723,"9 Worlds End Ln, Orpington BR6 6AA, United Kingdom",276
4656275,"9, Cattle Street - JE2 4WP -St. Helier - Jersey - Channel Island - UK, Jersey",276
3844209,"9, Central Park Estate, Staines Rd, Hounslow TW4 5DJ, United Kingdom",276
3886221,"9, Cherry Court, 2A St John's Rd, Sidcup DA14 4HB, United Kingdom",276
3851493,"9, Clock Tower Industrial Estate, Clock Tower Rd, Isleworth TW7 6GF, United Kingdom",276
3893118,"9, Liberty 2 Shopping Centre, Mercury Gardens, Romford RM1 3EE, United Kingdom",276
5568533,"9, Metropolitan House, Darkes Ln, Potters Bar EN6 1AZ, United Kingdom",276
3894624,"9, North House, St Edwards Way, Romford RM1 3AE, United Kingdom",276
3867391,"9, PALACE EXCHANGE, 18 Hatton Walk, Enfield EN2 6SN, United Kingdom",276
3872410,"9, Redriff Rd, Rotherhithe SE16 7LL, United Kingdom",276
3858328,"9, Sears Retail Park, 1000 Greenford Rd, Greenford UB6 0UW, United Kingdom",276
3798216,"9, South Newton Industrial Estate, Warminster Rd, South Newton, Salisbury SP2 0QW, United Kingdom",276
3844778,"9, Winchester SO23 9LS, United Kingdom",276
3848561,"9-, 11A High Street Whitton, Twickenham TW2 7LA, United Kingdom",276
3872206,"9-, 19 Manor Green Rd, Epsom KT19 8RA, United Kingdom",276
3860996,"9-10 High Beach Road, Loughton IG10 4BN, United Kingdom",276
3844638,"9-10 High St, Hounslow, United Kingdom",276
3849939,"9-10 High St, Hounslow, United Kingdom",276
4434087,"9-11 Bridge St, Banchory AB31 5SX, UK",276
3885842,"9-11 Cavendish Gardens, Barking IG11 9DR, United Kingdom",276
3886268,"9-11 High St, Sidcup DA14 6EN, United Kingdom",276
5570761,"9-11 High St, Sutton SM1 1DF, United Kingdom",276
3886413,"9-11 Quadrant Arcade, Romford RM1 3ED, United Kingdom",276
3894541,"9-11 Station Rd, Romford RM6 4BE, United Kingdom",276
3855804,"9-11 The Ridgeway, Enfield EN2 8NX, United Kingdom",276
3859587,"9-11 Watling Avenue, Burnt Oak, Edgware, Burnt Oak HA8 0NL, United Kingdom",276
5710071,"9-11, Burrard St, St Clair",276
3880032,"9-13 Elmfield Rd, Bromley BR1 1LT, United Kingdom",276
4684268,"9-13 Scarrots La, Newport PO30 1JD, United Kingdom",276
4684568,"9-13 Scarrots Ln, Newport PO30 1JD, UK",276
3845056,"9-15 Station Rd, West Drayton UB7 7BT, United Kingdom",276
3852361,"9-17 High St, Edgware HA8 7EE, United Kingdom",276
3883188,"9-17 Western Rd, Mitcham CR4 3ED, United Kingdom",276
3874043,"9-18 Cobham Rd, Fetcham, Leatherhead KT22 9AR, United Kingdom",276
3878367,"90 Addiscombe Rd, Croydon CR0 5PP, United Kingdom",276
3888063,"90 Aviemore Way, Beckenham BR3 3RP, United Kingdom",276
5089533,"90 Barley Ln, Ilford IG3 8XW, United Kingdom",276
3895910,"90 Belgrave Rd, Ilford IG1 3AL, United Kingdom",276
3845725,"90 Bishops Rd, Hayes UB3 2TF, United Kingdom",276
5086648,"90 Chatsworth Rd, Croydon CR0 1HB, United Kingdom",276
3871472,"90 Coombe Rd, New Malden KT3 4RD, United Kingdom",276
5570329,"90 Coombe Rd, New Malden KT3 4RD, United Kingdom",276
3878663,"90 Denmark Rd, Carshalton SM5 2JW, United Kingdom",276
3871628,"90 Eden St, Kingston upon Thames KT1 1DJ, United Kingdom",276
3856578,"90 Edgware Way, Edgware HA8 8JS, United Kingdom",276
3879854,"90 High St, Orpington BR6 0JY, United Kingdom",276
3863781,"90 Park Ave, Enfield EN1 2HN, United Kingdom",276
5082052,"90 Park Rd, Uxbridge UB8, United Kingdom",276
4683227,"90 Place Rd, Cowes PO31 7AE, UK",276
5709479,"90 Pyle St, Newport PO30 1UJ",276
3858258,"90 Shenley Rd, Borehamwood WD6 1EB, United Kingdom",276
3845243,"90 St Joseph's Dr, Middlesex, Southall UB1 1RW, United Kingdom",276
5571082,"90 Station Rd, Sidcup DA15 7DU, United Kingdom",276
3877793,"90 Station Rd, West Wickham BR4 0PU, United Kingdom",276
3881541,"90 Station Rd, West Wickham BR4 0PU, United Kingdom",276
3845395,"90 The Green, Southall UB2 4BG, United Kingdom",276
3852791,"90 Uxbridge Rd, Harrow HA3 6DQ, United Kingdom",276
3881556,"90 Wickham Rd, Beckenham BR3 6QH, United Kingdom",276
5572219,"90 Wood Ln, Dagenham RM9 5SL, United Kingdom",276
3880120,"90, 90 High St, Bromley BR1 1DN, United Kingdom",276
3870178,"90, Wembley Park Blvd, Wembley HA9 0FD, United Kingdom",276
5568505,"90-92 High St, Edgware HA8 7HF, United Kingdom",276
3858833,"90-94 The Broadway, West Ealing W13 0SY, United Kingdom",276
3895408,"90/92 Ley St, Ilford IG1 4BX, United Kingdom",276
3892865,"900 High Rd, Romford RM6 4HU, United Kingdom",276
3895491,"900 High Rd, Romford RM6 4HU, United Kingdom",276
3850752,"900 Uxbridge Rd, Hayes UB4 0RW, United Kingdom",276
3894254,"902 Eastern Ave, Ilford IG2 7EE, United Kingdom",276
5564514,"906 Uxbridge Rd, Hayes UB4 0RW, United Kingdom",276
3844717,"907 Uxbridge Rd, Uxbridge UB10 0NH, United Kingdom",276
3855936,"909 Honeypot Ln, Stanmore HA7 1AR, United Kingdom",276
5570964,"90A Crofton Ln, Orpington BR5 1HD, United Kingdom",276
5571917,"91 Albert Rd, Romford RM1 2PS, United Kingdom",276
3880546,"91 Beckenham Ln, Bromley BR2 0DN, United Kingdom",276
3888400,"91 Boxmoor Rd, Romford RM5 2SH, United Kingdom",276
3894241,"91 Chalgrove Cres, Ilford IG5 0LX, United Kingdom",276
5567046,"91 Cotmandene Cres, Orpington BR5 2RD, United Kingdom",276
5571246,"91 Cotmandene Cres, Orpington BR5 2RD, United Kingdom",276
3885153,"91 Eldred Dr, Orpington BR5 4PE, United Kingdom",276
5564569,"91 Field End Rd, Pinner HA5 1QG, United Kingdom",276
4682757,"91 Fishbourne Ln, Ryde PO33 4EU, UK",276
3877749,"91 George St, Croydon CR0 1LD, United Kingdom",276
3877900,"91 George St, Croydon CR0 1LD, United Kingdom",276
3883441,"91 George St, Croydon CR0 1LD, United Kingdom",276
3857915,"91 Headstone Gardens, Harrow HA2 6PJ, United Kingdom",276
3849679,"91 Heston Rd, Hounslow TW5 0QR, United Kingdom",276
3856747,"91 High St, Harrow HA3 5DL, United Kingdom",276
5708811,"91 High St, Newport PO30 1BQ",276
3879929,"91 High St, Sidcup DA14 6DH, United Kingdom",276
3864988,"91 High St, Waltham Cross EN8 7AQ, United Kingdom",276
3844662,"91 Joel St, Northwood, United Kingdom",276
3859796,"91 Lorna Rd, Hove BN3 3EL, United Kingdom",276
3882306,"91 Pampisford Rd, Croydon, South Croydon CR2 6DH, United Kingdom",276
4684272,"91 Pyle St, Newport PO30 1UH, UK",276
3851007,"91 Queen's Rd, Twickenham TW1 3SL, United Kingdom",276
3889524,"91 Shepherds Hill, Romford RM3 0NP, United Kingdom",276
5571705,"91 Shepherds Hill, Romford RM3 0NP, United Kingdom",276
3887700,"91 South Street, Romford, Essex, RM1 1NX, Essex RM1 1NX, United Kingdom",276
5081974,"91 Sussex Pl, Slough SL1 1NN, United Kingdom",276
4481148,"91 Talbot Rd, Talbot Green, Pontyclun CF72 8AE, UK",276
3889702,"91 Welling High St, Welling DA16 1TZ, United Kingdom",276
3846202,"91-, 92 Whitton Rd, Hounslow TW3 2DQ, United Kingdom",276
5571202,"91-101 High St, Croydon CR0 1QF, United Kingdom",276
5571270,"91-101 High St, Croydon CR0 1QF, United Kingdom",276
3883085,"91-93 S End, Croydon CR0 1BG, United Kingdom",276
3844658,"91-95 Manor Way, Ruislip HA4 8HW, United Kingdom",276
3849800,"91-97 High Rd, Ickenham, Uxbridge UB10 8LB, United Kingdom",276
5083362,"910 Eastern Avenue, Redbridge IG2 7HZ, United Kingdom",276
3892890,"919 Green Ln, Dagenham RM8 1DJ, United Kingdom",276
3886236,"91A Broad St, Dagenham RM10 9HP, United Kingdom",276
5709477,"91A St James' St, Newport PO30 1LB",276
3896815,"92 - 94 High Street, Eltham SE9 1BW, United Kingdom",276
3864930,"92 Barnhill Rd, Wembley HA9 9BS, United Kingdom",276
5570902,"92 Chessington Road, West Ewell, Epsom KT19 9UR, United Kingdom",276
3881017,"92 Crofton Ln, Orpington BR5 1HD, United Kingdom",276
3845792,"92 Cross Deep, Twickenham TW1 4RB, United Kingdom",276
5568858,"92 E Barnet Rd, New Barnet, Barnet EN4 8RQ, United Kingdom",276
3874136,"92 Ewell Rd, Surbiton KT6 6EX, United Kingdom",276
3886544,"92 Express Dr, Ilford IG3 9QQ, United Kingdom",276
5564366,"92 Field End Rd, Pinner HA5 1RL, United Kingdom",276
3882316,"92 Foxley Ln, Purley CR8 3NA, United Kingdom",276
3881215,"92 Gates Green Rd, West Wickham BR4 9DG, United Kingdom",276
3882042,"92 Godstone Rd, Kenley CR8 5AB, United Kingdom",276
3864995,"92 High St, Potters Bar EN6 5AT, United Kingdom",276
3845393,"92 High Street Whitton, Twickenham TW2 7LN, United Kingdom",276
3798347,"92 New Zealand Ave, Salisbury SP2, United Kingdom",276
3845444,"92 Pield Heath Rd, Uxbridge UB8 3NJ, United Kingdom",276
5568161,"92 Queen's Rd, Watford WD17 2LA, United Kingdom",276
5082032,"92 Rickmansworth Rd, Pinner HA5 3TG, United Kingdom",276
4657192,"92 Rouge Bouillon, Saint-Helier JE2 3ZU, Jersey",276
3892488,"92 Station Rd, Romford RM2 6DB, United Kingdom",276
5085726,"92 Wembley Park Dr, Wembley HA9 8HW, United Kingdom",276
3872941,"92 Westbury Rd, New Malden KT3 5AN, United Kingdom",276
3850102,"92 Windermere Ave, Wembley HA9, United Kingdom",276
3882878,"92 Woodcote Rd, Wallington SM6 0NG, United Kingdom",276
5172199,"92, Great Union Rd, St Helier JE2 3WA",276
3882774,"92-100 High St, West Wickham BR4 0NF, United Kingdom",276
3892402,"92-98 Brentwood Rd, Gidea Park RM1 2SA, United Kingdom",276
3896282,"921A Green Ln, Dagenham RM8 1DJ, United Kingdom",276
3894549,"925 Green La, Dagenham RM8 1DJ, United Kingdom",276
5572267,"925 Green Ln, Dagenham RM8 1DJ, United Kingdom",276
3887876,"92A Goodmayes Rd, Ilford IG3 9UU, United Kingdom",276
3888603,"92A Wood Ln, Dagenham RM9 5SL, United Kingdom",276
3855807,"93 - 101 Wood St, Barnet EN5 4BX, United Kingdom",276
3851286,"93 Abercorn Cres, Harrow HA2 0PX, United Kingdom",276
3887040,"93 Albert Rd, Romford RM1 2PS, United Kingdom",276
3893720,"93 Albert Rd, Romford RM1 2PS, United Kingdom",276
3885841,"93 Axe St, Barking IG11 7LZ, United Kingdom",276
3878342,"93 Beddington Ln, Croydon CR0 4TD, United Kingdom",276
3848519,"93 Bridge St, Pinner HA5 3HZ, United Kingdom",276
3893456,"93 Canfield Rd, Woodford Green IG8 8JJ, United Kingdom",276
5667967,"93 Carisbrooke High St, Newport PO30 1NT",276
3863533,"93 Chase Cross Rd, Romford RM5 3RP, United Kingdom",276
3859040,"93 Ealing Rd, Wembley HA0 4BN, United Kingdom",276
3874110,"93 Elm Rd, Kingston upon Thames KT2 6HT, United Kingdom",276
3887175,"93 Erith High St, Erith DA8 1RG, United Kingdom",276
4592517,"93 Fitzwilliam Rd, Rotherham S65 1PS, UK",276
3884702,"93 High Rd, Ilford IG1 1DE, United Kingdom",276
3892906,"93 High Rd, Ilford IG1 1DE, United Kingdom",276
3851656,"93 High St, Teddington TW11 8HG, United Kingdom",276
3851666,"93 High St, Teddington TW11 8HG, United Kingdom",276
3882883,"93 Manor Rd, Wallington SM6 0AT, United Kingdom",276
3894797,"93 Mashiters Walk, Romford RM1 4BP, United Kingdom",276
3889307,"93 Movers Ln, Barking IG11 7UQ, United Kingdom",276
3881098,"93 Orchard Way, Croydon CR0, United Kingdom",276
3883467,"93 Outram Rd, Croydon CR0 6XJ, United Kingdom",276
3880320,"93 Parkway, New Addington, Croydon CR0 0JA, United Kingdom",276
3844017,"93 Potter St, Northwood HA6 1QH, United Kingdom",276
3851110,"93 Riverside Dr, Rickmansworth WD3 1BJ, United Kingdom",276
3799457,"93 Spiders Island, Alderbury, Salisbury SP5 3BE, United Kingdom",276
3852254,"93 Theobalds Park Road, Crews Hill, Enfield EN2 9BP, United Kingdom",276
3849790,"93 Whyte Avenue, Aldershot, Hampshire GU12 4AF, United Kingdom",276
3878686,"93, Airport House, Purley Way, Croydon CR0 0XZ, United Kingdom",276
3848470,"93, Field End Rd, Eastcote HA5 1QG, United Kingdom",276
3882484,"93, The Glades Shopping Centre, Bromley BR1 1DD, United Kingdom",276
3854983,"93-101 Wood St, Barnet EN5 4BX, United Kingdom",276
3860297,"93-101 Wood St, Barnet EN5 4BX, United Kingdom",276
3849853,"93-94 West St, Farnham GU9 7EB, United Kingdom",276
3888127,"93-95 High St, Brentwood CM14 4RR, United Kingdom",276
3849004,"93-95 High St, Rickmansworth WD3 1EF, United Kingdom",276
3877503,"93-97 Clarence St, Kingston upon Thames KT1 1QY, United Kingdom",276
5667020,"93/94 Upper St James Street, Newport PO30 1LB",276
3851727,"935 Harrow Rd, Wembley HA0 2RX, United Kingdom",276
5571208,"93a George St, Croydon CR0 1LD, United Kingdom",276
3887816,"94 Amersham Rd, Romford RM3 9JB, United Kingdom",276
3850369,"94 Bridge Rd, Isleworth TW7 6HE, United Kingdom",276
3845632,"94 Bromley Hill, Bromley BR1 4JU, United Kingdom",276
3857301,"94 Clifford Rd, Barnet EN5 5NY, United Kingdom",276
5571901,"94 Cranbrook Rd, Ilford IG1 4NH, United Kingdom",276
3848490,"94 Field End Rd, Pinner HA5 1RL, United Kingdom",276
3897176,"94 High St, Ilford IG6 2DR, United Kingdom",276
3850760,"94 High St, Ruislip HA4 9AR, United Kingdom",276
5708336,"94 High St, Shanklin PO37 6NS",276
4682051,"94 High St, Shanklin PO37 6NS, UK",276
3877827,"94 High St, Sutton SM1 1LT, United Kingdom",276
5082937,"94 Kingston Hill, Kingston upon Thames KT2 7NP, United Kingdom",276
5570297,"94 Kingston Hill, Kingston upon Thames KT2 7NP, United Kingdom",276
3888514,"94 Old Rd, Dartford DA1 4DZ, United Kingdom",276
3889363,"94 Petersfield Ave, Romford RM3 9PH, United Kingdom",276
3870151,"94 Queensbury Rd, Wembley HA0 1QG, United Kingdom",276
3849753,"94 Scotts Rd, Southall UB2 5DE, United Kingdom",276
3855142,"94 Shenley Rd, Borehamwood WD6 1EB, United Kingdom",276
3884264,"94 St James Way, Sidcup DA14 5HF, United Kingdom",276
5566370,"94 Staines Rd, Hounslow TW3 3LF, United Kingdom",276
5571545,"94 Station Rd, Sidcup DA15 7DU, United Kingdom",276
5567310,"94 Western Ave, Perivale, Greenford UB6 8TE, United Kingdom",276
3888068,"94 Woodbridge Rd, Barking IG11 9BB, United Kingdom",276
3873621,"94, Southside Shopping Centre, Wandsworth SW18 4TG, United Kingdom",276
3849167,"94-102 High St, Rickmansworth WD3 1AQ, United Kingdom",276
3879980,"94-96 Drummond Rd, Croydon CR0 1TX, United Kingdom",276
3871634,"94-96 High St, New Malden KT3 4EX, United Kingdom",276
3846760,"941 Great West Rd, Brentford TW8 9DU, United Kingdom",276
3894012,"941 Green Ln, Dagenham RM8 1DJ, United Kingdom",276
3896039,"941 Green Ln, Dagenham RM8 1DJ, United Kingdom",276
3886639,"943 Green Ln, Dagenham RM8 1DJ, United Kingdom",276
3885662,"945 Longbridge Rd, Dagenham RM8 2BU, United Kingdom",276
3871437,"94A Benhill Rd, Sutton SM1 3RX, United Kingdom",276
3883257,"95 Avenue Rd, Beckenham BR3 4RX, United Kingdom",276
3889061,"95 Bellegrove Rd, Welling DA16 3PG, United Kingdom",276
3852769,"95 Bishop Ken Rd, Harrow HA3 7HP, United Kingdom",276
5571186,"95 Calley Down Cres, New Addington, Croydon CR0 0EQ, United Kingdom",276
3879731,"95 Cherrywood Ln, Morden SM4 4HD, United Kingdom",276
3897222,"95 Cranbrook Rd, Ilford IG1 4PG, United Kingdom",276
3888258,"95 Devon Rd, Barking IG11 7QX, United Kingdom",276
5082942,"95 Gander Green Ln, Sutton SM1 2EP, United Kingdom",276
3877905,"95 George St, Croydon CR9 2NS, United Kingdom",276
3877507,"95 High St, New Malden KT3 4BP, United Kingdom",276
3881829,"95 High St, Orpington BR6 0LF, United Kingdom",276
3880889,"95 High St, Orpington BR6 6BJ, United Kingdom",276
5667394,"95 High St, Sandown PO36 8AQ",276
3883067,"95 High St, West Wickham BR4 0LS, United Kingdom",276
3889773,"95 Ilford Ln, Ilford IG1 2RJ, United Kingdom",276
3850839,"95 Kingsley Rd, Hounslow TW3 4AH, United Kingdom",276
5570944,"95 Kingston Rd, New Malden KT3 3PA, United Kingdom",276
5572344,"95 Movers Ln, Barking IG11 7UQ, United Kingdom",276
3881019,"95 Queensway, Orpington BR5 1DQ, United Kingdom",276
3887671,"95 Rowley Ave, Sidcup DA15 9LF, United Kingdom",276
3844419,"95 Rye Rd, Hoddesdon EN11 0EH, United Kingdom",276
3856910,"95 Silkstream Rd, Edgware HA8 0DD, United Kingdom",276
3889694,"95 South St, Romford RM1 1NX, United Kingdom",276
3872946,"95 St Dunstan's Hill, Sutton SM1 2LW, United Kingdom",276
3869204,"95 Wembley Park Dr, Wembley HA9 8HF, United Kingdom",276
3844493,"95, High St, Twickenham TW2 7LD, United Kingdom",276
3888170,"95-103 Upminster Rd S, Rainham RM13 9AA, United Kingdom",276
4684696,"95-96 High St, Cowes PO31 7AW, UK",276
3852587,"95/97 High Street, Barnet EN5 5UX, United Kingdom",276
3847227,"950 Great West Rd, Brentford TW8 9ES, United Kingdom",276
3884696,"951 Green Ln, Dagenham RM8 1AB, United Kingdom",276
5571973,"951 Romford Rd, Ilford E12 5JR, United Kingdom",276
3852678,"956 Harrow Rd, Wembley HA0 2QA, United Kingdom",276
3843923,"956 Uxbridge Rd, Hayes UB4 0RL, United Kingdom",276
5572189,"958 Eastern Ave, Ilford IG2 7JD, United Kingdom",276
3855914,"95a High St, Wealdstone, Harrow HA3 5DL, United Kingdom",276
3888818,"95A Ilford Ln, Ilford IG1 2RJ, United Kingdom",276
5572337,"96 Bellegrove Rd, Welling DA16 3QD, United Kingdom",276
3878362,"96 Braemar Ave, South Croydon CR2 0QB, United Kingdom",276
3852176,"96 Burnt Oak Broadway, Edgware HA8 0BE, United Kingdom",276
3879988,"96 Drummond Rd, Croydon CR0 1TX, United Kingdom",276
3799693,"96 Fisherton St, Salisbury SP2 7QY, United Kingdom",276
3884489,"96 Foxglove Rd, Rush Green, Romford RM7 0YQ, United Kingdom",276
4684765,"96 High St, Newport PO30 1BQ, UK",276
3849632,"96 High St, Ruislip HA4 8LS, United Kingdom",276
3847737,"96 Horsenden Ln N, Greenford UB6 7QH, United Kingdom",276
3892495,"96 Market Pl, Romford RM1 3ER, United Kingdom",276
5571877,"96 Market Pl, Romford RM1 3ER, United Kingdom",276
5571721,"96 Market Place, Unit 1 Tollgate House, Romford RM1 3ER, United Kingdom",276
3843939,"96 Marvell Avenue, Hayes UB4 0QT, United Kingdom",276
3885878,"96 Merlin Rd, Welling DA16 2JR, United Kingdom",276
3855368,"96 Morley Cres E, Stanmore HA7 2LQ, United Kingdom",276
3844516,"96 New Rd, Feltham TW14 8HT, United Kingdom",276
3852797,"96 Pinner View, Harrow HA1 4RJ, United Kingdom",276
4682701,"96 Pyle St, Newport PO30 1UH, UK",276
3846012,"96 Shenley Rd, Borehamwood WD6 1EB, United Kingdom",276
3846606,"96 Shenley Rd, Borehamwood WD6 1EB, United Kingdom",276
3860031,"96 Shenley Rd, Borehamwood WD6 1EB, United Kingdom",276
4684014,"96 Sherbourne Ave, Ryde PO33 3PW, UK",276
3889692,"96 South St, Romford RM1 1RX, United Kingdom",276
3834511,"96 Staines Rd, Hounslow TW3 3LF, United Kingdom",276
3833204,"96 Stockport Rd E, Bredbury, Stockport SK6 2AA, United Kingdom",276
3857160,"96 The Broadway, West Ealing, Hanwell W13 0SY, United Kingdom",276
3858839,"96 The Broadway, West Ealing, Hanwell W13 0SY, United Kingdom",276
3871652,"96 Tolworth Broadway, Surbiton KT6 7HB, United Kingdom",276
3850782,"96 Wingfield Way, Ruislip HA4 6RQ, United Kingdom",276
3797921,"96, St.Michael's Rd, Bemerton, Salisbury SP2 9LE, United Kingdom",276
3883761,"96-98 High St, Croydon CR0 1ND, United Kingdom",276
3880731,"96-98 High St, Sutton SM1 1LT, United Kingdom",276
3883442,"96-98 N End, Croydon CR0 1UD, United Kingdom",276
3889203,"96/98 High St, Sidcup DA14 6DS, United Kingdom",276
3848447,"960 Uxbridge Rd, Hayes UB4 0RL, United Kingdom",276
3867554,"963 Hertford Rd, Waltham Cross EN8 7RR, United Kingdom",276
3878466,"96A Bromley Hill, Bromley BR1 4JU, United Kingdom",276
5565279,"96A High St, Southall UB1 3DN, United Kingdom",276
3889077,"96c Broadway, Bexleyheath DA6 7DE, United Kingdom",276
3878859,"97 & 101 Gander Green Ln, Sutton SM1 2ES, United Kingdom",276
3881609,"97 Addington Rd, South Croydon CR2 8LG, United Kingdom",276
4547952,"97 Bewick Park, Chester le Street DH2 1XQ, United Kingdom",276
3797337,"97 Brown St, Salisbury SP1 2BA, United Kingdom",276
3884270,"97 Burnt Ash Ln, Bromley BR1 5AB, United Kingdom",276
4656499,"97 Central Market, Halkett Place, St Helier, Jersey JE2 4WL, United Kingdom",276
3887004,"97 Chippenham Rd, Romford RM3 8HL, United Kingdom",276
3888290,"97 Corbets Tey Rd, Upminster RM14 2AH, United Kingdom",276
3843988,"97 Hersham Rd, Walton-on-Thames KT12 1RN, United Kingdom",276
3843773,"97 High Rd, Uxbridge UB10 8LB, United Kingdom",276
4683917,"97 High St, Newport PO30 1BQ, UK",276
5571354,"97 High St, Orpington BR6 0LF, United Kingdom",276
5571427,"97 High St, Sevenoaks TN13 1LH, United Kingdom",276
3860840,"97 High St, Waltham Cross EN8 7AH, United Kingdom",276
5087371,"97 Hitchen Hatch Ln, Sevenoaks TN13 3BE, United Kingdom",276
5087534,"97 Lower Addiscombe Rd, Croydon CR0 6PT, United Kingdom",276
5570313,"97 Maple Rd, Surbiton KT6 4AW, United Kingdom",276
3888590,"97 Movers Ln, Barking IG11 7UQ, United Kingdom",276
5568810,"97 North St, Romford RM1 1EU, United Kingdom",276
3879907,"97 Queensway, Orpington BR5 1SG, United Kingdom",276
3866638,"97 St Mark's Rd, Enfield EN1 1BJ, United Kingdom",276
3843688,"97 Terrace Rd, Walton-on-Thames KT12 2SG, United Kingdom",276
3866183,"97 Wembley Park Dr, Wembley HA9 8HF, United Kingdom",276
3889857,"97 Western Rd, Romford RM1, UK",276
3845946,"97 Western Rd, Southall UB2 5HN, United Kingdom",276
3887980,"97-131 High Rd, Romford RM6 6PB, United Kingdom",276
3896768,"97-131 High Rd, Romford RM6 6PB, United Kingdom",276
3897230,"97-131 High Rd, Romford RM6 6PB, United Kingdom",276
5568334,"97-99 High St, Edgware HA8 7DB, United Kingdom",276
3884490,"97-99 High Street, Welling DA16 1TY, United Kingdom",276
5570721,"97-99 Streatham High Rd, Streatham SW16 1PG, United Kingdom",276
3851532,"971 Great West Trading Estate, Great West Rd, Brentford TW8 9DN, United Kingdom",276
3892869,"976 Eastern Ave, Ilford IG2 7JD, United Kingdom",276
4682815,"98 Adelaide Grove, East Cowes PO32 6DD, UK",276
3887188,"98 Boundary St, Erith DA8 2ER, United Kingdom",276
3878638,"98 Central Rd, Morden SM4 5RJ, United Kingdom",276
3882163,"98 Cherry Orchard Rd, Croydon CR0 6BA, United Kingdom",276
3856924,"98 College Rd, Harrow HA1 1RA, United Kingdom",276
3882271,"98 Crofton La, Orpington BR5 1HD, United Kingdom",276
3857286,"98 E Barnet Rd, Barnet EN4 8RQ, United Kingdom",276
3886689,"98 Erith High St, Erith DA8 1TA, United Kingdom",276
5564231,"98 Field End Rd, Eastcote, Pinner HA5 1RL, United Kingdom",276
4547922,"98 Garden House Estate, Crawcrook, Ryton NE40 4PT, UK",276
3847693,"98 Greenway, Hayes UB4 9HR, United Kingdom",276
3888556,"98 Grovelands Rd, Orpington BR5 3HU, United Kingdom",276
5567010,"98 Heath Rd, Twickenham TW1 4BW, United Kingdom",276
3857810,"98 High St, Edgware HA8 7HF, United Kingdom",276
3846146,"98 High St, Feltham TW13 4EX, United Kingdom",276
3848558,"98 High St, Feltham TW13 4EX, United Kingdom",276
3850544,"98 High St, Feltham TW13 4EX, United Kingdom",276
5569193,"98 Lancaster Rd, Enfield EN2 0BX, United Kingdom",276
5569447,"98 Lancaster Rd, Enfield EN2 0BX, United Kingdom",276
3894294,"98 Manford Way, Chigwell IG7 4DF, United Kingdom",276
3864624,"98 Manford Way, Ilford, Chigwell IG7 4DF, United Kingdom",276
3885903,"98 Plaistow Ln, Bromley BR1 3AS, United Kingdom",276
4682702,"98 Pyle St, Newport PO30 1UH, UK",276
5566455,"98 The Broadway, Tolworth, Surbiton KT6 7HT, United Kingdom",276
5570479,"98 Walton Rd, Molesey, East Molesey KT8 0DL, United Kingdom",276
3894554,"98 Wood La, Dagenham RM9 5SL, United Kingdom",276
3887587,"98-100 Barnehurst Rd, Bexleyheath DA7 6HG, United Kingdom",276
3893914,"98-100 Dagenham Rd, Dagenham, Romford RM7 0TJ, United Kingdom",276
3858838,"98-100 The Broadway, West Ealing W13 0SY, United Kingdom",276
5572364,"980 Eastern Ave, Ilford IG2 7JD, United Kingdom",276
3849865,"980 Great West Rd, Brentford TW8 9GS, United Kingdom",276
3889076,"98A Broadway, Bexleyheath DA6 7DE, United Kingdom",276
3866244,"98A South St, Ponders End, Enfield EN3 4QA, United Kingdom",276
3894282,"99 Albert Rd, Ilford IG1 1HS, United Kingdom",276
3879828,"99 Calley Down Cres, New Addington, Croydon CR0 0EQ, United Kingdom",276
3881505,"99 Chipperfield Rd, Orpington BR5 2QR, United Kingdom",276
5572311,"99 Corbets Tey Rd, Upminster RM14 2AH, United Kingdom",276
3874231,"99 Ewell Rd, Surbiton KT6 6AH, United Kingdom",276
5564567,"99 Field End Rd, Pinner HA5 1QG, United Kingdom",276
3850012,"99 Fordwater Rd, Chertsey KT16 8HH, United Kingdom",276
5571003,"99 George St, Croydon CR0 1LD, United Kingdom",276
5571494,"99 George St, Croydon CR0 1LD, United Kingdom",276
5571605,"99 George St, Croydon CR0 1LD, United Kingdom",276
5570765,"99 George St, Unit 19, Croydon CR0 1LD, United Kingdom",276
3847976,"99 Headstone Ln, Harrow HA2 6JL, United Kingdom",276
3852600,"99 High St, Barnet EN5 5UP, United Kingdom",276
3882795,"99 High St, Beckenham BR3 1AG, United Kingdom",276
3893241,"99 High St, Ilford IG6 2AH, United Kingdom",276
3860962,"99 Lancaster Rd, Enfield EN2 0JN, United Kingdom",276
5569144,"99 Longbridge Rd, Barking IG11 8TB, United Kingdom",276
3850240,"99 Myrtle Rd, Hounslow TW3, United Kingdom",276
4520747,"99 Rothley Rd, Mountsorrel, Loughborough LE12 7JT, UK",276
5171788,"99 St John's Rd, Newport PO30 1LS, United Kingdom",276
3847420,"99 W End Ln, Pinner HA5 3PL, United Kingdom",276
3847258,"99 Waldegrave Rd, Twickenham TW1 4SU, United Kingdom",276
3888970,"99 Western Rd, Romford RM1 3LS, United Kingdom",276
3848563,"99 Whitton Rd, Hounslow TW3 2EW, United Kingdom",276
3848582,"99 Whitton Rd, Twickenham TW1 1BZ, United Kingdom",276
3883064,"99-101 High St, Orpington BR6 0LG, United Kingdom",276
5571383,"99-101 Main Rd, Sidcup DA14 6ND, United Kingdom",276
3847234,"99-107 High St, Teddington TW11 8HG, United Kingdom",276
3886202,"99-107 Parsonage Manorway, Erith, Belvedere DA17 6LZ, United Kingdom",276
5571727,"992-994 Eastern Ave, Ilford IG2 7JD, United Kingdom",276
5566004,"996 Uxbridge Rd, Hayes UB4 0RL, United Kingdom",276
3886970,"99A Blendon Rd, Bexley DA5 1BP, United Kingdom",276
5568084,"9A Darkes Ln, Potters Bar EN6 1AZ, United Kingdom",276
4683180,"9A High St, Wootton Bridge, Ryde PO33 4PF, UK",276
3883951,"9a Purley Rd, Purley CR8 2HA, United Kingdom",276
3845382,"9AP, M25, Egham TW20, United Kingdom",276
3847798,"9AU KT8, United Kingdom",276
3888234,"9B Abbey Rd, Belvedere DA17 5DF, United Kingdom",276
3883669,"9B High St, Ewell, Epsom KT17 1SG, United Kingdom",276
5569374,"9B Market Square, Waltham Abbey EN9 1DP, United Kingdom",276
3846140,"9B, Set Star Trading Estate, Transport Ave, Brentford TW8 9HF, United Kingdom",276
3834341,"9bn, 215 Springwell Rd, Hounslow TW5 9BN, United Kingdom",276
3847745,"9BU, Barnhill Rd, Wembley HA9, United Kingdom",276
3856380,"9d, Deansbrook Rd, Edgware HA8 9BE, United Kingdom",276
3850005,"9DR, Great West Rd, Brentford TW8, United Kingdom",276
3887461,"9hf, 55 Penerley Rd, Rainham RM13 9HF, United Kingdom",276
3844316,"9JS, Holloway Farm, Harmondsworth Rd, Harmondsworth, West Drayton UB7, United Kingdom",276
3797811,"9NU, Bulford Rd, Bulford Camp, Salisbury SP4, United Kingdom",276
3851999,"9PS, First Ave, Watford WD25, United Kingdom",276
4683303,"9PS, Perowne Way, Sandown PO36 9BX, United Kingdom",276
3846690,"9QN, Cokes Ln, Little Chalfont, Amersham HP7, United Kingdom",276
3879998,"9Round Croydon Unit 2A, Saffron Central Square, Croydon CR0 2FT, Croydon CR0 2FT, United Kingdom",276
4447747,"9ss, 205 Shore Rd, Newtownabbey BT37 9SS, United Kingdom",276
5571726,"9UH, 7-13 Goodmayes Rd, Ilford IG3, United Kingdom",276
3878846,"9YB, School House, Tithepit Shaw Ln, Warlingham CR6 9AP, United Kingdom",276
3886482,"9YZ, Bridge Rd, Rainham RM13, United Kingdom",276
5572280,"a, 16 Western Rd, Romford RM1 3LD, United Kingdom",276
3832088,"A, 3 Market St, Ashton-under-Lyne OL6 6ER, United Kingdom",276
3879576,"A, 66 Purley Way, Croydon CR0 3JP, United Kingdom",276
3858961,"A, Friern Bridge Retail Park, Pegasus Way, Friern Barnet N11 3PW, United Kingdom",276
3855216,"A1 Golf Activity Centre, Rowley Lane, Arkley EN5 3HW, United Kingdom",276
3848352,"A1 Golf Driving Range, Rowley Ln, Barnet EN5 3HW, United Kingdom",276
3886650,"A1 Sutton Business Park, Rainham RM13 8DE, United Kingdom",276
4656896,"A1, JE3 8AA, Jersey",276
4657313,"A1, JE3 8AA, Jersey",276
4657319,"A1, JE3 8AA, Jersey",276
4656120,"A1, St Helier JE2 3QA, Jersey",276
3888911,"A1023, Brentwood CM14, United Kingdom",276
3889894,"A1025, Harlow CM20 1, United Kingdom",276
3888153,"A12, Romford RM7 7JJ, United Kingdom",276
5089446,"A127, East Horndon, Brentwood CM13 3LL, United Kingdom",276
3867049,"A127, West Horndon, Brentwood CM13 3EH, United Kingdom",276
4656302,"A13, Jersey",276
3893427,"A1306 Arterial Road, Purfleet RM19 1AE, United Kingdom",276
3858735,"A1306, Arterial Rd, Purfleet RM19 1AE, United Kingdom",276
5041875,"A14 Westbound, Huntingdon Rd, Lolworth CB23 8DR, United Kingdom",276
5621513,"A194 Whitemare Pool, Gateshead NE10 8YB",276
4657342,"A2 Maison Victor Hugo, Greve d&#39;Azette, St Clement JE2 6PW, Jersey",276
5172172,"A2, JE2 3LN, Jersey",276
3845188,"A2-19, Vista buisinessCentre, 50 Salisbury Rd, Hounslow TW4 6JQ, United Kingdom",276
3886561,"A20 Swanley By-Pass, Sidcup DA14 5JA, United Kingdom",276
5571242,"A20, Swanley Service Area, Sidcup DA14 5JA, United Kingdom",276
3885757,"A207, Welling DA16 1SY, United Kingdom",276
3873840,"A217, Mitcham CR4 3NN, United Kingdom",276
3883164,"A217, Morden SM4 6AN, United Kingdom",276
3880008,"A217, Sutton SM1, United Kingdom",276
3880407,"A22, Crockstead Lodge, Eastbourne Rd, Halland BN8 6PT, United Kingdom",276
3881348,"A232, Sutton SM1, United Kingdom",276
5082318,"A24 Epsom Rd, Morden SM4 5PH, United Kingdom",276
3871946,"A245, Woking GU21 4HQ, United Kingdom",276
3883345,"A25, Bletchingley, Redhill RH1 4PB, United Kingdom",276
3863127,"A27, Hove BN3 8EX, United Kingdom",276
3848201,"A281, Albourne, Henfield BN6 9EA, United Kingdom",276
3798244,"A303, Hindon, Salisbury SP3 5ST, United Kingdom",276
3797874,"A303, Salisbury SP3 4NQ, United Kingdom",276
3797446,"A303, Salisbury SP4 7AS, United Kingdom",276
3850479,"A3044, West Drayton UB7 0EF, United Kingdom",276
4683355,"A3055, Ventnor PO38, UK",276
4683258,"A3056, Arreton, Newport PO30 3AA, UK",276
5668367,"A3056, Hale Common, Sandown PO30 3AR",276
3798756,"A338, Cholderton, Salisbury SP4 0DW, United Kingdom",276
3798172,"A338, Salisbury SP4, United Kingdom",276
3798751,"A338, Salisbury SP4, United Kingdom",276
3799160,"A338, Salisbury SP4, United Kingdom",276
3798231,"A345, Salisbury SP4 6AT, United Kingdom",276
3798242,"A36, Landford, Salisbury SP5 2BB, United Kingdom",276
3798593,"A360, Salisbury SP4 7DE, United Kingdom",276
4656624,"A4, Jersey",276
4656848,"A4, Jersey",276
5081979,"A4089, Wembley HA9 7EE, United Kingdom",276
3848067,"A41, Watford WD25 8JH, United Kingdom",276
3844822,"A44, Evesham WR11 4YB, United Kingdom",276
3834109,"A57, Salford M5, United Kingdom",276
4451222,"A585, Breck Rd, Poulton-le-Fylde FY6 7AA, United Kingdom",276
4656272,"A8, JE3 5HQ, Jersey",276
4657100,"A8, Jersey",276
5710016,"A9, JE3 4BH",276
4656297,"A9, La Rue de la Mare Ballam, Jersey JE3 4EJ, United Kingdom",276
3882286,"Abacus House, 70-72 Bexley High St, Bexley DA5 1AJ, United Kingdom",276
3806423,"Abbey Craig, Hillfoots Rd, Stirling FK9 5LF, United Kingdom",276
3887938,"Abbey House, 30 Angel Hill, Bury Saint Edmunds IP33 1LS, United Kingdom",276
3851252,"Abbey Lake, Chertsey, United Kingdom",276
5083298,"Abbey Lodge Pick Hill Waltham Abbey, Waltham Abbey, United Kingdom",276
3886442,"Abbey Rd, Barking IG11 8DD, United Kingdom",276
3863685,"Abbey Rd, Enfield EN1 2QP, United Kingdom",276
3864611,"Abbey Sports Centre, Axe St, Barking IG11 7LX, United Kingdom",276
3852272,"Abbey View Retail Park, Griffiths Way, St Albans AL1 2RJ, United Kingdom",276
3860502,"Abbey View, Waltham Abbey EN9 1RD, United Kingdom",276
5571785,"Abbey Wood SE2 9NU, United Kingdom",276
3864302,"Abbey Works, Lockfield Ave, Enfield EN3 7PY, United Kingdom",276
3855317,"Abbeyview, Waltham Abbey EN9 1XQ, United Kingdom",276
3888993,"Abbi Newsagents, 37 Leith Hill, Orpington BR5 2RS, United Kingdom",276
3860079,"Abbotts Hall Farm, Maldon Rd, Great Wigborough, Colchester CO5 7RZ, United Kingdom",276
3896492,"Abbotts Road, Mitcham CR4 1JP, United Kingdom",276
3857715,"Abercorn Road, Stanmore, Harrow HA7 2PJ, United Kingdom",276
4477966,"Abertridwr, Caerphilly CF83 4DG, United Kingdom",276
4635885,"Abington, PA 19001, USA",276
3799187,"Ablington, Salisbury SP4 8JX, United Kingdom",276
3864222,"Abridge Road, Chigwell, Essex IG7 6BX, United Kingdom",276
3865937,"Abridge, Romford RM4 1AA, United Kingdom",276
4682474,"Acacia Cl, Newport PO30 5FQ, UK",276
3897734,"Acacia Rd, Mitcham CR4 1SF, United Kingdom",276
3883834,"Academy House, Baston Road, Hayes, Bromley BR2 7BS, United Kingdom",276
3886762,"Access House, Cray Ave, Orpington BR5 3QB, United Kingdom",276
3889736,"Acorn Industrial Estate, Crayford Rd, Dartford DA1 4AL, United Kingdom",276
3889758,"Acorn Industrial Estate, Crayford Way, Dartford DA1 4AL, United Kingdom",276
3878765,"Acts House, 30 Union Rd, Croydon CR0 2XU, United Kingdom",276
3882492,"Addington Rd, sanderstead CR2 8RB, United Kingdom",276
3880625,"Addington Rd, South Croydon CR2 8LA, United Kingdom",276
5086740,"Addington Rd, South Croydon, United Kingdom",276
3881751,"Addington Village Rd, Croydon CR0 5AQ, United Kingdom",276
3880143,"Addington Village Rd, Croydon CR0 5AS, United Kingdom",276
3883260,"Admin Office/21 Benhurst Gdns, South Croydon CR2 8NT, United Kingdom",276
4656109,"Admiral Park, St Peter Port, Guernsey GY12AL, United Kingdom",276
4657321,"Admiral Park, St. Peter Port GY1 2AL, Guernsey",276
3851115,"Adventure Golf, Watford By-Pass, Edgware HA8 8DD, United Kingdom",276
4682952,"Ae Village, Parkgate, Dumfries DG1 1QB, UK",276
3866576,"Africa House, Mill Tye, Great Cornard, Sudbury CO10 0GW, United Kingdom",276
5172121,"Afton Bank Cottage, Manor Rd, Freshwater PO40 9UB",276
