5477684,"Merewent, Bluff, South Africa",273
5484115,"JE Irausquin Blvd, Aruba",273
5484850,"JE Irausquin Boulevard 348, Aruba",273
5485979,"JE Irausquin Blvd 382, Palm Beach, Aruba",273
5486961,"Shop FF2 Fast-Food Block, Parkview Shopping Centre, Cnr Garsfontein & Netcare Road, Moreletapark, 0044, South Africa",273
