3877804,"1EH, George St, Croydon CR0, United Kingdom",276
3887085,"1LG, 152 Clements Rd, Ilford IG1, United Kingdom",276
4547314,"1NB, Newcastle Rd, Sunderland SR5, United Kingdom",276
5570060,"1st Floor, 14 Neal's Yard, Covent Garden WC2H 9DP, United Kingdom",276
3846226,"1st Floor, 20-28 Broad Street, Teddington, Middlesex TW11 8QZ, United Kingdom",276
4657052,"1st Floor, 3 Charing Cross, St Helier JE2 3RP, United Kingdom",276
3888749,"1st Floor, 41 Romford Market Place, Romford RM1 3AB, United Kingdom",276
4657055,"1st floor, 5 Charing Cross, St Helier JE2 3RP, Jersey",276
3859897,"1st Floor, Brent House, Harrow HA3 8BT, United Kingdom",276
3884756,"1st Floor, Deepedene House, 30b Bellegrove Rd, Welling DA16 3PY, United Kingdom",276
5568062,"1st Floor, Eurotraveller Hotel, 56-60 Northolt Rd, Harrow HA2 0DW, United Kingdom",276
3846380,"1st Floor, Monument House, 215 Marsh Rd, Pinner HA5 5NE, United Kingdom",276
3894990,"1st Floor, Unit 6 Leyton Mills Retail Park, Marshall Road, Leyton E10 5NH, United Kingdom",276
3857937,"1st Floor/Care Of Debenhams/Station Rd, Harrow HA1 1NA, United Kingdom",276
3871440,"1st, Herald House, 17 Throwley Way, Sutton SM1 4AF, United Kingdom",276
3884723,"1TJ, 44 North Rd, Purfleet RM19, United Kingdom",276
3849878,"1TY, Steadfast Rd, Kingston upon Thames KT1, United Kingdom",276
3877547,"1YH, 20 St George's Walk, Croydon CR0, United Kingdom",276
4683063,"1YL, Down Ln, Wroxall, Ventnor PO38, United Kingdom",276
3880767,"2 - 14, St Nicholas Centre, St Nicholas Way, Sutton SM1 1AX, United Kingdom",276
3882699,"2 - 4 Park St, Croydon CR0 1YE, United Kingdom",276
3874505,"2 Acre Rd, Kingston upon Thames KT2 6EF, United Kingdom",276
3860629,"2 Allum Ln, Elstree, Borehamwood WD6 3PJ, United Kingdom",276
3892608,"2 Alyson Villas, Vincent Close, Essex, Ilford IG6 2FE, United Kingdom",276
3878327,"2 Ampere Way, Croydon CR0 4WT, United Kingdom",276
4683845,"2 Ampthill Rd, Ryde PO33 1LJ, UK",276
5570914,"2 And 4 St Margarets Drive, Off Dorking Road, Epsom KT18 7LB, United Kingdom",276
3887171,"2 Ashgrove Rd, Ilford IG3 9XE, United Kingdom",276
4683333,"2 Avenue Rd, Sandown PO36 8BW, UK",276
4656636,"2 Bagot Manor Court, Fountain Lane, St Saviour, Jersey JE2 7RJ, United Kingdom",276
4657076,"2 Bank Place, Charing Cross, St Aubin, Jersey JE3 8AA, United Kingdom",276
4682680,"2 Barn Cl, Seven Sisters Rd, Ventnor PO38 1UZ, UK",276
3869205,"2 Barn Hill, Wembley HA9 9JU, United Kingdom",276
3860986,"2 Barnes Rd, Ilford IG1 2XE, United Kingdom",276
3877473,"2 Barton Green, New Malden KT3 3HU, United Kingdom",276
4656584,"2 Beach Crescent, Jersey JE2 7QJ, United Kingdom",276
3797928,"2 Beatrice Rd, Salisbury SP1 3PN, United Kingdom",276
5565690,"2 Bedfont Ln, Feltham TW13 4AE, United Kingdom",276
3851122,"2 bedford house, west ealing W13 0SS, United Kingdom",276
3874183,"2 Bell Rd, Hounslow TW3 3NN, United Kingdom",276
3849070,"2 Belvue Rd, Northolt UB5 5HW, United Kingdom",276
5081962,"2 Berry Grove Ln, Bushey, Watford WD25 8HN, United Kingdom",276
5572286,"2 Bexley High St, Bexley DA5 1AD, United Kingdom",276
3855082,"2 Blackbird Hill, Wembley NW9 8SD, United Kingdom",276
5091505,"2 Bloom St, Salford M3 6AJ, United Kingdom",276
3849439,"2 Bourne Circus, Hayes UB3 1PS, United Kingdom",276
3798529,"2 Bourne View, Allington, Salisbury SP4 0AA, United Kingdom",276
3883241,"2 Bradbourne Park Rd, Sevenoaks TN13 3LJ, United Kingdom",276
5083325,"2 Bradgate Cl, Cuffley, Potters Bar EN6 4RF, United Kingdom",276
3844177,"2 Bridge St, Pinner HA5 3JE, United Kingdom",276
3865215,"2 Britannia Rd, Waltham Cross EN8 7NZ, United Kingdom",276
3887589,"2 Broadway, Bexleyheath DA6 7LE, United Kingdom",276
4682987,"2 Broadway, Sandown PO36 9EB, UK",276
3878888,"2 Bromley Rd, Beckenham BR3 5JE, United Kingdom",276
4682851,"2 Brookside Rd, Freshwater PO40 9AN, UK",276
3844501,"2 Bucknills Cl, Epsom KT18 7NY, United Kingdom",276
3880514,"2 Bullalley High street, Welling DA16 1TR, United Kingdom",276
5082085,"2 Bulstrode Rd, Hounslow TW3 3AT, United Kingdom",276
3850528,"2 Burns Way, Cranford Roundabout, Hounslow TW5 9BA, United Kingdom",276
3834403,"2 Burns Way, Hounslow TW5 9BA, United Kingdom",276
5564221,"2 Bury Street, The Duck House,High Street, Ruislip HA4 7AR, United Kingdom",276
3884681,"2 Capel Gardens, Ilford IG3 9DH, United Kingdom",276
3856083,"2 Carlton Ave E, Wembley HA9 8PL, United Kingdom",276
5667216,"2 Castle St, Ryde PO33 2EP",276
3855768,"2 Cat Hill, Barnet EN4 8JB, United Kingdom",276
4520221,"2 Central Ave, Wigston LE18 2AA, UK",276
3884635,"2 Chatterton Rd, Bromley Common, Bromley BR2 9QN, United Kingdom",276
5568603,"2 Chequer St, St Albans AL1 3XZ, United Kingdom",276
3894606,"2 Cherry St, Romford RM7 7LL, United Kingdom",276
3883142,"2 Chichillie Road, Oxted RH8 0AG, United Kingdom",276
3887787,"2 Choats Rd, Barking, Dagenham RM9 6RJ, United Kingdom",276
4684556,"2 Clarence Rd, East Cowes PO32 6EP, UK",276
5172096,"2 Clatterford Rd, Newport PO30 1PA",276
5571999,"2 Clements Rd, Ilford IG1 1BP, United Kingdom",276
3886642,"2 Clydesdale Way, Belvedere DA17 6FD, United Kingdom",276
3887836,"2 Colebrook St, Erith DA8 1RF, United Kingdom",276
5564925,"2 College Rd, Harrow HA1 1BE, United Kingdom",276
3874361,"2 Cookes Ln, Sutton SM3 8QG, United Kingdom",276
3846523,"2 Cornwall Rd, Pinner HA5 4JX, United Kingdom",276
4657018,"2 Courtyard Cottages, Broadlands Princes Tower Road, JE3 9HQ, Jersey",276
3894272,"2 Cranley Rd, Ilford IG2 6AG, United Kingdom",276
3889013,"2 Cray Ave, Orpington BR5 3PU, United Kingdom",276
4684783,"2 Cross St, Cowes PO31 7TE Cross St, Cowes PO31 7TE, UK",276
3834419,"2 Crosslands Ave, Hounslow, Southall UB2 5RB, United Kingdom",276
4684681,"2 Denmark Rd, Cowes PO31 7SY, UK",276
3832171,"2 Dial Rd, Hale Barns, Altrincham WA15 8SR, United Kingdom",276
3886696,"2 Diana Cl, Sidcup DA14 4PZ, United Kingdom",276
3849082,"2 Ditton Rd, Surbiton KT6 6QZ, United Kingdom",276
4657022,"2 dorset, St Helier JE2 3YH, Jersey",276
3879738,"2 Doveton Rd, South Croydon CR2 7DH, United Kingdom",276
3851721,"2 Ealing Rd, Wembley HA0 4TL, United Kingdom",276
3881566,"2 Eden Park Ave, Beckenham BR3 3HN, United Kingdom",276
5081977,"2 Elm Cl, Hayes UB3 2JN, United Kingdom",276
3852800,"2 Elm Park Rd, Pinner HA5 3LA, United Kingdom",276
4519891,"2 Elmdale St, Belgrave LE4 5JA, UK",276
3865315,"2 Elmwood Rd, Croydon CR0 2SG, United Kingdom",276
5569015,"2 Enfield Rd, Enfield EN2 7QS, United Kingdom",276
5707566,"2 Esplanade, Ryde PO33 2DY",276
3879928,"2 Everard Ave, Bromley BR2 7LR, United Kingdom",276
3878575,"2 Fairford Court, Grange Road, Sutton SM2 6RY, United Kingdom",276
3893927,"2 Faringdon Ave, Romford RM3 8SG, United Kingdom",276
3871446,"2 Farm Cottages, Coulsdon CR5 2QQ, United Kingdom",276
3886887,"2 Farr Ave, Barking IG11 0NZ, United Kingdom",276
3893199,"2 Fernlea Rd, Mitcham CR4 2HE, United Kingdom",276
3799014,"2 Fitzgibbon Square, Larkhill, Salisbury SP4 8PN, United Kingdom",276
3865906,"2 Flamstead End Rd, Cheshunt, Waltham Cross EN8 0HH, United Kingdom",276
3889299,"2 Flimwell, Ashford TN23 5LF, United Kingdom",276
5083104,"2 Forum House, Empire Way, Wembley HA9 0AB, United Kingdom",276
3856084,"2 Gerard Rd, Harrow HA1 2ND, United Kingdom",276
3851557,"2 Glanville Mews, Stanmore HA7 4FW, United Kingdom",276
3847466,"2 Gold Hill W, Chalfont St Peter, Gerrards Cross SL9, United Kingdom",276
5091605,"2 Gore St, Salford M3 5FP, United Kingdom",276
3866167,"2 Grange Ave, Woodford, Woodford Green IG8 9JT, United Kingdom",276
4684903,"2 Granville Rd, Totland Bay PO39 0AX, UK",276
3887986,"2 Green Ln, Ilford IG3 9RT, United Kingdom",276
3888384,"2 Green Walk, Woodford, Woodford Green IG8 8EF, United Kingdom",276
5627123,"2 Guildhall St, Thetford IP24 2DT",276
3888039,"2 Hall Ln, Upminster RM14 1AE, United Kingdom",276
5570837,"2 Hanger Hill, Weybridge KT13 9XR, United Kingdom",276
5083099,"2 Hapgood Cl, Greenford UB6 0SY, United Kingdom",276
3889178,"2 Hare Hall La, Romford RM2 6BD, United Kingdom",276
3867662,"2 Hartham Ln, Hertford SG14 1QR, United Kingdom",276
5089312,"2 Havering Rd, Romford RM1 4QU, United Kingdom",276
3878879,"2 Hawksbrook Ln, Beckenham BR3 3SR, United Kingdom",276
3882173,"2 Hayne Rd, Beckenham BR3 4HY, United Kingdom",276
5571007,"2 Heathfield Rd, Keston BR2 6BQ, United Kingdom",276
5081952,"2 Hercies Rd, Uxbridge UB10 9NA, United Kingdom",276
3844349,"2 Heronslea, Watford WD25 9PN, United Kingdom",276
3897224,"2 High Rd, Dagenham, Romford RM6 4AU, United Kingdom",276
3878634,"2 High St, Carshalton SM5 3PE, United Kingdom",276
3850556,"2 High St, Feltham TW13 4HE, United Kingdom",276
3895500,"2 High St, Ilford IG6 2DD, United Kingdom",276
3839478,"2 High St, Loanhead EH20 9RA, United Kingdom",276
3871625,"2 High St, New Malden KT3 4HF, United Kingdom",276
5086958,"2 High St, Reigate, United Kingdom",276
3895521,"2 High St, Romford RM1 1HR, United Kingdom",276
3880686,"2 High St, Swanley BR8 8BE, United Kingdom",276
3849740,"2 High St, Uxbridge UB8 2EB, United Kingdom",276
3798761,"2 High St, Winterbourne Stoke, Salisbury SP3 4SZ, United Kingdom",276
3846249,"2 High Street, Yiewsley, West Drayton UB7 7DH, United Kingdom",276
3860062,"2 Highbury Gardens, Ilford IG3 8AA, United Kingdom",276
4657252,"2 Highfield farm Cottages, Route du Francfief, St. Brelade JE3 8BG, United Kingdom",276
5570342,"2 Hill Rd, Sutton SM1 1DZ, United Kingdom",276
3888512,"2 Hoddesdon Rd, Belvedere DA17 5JA, United Kingdom",276
3799470,"2 Horne Rd, Bulford Camp, Salisbury SP4 9AE, United Kingdom",276
5566431,"2 Hounslow Rd, Twickenham TW2 7EX, United Kingdom",276
5564089,"2 Ickenham Rd, Ruislip HA4 7BX, United Kingdom",276
3888160,"2 Irons Way, Romford RM5 3RJ, United Kingdom",276
3887608,"2 Jenkins Ln, Barking IG11 0AD, United Kingdom",276
3845828,"2 Jubilee Gardens, Southall UB1 2TJ, United Kingdom",276
3877733,"2 Katharine St, Croydon CR0 1NX, United Kingdom",276
3863790,"2 Kenley Cl, Barnet EN4 9QJ, United Kingdom",276
3883707,"2 Keston Park, Mark Cl, Orpington, Keston BR2 6EX, United Kingdom",276
3851018,"2 Kneller Rd, Twickenham TW2 7DN, United Kingdom",276
3878797,"2 Knowle Cl, Copthorne, Crawley RH10 3LR, United Kingdom",276
3850179,"2 Lady Margaret Rd, Southall UB1 2RA, United Kingdom",276
4684070,"2 Landguard Rd, Shanklin PO37 7JU, UK",276
3878601,"2 Lansdowne Rd, Croydon CR9 2ER, United Kingdom",276
4684239,"2 Lanyards Lea, Cowes PO31 7UW, UK",276
3858624,"2 Leeming Rd, Borehamwood WD6 4DU, United Kingdom",276
3885528,"2 Leyhill Cl, Swanley BR8 8DW, United Kingdom",276
3880816,"2 Linden Leas, West Wickham BR4 0SE, United Kingdom",276
5087543,"2 Linton Rd, Barking IG11 8HG, United Kingdom",276
5571668,"2 Lion Rd, Bexleyheath DA6 8NR, United Kingdom",276
3868269,"2 Little Pluckett's Way, Buckhurst Hill IG9 5QU, United Kingdom",276
3843779,"2 Long Dr, Ruislip HA4 0HG, United Kingdom",276
3846388,"2 Love Ln, Pinner HA5 3EG, United Kingdom",276
3887134,"2 Maidstone Rd, Sidcup DA14 5HZ, United Kingdom",276
3857561,"2 Manor Cl, Barnet EN5 4BP, United Kingdom",276
3883080,"2 Mansfield Rd, South Croydon CR2 6HN, United Kingdom",276
3881353,"2 Marlpit Ln, Coulsdon CR5 2HA, United Kingdom",276
3881730,"2 Marshall's Rd, Sutton SM1 4DU, United Kingdom",276
4683109,"2 Martin House, Wheatsheaf Lane, Yarmouth PO41 0PF, United Kingdom",276
5568088,"2 Maxwell Rd, Borehamwood WD6 1JN, United Kingdom",276
3864975,"2 Maynard Pl, Cuffley, Potters Bar EN6 4JA, United Kingdom",276
3885675,"2 Mead Grove, Romford RM6 5PU, United Kingdom",276
3799115,"2 Mears Rd, Larkhill, Salisbury SP4 8NB, United Kingdom",276
3847974,"2 Merle Ave, Harefield, Uxbridge UB9 6DG, United Kingdom",276
3888082,"2 Mill Corner, Roydon, Harlow CM19 5EJ, United Kingdom",276
3860595,"2 Mimram Rd, Hertford SG14 1NN, United Kingdom",276
5571568,"2 Mint Walk, Croydon CR0 1EA, United Kingdom",276
4684610,"2 Moa Pl, Freshwater PO40 9DS, UK",276
3882565,"2 Morewood Cl, Sevenoaks TN13 2HU, United Kingdom",276
3852560,"2 Mountside, Stanmore HA7 2DT, United Kingdom",276
3847618,"2 Murray Rd, Northwood HA6 2YN, United Kingdom",276
3864994,"2 Mutton Ln, Potters Bar EN6 2PA, United Kingdom",276
3880760,"2 N End, Croydon CR9 1SB, United Kingdom",276
3881407,"2 N End, Croydon, United Kingdom",276
3844196,"2 Neal Cl, Northwood HA6 1TH, United Kingdom",276
3846957,"2 New Broadway, Uxbridge UB10 0LH, United Kingdom",276
4684632,"2 New Rd, Brading, Sandown PO36 0DT, UK",276
5087414,"2 New Rd, Dagenham RM10 9NH, United Kingdom",276
3887606,"2 New Rd, Dagenham RM9 6YS, United Kingdom",276
3882272,"2 Nightingale Cl, Biggin Hill, Westerham TN16 3LW, United Kingdom",276
3877561,"2 Nonsuch Place, Cheam SM3 8AH, United Kingdom",276
3889965,"2 Northbrook Rd, Ilford IG1 3BS, United Kingdom",276
3850553,"2 Nursery Cl, Feltham TW14 9BE, United Kingdom",276
3866342,"2 Nuxley Rd, Belvedere DA17 5JF, United Kingdom",276
3879597,"2 Oak Rd, Orpington BR6 6BB, United Kingdom",276
3846966,"2 Old Orchard Cl, Uxbridge UB8 3LH, United Kingdom",276
3896277,"2 Painters Rd, Ilford IG2 7TF, United Kingdom",276
3885711,"2 Parsonage La, Sidcup DA14 5HD, United Kingdom",276
3882843,"2 Pegasus Rd, Croydon CR0 4RN, United Kingdom",276
3845059,"2 Pentelow Gardens, Feltham TW14 9EE, United Kingdom",276
5668365,"2 Pier St, Ventnor PO38 1ST",276
3882638,"2 Pilgrim Mews, Reigate RH2 8AH, United Kingdom",276
3889834,"2 Pinewood Rd, Havering-atte-Bower, Romford RM4 1PH, United Kingdom",276
3844418,"2 Pixmore Ave, Letchworth Garden City SG6 1JS, United Kingdom",276
3845631,"2 Pixmore Ave, Letchworth Garden City SG6 1JS, United Kingdom",276
3844724,"2 Point West Building, Packet Boat Lane, Cowley, Uxbridge UB8 2JP, United Kingdom",276
3799217,"2 Portway, Old Sarum, Salisbury SP4 6DX, United Kingdom",276
3878251,"2 Purley Way, Croydon CR0 3JP, United Kingdom",276
5570975,"2 Purley Way, High St, Purley CR8 2AB, United Kingdom",276
3799687,"2 Queen St, Salisbury SP1 1EY, United Kingdom",276
4657196,"2 Queen's Rd, JE2 3PT, Jersey",276
5086953,"2 Redstone Hill, Redhill RH1 4BL, United Kingdom",276
3852507,"2 Reservoir Rd, Ruislip HA4 7TU, United Kingdom",276
4683849,"2 Reynolds Cl, Cowes PO31 7NT, UK",276
3888867,"2 Ripple Rd, Barking IG11 7NF, United Kingdom",276
5566727,"2 Riverside Walk, Kingston upon Thames KT1 1QN, United Kingdom",276
3882623,"2 Robert St, Croydon CR0 1QQ, United Kingdom",276
3894752,"2 Roding Ln S, Ilford IG4 5NX, United Kingdom",276
3889166,"2 Rom Cres, Romford RM7 0PL, United Kingdom",276
3878018,"2 Rose Hill, Sutton SM1 3EU, United Kingdom",276
3797409,"2 Salisbury Rd, Wilton, Salisbury SP2 7SU, United Kingdom",276
3883780,"2 Sanderstead Hill, South Croydon CR2 0HA, United Kingdom",276
4682637,"2 Sandown Business Cntrcoll Cl, Sandown PO36 8EB, UK",276
4683735,"2 Sandown Rd, Sandown PO36 9JP, UK",276
5668370,"2 Sandy Point Rd, Hayling Island PO11 9RP",276
4657251,"2 Sandybrook La, JE3 1LJ, Jersey",276
5569270,"2 Sarnesfield Rd, Enfield EN2 6AS, United Kingdom",276
3843786,"2 Shaftesbury Cir, Harrow HA2 0AJ, United Kingdom",276
3851217,"2 Shrewsbury Walk, Isleworth TW7 7DE, United Kingdom",276
3880426,"2 Sidcup Hill, Sidcup, Bexley DA14 6HH, United Kingdom",276
3877798,"2 Sidney Rd, Beckenham BR3 4QA, United Kingdom",276
3880577,"2 Simms Cl, Carshalton SM5 2SJ, United Kingdom",276
3844537,"2 Smaldon Cl, West Drayton UB7 9EH, United Kingdom",276
5571365,"2 Southend Rd, Beckenham BR3 1SD, United Kingdom",276
3882626,"2 Southlands Rd, Bromley BR2 9QP, United Kingdom",276
5171897,"2 Springvale Rd, Seaview PO34 5AW",276
4683941,"2 St Andrew's Ln, Dundee DD1, UK",276
3881277,"2 St Dunstan's Hill, Sutton SM1 2UE, United Kingdom",276
4683744,"2 St John's Rd, Sandown PO36 8ER, UK",276
3888366,"2 St Thomas Rd, Belvedere DA17 6AG, United Kingdom",276
5668491,"2 St Thomas' Square, Ryde PO33 2LS",276
3877720,"2 Stafford Rd, Wallington SM6 9AA, United Kingdom",276
3882872,"2 Stafford Rd, Wallington SM6 9AA, United Kingdom",276
3883083,"2 Stafford Rd, Wallington SM6 9AA, United Kingdom",276
5571276,"2 Stafford Rd, Wallington SM6 9AJ, United Kingdom",276
3848170,"2 Staines Rd, Hounslow TW3 3JS, United Kingdom",276
3849590,"2 Staines Rd, Hounslow TW3 3JS, United Kingdom",276
3844412,"2 Stanhope Rd, Camberley GU15 3DW, United Kingdom",276
4684363,"2 Star St, Ryde PO33 2HX, UK",276
3848339,"2 Station Rd, Harrow HA1 2TU, United Kingdom",276
3846251,"2 Station Rd, Hayes UB3 4BY, United Kingdom",276
5566516,"2 Station Rd, Teddington TW11 8EW, United Kingdom",276
5666453,"2 Station Rd, Wootton Bridge, Ryde PO33 4QU",276
4683784,"2 Station Rd, Yarmouth PO41 0QX, UK",276
3877593,"2 Stour Cl, Bromley BR2 6BX, United Kingdom",276
4592822,"2 Stubley Hollow, Dronfield S18 1PP, UK",276
3872154,"2 Summer Rd, Thames Ditton KT7 0RG, United Kingdom",276
3851647,"2 Sunbury Court Mews, Sunbury-on-Thames TW16 5PF, United Kingdom",276
3863689,"2 Sunset Ave, Woodford, Woodford Green IG8 0ST, United Kingdom",276
3862780,"2 Sunset Avenue, Woodford Green IG8 0ST, United Kingdom",276
4682070,"2 Sycamore Gardens, Newport PO30 5EE, UK",276
4682942,"2 Sycamore Gardens, Newport PO30 5EE, UK",276
3884931,"2 Temple Hill Square, Dartford DA1 5HZ, United Kingdom",276
4653240,"2 The Arcade, Cowes PO31 7AR, UK",276
4684252,"2 The Arcade, Cowes PO31 7AR, UK",276
4684253,"2 The Arcade, Cowes PO31 7AR, UK",276
5571723,"2 The Brewery, Romford RM1 1AU, United Kingdom",276
3849533,"2 The Broadway, Bedford MK40 2TH, United Kingdom",276
4684900,"2 The Cedars, Freshwater PO40 9SP, UK",276
3851304,"2 The Cloisters, Rickmansworth WD3 1HL, United Kingdom",276
4683759,"2 The Colonnade, Lind St, Ryde PO33 2NE, United Kingdom",276
3797962,"2 The Common, Winterslow, Salisbury SP5 1PJ, United Kingdom",276
3855937,"2 The Crescent, Wembley HA0 3JR, United Kingdom",276
3797904,"2 The Dr, Great Durnford, Salisbury SP4 6BA, United Kingdom",276
3883305,"2 The Forestdale Centre/Featherbed La, Croydon CR0 9AS, United Kingdom",276
3848797,"2 The Links, Raynham road, Bishop's Stortford CM23 5NZ, United Kingdom",276
3846768,"2 The Orchard, Ewell, Epsom KT17 1NN, United Kingdom",276
3877468,"2 The Triangle, Kingston upon Thames KT1 3RU, United Kingdom",276
5081917,"2 Thorney Ln S, Iver SL0 9AE, United Kingdom",276
3879823,"2 Tile Farm Rd, Orpington BR6 9RZ, United Kingdom",276
3878900,"2 Tootswood Rd, Bromley BR2 0PB, United Kingdom",276
5572152,"2 Tower Retail Park, Crayford Road, Crayford DA1 4LD, United Kingdom",276
3882445,"2 Townley Rd, Bexleyheath DA6 7HL, United Kingdom",276
3847428,"2 Trescoe Gardens, Harrow HA2 9TB, United Kingdom",276
3846582,"2 Twickenham Rd, Teddington TW11 8AG, United Kingdom",276
3846726,"2 Union St, Kingston upon Thames KT1 1RP, United Kingdom",276
5571634,"2 Upper Elmers End Rd, Beckenham BR3 4AL, United Kingdom",276
3857351,"2 Upper Green Rd, Tewin, Welwyn AL6 0LY, United Kingdom",276
5565339,"2 Uxbridge Rd, Uxbridge UB10 0PE, United Kingdom",276
4682053,"2 Ventnor Rd, Apse Heath, Sandown PO36 0JT, UK",276
3889742,"2 Veridion Way, Erith DA18 4AL, United Kingdom",276
3848388,"2 Viveash Cl, Hayes UB3, UK",276
4683198,"2 Watchbell Ln, Newport PO30 5XU, UK",276
3852491,"2 Watling St, Elstree, Borehamwood WD6 3BZ, United Kingdom",276
4483842,"2 WAUNFACH STREET, Waun Fach St, Caerphilly CF83 3HL, United Kingdom",276
3856773,"2 Waxwell Ln, Pinner HA5 3EN, United Kingdom",276
3857106,"2 Weald Ln, Harrow HA3 5ES, United Kingdom",276
3799163,"2 West St, Wilton, Salisbury SP2 0DF, United Kingdom",276
4682057,"2 West St, Wroxall, Ventnor PO38 3BU, UK",276
3886446,"2 Westbury Rd, Beckenham BR3 4DD, United Kingdom",276
3846339,"2 Whitefriars Ave, Harrow HA3 5RN, United Kingdom",276
4682806,"2 Wilberforce Rd, Brighstone, Newport PO30 4BD, UK",276
3880490,"2 Willis Rd, Croydon CR0 2XX, United Kingdom",276
5033759,"2 Windmill Rd, Croydon CR0 2XN, United Kingdom",276
3844902,"2 Witham Rd, Isleworth TW7 4AJ, United Kingdom",276
3852987,"2 Wood End Gardens, Northolt UB5 4QH, United Kingdom",276
3849644,"2 Wood Ln, Ruislip HA4 6ER, United Kingdom",276
3855141,"2 Wood St, Barnet EN5 4BW, United Kingdom",276
3887074,"2 Writtle Walk, Rainham RM13 7XB, United Kingdom",276
3877504,"2&3, 103 Clarence St, Kingston upon Thames KT1 1QY, United Kingdom",276
3888020,"2, 12 Bridge Cl, Romford RM7 0AU, United Kingdom",276
3881563,"2, 3 & 5, Whitgift, N End, Croydon CR0 1US, United Kingdom",276
3799690,"2, 3 Kelsey Rd, Salisbury SP1 1JP, United Kingdom",276
3799251,"2, 43 Fisherton St, Salisbury SP2 7SU, United Kingdom",276
3858782,"2, 46 St Anne's Road, Harrow HA1 1LA, United Kingdom",276
3859877,"2, 54-58 High St, Edgware HA8 7EJ, United Kingdom",276
3880025,"2, 57 High St, Bromley BR1 1TR, United Kingdom",276
3845064,"2, Alperton House, Bridgewater Rd, Wembley HA0 1EH, United Kingdom",276
3859919,"2, Alperton House, Bridgewater Rd, Wembley HA0 1EH, United Kingdom",276
5570323,"2, Bishop?? Hall, Thames St, Kingston upon Thames KT1 1PY, United Kingdom",276
3844666,"2, Building 2, Marlins Meadow, Watford WD18 8YA, United Kingdom",276
3881728,"2, Cobham Court Haslemere Avenue Mitcham CR4 3PR, United Kingdom",276
3848210,"2, Colham House, Bakers Rd, Uxbridge UB8 1RG, United Kingdom",276
4682749,"2, Coppins Bridge, Newport PO30, UK",276
3884208,"2, Crayford Rd, Dartford DA1 4LB, United Kingdom",276
3881772,"2, davis house, Robert St, Croydon CR0 1QQ, United Kingdom",276
3844980,"2, Gaddesden Place Stables, Briden's Camp, Hemel Hempstead HP2 6EY, United Kingdom",276
3896709,"2, Gallagher Retail Park, Loampit Vale, Lewisham SE13 7SD, United Kingdom",276
3844004,"2, Harefield Rd, Uxbridge UB8 1JS, United Kingdom",276
5568079,"2, Kier Park, Maylands Ave, Hemel Hempstead HP2 4SQ, United Kingdom",276
3883469,"2, Leonard Park Business Centre, Westerham Rd, Keston BR2 6HQ, United Kingdom",276
5565670,"2, Longford Centre, High St, Feltham TW13 4BH, United Kingdom",276
3887443,"2, Merrielands Retail Park, Merrielands Cres, Dagenham RM9 6SJ, United Kingdom",276
3860648,"2, Newbury Retail Park, Horns Rd, Ilford IG2 6BE, United Kingdom",276
3880116,"2, Nugent Retail Park, Cray Ave, Orpington BR5 3RP, United Kingdom",276
3889025,"2, Nugent Shopping Park, Cray Ave, Orpington BR5 3RP, United Kingdom",276
3866940,"2, Old School Block, Warlies Park House, Horseshoe Hill, Essex, Upshire EN9 3SL, United Kingdom",276
3873227,"2, Oldfield Court, Cranes Park Cres, Surbiton KT5 8AW, United Kingdom",276
5570135,"2, Royale Leisure Park, Kendal Ave, Park Royal W3 0PA, United Kingdom",276
3844692,"2, Sperrin Business Centre, Stonefield Way, South Ruislip HA4 0BG, United Kingdom",276
3882596,"2, St Nicholas Shopping Centre, 29C St Nicholas Way, Sutton SM1 1AX, United Kingdom",276
3844000,"2, The Causeway, Staines-upon-Thames, Staines TW18 3AP, United Kingdom",276
3867091,"2, Town Square, Barking IG11 7NB, United Kingdom",276
4684721,"2, Towngate Retail Park, St James' St, Newport PO30 5HF, UK",276
5571484,"2, Valley Leisure Park, Hesterman Way, Croydon CR0 4YA, United Kingdom",276
3850196,"2, Wadsworth Rd, Perivale, Greenford UB6 7JD, United Kingdom",276
3868993,"2, Wembley Retail Park, Engineers Way, Wembley HA9 0EG, United Kingdom",276
3798780,"2-, 4 Salt Ln, Salisbury SP1 1DU, United Kingdom",276
3863744,"2-20 Western Road, Asda, Park Royal NW10 7LW, United Kingdom",276
5565859,"2-3 Central Buildings The Broadway, Ealing W5 2NT, United Kingdom",276
3882265,"2-3 Crescent Way, Orpington BR6 9LP, United Kingdom",276
3884445,"2-3 Crescent Way, Orpington BR6 9LP, United Kingdom",276
3884615,"2-3 Crescent Way, Orpington BR6 9LP, United Kingdom",276
4682625,"2-3 River Way, Newport PO30 5UY, United Kingdom",276
4684761,"2-3 St Thomas' Square, Newport PO30 1SN, UK",276
3865904,"2-3 Turners Hill, Cheshunt, Waltham Cross EN8, United Kingdom",276
3888752,"2-3, AVENUE INDUSTRIAL ESTATE, Southend Arterial Rd, Romford RM3 0HS, United Kingdom",276
3884507,"2-3, Town Square, Erith DA8 1RE, United Kingdom",276
3867791,"2-4 Audery Road, Essex., Audrey Rd, Ilford IG1 2DY, United Kingdom",276
3883103,"2-4 Chipstead Valley Rd, Coulsdon CR5 2RA, United Kingdom",276
5571966,"2-4 Clements Rd, Ilford IG1 1BA, United Kingdom",276
3845706,"2-4 Colne Rd, Twickenham TW1 4JP, United Kingdom",276
3892779,"2-4 Eastern Rd, Romford, United Kingdom",276
5571636,"2-4 Fairfield Rd, Beckenham BR3 3LD, United Kingdom",276
3851769,"2-4 Heath Rd, Twickenham TW1 4BZ, United Kingdom",276
3860124,"2-4 Heddon Ct Ave, Barnet EN4 0DB, United Kingdom",276
3881073,"2-4 High St, Beckenham BR3 1AZ, United Kingdom",276
3843677,"2-4 High St, Harefield, Uxbridge UB9 6BU, United Kingdom",276
3881511,"2-4 High St, Orpington BR6 0JG, United Kingdom",276
3884641,"2-4 High St, Orpington BR6 0JG, United Kingdom",276
3884372,"2-4 Monteagle Ave, Barking IG11 8RA, United Kingdom",276
3879950,"2-4 Mulgrave Rd, Sutton SM2 6LE, United Kingdom",276
3843971,"2-4 Northwood Rd, Uxbridge UB9 6PW, United Kingdom",276
3859056,"2-4 Oldfield Ln S, Greenford UB6 9LD, United Kingdom",276
3889752,"2-4 Reede Rd, Dagenham RM10 8DP, United Kingdom",276
5571184,"2-4 Ringer's Rd, Bromley BR1 1HT, United Kingdom",276
3878782,"2-4 Selsdon Park Rd, South Croydon CR2 8JA, United Kingdom",276
3856565,"2-4 The Broadway, Basement, Crouch End N8 9SN, United Kingdom",276
3873678,"2-6 Alderman Judge Mall, Kingston upon Thames KT1 1BS, United Kingdom",276
5570870,"2-6 Bridge Rd, Molesey, East Molesey KT8 9HA, United Kingdom",276
5570446,"2-6 High St, Kingston upon Thames KT1 1EY, United Kingdom",276
3797474,"2-6 High St, Salisbury SP1 2NP, United Kingdom",276
3850184,"2-8 Park Ave, Southall UB1 3AG, United Kingdom",276
3888055,"2-8 Whalebone Ln S, Dagenham RM8 1FB, United Kingdom",276
3893909,"2-8 Whalebone Ln S, Dagenham RM8 1FB, United Kingdom",276
3848607,"2.2, Trico House, Great West Quarter, Ealing Road, Brentford TW8 9BS, United Kingdom",276
3882928,"2/, 4 Station Approach, Bromley BR2 7EH, United Kingdom",276
3847494,"2/8 Station Rd, Hayes UB3 4DA, United Kingdom",276
3844019,"2/New Years Green La, Uxbridge UB9 6LX, United Kingdom",276
3859582,"20 & 21, The Broadwalk Shopping Centre, Station Rd, Edgware HA8 7BD, United Kingdom",276
4684472,"20 - 21 High Street, Ryde PO33 2HW, United Kingdom",276
5570466,"20 Abbotsbury Rd, Morden SM4 5LQ, United Kingdom",276
5571358,"20 Addington Rd, West Wickham BR4, United Kingdom",276
3849109,"20 Barham Cl, Weybridge KT13 9PR, United Kingdom",276
3889056,"20 Bellegrove Rd, Welling DA16 3PU, United Kingdom",276
5570803,"20 Berrylands Rd, Surbiton KT5 8RA, United Kingdom",276
3855004,"20 Birkdale Ave, Pinner HA5 5SQ, United Kingdom",276
5089715,"20 Blackthorn Rd, Ilford IG1 2PZ, United Kingdom",276
5087043,"20 Box Ridge Ave, Purley CR8 3AP, United Kingdom",276
5089521,"20 Bridport Ave, Romford RM7 9HP, United Kingdom",276
3846936,"20 Broadwalk, Harrow HA2 6ED, United Kingdom",276
3881525,"20 Bywood Ave, Croydon CR0 7RA, United Kingdom",276
3881834,"20 Chantry Ln, Bromley BR2 9QL, United Kingdom",276
3883788,"20 Chantry Ln, Bromley BR2 9QL, United Kingdom",276
3846635,"20 Childs Cres, Swanscombe DA10 0EA, United Kingdom",276
3880819,"20 Cleves Cres, New Addington, Croydon CR0 0DL, United Kingdom",276
3799692,"20 Coldharbour La, Salisbury SP2 7BW, United Kingdom",276
3872741,"20 Coombe Rd, New Malden KT3 4QE, United Kingdom",276
4682607,"20 Coronation Ave, Northwood PO31 8PN, UK",276
5083368,"20 Coventry Rd, Ilford IG1 4QR, United Kingdom",276
5082084,"20 Crown Rd, Twickenham TW1, United Kingdom",276
3885797,"20 Erith High St, Erith DA8 1QY, United Kingdom",276
4682626,"20 Esplanade, Ryde PO33 2DZ, UK",276
3865233,"20 Essex Rd, Borehamwood WD6 1BP, United Kingdom",276
3874115,"20 Fairfield S, Kingston upon Thames KT1 2UL, United Kingdom",276
3847934,"20 Fairlawn Rd, Carshalton SM5 4HT, United Kingdom",276
3797934,"20 Fisherton St, Salisbury SP2 7RG, United Kingdom",276
3870176,"20 Fulton Rd, Wembley HA9 0TF, United Kingdom",276
3888427,"20 Gardenia Rd, Bromley BR1 2FJ, United Kingdom",276
3799306,"20 Glover Road, Salisbury SP4 8QT, United Kingdom",276
3848650,"20 Gossage Rd, Uxbridge UB10 0RJ, United Kingdom",276
5171929,"20 Grange Rd, Shanklin PO37 6NN",276
5570166,"20 Harrow Rd, Wembley HA9 6PG, United Kingdom",276
3883725,"20 Hayes St, Bromley BR2 7LD, United Kingdom",276
3883416,"20 Hazelden Cl, West Kingsdown, Sevenoaks TN15 6UG, United Kingdom",276
3860165,"20 Heming Rd, Edgware HA8 9AE, United Kingdom",276
3860618,"20 Heming Rd, Edgware HA8 9AE, United Kingdom",276
3877581,"20 High St, Beckenham BR3 1AY, United Kingdom",276
3846921,"20 High St, Harefield, Uxbridge UB9 6BU, United Kingdom",276
4610190,"20 High St, Hoyland, Barnsley S74 9AB, UK",276
3844014,"20 High St, Northwood HA6 1BN, United Kingdom",276
3849601,"20 High St, Northwood HA6 1BN, United Kingdom",276
3879618,"20 High St, Otford, Sevenoaks TN14 5PQ, United Kingdom",276
3848700,"20 High St, Ruislip HA4 7AN, United Kingdom",276
4683767,"20 High St, Sandown PO36 8ED, UK",276
5571401,"20 High St, Tonbridge TN9 1EJ, United Kingdom",276
5669608,"20 High St, Ventnor PO38 1RZ",276
4684369,"20 High St, Yarmouth PO41 0PL, UK",276
3885378,"20 Highbanks Cl, Welling DA16 3ES, United Kingdom",276
4479008,"20 Holland Mews, Hove BN3 1JG, UK",276
3849792,"20 Hurlford, Woking GU21 3LP, United Kingdom",276
3867755,"20 Hurricane Way, North Weald Bassett, Epping CM16 6AA, United Kingdom",276
5086824,"20 Jarrow Cl, Morden SM4 6RQ, United Kingdom",276
3843778,"20 Little Oxhey Ln, Watford WD19 6FR, United Kingdom",276
5565036,"20 Long Dr, Ruislip HA4 0HG, United Kingdom",276
5082968,"20 Manor Rd, Teddington TW11 8BF, United Kingdom",276
3878510,"20 Market Place, Kingston upon Thames KT1 1JP, United Kingdom",276
3882514,"20 Montacute Rd, Morden SM4 6RL, United Kingdom",276
3849683,"20 Montague Rd, Hounslow TW3 1LD, United Kingdom",276
3879547,"20 Mulgrave Rd, Sutton SM2 6LE, United Kingdom",276
4482030,"20 Nevill Rd, Hove BN3 7BQ, UK",276
3874108,"20 Park Rd, Kingston upon Thames KT2 6BE, United Kingdom",276
3849419,"20 Peel Way, Uxbridge UB8 3RN, United Kingdom",276
3797330,"20 Queensberry Rd, Salisbury SP1 3PJ, United Kingdom",276
3845627,"20 Queensway, Enfield EN3 4SA, United Kingdom",276
3848526,"20 Queensway, Enfield EN3 4SA, United Kingdom",276
5087051,"20 Rectory Park, South Croydon CR2 9JN, United Kingdom",276
3882848,"20 Russell Hill Rd, Purley CR8 2LA, United Kingdom",276
3874358,"20 Shirley Ave, Coulsdon CR5 1QU, United Kingdom",276
5565732,"20 South Rd, Southall UB1 1RT, United Kingdom",276
3894270,"20 Sparks Cl, Dagenham RM8 3DG, United Kingdom",276
3855509,"20 St Anns Road, Harrow HA1 1LG, United Kingdom",276
3878666,"20 St Barnabas Rd, Sutton SM1 4NP, United Kingdom",276
3888052,"20 St Edwards Way, Romford RM1 4DD, United Kingdom",276
4684752,"20 St James' Square, Newport PO30 1UX, UK",276
4684569,"20 St James' St, Newport PO30 1UX, UK",276
5044664,"20 St Margaret's Square, United Kingdom",276
3888842,"20 Starts Cl, Orpington BR6 8NU, United Kingdom",276
3858762,"20 Station Rd, Harrow HA1 2BF, United Kingdom",276
3845746,"20 Station Road, Hayes UB3 4DA, United Kingdom",276
3879905,"20 Stock Hill, Biggin Hill, Westerham TN16 3TJ, United Kingdom",276
3860856,"20 Sun St, Waltham Abbey EN9 1EE, United Kingdom",276
5082071,"20 The Barons, St Margarets, Twickenham TW1 2AP, United Kingdom",276
3849988,"20 The Green, Twickenham TW2 5AB, United Kingdom",276
3850006,"20 The Green, Twickenham TW2 5AB, United Kingdom",276
3888300,"20 The Mall Romford, Romford RM1 3EE, United Kingdom",276
3860823,"20 The Town, Enfield EN2 6LS, United Kingdom",276
3856613,"20 Theobald St, Borehamwood WD6, United Kingdom",276
4657214,"20 Uplands Drive, St John Road, St Helier JE2 3UD, Jersey",276
3878754,"20 Village Way, Beckenham BR3 3NP, United Kingdom",276
3887011,"20 W Thurrock Way, Grays RM20 2ZF, United Kingdom",276
5571892,"20 Woodward Road, Dagenham RM9 4SH, United Kingdom",276
3860021,"20 Wyllyotts Pl, Potters Bar EN6 2HN, United Kingdom",276
3877444,"20, Kingsmill Business Park, Chapel Mill Rd, Kingston upon Thames KT1 3GZ, United Kingdom",276
3858789,"20, St Anns Centre, St Anns Road, Harrow HA1 1AS, United Kingdom",276
5565171,"20-21 Market Square, Uxbridge UB8 1LN, United Kingdom",276
5571359,"20-22 Bromley Hill, Bromley BR1 4JX, United Kingdom",276
5568816,"20-22 Darby Dr, Waltham Abbey EN9 1EQ, United Kingdom",276
5566691,"20-22 High St, Teddington TW11 8EW, United Kingdom",276
3850662,"20-22 Shore Rd, East Wittering, Chichester PO20 8DZ, United Kingdom",276
3849410,"20-22 Sutton Ct Rd, Uxbridge UB10 9HP, United Kingdom",276
3834425,"20-28 Staines Rd, Hounslow TW3 3JS, United Kingdom",276
3884357,"200 Bennett's Castle Ln, Dagenham RM8 3XP, United Kingdom",276
3888827,"200 Bexley Rd, Erith DA8 3HF, United Kingdom",276
5572071,"200 High Rd, Ilford IG1 1LR, United Kingdom",276
3886546,"200 Ilford Ln, Ilford IG1 2LW, United Kingdom",276
3834467,"200 Malvern Ave, Harrow HA2 9HE, United Kingdom",276
4683296,"200 Newport Rd, Cowes PO31 7ER, UK",276
4683508,"200 Newport Rd, Cowes PO31 7ER, UK",276
3866621,"200 Parsonage Ln, Enfield EN1 3UQ, United Kingdom",276
3889407,"200 Ripple Rd, Barking IG11 7PR, United Kingdom",276
3885835,"200 Ripple Rd, Barking lG11 7PR, United Kingdom",276
5569161,"200 Southbury Road, Enfield Leisure Park, Enfield EN1 1YQ, United Kingdom",276
3882485,"200 The Glades Shopping Centre, Bromley BR1 1DN, United Kingdom",276
3849272,"200 Whitton Rd, Twickenham TW2 7BA, United Kingdom",276
3849281,"200 Whitton Rd, Twickenham TW2 7BA, United Kingdom",276
3849554,"200 Whitton Rd, Twickenham TW2 7BA, United Kingdom",276
3849556,"200 Whitton Rd, Twickenham TW2 7BA, United Kingdom",276
3849563,"200 Whitton Rd, Twickenham TW2 7BA, United Kingdom",276
3849566,"200 Whitton Rd, Twickenham TW2 7BA, United Kingdom",276
5567022,"200 Whitton Rd, Twickenham TW2 7BA, United Kingdom",276
5567216,"200 Whitton Rd, Twickenham TW2 7BA, United Kingdom",276
5567076,"200-202 High St, Sutton SM1 1NR, United Kingdom",276
5565689,"200/202 High St, Hounslow TW3 1HE, United Kingdom",276
3889936,"200A High Rd, Romford RM6 6LU, United Kingdom",276
3845927,"201 Beaconsfield Rd, Southall UB1 1DA, United Kingdom",276
3847359,"201 Beaconsfield Rd, Southall UB1 1DA, United Kingdom",276
3847369,"201 Beaconsfield Rd, Southall UB1 1DA, United Kingdom",276
3847189,"201 Edgwarebury Ln, Edgware HA8 8QJ, United Kingdom",276
3845896,"201 Field End Rd, Pinner HA5 1QZ, United Kingdom",276
3888890,"201 Front Ln, Upminster RM14 1LD, United Kingdom",276
3888040,"201 Front Ln, Upminster RM14, United Kingdom",276
5567027,"201 High St, Brentford TW8 8AH, United Kingdom",276
3887498,"201 High St, Bromley BR1 1NY, United Kingdom",276
3894875,"201 Manford Way, Chigwell IG7 4DJ, United Kingdom",276
3893929,"201 Oxlow Ln, Dagenham RM10 7YA, United Kingdom",276
3858998,"201 Preston Rd, Wembley HA9 8NF, United Kingdom",276
3897649,"201 Streatham Rd, Mitcham CR4 2AJ, United Kingdom",276
3887613,"201-203 Longbridge Rd, Barking IG11 8UF, United Kingdom",276
3894863,"202 Beehive Ln, Ilford IG4 5EE, United Kingdom",276
3879792,"202 Bromley Rd, Beckenham BR3 6PG, United Kingdom",276
5565165,"202 High St, Uxbridge UB8 1LB, United Kingdom",276
3874249,"202 Kingston Rd, Teddington TW11 9JD, United Kingdom",276
3846158,"202 N Hyde Ln, Hounslow, Southall UB2 5SE, United Kingdom",276
3851553,"202 Preston Rd, Wembley HA9 8NF, United Kingdom",276
3825364,"202 Rimrose Rd, Bootle L20 4QS, United Kingdom",276
5572349,"202 Ripple Rd, Barking IG11 7PR, United Kingdom",276
3848174,"202 Western Rd, Southall UB2 5ED, United Kingdom",276
3883058,"202-, 206 High St, Orpington BR6 0JN, United Kingdom",276
3865162,"202-204 High Rd, Woodford, Woodford Green IG8 9EF, United Kingdom",276
3894550,"202A Bennett's Castle Ln, Dagenham RM8 3XP, United Kingdom",276
5568190,"202A Watford Rd, Croxley Green, Rickmansworth WD3 3DD, United Kingdom",276
3880885,"203 Addiscombe Rd, Croydon CR0 6SP, United Kingdom",276
3886542,"203 Brentwood Road, Romford RM1 2SL, United Kingdom",276
4505984,"203 Haigh Moor Rd, Tingley, Wakefield WF3 1EN, UK",276
3844990,"203 High St, Brentford TW8 8AD, United Kingdom",276
3878005,"203 High St, Croydon CR0 1QR, United Kingdom",276
5565873,"203 High St, Uxbridge UB8, United Kingdom",276
3845138,"203 Kingston Rd, Kingston upon Thames, New Malden, United Kingdom",276
3877483,"203 Kingston Rd, New Malden KT3 3SS, United Kingdom",276
3881036,"203 Lower Addiscombe Rd, Croydon CR0 6RA, United Kingdom",276
5571924,"203 North St, Romford RM1 1DT, United Kingdom",276
5564505,"203 Northolt Rd, Harrow HA2 0NG, United Kingdom",276
3851809,"203 Preston Rd, Wembley HA9 8NF, United Kingdom",276
5568081,"203 Shenley Rd, Borehamwood WD6 1AT, United Kingdom",276
3847110,"203 Sparrow Farm Dr, Feltham TW14 0DG, United Kingdom",276
3883974,"203-204, Intu Bromley Shopping Centre, Bromley BR1 1DN, United Kingdom",276
3881231,"203-205 High Street, Orpington BR6 0PF, United Kingdom",276
3882663,"203/, 205 High St, Sutton SM1 1JU, United Kingdom",276
3874489,"204 Acre Rd, Kingston upon Thames KT2 6EX, United Kingdom",276
3857171,"204 Ealing Rd, Wembley HA0 4QG, United Kingdom",276
4683045,"204 Fairlee Rd, Newport PO30 2LB, UK",276
3855918,"204 Harrow View, Harrow HA2 6PL, United Kingdom",276
3870625,"204 High St, Sutton SM1 1NU, United Kingdom",276
3898988,"204 Lavender Hill, Clapham Junction, Asda, Clapham SW11 1JG, United Kingdom",276
5571683,"204 Ripple Rd, Barking IG11 7PR, United Kingdom",276
5569308,"204-206 High Rd, Ilford IG1 1QB, United Kingdom",276
5571020,"204-206 High St, Bromley BR1 1PW, United Kingdom",276
3889270,"204-210 Bexley Rd, Erith DA8 3HD, United Kingdom",276
3850895,"204226 Imperial Dr, Harrow HA2 7HH, United Kingdom",276
3851798,"205 Headstone Ln, Harrow HA2 6ND, United Kingdom",276
3844636,"205 High St, Brentford TW8 8AH, United Kingdom",276
3848939,"205 High Street The Chimes Shopping Centre, Uxbridge UB8 1LD, United Kingdom",276
3883344,"205 Kingston Rd, New Malden KT3 3SY, United Kingdom",276
3863817,"205 Ley St, Ilford IG1 4BL, United Kingdom",276
5571990,"205 Oxlow Ln, Dagenham RM10 7YA, United Kingdom",276
3883730,"205 Southborough Ln, Bromley BR2 8AR, United Kingdom",276
3852781,"205 Station Rd, Harrow HA1 2TP, United Kingdom",276
3877480,"205-217 Kingston Rd, New Malden KT3 3SY, United Kingdom",276
3877855,"205-217 Kingston Rd, New Malden KT3 3SY, United Kingdom",276
3873016,"2059/61 Westfield Shopping Centre, Shepherds Bush W12 7SL, United Kingdom",276
3883097,"206 Addington Road, Selsdon, Croydon CR2 8LD, United Kingdom",276
3888346,"206 Broadway, Bexleyheath DA6 7BD, United Kingdom",276
3847774,"206 Bury St, Ruislip HA4 7TJ, United Kingdom",276
3799245,"206 Castle St, Salisbury SP1 3TE, United Kingdom",276
3866171,"206 Chase Side, Enfield EN2 0QX, United Kingdom",276
3849168,"206 Field End Rd, Pinner HA5 1RD, United Kingdom",276
5571906,"206 High Rd, Romford RM6 6LS, United Kingdom",276
5083280,"206 High St, Barnet EN5 5SZ, United Kingdom",276
5087317,"206 High St, Bromley BR1 1PW, United Kingdom",276
3883014,"206 High St, Sutton SM1 1NU, United Kingdom",276
5571170,"206 High St, West Wickham BR4 0LZ, United Kingdom",276
3887484,"206 Widmore Rd, Bromley BR1 2RH, United Kingdom",276
3897223,"207 Barley Ln, Romford RM6 4XU, United Kingdom",276
3852446,"207 Deansbrook Rd, Edgware HA8 9BU, United Kingdom",276
3852599,"207 Deansbrook Rd, Edgware HA8 9BU, United Kingdom",276
3859705,"207 Deansbrook Rd, Edgware HA8 9BU, United Kingdom",276
3889177,"207 Main Rd, Romford RM2 6NP, United Kingdom",276
3873851,"207 Manor Rd, Mitcham CR4, United Kingdom",276
3882283,"207 Petts Wood Rd, Orpington BR5 1LA, United Kingdom",276
5564674,"207 Preston Rd, Wembley HA9 8NF, United Kingdom",276
3848321,"207 Twickenham Rd, Isleworth TW7 6AA, United Kingdom",276
3848616,"207-208 High St, Brentford TW8 8AH, United Kingdom",276
3849707,"207-211 Vicarage Farm Rd, Hounslow TW5 0AQ, United Kingdom",276
3883292,"207-215 High St, Orpington BR6 0PF, United Kingdom",276
3883968,"207-215 High St, Orpington BR6 0PF, United Kingdom",276
5566381,"207A High St, Brentford TW8 8AH, United Kingdom",276
3865888,"207a High St, Waltham Cross EN8 7AY, United Kingdom",276
3886957,"208 Belmont Rd, Erith DA8 1LQ, United Kingdom",276
5566229,"208 Great West Rd, Hounslow TW5 9AW, United Kingdom",276
3881838,"208 High St, Orpington BR5 4AX, United Kingdom",276
3895902,"208 New N Rd, Ilford IG6 3BS, United Kingdom",276
3860025,"208 Southbury Rd, Enfield EN1 1YQ, United Kingdom",276
3892788,"208a Fencepiece Rd, Ilford IG6 2ST, United Kingdom",276
3855950,"208A Preston Rd, Wembley HA9 8PA, United Kingdom",276
3888618,"209 Cherry Tree Ln, Rainham RM13 8TU, United Kingdom",276
3881627,"209 Chipstead Valley Rd, Coulsdon CR5 3BR, United Kingdom",276
3892896,"209 Crow Ln, Romford RM7 0ES, United Kingdom",276
3846458,"209 Headstone La, Harrow HA2 6ND, United Kingdom",276
3858988,"209 High Rd, Harrow HA3 5EE, United Kingdom",276
5564803,"209 High Rd, Harrow HA3 5EE, United Kingdom",276
3844281,"209 High Rd, West Drayton UB7 7QP, United Kingdom",276
3877774,"209 Lower Addiscombe Rd, Croydon CR0 6RB, United Kingdom",276
5565541,"209 North Rd, Southall UB1 2JZ, United Kingdom",276
3883055,"209 Petts Wood Rd, Orpington BR5 1LA, United Kingdom",276
3883057,"209 Petts Wood Rd, Orpington BR5 1LA, United Kingdom",276
3848467,"209 The Broadway, Southall UB1 1NB, United Kingdom",276
3847436,"209 Vicarage Rd, Watford WD18 0GD, United Kingdom",276
3851805,"209 Watford Rd, Harrow HA1 3UA, United Kingdom",276
3858995,"209 Watford Rd, Harrow HA1 3UA, United Kingdom",276
3879845,"209-211 Southborough Ln, Bromley BR2 8AR, United Kingdom",276
3884619,"209-211 Southborough Ln, Bromley BR2 8AR, United Kingdom",276
3877895,"209-213 Lower Addiscombe Rd, Croydon CR0 6RB, United Kingdom",276
3894872,"209-217 New N Rd, Ilford IG6 3AD, United Kingdom",276
3855941,"209A Watford Rd, Harrow HA1 3UA, United Kingdom",276
4519514,"20A Bell St, Wigston LE18 1AD, UK",276
3880491,"20A Reddown Rd, Coulsdon CR5 1AX, United Kingdom",276
5565042,"20A St Johns Road, Isleworth TW7 6NW, United Kingdom",276
5570491,"20A Upper High St, Epsom KT17 4QJ, United Kingdom",276
3870659,"21 - 23 Alie Street, Aldgate East E1 8DE, United Kingdom",276
5566292,"21 Abbotsbury Rd, Morden SM4 5LJ, United Kingdom",276
3883762,"21 Addington Rd, West Wickham BR4 9BW, United Kingdom",276
4683929,"21 Ashey Rd, Ryde PO33 2UW, UK",276
3878586,"21 Ashley Rd, Epsom KT18 5BE, United Kingdom",276
5087616,"21 Avondale Rd, Welling DA16 1NG, United Kingdom",276
4592907,"21 Brinsworth Ln, Brinsworth, Rotherham S60 5BS, UK",276
3848828,"21 Chatsworth Rd, Worthing BN11 1LY, United Kingdom",276
5082031,"21 Chester Rd, Northwood HA6 1BG, United Kingdom",276
3889927,"21 Clockhouse Ln, Romford RM5 3PH, United Kingdom",276
3887052,"21 Corbets Tey Rd, Upminster RM14 2JS, United Kingdom",276
3887209,"21 Corbets Tey Rd, Upminster RM14 2JS, United Kingdom",276
3851026,"21 Cross Deep, Twickenham TW1 4QG, United Kingdom",276
3878667,"21 Crown Ln, Morden SM4 5BY, United Kingdom",276
3883211,"21 Damon Cl, Sidcup DA14 4HP, United Kingdom",276
3846532,"21 Deanway, Chalfont Saint Giles HP8 4JH, United Kingdom",276
3847384,"21 Delamere Rd, Hayes UB4 0NL, United Kingdom",276
3896276,"21 Devonshire Rd, Ilford IG2 7EN, United Kingdom",276
3859895,"21 Empire Way, Wembley HA9 0PA, United Kingdom",276
3889954,"21 Epsom Rd, Ilford IG3 8QP, United Kingdom",276
3887969,"21 Goresbrook Rd, Dagenham RM9 6XA, United Kingdom",276
3848239,"21 Hartfield Ave, Northolt UB5 6NL, United Kingdom",276
3880584,"21 Haslemere Ave, Mitcham CR4 3BA, United Kingdom",276
3850906,"21 Haydock Ave, Northolt UB5 4AL, United Kingdom",276
3885552,"21 Heathfield Rd, Bexleyheath DA6 8NP, United Kingdom",276
3897728,"21 High St, Barkingside, Ilford IG6 2AW, United Kingdom",276
5571065,"21 High St, Bromley BR1 1LG, United Kingdom",276
5570680,"21 High St, Carshalton SM5 3AP, United Kingdom",276
5570714,"21 High St, Epsom KT19 8DD, United Kingdom",276
3848429,"21 High St, Iver SL0 9ND, United Kingdom",276
4684474,"21 High St, Ryde PO33 2HW, UK",276
4684048,"21 High St, Shanklin PO37 6JW, UK",276
3881076,"21 High St, West Wickham BR4 0LU, United Kingdom",276
3878872,"21 Hillfield Ave, Sutton, Morden SM4 6BA, United Kingdom",276
4684737,"21 Holyrood St, Newport PO30 5AZ, UK",276
3886873,"21 Hutton Rd, Brentwood CM15 8JU, United Kingdom",276
3845702,"21 Kendrey Gardens, Twickenham TW2 7PA, United Kingdom",276
3847023,"21 King Charles' Rd, Surbiton KT5 8NY, United Kingdom",276
3874515,"21 Langley Rd, Surbiton KT6 6LW, United Kingdom",276
5087600,"21 Larch Grove, Sidcup DA15 8WQ, United Kingdom",276
3885527,"21 Lodge Cl, Orpington BR6 0QQ, United Kingdom",276
3848864,"21 Love Ln, Pinner HA5 3EE, United Kingdom",276
3888523,"21 Main Rd, Romford RM1 3BT, United Kingdom",276
3893913,"21 Main Rd, Romford RM1 3BT, United Kingdom",276
3849618,"21 Maxwell Rd, Northwood HA6 2XZ, United Kingdom",276
4683196,"21 Mayfield Dr, Newport PO30 2DH, UK",276
5568422,"21 Mollison Way, Edgware HA8 5QH, United Kingdom",276
3846589,"21 Monument Green, Weybridge KT13 8RX, United Kingdom",276
3848893,"21 N End, Croydon CR0 1TY, United Kingdom",276
3882044,"21 N End, Croydon CR0 1TY, United Kingdom",276
3882475,"21 N End, Croydon CR0 1TY, United Kingdom",276
3882476,"21 N End, Croydon CR0 1TY, United Kingdom",276
3889963,"21 Natal Rd, Ilford IG1 2HA, United Kingdom",276
3877562,"21 Nineacres Way, Coulsdon CR5 2SH, United Kingdom",276
3880402,"21 Nork Way, Banstead SM7 1PB, United Kingdom",276
3881320,"21 Oakley Rd, Bromley BR2 8HQ, United Kingdom",276
3848272,"21 Olds Close, Tolpits Ln, Watford WD18 9RU, United Kingdom",276
3856263,"21 Palace Gardens, Enfield EN2 6SN, United Kingdom",276
3867738,"21 Parkway Gardens, Welwyn Garden City AL8 6JW, United Kingdom",276
5569282,"21 Picardy St, Belvedere DA17 5QQ, United Kingdom",276
4683739,"21 Pier St, Ventnor PO38 1ST, UK",276
3885344,"21 Pilgrims Way W, Otford, Sevenoaks TN14, United Kingdom",276
3844324,"21 Pinner Green, Pinner HA5 2AF, United Kingdom",276
3852768,"21 Pinner Rd, Harrow HA1 4ES, United Kingdom",276
5086827,"21 Prince of Wales' Rd, Sutton SM1 3PE, United Kingdom",276
3883596,"21 Princes St, Sutton SM1 3RT, United Kingdom",276
3797341,"21 Queen St, Salisbury SP1 1EY, United Kingdom",276
3878836,"21 Queenhill Rd, South Croydon CR2 8DU, United Kingdom",276
3886855,"21 Rainham Rd, Rainham RM13 8ST, United Kingdom",276
3881181,"21 Ravenswood Cres, West Wickham BR4 0JH, United Kingdom",276
3848053,"21 Raymond Cl, Slough SL3 0PP, United Kingdom",276
4682659,"21 Regent St, Shanklin PO37 7AF, UK",276
4684887,"21 School Green Rd, Freshwater PO40 9AJ, UK",276
3844370,"21 Senhouse Rd, Sutton SM3 8LE, United Kingdom",276
3844179,"21 Southlands Rd, Denham, Uxbridge UB9 4HD, United Kingdom",276
3878512,"21 St Albans Rd, Kingston upon Thames KT2 5HQ, United Kingdom",276
5566860,"21 St John's Rd, Isleworth TW7 6NB, United Kingdom",276
3882411,"21 St Nicholas Way, Sutton SM1 1AW, United Kingdom",276
5568253,"21 Station Rd, Harrow HA1 2, United Kingdom",276
3883746,"21 Station Square, Orpington BR5 1LY, United Kingdom",276
3885534,"21 Teviot Cl, Welling DA16 1RE, United Kingdom",276
3871485,"21 Thames St, Kingston upon Thames KT1 1QE, United Kingdom",276
3851912,"21 The Broadway, Greenford UB6 9PF, United Kingdom",276
5568829,"21 The Broadway, Loughton IG10 3SX, United Kingdom",276
5086559,"21 The Chesters, Traps Ln, New Malden KT3 4SF, United Kingdom",276
3889377,"21 The Mall Romford, Romford RM1 3EE, United Kingdom",276
5568817,"21 Turners Hill, Waltham Cross EN8 8NJ, United Kingdom",276
4682096,"21 Union St, Ryde PO33 2DT, UK",276
3888292,"21 Upland Ct Rd, Romford RM3 0TT, United Kingdom",276
3849677,"21 Walnut Tree Rd, Hounslow TW5 0LP, United Kingdom",276
5572114,"21 West St, Gravesend DA11 0DJ, United Kingdom",276
4480617,"21 Western Road, Hove BN3 1AF, United Kingdom",276
3882219,"21 Whytecliffe Rd S, Purley, Croydon CR8 2AU, United Kingdom",276
3882490,"21 Whytecliffe Rd S, Purley, Croydon CR8 2AU, United Kingdom",276
5082341,"21 Woodfield Rd, Hounslow TW4 6LL, United Kingdom",276
3884379,"21 Wrotham Rd, Welling DA16 1LS, United Kingdom",276
3884810,"21 Wrotham Road, Welling DA16 1LS, United Kingdom",276
5572312,"21, Liberty Shopping Centre, The Liberty, Romford RM1 3RL, United Kingdom",276
5564507,"21, Station Road, Harrow, MiddleSex HA1 2UF, United Kingdom",276
5571402,"21, West Thurrock Retail Park, Weston Avenue, Grays RM20 3LP, United Kingdom",276
4684248,"21-22 Shooters Hill, Cowes PO31 7BQ, UK",276
3895891,"21-23 Horns Rd, Ilford IG2 6BN, United Kingdom",276
3799517,"21-25 Castle St, Salisbury SP1 1TT, United Kingdom",276
3878040,"21-25 Mapledale Ave, Croydon CR0 5TG, United Kingdom",276
3894848,"210 Ashurst Dr, Ilford IG6 1EW, United Kingdom",276
3895300,"210 Ashurst Dr, Ilford IG6 1EW, United Kingdom",276
3869200,"210 Ealing Rd, Wembley HA0 4QG, United Kingdom",276
3860694,"210 Green St, Enfield EN3 7NB, United Kingdom",276
5081982,"210 Hanworth Rd, Hounslow TW3 3TU, United Kingdom",276
5566099,"210 Hanworth Rd, Hounslow TW3 3TU, United Kingdom",276
5572239,"210 High Rd, Dagenham, Romford RM6 6LS, United Kingdom",276
5569367,"210 High Rd, Woodford, Woodford Green IG8 9HH, United Kingdom",276
3834451,"210 High St, Hounslow TW3 1DL, United Kingdom",276
3847459,"210 Horsenden Ln S, Perivale, Greenford UB6 7NU, United Kingdom",276
5571566,"210 New N Rd, Ilford IG6 3BS, United Kingdom",276
5568342,"210 Station Rd, Edgware HA8 7AR, United Kingdom",276
3893933,"211 Cherry Tree La, Rainham RM13 8TU, United Kingdom",276
3857129,"211 High Rd, Harrow HA3 5EE, United Kingdom",276
3883015,"211 High St, Sutton SM1 1JU, United Kingdom",276
3881359,"211 Nork Way, Banstead SM7 1JG, United Kingdom",276
3881219,"211 Petts Wood Rd, Orpington BR5 1LA, United Kingdom",276
3855944,"211 Streatfield Rd, Stanmore, Harrow, United Kingdom",276
3882414,"211 Streatham Rd, Mitcham CR4 2AJ, United Kingdom",276
3848937,"211, Uxbridge Common Post Office, 101 Park Rd, Uxbridge UB8 1LA, United Kingdom",276
3834452,"211-213 High St, Hounslow TW3 1BL, United Kingdom",276
3896684,"211-219 Bellegrove Rd, Welling DA16 3RQ, United Kingdom",276
3863544,"211A Baker St, Enfield EN1 3LA, United Kingdom",276
3851829,"212 Alexandra Ave, Harrow HA2 9BU, United Kingdom",276
3848466,"212 Field End Rd, Pinner HA5 1RD, United Kingdom",276
3887516,"212 High Rd, Chadwell Heath, Romford RM6 6LS, United Kingdom",276
5571899,"212 High Rd, Ilford IG1 1QB, United Kingdom",276
5572265,"212 High Rd, Ilford IG1 1QB, United Kingdom",276
3847519,"212 Whitby Road, 212 Whitby Rd, Ruislip HA4 9DY, United Kingdom",276
3872147,"212, 22 Eden St, Kingston upon Thames KT1 1DN, United Kingdom",276
3877812,"212-214 High St, Beckenham BR3 1EN, United Kingdom",276
3893011,"212-214 High St, Beckenham BR3 1EN, United Kingdom",276
3867364,"213 Baker St, Enfield EN1 3LA, United Kingdom",276
3883744,"213 Petts Wood Rd, Orpington BR5 1LA, United Kingdom",276
5571681,"213 Reede Rd, Dagenham RM10 8EH, UK",276
5572175,"213 Reede Rd, Dagenham RM10 8EH, United Kingdom",276
5568106,"213 Shenley Rd, Borehamwood WD6 1TE, United Kingdom",276
3887523,"213 Southend Arterial Rd, Romford RM3 0UR, United Kingdom",276
3857909,"213 Station Rd, Harrow HA1 2TP, United Kingdom",276
5571250,"213 The Broadway, Bexleyheath DA6 7HF, United Kingdom",276
3886597,"213 Upminster Rd S, Rainham RM13 9BB, UK",276
3848940,"213, The Chimes Shopping Centre, High St, Uxbridge UB8 1LB, United Kingdom",276
5572043,"213-215 Ilford Ln, Ilford IG1 2RZ, United Kingdom",276
3845119,"213-217 Watford Rd, Harrow HA1 3UA, United Kingdom",276
3880492,"214 Addington Rd, South Croydon, United Kingdom",276
3852790,"214 Carlton Ave W, Wembley HA0 3QY, United Kingdom",276
5564877,"214 Field End Rd, Pinner HA5 1RD, United Kingdom",276
3855917,"214 Harrow View, Harrow HA2 6PL, United Kingdom",276
3849984,"214 High St, Brentford TW8 8AH, United Kingdom",276
3878616,"214 Purley Way, Croydon CR0 4XG, United Kingdom",276
3895840,"214 Redbridge Ln E, Ilford IG4 5BQ, United Kingdom",276
3887972,"214 Ripple Rd, Barking IG11 7PR, United Kingdom",276
3855486,"214 Station Rd, Edgware HA8 7AR, United Kingdom",276
5091529,"214 Vimto gardens, Chapel street Salford, Salford M3 5JF, United Kingdom",276
3878452,"215 Coulsdon Rd, Old Coulsdon, Coulsdon CR5 1EN, United Kingdom",276
3887428,"215 Dunley Dr, New Addington, Croydon CR0 0RW, United Kingdom",276
3883747,"215 High St, Orpington BR6 0NZ, United Kingdom",276
3878258,"215 King's Rd, Kingston upon Thames KT2 5JH, United Kingdom",276
3881537,"215 Lower Addiscombe Rd, Croydon CR0 6RB, United Kingdom",276
3846258,"215 Marsh Rd, Pinner HA5 5NE, United Kingdom",276
3846248,"215 Marsh Road, 2nd Foor, Monument House, Pinner HA5 5NE, United Kingdom",276
3879781,"215 Selsdon Park Rd, South Croydon CR2 8JH, United Kingdom",276
3882933,"215 Selsdon Park Rd, South Croydon CR2 8JH, United Kingdom",276
5568527,"215-217 Marlowes, Hemel Hempstead HP1 1BL, United Kingdom",276
5082086,"215-223 Staines Rd, Hounslow TW3 3JJ, United Kingdom",276
3894340,"216 Front Ln, Upminster RM14 1LW, United Kingdom",276
3857099,"216 Harrow View, Harrow HA2 6PL, United Kingdom",276
3882783,"216 High St, Beckenham BR3 1EN, United Kingdom",276
5570815,"216 High St, Croydon CR0 1NE, United Kingdom",276
5570643,"216 Kingston Rd, New Malden KT3 3RJ, United Kingdom",276
3859751,"216 Station Rd, Edgware HA8 7AR, United Kingdom",276
3883276,"216-220 High St, Orpington BR6 0LS, United Kingdom",276
3877834,"216-220 High St, Sutton SM1 1NU, United Kingdom",276
3849955,"217 High St, Hounslow TW3 1DH, United Kingdom",276
3882654,"217 High St, Sutton SM1 1LB, United Kingdom",276
3844066,"217 High St, West Drayton UB7 7GN, United Kingdom",276
3872146,"217 Kingspark Business Centre, New Malden KT3 3ST, United Kingdom",276
3887991,"217 Oxlow Ln, Dagenham RM10 7YA, United Kingdom",276
3884360,"217 Reede Rd, Dagenham RM10 8EH, United Kingdom",276
5564437,"217 Station Rd, Harrow HA1 2TH, United Kingdom",276
3884447,"217-219 High St, Orpington BR6 0NZ, United Kingdom",276
3885549,"218 Broadway, Bexleyheath DA6 7AU, United Kingdom",276
5568335,"218 Burnt Oak Broadway, Edgware HA8 0AP, United Kingdom",276
5567667,"218 Ealing Rd, Wembley HA0 4QG, United Kingdom",276
3884669,"218 Heathway, Dagenham RM10 8QS, United Kingdom",276
3866915,"218 High Rd, Woodford, Woodford Green IG8 9HH, United Kingdom",276
3859476,"218 High St, Barnet EN5 5SZ, United Kingdom",276
3849495,"218 High St, Hounslow TW3 1HB, United Kingdom",276
3851963,"218 Preston Rd, Wembley HA9 8PB, United Kingdom",276
5571947,"218 Redbridge Ln E, Ilford, United Kingdom",276
3843856,"218 Thames Side, Staines KT16 8RN, United Kingdom",276
3866597,"218 Tower Bridge Rd, Bermondsey SE1 2, United Kingdom",276
3892878,"219 Aldborough Rd S, Ilford IG3 8HZ, United Kingdom",276
3887567,"219 Broadway, Bexleyheath DA6 7EJ, United Kingdom",276
3851781,"219 Harrow View, Harrow HA1 4SS, United Kingdom",276
3853034,"219 Hatfield Rd, St Albans AL1 4SY, United Kingdom",276
3884470,"219 High St, Orpington BR6 0NZ, United Kingdom",276
5567099,"219 Twickenham Rd, Isleworth TW7 6AA, United Kingdom",276
3883982,"219, High St, Bromley BR1 1DN, United Kingdom",276
3846972,"219-221 High St, Uxbridge UB8 1LB, United Kingdom",276
3894099,"21A Eastern Rd, Romford RM1 3NH, United Kingdom",276
3847775,"21a Ferndown, Northwood HA6 1PQ, United Kingdom",276
3844094,"21A Harte Rd, Hounslow TW3 4LD, United Kingdom",276
4683412,"21A Hearn St, Newport PO30 5EH, UK",276
5572236,"21A High Rd, Romford RM6 6PU, United Kingdom",276
5570807,"21A High St, Sutton SM1 1DJ, United Kingdom",276
3845067,"21A High St, Walton-on-Thames KT12 1DG, United Kingdom",276
4684451,"21A Park Rd, Ryde PO33 1HH, UK",276
3848923,"21B St John's Rd, Southall UB2 5AN, United Kingdom",276
3885887,"21b Welling High St, Welling DA16 1TR, United Kingdom",276
5087046,"21C Tanfield Rd, Croydon CR0 1AN, United Kingdom",276
3880047,"22 A206, Belvedere DA17 5ER, United Kingdom",276
3799286,"22 Alanbrooke Rd, Larkhill, Salisbury SP4 8PE, United Kingdom",276
4684013,"22 Anglesea St, Ryde PO33 2JJ, UK",276
5172013,"22 Atherley Rd, Shanklin PO37 7AT",276
5082310,"22 Barchester Cl, Uxbridge UB8 2JY, United Kingdom",276
3879572,"22 Beaumont Court, Mitcham CR4 2NE, United Kingdom",276
3847208,"22 Betham Rd, Greenford UB6 8RZ, United Kingdom",276
3886991,"22 Bexley High St, Bexley DA5 1AD, United Kingdom",276
3832627,"22 Bolton St, Bury BL9 0EY, United Kingdom",276
3848515,"22 Bridge St, Pinner HA5 3JF, United Kingdom",276
3851813,"22 Bridge St, Pinner HA5 3JF, United Kingdom",276
4684558,"22 Broadfields Ave, Cowes PO31 7UD, UK",276
3880516,"22 Bywood Ave, Croydon CR0 7RA, United Kingdom",276
3844090,"22 Capel Gardens, Pinner HA5 5RG, United Kingdom",276
3880944,"22 Cheltenham Rd, Orpington BR6 9HJ, United Kingdom",276
3844657,"22 Chestnut Ave, Northwood HA6 1HR, United Kingdom",276
3851278,"22 Chestnut Ave, Northwood HA6 1HR, United Kingdom",276
5571361,"22 Chilham Way, Bromley BR2 7PR, United Kingdom",276
4684901,"22 Colwell Chine Rd, Freshwater PO40 9NP, UK",276
3845779,"22 Copper Mill Dr, Isleworth TW7 6PT, United Kingdom",276
3848381,"22 Corporation Street, Book Online for Best Prices, Heathrow TW6 2RL, United Kingdom",276
3877627,"22 Crescent Way, Orpington BR6 9LS, United Kingdom",276
3850268,"22 Dominion Road, Southall UB1 2AA, United Kingdom",276
4682421,"22 Eddington Rd, Seaview PO34 5EE, UK",276
3859555,"22 Edgware Way, Edgware HA8 7BD, United Kingdom",276
3880452,"22 Fairhaven Court, South Croydon CR2 6LF, United Kingdom",276
3847335,"22 First Avenue, Book Online for Best Prices, Heathrow TW6 2RL, United Kingdom",276
3860593,"22 Forest Rd, Cheshunt, Waltham Cross EN8 9DB, United Kingdom",276
3894006,"22 Green Ln, Dagenham RM8 1XU, United Kingdom",276
4653262,"22 Green St, Ryde PO33 2QT, UK",276
5568722,"22 Heddon Ct Ave, Barnet EN4 0DB, United Kingdom",276
3881028,"22 High St, Bromley BR1 1EA, United Kingdom",276
5570749,"22 High St, Epsom KT19 8AH, United Kingdom",276
3850318,"22 High St, Esher KT10 9RT, United Kingdom",276
5570328,"22 High St, Kingston upon Thames KT1 4DB, United Kingdom",276
3848487,"22 High St, Ruislip HA4 7AN, United Kingdom",276
4684071,"22 High St, Shanklin PO37 6JY, UK",276
3879924,"22 High St, Sidcup DA14 6EH, United Kingdom",276
4971091,"22 High St, South Queensferry EH30 9PP, United Kingdom",276
3874155,"22 Hollyfield Rd, Surbiton KT5 9AL, United Kingdom",276
3850177,"22 King St, Southall UB2 4DA, United Kingdom",276
3850182,"22 King St, Southall UB2 4DA, United Kingdom",276
3869523,"22 Kings Mall, King Street, Hammersmith W6 0PZ, United Kingdom",276
4657303,"22 La Colomberie, St Helier JE2 4QJ, Jersey",276
5086831,"22 Langley Park Rd, Sutton SM2 5EN, United Kingdom",276
3848524,"22 Little Oxhey Ln, South Oxhey, Watford WD19 6FR, United Kingdom",276
3878868,"22 Lock's Ln, Mitcham CR4 2GX, United Kingdom",276
3849824,"22 Main Ave, Northwood HA6 2HJ, United Kingdom",276
3847563,"22 Manor Ln, Feltham TW13 4JQ, United Kingdom",276
3881222,"22 Marion Cres, Orpington BR5 2DD, United Kingdom",276
3888817,"22 Market Square, Bromley BR1 1NA, United Kingdom",276
3849291,"22 Mereway Rd, Twickenham TW2 6RG, United Kingdom",276
4512432,"22 Mexborough Rd, Bradford BD2 1BL, UK",276
3859742,"22 Mollison Way, Edgware HA8 5QW, United Kingdom",276
3850226,"22 Palmerston Rd, Harrow HA3 7RR, United Kingdom",276
3843956,"22 Penn Dr, Denham, Uxbridge UB9 5JP, United Kingdom",276
3888326,"22 Pickford Ln, Bexleyheath DA7 4QW, United Kingdom",276
3798569,"22 Queen St, Salisbury SP1 1EY, United Kingdom",276
3878776,"22 Rectory Rd, Beckenham BR3 1AA, United Kingdom",276
4684080,"22 Regent St, Shanklin PO37 7AA, UK",276
5710075,"22 Rouge Bouillon, Saint-Helier JE2 3ZA, United Kingdom",276
3852772,"22 Roxborough Park, Harrow HA1 3BE, United Kingdom",276
3887191,"22 Sandpiper Dr, Erith DA8 2NY, United Kingdom",276
3872942,"22 Seymour Gardens, Surbiton KT5 8QE, United Kingdom",276
3857468,"22 Shenley Rd, Borehamwood WD6 1AE, United Kingdom",276
5171932,"22 Shide Rd, Newport PO30 1YQ",276
5087539,"22 St Peter's Rd, Croydon CR0 1HD, United Kingdom",276
4682115,"22 St Thomas' Square, Newport PO30 1SQ, UK",276
3845445,"22 Station Rd, Gerrards Cross SL9 8EL, United Kingdom",276
3851275,"22 Station Rd, Gerrards Cross SL9 8EL, United Kingdom",276
3880574,"22 Stonecot Hill, Sutton SM3 9HE, United Kingdom",276
3851405,"22 Sutton Hall Rd, Hounslow TW5 0PY, United Kingdom",276
3879545,"22 Teevan Rd, Croydon CR0 6RN, United Kingdom",276
5708583,"22 The Broadway, Haywards Heath RH16 3AL",276
3865390,"22 The Town, Enfield EN2 6LT, United Kingdom",276
3840541,"22 The Vennel, South Queensferry EH30 9HT, United Kingdom",276
5570965,"22 Tillingbourne Green, Orpington BR5 2HR, United Kingdom",276
3850207,"22 Union Rd, Wembley HA0 4AU, United Kingdom",276
3850211,"22 Union Rd, Wembley HA0 4AU, United Kingdom",276
3895285,"22 Upney Lane, Barking IG11 9LW, United Kingdom",276
3844856,"22 Vicarage Farm Rd, Hounslow TW3 4NW, United Kingdom",276
3848914,"22 Wales Ave, Carshalton SM5 3QN, United Kingdom",276
3806450,"22 Wellmeadow St, Paisley PA1 2EE, United Kingdom",276
4682995,"22 Woodland View, Ryde PO33 2DG, UK",276
3882752,"22 Woodmere Ave, Croydon CR0 7PB, United Kingdom",276
4657381,"22, La Colomberie, St Helier JE4, 8SD, Jersey, Jersey",276
3893122,"22, The Liberty, Romford, Essex RM1 3EE, United Kingdom",276
3849941,"22, Treaty Centre, High St, Hounslow TW3 1ES, United Kingdom",276
3863589,"22, Wood Green Shopping City, 149-153 High Road, Wood Green N22 6EF, United Kingdom",276
5571035,"22-24 Bellegrove Rd, Welling DA16 3PU, United Kingdom",276
3858307,"22-24 College Rd, Harrow HA1 1BE, United Kingdom",276
5083350,"22-24 Coventry Rd, Ilford IG1 4QR, United Kingdom",276
3886641,"22-24 Freshwater Rd, Dagenham RM8 1RY, United Kingdom",276
3872441,"22-24 High St, Kingston upon Thames KT1 1HL, United Kingdom",276
4684717,"22-24 Lugley St, Newport PO30 5HD, UK",276
3849575,"22-24 Market Pl, Brentford TW8 8EQ, United Kingdom",276
3798040,"22-24 Orchard End, Bulford, Salisbury SP4 9EA, United Kingdom",276
3851920,"22-24 The Broadway, Southall UB1 1QW, United Kingdom",276
5083349,"22-26 Argyle Rd, Ilford IG1 3BQ, United Kingdom",276
5570316,"22-28 High St, Kingston upon Thames KT1 1HL High St, Kingston upon Thames KT1 1HL, United Kingdom",276
5564737,"22/24 Station Rd, Hayes UB3 4DA, United Kingdom",276
3878011,"220 Addington Rd, Selsdon, Croydon CR2 8LD, United Kingdom",276
3851896,"220 Ealing Rd, Wembley HA0 4QH, United Kingdom",276
3849472,"220 Great West Rd, Hounslow TW5 9AW, United Kingdom",276
5567843,"220 Headstone Ln, Harrow HA2 6LY, United Kingdom",276
3849923,"220 Kingston Rd, Staines TW18 1PG, United Kingdom",276
3848512,"220A Northolt Rd, Harrow HA2 8DU, United Kingdom",276
3886960,"221 Bellegrove Rd, Welling DA16 3RQ, United Kingdom",276
3880487,"221 Chipstead Valley Rd, Coulsdon CR5 3BR, United Kingdom",276
3889341,"221 High Rd, Ilford IG1 1LX, United Kingdom",276
5571348,"221 High St, Bromley BR1 1NZ, United Kingdom",276
3882275,"221 Southborough Ln, Bromley BR2 8AT, United Kingdom",276
3857128,"221 Watford Rd, Harrow HA1 3UA, United Kingdom",276
3889396,"221/223 Oxlow Ln, Dagenham RM10 7YA, United Kingdom",276
5571260,"221A High Rd, Dartford DA2 7BU, United Kingdom",276
5565736,"221A Powder Mill Ln, Twickenham TW2 6EH, United Kingdom",276
3884212,"222 Bexley Rd, Erith DA8 3HD, United Kingdom",276
5571295,"222 Broadway, Bexleyheath DA6 7AU, United Kingdom",276
3869975,"222 Elm Rd, Kingston upon Thames KT2 6HZ, United Kingdom",276
3877555,"222 Godstone Rd, Warlingham, Whyteleafe CR3 0EE, United Kingdom",276
5565542,"222 Great West Rd, Hounslow TW5 9AW, United Kingdom",276
3888162,"222 Heathway, Dagenham RM10 8QS, United Kingdom",276
5571607,"222 High St, Sutton SM1 1NT, United Kingdom",276
5564880,"222 High St, Uxbridge UB8 1LD, United Kingdom",276
3882287,"222 Main Rd, Westerham TN16 3BD, United Kingdom",276
5570528,"222 Mitcham Rd, Croydon CR0 3JJ, United Kingdom",276
3852388,"222 Preston Rd, Wembley HA9 8PB, United Kingdom",276
3887270,"222 Samuel Garside House, 2 De Pass Gardens, Barking IG11 0FQ, United Kingdom",276
3888888,"222 South St, Romford RM1 2AD, United Kingdom",276
3889685,"222 South St, Romford RM1 2AD, United Kingdom",276
3844605,"222 Worton Rd, Isleworth TW7 6EF, United Kingdom",276
3868671,"222-224 High Rd, Ilford IG1 1QF, United Kingdom",276
3834453,"222-226 High St, Hounslow TW3 1HB, United Kingdom",276
3887227,"222A Heathway, Dagenham RM10 8QS, United Kingdom",276
3895301,"223 Aldborough Rd S, Ilford IG3 8HZ, United Kingdom",276
5571221,"223 Dartmouth Rd, Lewisham, Sydenham SE26 4QY, United Kingdom",276
3834454,"223 High St, Hounslow TW3 1DJ, United Kingdom",276
3844620,"223 High St, Hounslow TW3 1DJ, United Kingdom",276
5565103,"223 High St, Uxbridge UB8 1LD, United Kingdom",276
3887998,"223 Ilford Ln, Ilford IG1 2RZ, United Kingdom",276
3847522,"223 Lady Margaret Rd, Southall UB1 2PT, United Kingdom",276
3849466,"223 Powder Mill Ln, Twickenham TW2 6EH, United Kingdom",276
