3850028,"1 Elstree Way, Borehamwood WD6 1JY, United Kingdom",276
3856785,"1 Empire Way, Wembley HA9 0EW, United Kingdom",276
4682161,"1 Esplanade, Shanklin PO37 6BN, UK",276
4656152,"1 Esplanade, St Helier JE2 3QA, Jersey",276
3880037,"1 Farley Rd, South Croydon CR2 8DB, United Kingdom",276
3879516,"1 Farm La, Purley CR8 3PT, United Kingdom",276
3883230,"1 Filston Ln, Shoreham, Sevenoaks TN14 7SP, United Kingdom",276
3844852,"1 Firs Dr, Hounslow TW5 9TA, United Kingdom",276
3851651,"1 First Cross Rd, Twickenham TW2 5QA, United Kingdom",276
3867317,"1 Fleethall Rd, Rochford SS4 1NF, United Kingdom",276
3887423,"1 Forest Rd, Ilford IG6 3HA, United Kingdom",276
3872879,"1 Fromondes Rd, Sutton SM3 8QP, United Kingdom",276
3850109,"1 Garrison Cl, Hounslow TW4 5EZ, United Kingdom",276
3882035,"1 Gascoigne Rd, New Addington, Croydon CR0 0ND, United Kingdom",276
5172185,"1 Georgetown Rd, JE2 7PD",276
3858812,"1 Glacier Way, Wembley HA0 1HQ, United Kingdom",276
5567555,"1 Glacier Way, Wembley HA0 1HQ, United Kingdom",276
3877564,"1 Godstone Rd, Caterham CR3 6RE, United Kingdom",276
3877541,"1 Godstone Rd, Purley CR8 2DH, United Kingdom",276
3886677,"1 Graham Rd, Bexleyheath DA6 7EG, United Kingdom",276
3852795,"1 Graham Rd, Harrow, Middlesex HA3 5RP, UK, Harrow HA3 5RP, United Kingdom",276
3844277,"1 Great West Rd, Hounslow TW5 9AN, United Kingdom",276
3845157,"1 Grove Hill, Harrow HA1, United Kingdom",276
3845854,"1 Grovestile Waye, Feltham TW14 8EY, United Kingdom",276
5083174,"1 Guardian Avenue, Flat 39, Edgware NW9 4AW, United Kingdom",276
3882430,"1 Hadlow Rd, Sidcup DA14 4AA, United Kingdom",276
3844745,"1 Harefield Rd, Uxbridge UB8 1PH, United Kingdom",276
5565166,"1 Havelock Pl, Harrow HA1 1LJ, United Kingdom",276
3849586,"1 Heath Rd, Twickenham TW1 4AW, United Kingdom",276
5607783,"1 Herriot Way, Wakefield WF1 2PT",276
3843899,"1 Heston Rd, Hounslow TW5 0QH, United Kingdom",276
3846919,"1 High Rd, Ickenham, Uxbridge UB10 8LJ, United Kingdom",276
5570879,"1 High St, Banstead SM7 2NE, United Kingdom",276
3877738,"1 High St, Croydon CR9 1PD, United Kingdom",276
5087383,"1 High St, Dartford DA1 1DU, United Kingdom",276
3884446,"1 High St, Orpington BR6 6BG, United Kingdom",276
5571195,"1 High St, Purley CR8 2AF, United Kingdom",276
5668482,"1 High St, Seaview PO34 5EU",276
4683489,"1 High St, Shanklin PO37 6LA, UK",276
3878946,"1 High St, Tadworth KT20 5SD, United Kingdom",276
3881282,"1 Hilldale Rd, Sutton SM1, United Kingdom",276
3889196,"1 Holgate Court Western Rd, Romford RM1 3JS, United Kingdom",276
5039025,"1 Holly Rd, Rowley Regis B65 0BH, United Kingdom",276
3880089,"1 Honister Heights, Purley CR8 1EW, United Kingdom",276
3883958,"1 Hoskins Walk, Oxted RH8 9HR, United Kingdom",276
3889188,"1 Howard Rd, Upminster RM14 2UE, United Kingdom",276
3892769,"1 Howard Rd, Upminster RM14 2UE, United Kingdom",276
3843946,"1 Ickenham Rd, Ruislip HA4 7BT, United Kingdom",276
3844864,"1 Inverness Rd, Hounslow TW3 3LS, United Kingdom",276
5571690,"1 Jenkins Ln, Barking IG11 0AD, United Kingdom",276
3889202,"1 Jenner Cl, Sidcup DA14 6BF, United Kingdom",276
4684894,"1 Jessamine Cottages, Freshwater PO40 9HE, United Kingdom",276
3847627,"1 Ken Way, Chalkhill Estate, Wembley HA9 9DS, United Kingdom",276
3878299,"1 Kiln Ln, Epsom KT17 1EQ, United Kingdom",276
3844996,"1 King St, Twickenham TW1 3SD, United Kingdom",276
3797328,"1 King St, Wilton, Salisbury SP2 0AX, United Kingdom",276
3798784,"1 King St, Wilton, Salisbury SP2 0AX, United Kingdom",276
3894779,"1 Knight Cl, Dagenham RM8 2JX, United Kingdom",276
3894951,"1 Knightsbridge Gardens, Romford RM7 9AD, United Kingdom",276
3860662,"1 Kynaston Rd, Enfield EN2 0DA, United Kingdom",276
4656530,"1 La Grande Route de Saint-Jean, JE2 3XF, Jersey",276
4684593,"1 Lamorbey Rd, Sandown PO36 9NG, UK",276
3878023,"1 Lansdowne Rd, Croydon CR9 2BN, United Kingdom",276
3880002,"1 Lansdowne Rd, Croydon CR9 2BN, United Kingdom",276
3881101,"1 Lansdowne Rd, Croydon CR9 2BN, United Kingdom",276
5570976,"1 Lansdowne Rd, Croydon CR9 2BN, United Kingdom",276
3847723,"1 Lewes Rd, Forest Row RH18 5AA, United Kingdom",276
3884257,"1 Lewis Rd, Sidcup DA14 4NB, United Kingdom",276
3844365,"1 Link Way, Denham, Uxbridge UB9 5NL, United Kingdom",276
5087050,"1 Lodge Hill, Purley CR8 4AH, United Kingdom",276
3877763,"1 Long Ln, Croydon CR0 7AR, United Kingdom",276
3882897,"1 Long Ln, Croydon CR0 7AR, United Kingdom",276
3884777,"1 Longbridge Rd, Barking IG11 8RU, United Kingdom",276
3832295,"1 Longfield Ave, Heald Green, Cheadle SK8 3NH, United Kingdom",276
3846390,"1 Love Lane, Pinner HA5 3EE, United Kingdom",276
3880907,"1 Lower Addiscombe Rd, Croydon CR0 6PQ, United Kingdom",276
3877690,"1 Lower Rd, Sutton SM1 4QJ, United Kingdom",276
4684262,"1 Lugley St, Newport PO30 5HD, UK",276
3882708,"1 Luxted Rd, Downe, Orpington BR6 7JS, United Kingdom",276
3870787,"1 MacArthur Cl, Wembley HA9 6JA, United Kingdom",276
3873877,"1 Malden Rd, Sutton SM3 8QD, United Kingdom",276
3846867,"1 Mallard Rd, Peterborough PE3 8YN, United Kingdom",276
3856771,"1 Malvern Ave, Harrow HA2 9EU, United Kingdom",276
5571438,"1 Manor Rd, Erith DA8 2AB, United Kingdom",276
3846165,"1 Manorgate Rd, Kingston upon Thames KT2 7EL, United Kingdom",276
4684661,"1 Mariners Way, Cowes PO31 8PD, UK",276
3884497,"1 Market Pl, Bexleyheath DA6 7DU, United Kingdom",276
3865573,"1 Market Pl, Hertford SG14 1DD, United Kingdom",276
4682623,"1 Marsh Cl, Sandown PO36 8EU, UK",276
3864628,"1 Marshgate Dr, Hertford SG13 7AQ, United Kingdom",276
3851399,"1 Martindale Rd, Hounslow TW4 7EW, United Kingdom",276
3851418,"1 Martindale Rd, Hounslow TW4 7EW, United Kingdom",276
3857262,"1 Martins Walk, Borehamwood WD6 2EH, United Kingdom",276
3877523,"1 Matthews Yard, Croydon CR0 1FF, United Kingdom",276
5571544,"1 Matthews Yard, Croydon CR0 1FF, United Kingdom",276
3846469,"1 May Rd, Twickenham TW2 6QW, United Kingdom",276
3848736,"1 Memorial Cl, Hounslow TW5 0LN, United Kingdom",276
3866867,"1 Mid St, South Nutfield, Redhill RH1 4JY Mid St, South Nutfield, Redhill RH1 4JY, United Kingdom",276
3888418,"1 Middle Boy, Abridge, Romford RM4 1TD, United Kingdom",276
4683193,"1 Mill Hill Rd, Cowes PO31 7EA, UK",276
3885575,"1 Mill Rd, Erith DA8 1HW, United Kingdom",276
3844284,"1 Mill Rd, West Drayton UB7 7EQ, United Kingdom",276
3857679,"1 Milton Ave, Barnet EN5 2EX, United Kingdom",276
3844747,"1 Milton Rd, Ickenham, Uxbridge UB10 8NQ, United Kingdom",276
4683907,"1 Moa Place School Green Road, Freshwater PO40 9DS, UK",276
3864402,"1 Monkhams, Waltham Abbey EN9 2EP, United Kingdom",276
3872435,"1 Montem Rd, New Malden KT3 3QW, United Kingdom",276
4682796,"1 Moorgreen Rd, Cowes PO31 7LJ, UK",276
3850136,"1 Mount Pleasant Rd, Tunbridge Wells TN1, United Kingdom",276
5769275,"1 Murray Rd, Bury BL9 0BJ, UK",276
3877915,"1 N End, Croydon CR9 1SX, United Kingdom",276
3858987,"1 Nash Way, Harrow HA3 0JA, United Kingdom",276
3844250,"1 Nestles Ave, Hayes UB3 4UZ, United Kingdom",276
4683209,"1 Nettlecombe Ln, Whitwell, Ventnor PO38 2QA, UK",276
5082962,"1 New Rd, Brentford TW8 0NX, United Kingdom",276
3864978,"1 Newgatestreet Rd, Goff's Oak, Waltham Cross EN7 5SS, United Kingdom",276
3879001,"1 Nightingale Rd, Carshalton SM5 2DN, United Kingdom",276
5709977,"1 North Quay, Saint Aubin JE3 8BS, United Kingdom",276
5710786,"1 North Quay, St Aubin JE3 8JT, United Kingdom",276
3864498,"1 Northaw Rd W, Northaw, Potters Bar EN6 4NW, United Kingdom",276
3894796,"1 Oak Lodge Ave, Chigwell IG7 5JA, United Kingdom",276
4656385,"1 Oak Tree Gardens, Jersey",276
4505469,"1 Oakley St, East Ardsley, Wakefield WF3 3DX, UK",276
3798864,"1 Old Sarum Park, Old Sarum, Salisbury SP4 6EB, United Kingdom",276
3799683,"1 Old Sarum Park, Old Sarum, Salisbury SP4 6EB, United Kingdom",276
3849205,"1 Olympic Way, Wembley HA9 0NP, United Kingdom",276
3892387,"1 Orchis Way, Romford RM3 9NT, United Kingdom",276
3856149,"1 Palmerston Rd, Harrow HA3 7RR, United Kingdom",276
3885201,"1 Park Ave, Barking IG11 8QU, United Kingdom",276
3845650,"1 Park Ln, Hemel Hempstead HP2 4YL, United Kingdom",276
3873480,"1 Park Rd, Kingston upon Thames KT2 6BX, United Kingdom",276
3889052,"1 Park View Rd, Welling DA16 1SY, United Kingdom",276
5566427,"1 Parkfield Cres, Feltham TW13 4HJ, United Kingdom",276
3883355,"1 Pembury Rd, Tonbridge TN9 2HS, United Kingdom",276
3852914,"1 Perivale Ln, Perivale, Greenford UB6, United Kingdom",276
3886923,"1 Picardy St, Belvedere DA17 5QQ, United Kingdom",276
3886932,"1 Picardy St, Belvedere DA17 5QQ, United Kingdom",276
3883280,"1 Place Farm Ave, Orpington BR6 8DG, United Kingdom",276
4598713,"1 Poplar Dr, Catcliffe, Rotherham S60 5TR, UK",276
3849527,"1 Poppin Business Centre, South Way, Wembley HA9 0HB, United Kingdom",276
5171751,"1 Prince's Esplanade, Cowes PO31 8LE, United Kingdom",276
4682638,"1 Pritchetts Way, Rookley, Ventnor PO38 3NG, UK",276
3880447,"1 Purley Oaks Rd, South Croydon CR2 0NU, United Kingdom",276
4635121,"1 Purston Ln, Ackworth, Pontefract WF7 7EQ, UK",276
3798066,"1 Queen St, Wilton, Salisbury SP2 0AL, United Kingdom",276
3849574,"1 Queen's Rd, Twickenham TW1 4EZ, United Kingdom",276
5566800,"1 Queen's Rd, Twickenham TW1 4EZ, United Kingdom",276
3847139,"1 Queens Park Gardens, Feltham TW13 4JS, United Kingdom",276
5082306,"1 Queens Rd, Hersham, Walton-on-Thames KT12 5LT, United Kingdom",276
3885768,"1 Rainham Rd, Rainham RM13 8SP, United Kingdom",276
3887822,"1 Randalls Cottages, Navestock Heath, Romford RM4 1HD, United Kingdom",276
3885547,"1 Ranleigh Gardens, Bexleyheath DA7 5PD, United Kingdom",276
3881106,"1 Ravensbourne Rd, Bromley BR1 1HN, United Kingdom",276
3846299,"1 Redford Way, Uxbridge UB8 1SZ, United Kingdom",276
3846782,"1 Rickmansworth Rd, Pinner HA5 3TE, United Kingdom",276
3880461,"1 Rigby Cl, Croydon CR0 4JU, United Kingdom",276
3874122,"1 Riverside Walk, Kingston upon Thames KT1 1QN, United Kingdom",276
3846794,"1 Rockingham Rd, Uxbridge UB8 2UB, United Kingdom",276
3847388,"1 Rockware Ave, Greenford UB6, United Kingdom",276
3856673,"1 Rosemont Rd, Wembley HA0 4PE, United Kingdom",276
3844742,"1 Rowan Pl, Hayes UB3 2EZ, United Kingdom",276
3856759,"1 Roxeth Hill, Harrow HA2 0JY, United Kingdom",276
3844367,"1 Saint John's Hill, Clapham Junction Approach, Clapham Junction SW11 1TN, United Kingdom",276
3832418,"1 Salisbury House, St Stephen St, Salford M3 6AX, United Kingdom",276
5566731,"1 Salisbury Rd, Longford, Hounslow TW6 3YD, United Kingdom",276
3798343,"1 Salisbury Rd, Wilton, Salisbury SP2 0BN, United Kingdom",276
3878324,"1 Scarborough Cl, Sutton SM2 7EA, United Kingdom",276
3884927,"1 Sheridan Ct, St Edmunds Rd, Dartford DA1 5NF, United Kingdom",276
3881382,"1 Sheridan Pl, Bromley BR1, United Kingdom",276
3844037,"1 Shire Ln, Chorleywood, Rickmansworth WD3 5NQ, United Kingdom",276
5666596,"1 Shooters Hill, Cowes PO31 7BE",276
3847074,"1 Shoreham Ln, Orpington BR6 7QT, United Kingdom",276
3848573,"1 Shrewsbury Walk, Isleworth TW7 7DE, United Kingdom",276
3860826,"1 Silver St, Enfield EN1 3EE, United Kingdom",276
3847924,"1 Simplemarsh Rd, Addlestone KT15 1QH, United Kingdom",276
3834481,"1 Skerne Rd, Kingston upon Thames KT2 5FJ, United Kingdom",276
5570301,"1 Skerne Rd, Kingston upon Thames KT2 5FJ, United Kingdom",276
3882944,"1 Southend Rd, Beckenham BR3 1SD, United Kingdom",276
5572322,"1 Southend Rd, Woodford, Ilford IG8 8LG, United Kingdom",276
3888893,"1 Spilsby Rd, Romford RM3 8SB, United Kingdom",276
4656114,"1 St Aubin's Rd, Jersey",276
3856762,"1 St Floor, Eurotraveller Hotel Premier, 56-60 Northolt Road, South Harrow HA2 0DW, United Kingdom",276
3848038,"1 St James Road, Kingston upon Thames KT1 2AH, United Kingdom",276
3799044,"1 St John's St, Salisbury SP1 2SD, United Kingdom",276
4684622,"1 St Saviour's Rd, Totland Bay PO39 0EZ, UK",276
4683402,"1 St Urians, Sandown PO36 9PX, UK",276
3884369,"1 St. Augustines Rd, Belvedere DA17 5HH, United Kingdom",276
3884915,"1 Station Approach, Bexleyheath DA7 6HQ, United Kingdom",276
3877716,"1 Station Approach, South Croydon CR2 0QD, United Kingdom",276
3881412,"1 Station Approach, South Croydon CR2 0QD, United Kingdom",276
3848411,"1 Station Approach, Staines TW18 4LY, United Kingdom",276
3861383,"1 Station Cl, Potters Bar EN6 1TL, United Kingdom",276
3852674,"1 Station Rd, Edgware HA8 7JE, United Kingdom",276
5571706,"1 Station Rd, Romford RM2 6BX, United Kingdom",276
3894608,"1 Station Rd, Romford RM3 0BP, United Kingdom",276
3889385,"1 Station Rd, Upminster RM14 2SJ, United Kingdom",276
3846994,"1 Station Rd, West Drayton UB7 7BT, United Kingdom",276
3894345,"1 Stifford Hill, South Ockendon, North Stifford, Grays RM16, United Kingdom",276
3844007,"1 Stockley Park Roundabout, Uxbridge UB11 1BD, United Kingdom",276
3846337,"1 Stoke Rd, Slough SL2 5AH, United Kingdom",276
3877651,"1 Stonecot Hill, Asda, Sutton SM3 9HB, United Kingdom",276
3873258,"1 Stoneleigh Cres, Epsom KT19 0RT, United Kingdom",276
3844824,"1 Stretton Close, Stretton-on-Fosse, Moreton-in-Marsh GL56 9QZ, United Kingdom",276
3874131,"1 Surbiton Hill Rd, Surbiton KT6 4TW, United Kingdom",276
3871632,"1 Sury Basin, Kingston upon Thames KT2 5NZ, United Kingdom",276
3877502,"1 Sury Basin, Kingston upon Thames KT2 5NZ, United Kingdom",276
3877863,"1 Sury Basin, Kingston upon Thames KT2 5NZ, United Kingdom",276
3848658,"1 Sussex Rd, Ickenham, Uxbridge UB10 8PH, United Kingdom",276
3847506,"1 Swakeleys Rd, Uxbridge UB10 8DF, United Kingdom",276
5082208,"1 Swan Road, West Drayton UB7 7JY, United Kingdom",276
3886278,"1 Tanhouse Rd, Oxted RH8 9PE, United Kingdom",276
4682141,"1 Tennyson Rd, Freshwater PO40 9AA, UK",276
4682627,"1 Terminus Rd, Cowes PO31 7TX, UK",276
3887212,"1 The Brewery, Romford RM1 1AU, United Kingdom",276
3888525,"1 The Brewery, Romford RM1 1AU, United Kingdom",276
5571808,"1 The Brewery, Romford RM1 1AU, United Kingdom",276
3873565,"1 The Broadway Stoneleigh, Epsom KT17 2JA, United Kingdom",276
3877719,"1 The Broadway, Croydon CR0 4QR, United Kingdom",276
5564710,"1 The Broadway, Greenford UB6 9PH, United Kingdom",276
3850220,"1 The Broadway, Harrow HA3 7EH, United Kingdom",276
3851860,"1 The Broadway, Stanmore HA7 4DB, United Kingdom",276
3877884,"1 The Broadway, Tolworth, Surbiton KT6 7DQ, United Kingdom",276
3865282,"1 The Broadway, Woodford, Woodford Green IG8 0HL, United Kingdom",276
3845011,"1 The Causeway, Teddington TW11 0HB, United Kingdom",276
3848107,"1 The Common, Southall UB2 5PJ, United Kingdom",276
3860603,"1 The Green, Ware SG12 0QW, United Kingdom",276
3881497,"1 The Horseshoe, Banstead SM7 2BQ, United Kingdom",276
3856154,"1 The Mall, Harrow HA3 9RJ, United Kingdom",276
3844359,"1 The Mt, New Malden KT3 4HU, United Kingdom",276
4682850,"1 The Nurseries, Freshwater PO40 9FG, UK",276
3798579,"1 The Old Dairy, Nunton, Salisbury SP5 4HB, United Kingdom",276
3886981,"1 The Oval, Sidcup DA15 9ER, United Kingdom",276
3798193,"1 The Packway, Larkhill, Salisbury SP4 8PY, United Kingdom",276
3799471,"1 The Plaza, Bulford Road, Salisbury SP4 8DL, United Kingdom",276
4653250,"1 The Quay, Yarmouth PO41 0PG, UK",276
4682957,"1 The Quay, Yarmouth PO41 0PG, UK",276
4684609,"1 The Quay, Yarmouth PO41 0PG, UK",276
3883948,"1 The Square, Riverhead, Sevenoaks TN13 2AA, United Kingdom",276
4563458,"1 The Strand, Derby DE1 1BJ, UK",276
3860829,"1 The Town, Enfield EN2 6LD, United Kingdom",276
5568086,"1 Thornbury, West Ashland, Milton Keynes MK6 4BB, United Kingdom",276
5568838,"1 Tower Hill Terrace, Tower Hill EC3N 4EE, United Kingdom",276
3884407,"1 Townley Rd, Bexleyheath DA6 7JG, United Kingdom",276
3884502,"1 Townley Rd, Bexleyheath DA6 7JG, United Kingdom",276
5568891,"1 Turners Hill, Waltham Cross EN8 8NQ, United Kingdom",276
3877443,"1 Union St, Kingston upon Thames KT1 1RP, United Kingdom",276
5668483,"1 Union St, Ryde PO33 2EA",276
4682097,"1 Upper Old St, Fareham PO14 3LJ, UK",276
3881339,"1 Upper Rd, Wallington SM6 8JY, United Kingdom",276
5566872,"1 Upper Square, Isleworth TW7 7BH, United Kingdom",276
3844819,"1 Uppings Farm Cottage, Buckingham Road, Aylesbury HP22 4DR, United Kingdom",276
3852801,"1 Uxbridge Rd, Pinner HA5 3QA, United Kingdom",276
3852770,"1 Vaughan Rd, Harrow HA1 4DP, United Kingdom",276
3846567,"1 Vicarage Rd, Twickenham TW2 5TS, United Kingdom",276
3882091,"1 Village Way, Beckenham BR3 3NA, United Kingdom",276
5571126,"1 Walderslade Centre, Chatham ME5 9UD, United Kingdom",276
5570876,"1 Walton St, Walton on the Hill, Tadworth KT20 7RW, United Kingdom",276
3847622,"1 Waxwell Ln, Pinner HA5 3LA, United Kingdom",276
3869551,"1 Wembley Hill Rd, Wembley HA9 8AF, United Kingdom",276
3848252,"1 Wembley Park Blvd, Wembley HA9 0TG, United Kingdom",276
3870185,"1 Wembley Park Blvd, Wembley HA9 0TG, United Kingdom",276
5570126,"1 Wembley Park Blvd, Wembley HA9 0TG, United Kingdom",276
5570221,"1 Wembley Park Blvd, Wembley HA9 0TG, United Kingdom",276
4684603,"1 West St, Wroxall, Ventnor PO38 3BU, UK",276
3831181,"1 Westbourne Grove, Stockport SK5 6UD, United Kingdom",276
5571772,"1 Western Rd, Romford RM1 3LD, United Kingdom",276
3851419,"1 Western Rd, Southall UB2 5HA, United Kingdom",276
3871648,"1 Wheatfield Way, Kingston upon Thames KT1 2TU, United Kingdom",276
4653251,"1 Wheatsheaf Ln, Yarmouth PO41 0PF, UK",276
5569150,"1 Whiffen's Ave, Chatham ME4 4SF, United Kingdom",276
5571153,"1 Whytecliffe Rd S, Purley CR8 2AY, United Kingdom",276
3883448,"1 Widmore Rd, Bromley BR1 1RN, United Kingdom",276
4684086,"1 Wilton Park Rd, Shanklin PO37 7BT, UK",276
3877679,"1 Windmill Rd, Mitcham CR4 1HT, United Kingdom",276
5570836,"1 Windmill Rd, Mitcham CR4 1HT, United Kingdom",276
3878834,"1 Wontford Rd, Purley CR8 4BE, United Kingdom",276
4558792,"1 Wood Avens Way, Wymondham NR18 0XP, UK",276
3882325,"1 Woodcote Ln, Purley CR8 3HB, United Kingdom",276
5568750,"1 Woodford Ave, Ilford IG2 6UF, United Kingdom",276
3883736,"1 Woodhurst Ave, Orpington BR5 1AR, United Kingdom",276
3847989,"1 Woodside, Watford WD24 6QT, United Kingdom",276
3880799,"1 Worlds End Ln, Orpington BR6 6AA, United Kingdom",276
3872424,"1 Wyndham Rd, Kingston upon Thames KT2 5JR, United Kingdom",276
3881060,"1 Wyvern Rd, Purley CR8 2NQ, United Kingdom",276
3897180,"1 Yardley Cl, Tonbridge TN9 1QA, United Kingdom",276
5564519,"1 Yeading La, Hayes UB4 0EL, United Kingdom",276
3880768,"1&2, 21 N End, Croydon CR0 1TY, United Kingdom",276
3851842,"1, 1-9 St Anns Road, Harrow HA1 1AP, United Kingdom",276
3854804,"1, 106 Wembley Park Dr, Wembley HA9 8HP, United Kingdom",276
3848283,"1, 110 Tebworth Rd, Wingfield, Leighton Buzzard LU7 9QH, United Kingdom",276
3860102,"1, 184 E Barnet Rd, Barnet EN4 8RD, United Kingdom",276
3849390,"1, 24 Central Ave, Molesey, West Molesey KT8 2QH, United Kingdom",276
5568208,"1, 3 King St, Watford WD17 2EN, United Kingdom",276
3889374,"1, 3 South St, Romford RM1 3RL, United Kingdom",276
3882886,"1, 3 Trojan Way, Croydon CR0 4LX, United Kingdom",276
3878568,"1, 30 Woodman Rd, Coulsdon CR5 3HP, United Kingdom",276
4653259,"1, 44 Beachfield Rd, Sandown PO36 8LT, UK",276
3851643,"1, 67A Holly Rd, Twickenham TW1 4HF, United Kingdom",276
3872160,"1, 7 Amenity Way, Morden SM4 4AU, United Kingdom",276
4590407,"1, Ayres Yard, Station Rd, Wallingford OX10 0JZ, UK",276
4521146,"1, Beaumont Shopping Centre, Beaumont Leys LE4 1DE, UK",276
3855611,"1, Borehamwood Shopping Centre, Borehamwood WD6 4PR, United Kingdom",276
4521370,"1, Bridge Park Plaza, Bridge Park Rd, Thurmaston LE4 8BL, UK",276
3867045,"1, De Mandeville Retail Park, Southbury Rd, Enfield EN1 1TW, United Kingdom",276
4683172,"1, East Yar Road Trading State, E Yar Rd, Sandown PO36 9AX, UK",276
3897143,"1, Goodmayes Retail Park, Chadwell Heath RM6 4HX, United Kingdom",276
3863050,"1, Kings Mall Shopping Centre, Kings Street, Hammersmith W6 0PZ, United Kingdom",276
3877857,"1, Leigh Close, New Malden KT3 3NW, United Kingdom",276
3844377,"1, New Barns Farm Cottage, Roding Lane North, Chigwell IG7 6BJ, United Kingdom",276
5566178,"1, Newall Rd, Hounslow TW6, United Kingdom",276
5568818,"1, Parkhouse Court, Tamblin Way, Hatfield AL10 9RQ, United Kingdom",276
3888889,"1, Redwing Court, 3 Ashton Rd, Romford RM3 8QQ, United Kingdom",276
3867073,"1, Rom Valley Way, Romford RM7 0AZ, United Kingdom",276
4657236,"1, Route de la Valle, JE3 7EG, Jersey",276
4684548,"1, Ryde Business Park, Nicholson Rd, Ryde PO33 1BE, UK",276
3845515,"1, South Row, Milton Keynes MK9 1DL, United Kingdom",276
3850427,"1, The Centre, Feltham TW13 4AU, United Kingdom",276
3851858,"1, The Mall, Station Rd, Edgware HA8 7BD, United Kingdom",276
3846212,"1, The National Sikh Resource Centre, Dominion Rd, Southall UB2 5DP, United Kingdom",276
5570314,"1, The Rotunda, Clarence St, Kingston upon Thames KT1 1QJ, United Kingdom",276
5709729,"1-, 2A Avenue Rd, Freshwater PO40 9UR",276
3894775,"1-11 Vineries Close, Dagenham RM9 5DA, United Kingdom",276
5089370,"1-12, Gunveer Court, 3A Coventry Rd, Ilford IG1 4LZ, United Kingdom",276
3877929,"1-15 Lansdowne Rd, Croydon CR0, United Kingdom",276
3889434,"1-15 The Brewery, Romford RM1 1AU, United Kingdom",276
5565722,"1-1A High St, Hounslow TW3 1RH, United Kingdom",276
3864609,"1-2 Bairny Wood Approach, Woodford, Woodford Green IG8 0HH, United Kingdom",276
3881271,"1-2 Crown Ln, Morden SM4 5DA, United Kingdom",276
5174051,"1-2 Eagle Cottages, Monkton Lane, Monkton Village, Jarrow NE32 5NN",276
3852189,"1-2 Ealing Rd, Wembley HA0 4PZ, United Kingdom",276
5567838,"1-2 Headstone Dr, Harrow HA1 4UW, United Kingdom",276
5172072,"1-2 Holyrood St, Newport PO30 5AU",276
3859576,"1-2 Station Forecourt, Edgware HA8 7AW, United Kingdom",276
3848571,"1-2 Tyler Rd, Southall UB2 4XQ, United Kingdom",276
3877911,"1-2, 21 N End, Croydon CR0 1TY, United Kingdom",276
5565610,"1-3 Beaconsfield Rd, Southall UB1 1BA, United Kingdom",276
3895894,"1-3 Beattyville Gardens, Ilford IG6 1JN, United Kingdom",276
3881163,"1-3 Bridge House, Beeches Avenue, Carshalton SM5 3LG, United Kingdom",276
3850533,"1-3 Central Way, Feltham TW14 0DH, United Kingdom",276
3799518,"1-3 Devizes Rd, Salisbury SP2 7AA, United Kingdom",276
3884033,"1-3 Eastern Esplanade, Canvey Island SS8 7DN, United Kingdom",276
3856581,"1-3 Edgwarebury Ln, Edgware HA8 8LH, United Kingdom",276
4683713,"1-3 High St, Cowes PO31 7SA, UK",276
3873493,"1-3 High St, Kingston upon Thames KT1 1LY, United Kingdom",276
3889204,"1-3 High St, Sidcup DA14 6EN, United Kingdom",276
5087202,"1-3 High St, Sidcup DA14 6EN, United Kingdom",276
3846889,"1-3 Joel St, Northwood HA6 1NU, United Kingdom",276
3849469,"1-3 Kingsley Rd, Hounslow TW3 1PA, United Kingdom",276
5087368,"1-3 Lansdowne Road, Bromley BR1 3LZ, United Kingdom",276
5571231,"1-3 Market Square, Bromley BR1 1NA, United Kingdom",276
3849802,"1-3 Moorhall Rd, Uxbridge UB9 6PE, United Kingdom",276
3882109,"1-3 Rectory Rd, Beckenham BR3 1HL, United Kingdom",276
5571024,"1-3 Red Lodge Rd, West Wickham BR4 0EL, United Kingdom",276
3884706,"1-3 South St, Romford RM1 1XP, United Kingdom",276
5570303,"1-3 St.George's Square, New Malden KT3 4HG, United Kingdom",276
3879797,"1-3 Station Approach, Bromley BR2 7EQ, United Kingdom",276
3880526,"1-3 Station Rd, West Wickham BR4 0JH, United Kingdom",276
3843631,"1-3 Union St, Kingston upon Thames KT1 1RP, United Kingdom",276
3878545,"1-3 Union St, Kingston upon Thames KT1 1RP, United Kingdom",276
3879935,"1-3 Upper Green E, Mitcham CR4 2PE, United Kingdom",276
5571036,"1-3 Welling High St, Welling DA16 1TR, United Kingdom",276
3887326,"1-3 Western Rd, Dagenham, Romford RM1 3LD, United Kingdom",276
3888927,"1-3 Western Rd, Romford RM1 3LD, United Kingdom",276
3878378,"1-3, Bingham Corner, Lower Addiscombe Rd, Croydon CR0 7AA, United Kingdom",276
3881075,"1-4 Southend Rd, Beckenham BR3 1SD, United Kingdom",276
5571547,"1-4 Southend Rd, Beckenham BR3 1SD, United Kingdom",276
3851524,"1-4, High St, Hounslow TW3 1HG, United Kingdom",276
3869005,"1-5 Bridge Rd, Wembley HA9 9AB, United Kingdom",276
4683313,"1-5 Duver Rd, Nettlestone, Seaview, UK",276
3845637,"1-5 Harvey Centre Approach, Harlow CM20 1HF, United Kingdom",276
3888768,"1-5 High St, Romford RM1 1JU, United Kingdom",276
3888767,"1-5 High St, Romford RM1 1RH, United Kingdom",276
5566429,"1-5 Staines Rd, Hounslow TW3 3HH, United Kingdom",276
3844531,"1-5 Terrace Rd, Walton-on-Thames KT12 2SS, United Kingdom",276
5710067,"1-6 Beresford Market, Beresford Street, JE2 4WN",276
3872140,"1-7, Amenity Way, Morden SM4 4AX, United Kingdom",276
4657366,"1-8 Mont de la Gr?ve de Lecq, JE3 2DT, Jersey",276
3894667,"1-9 Sunderland Road, Forest Hill SE23 2PR, United Kingdom",276
3857110,"1/9 The Broadway, Stanmore, Middlesex, Stanmore HA7 4DA, United Kingdom",276
3882077,"10 Abbotsbury Rd, Bromley BR2 7HQ, United Kingdom",276
3888414,"10 Academy Fields Rd, Romford RM2 5UN, United Kingdom",276
4610090,"10 Ackworth Rd, Featherstone, Pontefract WF7 5LE, UK",276
4684445,"10 Amherst Pl, Ryde PO33 1FF, UK",276
5570419,"10 Apple Market, Kingston upon Thames KT1 1JE, United Kingdom",276
5087667,"10 Argyle Rd, Ilford IG1 3BQ, United Kingdom",276
3877463,"10 Arundel Rd, Kingston upon Thames KT1 3RZ, United Kingdom",276
3872523,"10 Athelstan Road, Kingston upon Thames KT1 3BE, United Kingdom",276
4683186,"10 Beech Rd, Newport PO30 2AH, UK",276
3851658,"10 Berkeley Gardens, Walton-on-Thames KT12 2PQ, United Kingdom",276
3886194,"10 Bexley High St, Bexley DA5 1AD, United Kingdom",276
5709966,"10 Bond Street, St Helier JE2 3NP",276
5082348,"10 Brainton Ave, Feltham TW14 0AY, United Kingdom",276
3851259,"10 Bromley Cres, Ruislip HA4 6PG, United Kingdom",276
3885379,"10 Burns Cl, Welling DA16 3NJ, United Kingdom",276
4656388,"10 Caledonia Place, St Helier, JE2 3NG, Jersey",276
4656816,"10 Caledonia Place, Weighbridge, St Helier JE2 3NG, Jersey",276
5572049,"10 Chapel Rd, Ilford IG1 2AG, United Kingdom",276
3883872,"10 Cleves Cres, New Addington, Croydon CR0 0DL, United Kingdom",276
5569421,"10 Cockfosters Rd, Hertfordshire EN4 0, United Kingdom",276
3829329,"10 Compstall Rd, Marple Bridge, Stockport SK6 4DT, United Kingdom",276
3885828,"10 Coombes Rd, Dagenham RM9 6UL, United Kingdom",276
5087197,"10 Copers Cope Rd, Beckenham BR3 1NB, United Kingdom",276
3867319,"10 Costins Walk, Berkhamsted HP4 2WG, United Kingdom",276
3856284,"10 Crescent W, Barnet EN4 0EJ, United Kingdom",276
3885510,"10 Crofton Rd, Orpington BR6 8NP, United Kingdom",276
3895756,"10 Crown Rd, Ilford IG6 1NE, UK",276
3847120,"10 Danesbury Rd, Feltham TW13 5BH, United Kingdom",276
3881607,"10 Daniell Way, Croydon CR0 4YJ, United Kingdom",276
3880824,"10 Downs View Cl, Orpington BR6 7SU, United Kingdom",276
5571006,"10 East St, Bromley BR1 1QX, United Kingdom",276
3888732,"10 Eden Park Ave, Beckenham BR3 3HN, United Kingdom",276
4682669,"10 Elmbank Gardens, Sandown PO36 9SA, UK",276
5710112,"10 Esplanade, St Helier JE2 3QA",276
3894785,"10 Essex Way, Great Warley, Brentwood CM13 3AX, United Kingdom",276
3885522,"10 Faringdon Ave, Bromley BR2 8BS, United Kingdom",276
3893928,"10 Farnham Rd, Romford RM3 8DX, United Kingdom",276
3847761,"10 Fourth Way, Wembley HA9 0LH, United Kingdom",276
3834470,"10 Furness Rd, Harrow HA2 0RL, United Kingdom",276
3878012,"10 Godstone Rd, Kenley CR8 5JE, United Kingdom",276
3797344,"10 Golf Course Lane, Salisbury SP5 1ET, United Kingdom",276
5082091,"10 Hanworth Rd, Feltham TW13 5AB, United Kingdom",276
3838096,"10 Harvest Rd, Newbridge EH28 8AN, United Kingdom",276
3879543,"10 Havelock Rd, Croydon CR0 6QP, United Kingdom",276
5668348,"10 High St, Brading, Sandown PO36 0DG",276
5566879,"10 High St, Brentford TW8 0JW, United Kingdom",276
5572136,"10 High St, Brentwood CM14 4AB, United Kingdom",276
5571238,"10 High St, Bromley BR1 1EA, United Kingdom",276
3845853,"10 High St, Harrow HA1, United Kingdom",276
5570827,"10 High St, Purley CR8 2AA, United Kingdom",276
5564135,"10 High St, Ruislip HA4 7AW, United Kingdom",276
3887131,"10 High St, Sidcup DA14 6EZ, United Kingdom",276
3882031,"10 Highland Road, Bromley BR1 4AD, United Kingdom",276
3848219,"10 Hillbury Ave, Harrow HA3 8EW, United Kingdom",276
5082033,"10 Ickenham Rd, Ruislip HA4 7BA, United Kingdom",276
3797462,"10 Kelsey Rd, Salisbury SP1 1JP, United Kingdom",276
3850983,"10 Kilmorey Rd, Twickenham TW1 1PX, United Kingdom",276
3848554,"10 Kingsley Rd, Hounslow TW3 1NP, United Kingdom",276
5570640,"10 Kingston Hill, Kingston upon Thames KT2 7NH, United Kingdom",276
3884616,"10 Kingsway, Coney hall BR4 9JF, United Kingdom",276
5710193,"10 La Colomberie Colomberie Court St. Helier, JE2 4QB",276
5710278,"10 La Motte Street, Saint-Helier JE2 4SY, United Kingdom",276
4657198,"10 Le Hurel Court, Queens Road, St Helier JE2 3FU, United Kingdom",276
5082973,"10 Leighton Road, Hanwell W13 9EP, United Kingdom",276
3843757,"10 Lion and Lamb Way, Farnham GU9 7LL, United Kingdom",276
3883176,"10 Lower Rd, Sutton SM1 4QW, United Kingdom",276
5568765,"10 Lytton Rd, New Barnet, Barnet EN5 5BY, United Kingdom",276
3847281,"10 Main Ave, Northwood HA6 2HJ, UK",276
3879824,"10 Main Rd, Biggin Hill, Westerham TN16 3EH, United Kingdom",276
3884614,"10 Main Rd, Biggin Hill, Westerham TN16 3EH, United Kingdom",276
3882264,"10 Main Rd, Westerham TN16 3EH, United Kingdom",276
3883021,"10 Majestic Way, Mitcham CR4 2JS, United Kingdom",276
3849099,"10 Meadow View, Glebeland Gardens, Shepperton TW17 9DH, United Kingdom",276
3799302,"10 Milne Cres, Larkhill, Salisbury SP4 8PJ, United Kingdom",276
3848821,"10 Montague Rd, Hounslow TW3 1LE, United Kingdom",276
3885157,"10 New Rd, Dagenham RM10 9LS, United Kingdom",276
3848518,"10 Oak Ave, Ickenham, Uxbridge UB10 8LP, United Kingdom",276
3882358,"10 Old Farleigh Rd, South Croydon CR2 8PB, United Kingdom",276
4682622,"10 Osborne Rd, Shanklin PO37 6BE, UK",276
4505460,"10 Oulton Ln, Rothwell LS26 0EA, United Kingdom",276
3881431,"10 Ownsted Hill, New Addington, Croydon CR0 0JQ, United Kingdom",276
3881780,"10 Palace Ave, Maidstone ME15 6NF, United Kingdom",276
5086737,"10 Parsonsfield Cl, Banstead SM7 1JT, United Kingdom",276
3857929,"10 Peterborough Rd, Harrow HA1 2BQ, United Kingdom",276
3885582,"10 Picardy Rd, Belvedere DA17 5QH, United Kingdom",276
4684404,"10 Pier St, Sandown PO36 8JP Pier St, Sandown PO36 8JP, UK",276
3854949,"10 Plantagenet Rd, Barnet EN5 5JG, United Kingdom",276
3832670,"10 Pool House Rd, Poynton, Stockport SK12 1TY, United Kingdom",276
3845517,"10 Pool Rd, Molesey, West Molesey KT8 2HE, United Kingdom",276
3845902,"10 Prestwick Rd, Watford WD19 7ED, United Kingdom",276
3799290,"10 Priory Square, The Maltings, Salisbury SP2 7TL, United Kingdom",276
3848284,"10 Quarry St, Guildford GU1 3UY, United Kingdom",276
3866268,"10 Queen Anne's Pl, Enfield EN1 2PT, United Kingdom",276
3878751,"10 Ravenswood Ave, West Wickham BR4, United Kingdom",276
3847156,"10 Rickmansworth Rd, Harefield, Uxbridge UB9 6JT, United Kingdom",276
3888182,"10 Roebuck Rd, Ilford IG6 3TU, United Kingdom",276
5564301,"10 S Hill Ave, South, Harrow HA2 0NQ, United Kingdom",276
3892319,"10 Saint Chad's Gardens, Romford RM6 6JD, United Kingdom",276
3888295,"10 Scholars Way, Romford RM2 5US, United Kingdom",276
4684889,"10 School Green Rd, Freshwater PO40 9AL, UK",276
3873366,"10 Skerne Rd, Kingston upon Thames KT2 5AD, United Kingdom",276
5572111,"10 Southernhay, Basildon SS14 1EL, United Kingdom",276
5566093,"10 Spring Grove Rd, Hounslow TW3 4BJ, United Kingdom",276
3888076,"10 St George's Ave, Grays RM17 5XB, United Kingdom",276
3848281,"10 St John's Rd, Hemel Hempstead HP1 1JR, United Kingdom",276
3799295,"10 St. Just Close, Newton Tony, Salisbury SP4 0HB, United Kingdom",276
5564150,"10 Station Approach, Pinner HA5 5LZ, United Kingdom",276
3883214,"10 Station Approach, Purley CR8 2AP, United Kingdom",276
3798360,"10 Stonehenge Rd, Durrington, Salisbury SP4 8BN, United Kingdom",276
3866725,"10 Swansea Rd, Enfield EN3 4JG, United Kingdom",276
3881300,"10 The Broadway Stoneleigh, Epsom KT17 2HU, United Kingdom",276
3856817,"10 The Broadway, Greenford UB6 9PR, United Kingdom",276
3849612,"10 The Broadway, Northwood Hills HA6 1PF, United Kingdom",276
5567925,"10 The Broadway, Stanmore HA7 4EB, United Kingdom",276
4609077,"10 The Crofts, Rotherham S60 2DJ, UK",276
4657045,"10 The Pde, Jersey JE2 3QP, United Kingdom",276
3877467,"10 The Triangle, Kingston upon Thames KT1 3RT, United Kingdom",276
3856995,"10 The Walk, Potters Bar EN6 1QL, United Kingdom",276
3881779,"10 Tudor Dr, Morden SM4 4PE, United Kingdom",276
5668497,"10 Union St, Ryde PO33 2DU",276
3878942,"10 Upper Green W, Mitcham CR4 3AA, United Kingdom",276
5565498,"10 Uxbridge Rd, New Broadway, Uxbridge UB10 0LH, United Kingdom",276
3848496,"10 Village Way E, Harrow HA2 7LU, United Kingdom",276
4597430,"10 Wath Rd, Elsecar, Barnsley S74 8HR, UK",276
4682813,"10 Westway, Cowes PO31 8QP, UK",276
3850093,"10 Whittington Way, Pinner HA5 5JT, United Kingdom",276
5571508,"10 Widmore Rd, Bromley BR1 1RY, United Kingdom",276
3897115,"10 Wilson Ave, Mitcham CR4 3JA, United Kingdom",276
3884331,"10 Woodward Rd, Dagenham RM9 4SH, United Kingdom",276
3889120,"10 Woodward Rd, Dagenham RM9 4SH, United Kingdom",276
3863565,"10, 6 Mitre Passage, Greenwich SE10 OER, United Kingdom",276
5569272,"10, 8-10 Silver St, Enfield EN1 3ED, United Kingdom",276
3846491,"10, Argent Centre, Silverdale Rd, Hayes UB3 3BS, United Kingdom",276
3846600,"10, Birstall Green, Watford WD19 6RW, United Kingdom",276
3888844,"10, Darnall House, Royal Hill, Greenwich SE10 8SU, United Kingdom",276
3798358,"10, Glenmore Business Park, Telford Rd, Salisbury SP2 7GL, United Kingdom",276
3858630,"10, Station Rd, Edgware HA8 7AB, United Kingdom",276
3850421,"10, The Longford Centre, High St, Feltham TW13 4BH, United Kingdom",276
3873151,"10, The Rotunda Centre, The Rotunda, Clarence Street, Kingston upon Thames KT1 1QJ, United Kingdom",276
3889258,"10-11 Blackfen Rd, Sidcup DA15 9LU, United Kingdom",276
4684686,"10-11 High St, Cowes PO31 7RZ, UK",276
3884903,"10-12 Bourne Way, Bromley BR2 7HE, United Kingdom",276
3874094,"10-12 Cheam Rd, Sutton SM1 1SR, United Kingdom",276
5568832,"10-12 Crown Rd, Enfield EN1 1TH, United Kingdom",276
3844024,"10-12 Love Ln, Pinner HA5 3EF, United Kingdom",276
3867960,"10-12 The Wash, Hertford SG14 1PX, United Kingdom",276
3882874,"10-12 Wallington Square, Wallington SM6 8RG, United Kingdom",276
3889265,"10-14 Belmont Rd, Erith DA8 1LB, United Kingdom",276
3882753,"10-14 Bywood Ave, Croydon CR0 7RA, United Kingdom",276
3859814,"10-14 The Town, Enfield EN2 6LJ, United Kingdom",276
3880864,"10-16 The Broadway, Sutton SM3 8AY, United Kingdom",276
4448890,"100 Abbey Ring, Holywood BT18 9PF, UK",276
3854935,"100 Ashwood Rd, Potters Bar EN6 2PN, United Kingdom",276
3882915,"100 Beckenham Rd, Beckenham BR3 4RH, United Kingdom",276
5572029,"100 Bellegrove Rd, Welling DA16 3QD, United Kingdom",276
3886408,"100 Billet Rd, Romford RM6 5PR, United Kingdom",276
5572084,"100 Collier Row Rd, Romford RM5 2BA, United Kingdom",276
4683201,"100 Down End Rd, Fareham PO16 8TS, United Kingdom",276
3857095,"100 Elmgrove Rd, Harrow HA1 2RW, United Kingdom",276
3887103,"100 Erith High St, Erith DA8 1SL, United Kingdom",276
3896158,"100 High Rd, Ilford, United Kingdom",276
3896783,"100 High Rd, Ilford, United Kingdom",276
3856777,"100 High St, Edgware HA8 7HF, United Kingdom",276
5567823,"100 High St, Harrow HA3 7AH, United Kingdom",276
5572315,"100 High St, Ilford IG6 2DR, United Kingdom",276
4684551,"100 High St, Newport PO30 1TJ, UK",276
3849987,"100 High Street Whitton, Twickenham TW2 7LN, United Kingdom",276
5569377,"100 Lancaster Rd, Enfield EN2 0JW, United Kingdom",276
5572039,"100 Longbridge Rd, Barking IG11 8SF, United Kingdom",276
3889287,"100 Manford Way, Chigwell IG7 4DD, United Kingdom",276
3888215,"100 Manford Way, Chigwell IG7 4DF, United Kingdom",276
3894707,"100 Manford Way, Chigwell IG7 4DF, United Kingdom",276
3867766,"100 North St, Barking IG11 8JD, United Kingdom",276
3885457,"100 Queen's Rd, Brentwood CM14 4EY, United Kingdom",276
3833350,"100 Regent Rd, Salford M5 4QU, United Kingdom",276
3860420,"100 Round Hills, Waltham Abbey EN9 1UP, United Kingdom",276
3894617,"100 South St, Romford RM1 1RX, United Kingdom",276
5571812,"100 South St, Romford RM1, United Kingdom",276
4684748,"100 St James' St, Newport PO30 1HY, UK",276
5564889,"100 Sudbury Ave, Wembley HA0 3BG, United Kingdom",276
3886483,"100 Summerhouse Dr, Bexley DA5 2ES, United Kingdom",276
5569202,"100 Turners Hill, Cheshunt, Waltham Cross EN8 9BN, United Kingdom",276
3877811,"100 Wickham Rd, Beckenham BR3 6QH, United Kingdom",276
3884352,"100 Wood Ln, Dagenham RM9 5SL, United Kingdom",276
3879779,"100-102 Lower Addiscombe Rd, Croydon CR0 6AD, United Kingdom",276
3882796,"100-102 Lower Addiscombe Rd, Croydon CR0 6AD, United Kingdom",276
3882909,"100-102 Lower Addiscombe Rd, Croydon CR0 6AD, United Kingdom",276
3846151,"1000 Great West Rd, Brentford TW8 9HH, United Kingdom",276
3850462,"1000 Great West Rd, Brentford TW8 9HH, United Kingdom",276
5082959,"1000 Great West Rd, Brentford TW8, United Kingdom",276
3845958,"1000 Greenford Rd, Greenford UB6 0UW, United Kingdom",276
3846975,"1000 Uxbridge Rd, Hayes UB4 0RL, United Kingdom",276
3889167,"100A George St, Romford RM1 2EB, United Kingdom",276
3847143,"100C High St, Feltham TW13 4EX, United Kingdom",276
3889680,"101 Brentwood Rd, Romford RM1 2EH, United Kingdom",276
3879798,"101 Bromley Common, Bromley, United Kingdom",276
3880831,"101 Bromley Common, Bromley, United Kingdom",276
3799248,"101 Fisherton St, Salisbury SP2 7SP, United Kingdom",276
3845824,"101 Flamborough Rd, Ruislip HA4 0DQ, United Kingdom",276
3844273,"101 Glencoe Rd, Hayes UB4 9SN, United Kingdom",276
5570487,"101 Green Ln, Morden SM4 6SE, United Kingdom",276
5572168,"101 High St, Brentwood CM14 4RR, United Kingdom",276
3888820,"101 High St, Ilford IG6 2AH, United Kingdom",276
5570493,"101 High St, West Wickham BR4 0LT, United Kingdom",276
3882037,"101 Highland Rd, Bromley BR1 4AA, United Kingdom",276
3849714,"101 Lansbury Dr, Hayes UB4 8RW, United Kingdom",276
3855374,"101 Lindsay Dr, Harrow HA3 0TH, United Kingdom",276
5570796,"101 Maple Rd, Surbiton KT6 4AW, United Kingdom",276
4519541,"101 Moat St, Wigston LE18 2GE, UK",276
5571244,"101 North St, Romford RM1 1EU, United Kingdom",276
3845166,"101 Park St, St Albans AL2 2PH, United Kingdom",276
4682069,"101 St James' St, Newport PO30 1HX, UK",276
5569262,"101 St Mark's Rd, Enfield EN1 1BJ, United Kingdom",276
3882088,"101 Station Rd, West Wickham BR4 0PX, United Kingdom",276
3878646,"101 Stonecot Hill, Sutton SM3 9HN, United Kingdom",276
3855938,"101 Uxbridge Rd, Stanmore HA7 3NH, United Kingdom",276
3878347,"101 Waddon Way, Croydon CR9 4HH, United Kingdom",276
3877968,"101 Waddon Way, Purley Way, Croydon CR9 4HH, United Kingdom",276
3889778,"101 Wakering Rd, Barking IG11 8PD, United Kingdom",276
3844624,"101 Whitton Rd, Twickenham TW1 1BZ, United Kingdom",276
3863991,"101 Wood St, Barnet EN5 4BX, United Kingdom",276
3857705,"101, The Harlequin centre, intu Watford Shopping Centre, Watford WD17 2TH, United Kingdom",276
3846781,"101-103 High St, Ruislip HA4 8JN, United Kingdom",276
3882224,"101-103 Sanderstead Rd, South Croydon CR2 0PG, United Kingdom",276
3884674,"101-105 High Rd, Ilford IG1 1DE, United Kingdom",276
3846304,"101-105 Townsend Rd, Southall UB1 1HE, United Kingdom",276
3897160,"101-107 Rose Lane, Romford RM6 5NR, United Kingdom",276
5087374,"101-108 Station Rd, Sidcup DA15 7AJ, United Kingdom",276
3877987,"1012 Whitgift Centre, Croydon CR0 1UY, United Kingdom",276
3844392,"101A High St, Rickmansworth, United Kingdom",276
3844899,"101a Pears Rd, Hounslow TW3 1SS, United Kingdom",276
3893242,"102 - 104 High Rd, Ilford IG1 1DS, United Kingdom",276
3888421,"102 Belgrave Ave, Romford RM2 6PU, United Kingdom",276
5564588,"102 Cowley Rd, Uxbridge UB8 2LX, United Kingdom",276
3893968,"102 Cranbrook Rd, Ilford IG1 4NH, United Kingdom",276
5571925,"102 Dagenham Rd, Rush Green, Romford RM7 0TJ, United Kingdom",276
3849106,"102 Gladstone Ave, Twickenham TW2 7QA, United Kingdom",276
3885364,"102 Glenny Rd, Barking IG11 8QQ, United Kingdom",276
5570753,"102 Green Ln, Morden SM4 6SS, United Kingdom",276
3893815,"102 High St, Brentwood CM14 4AP, United Kingdom",276
3844034,"102 High St, Bushey WD23 3, United Kingdom",276
3874187,"102 High St, Epsom KT19 8EU, United Kingdom",276
3849129,"102 High St, Teddington TW11 8JD, United Kingdom",276
5568109,"102 High Street, Barnet EN5 5XQ, United Kingdom",276
3887215,"102 Hilldene Ave, Harold Hill, Romford RM3 8DU, United Kingdom",276
3846329,"102 Hounslow Rd, Feltham TW14 0AX, United Kingdom",276
3867361,"102 Lancaster Rd, Enfield EN2 0JW, United Kingdom",276
3847483,"102 Lansbury Dr, Hayes UB4 8SE, United Kingdom",276
3879807,"102 Manor Rd, Wallington SM6 0DW, United Kingdom",276
5564149,"102 Marsh Rd, Pinner HA5 5NA, United Kingdom",276
3886411,"102 Meads Ln, Ilford IG3 8PE, United Kingdom",276
3878787,"102 N End, Croydon CR0 1UD, United Kingdom",276
3884405,"102 Parsonage Manorway, Belvedere DA17 6LY, United Kingdom",276
3892499,"102 Petersfield Ave, Romford RM3 9PH, United Kingdom",276
3852479,"102 Shenley Rd, Borehamwood WD6 1EB, United Kingdom",276
3852516,"102 Shenley Rd, Borehamwood WD6 1EB, United Kingdom",276
4682156,"102 St James' St, Newport PO30 1UP, UK",276
3896089,"102 Stainforth Rd, Ilford IG2 7EL, United Kingdom",276
5083157,"102-104 Harper Ln, Shenley, Radlett WD7 9HA, United Kingdom",276
3897154,"102-104 High Rd, Romford RM6 6NX, United Kingdom",276
3867080,"102-104 Queen's Rd, Buckhurst Hill IG9 5BS, United Kingdom",276
4656495,"102-108 Central Market,, Halkett Pl, JE2 4WL, Jersey",276
3856750,"102-108 Pinner Rd, Harrow HA1 4JD, United Kingdom",276
3845977,"102-110 High St, Slough SL1 1HL, United Kingdom",276
3859708,"102/106 Station Rd, Edgware HA8 7AA, United Kingdom",276
3879527,"1020 Whitgift Centre, Croydon CR0 1UU, United Kingdom",276
3884753,"102a Colney Rd, Dartford/ Greenhithe, Greenhithe DA1 1UH, United Kingdom",276
3896290,"102A Tanners Ln, Ilford IG6 1QE, United Kingdom",276
3855104,"102A Watling Ave, Edgware HA8 0LN, United Kingdom",276
3879772,"103 Birchwood Rd, Dartford DA2 7HQ, United Kingdom",276
3858310,"103 Burnt Oak Broadway, Edgware, United Kingdom",276
4683229,"103 Carter Ave, Shanklin PO37 7NQ, UK",276
3850748,"103 Charnwood Rd, Uxbridge UB10 0JA, United Kingdom",276
3847003,"103 Coldharbour Ln, Hayes UB3 3EF, United Kingdom",276
3888999,"103 Cotmandene Cres, Orpington BR5 2RB, United Kingdom",276
3885373,"103 Cranbrook Rd, Ilford IG1 4PU, United Kingdom",276
5767609,"103 Cross St, Sale M33 7JN, UK",276
5571940,"103 Daiglen Dr, South Ockendon RM15 5EH, United Kingdom",276
3799300,"103 Fisherton St, Salisbury SP2 7SP, United Kingdom",276
5570859,"103 Hersham Rd, Walton-on-Thames KT12 1RN, United Kingdom",276
5666444,"103 High St, Cowes PO31 7AT",276
4684081,"103 High St, Shanklin PO37 6NS, UK",276
3881179,"103 High St, West Wickham BR4 0LT, United Kingdom",276
4684763,"103 High Street, Newport PO30 1TJ, United Kingdom",276
3882123,"103 Marlborough Cres, Sevenoaks TN13 2HN, United Kingdom",276
3852991,"103 Marsh Rd, Pinner HA5 5PA, United Kingdom",276
5571641,"103 Queensway, Orpington BR5 1DQ, United Kingdom",276
3845839,"103 Salisbury Rd, Hounslow TW4 7NW, United Kingdom",276
3851876,"103 Station Road, Middlesex, Edgware HA8 7JJ, United Kingdom",276
3885291,"103 Welling High St, Welling DA16 1TY, United Kingdom",276
4684742,"103-104 High St, Newport PO30 1TJ, UK",276
3884395,"103-105 Central Ave, Welling DA16 3BG, United Kingdom",276
3889236,"103-105 Central Ave, Welling DA16 3BG, United Kingdom",276
3888072,"103-105 Hacton Ln, Upminster RM14, United Kingdom",276
5571309,"103-105 High St, Croydon CR0 1QG, United Kingdom",276
3848280,"103-105 High St, Watford WD17 2DQ, United Kingdom",276
3844343,"103-105 Pinner Rd, Harrow HA2 6EQ, United Kingdom",276
3887317,"103-107 Belgrave Rd, Ilford IG1 3LG, United Kingdom",276
3879919,"103/105 Calley Down Cres, New Addington, Croydon CR0 0EQ, United Kingdom",276
3897629,"1035 High Rd, Romford RM6 4AU, United Kingdom",276
3888343,"103A Bellegrove Rd, Welling DA16 3PG, United Kingdom",276
5566232,"104 - 108 Hanworth Rd, Hounslow TW3 1UF, United Kingdom",276
3897045,"104 -120 Lee High Road, LON-Lewisham SE13 5PR, United Kingdom",276
3868371,"104 College Ln, Hatfield AL10 9PA, United Kingdom",276
5571939,"104 Collier Row Rd, Romford RM5 2BA, United Kingdom",276
3877756,"104 Coombe Rd, Croydon CR0 5RB, United Kingdom",276
5086552,"104 Coombe Rd, Croydon CR0 5RB, United Kingdom",276
5570841,"104 Coombe Rd, Croydon CR0 5RB, United Kingdom",276
3886416,"104 Dagenham Rd, Rush Green, Romford RM7 0TJ, United Kingdom",276
3856265,"104 E Barnet Rd, Barnet EN4 8RE, United Kingdom",276
3850767,"104 East Ave, Hayes UB3 2HR, United Kingdom",276
4520739,"104 Edward St, Nuneaton CV11 5RE, UK",276
3877482,"104 Elm Rd, New Malden KT3 3HN, United Kingdom",276
5645240,"104 Greatbridge Rd, Romsey SO51 8FH",276
3889528,"104 High St, Brentwood CM14 4AP, United Kingdom",276
3865174,"104 High St, Enfield EN3 4ER, United Kingdom",276
3844868,"104 High St, Feltham TW13, United Kingdom",276
3850853,"104 High St, Teddington TW11 8JD, United Kingdom",276
3865886,"104 High St, Waltham Cross EN8 7BX, United Kingdom",276
3858979,"104 Hindes Rd, Harrow HA1 1RP, United Kingdom",276
3879578,"104 Lansdowne Rd, Purley CR8 2PB, United Kingdom",276
3881611,"104 Lower Barn Rd, Purley CR8 1HR, United Kingdom",276
3889422,"104 New Rd, Dagenham RM9 6PE, United Kingdom",276
3888301,"104 North St, Romford RM1 1DA, United Kingdom",276
3888766,"104 Petersfield Ave, Romford RM3 9PH, United Kingdom",276
3894453,"104 South Park Drive?? Ilford IG3 9AU, United Kingdom",276
5571982,"104 South St, Romford RM1 1RX, United Kingdom",276
3878991,"104 Stafford Rd, Wallington SM6 9AY, United Kingdom",276
5571822,"104 Tanners Ln, Ilford IG6 1QE, United Kingdom",276
3874120,"104 Villiers Rd, Kingston upon Thames KT1 3BB, United Kingdom",276
3849717,"104, 92 High St, West Drayton UB7 7QH, United Kingdom",276
3896907,"104-106 Bromley Rd, Catford SE6 2US, United Kingdom",276
3877936,"104-108 High St, Bromley BR1 1EY, United Kingdom",276
3869180,"104-A Finchley Road, West Hampstead NW3 5JJ, United Kingdom",276
3887306,"1041-1043 High Rd, Chadwell Heath, Romford RM6 4AU, United Kingdom",276
3845729,"1044 Uxbridge Rd, Hayes UB4 0RJ, United Kingdom",276
3896264,"1049 High Rd, Romford RM6 4AU, United Kingdom",276
3877550,"1049 Whitgift Centre, Croydon CR0 1UW, United Kingdom",276
3862734,"104A Finchley Rd, Swiss Cottage NW3 5EY, United Kingdom",276
3873490,"104A Villiers Ave, Surbiton KT5 8BH, United Kingdom",276
3855786,"105 Camlet Way, Barnet EN4 0NJ, United Kingdom",276
5565655,"105 Clarence St, Kingston upon Thames KT1 1QY, United Kingdom",276
5571294,"105 Dartford Rd, Dartford DA1 3EP, United Kingdom",276
4593970,"105 Ellis St, Brinsworth, Rotherham S60 5DH, UK",276
3895294,"105 Goodmayes Ln, Ilford IG3 9PL, United Kingdom",276
3857098,"105 Headstone Rd, Harrow HA1 1PG, United Kingdom",276
3889679,"105 Heath Park Rd, Romford RM2 5XH, United Kingdom",276
3798562,"105 High St, Netheravon, Salisbury SP4 9PJ, United Kingdom",276
5571014,"105 High St, Orpington BR6 0LG, United Kingdom",276
5669344,"105 High St, Shanklin PO37 6NS",276
3846824,"105 High St, Slough SL1 1DH, United Kingdom",276
3856315,"105 High Street, The Handels Smithy, Edgware HA8 7DB, United Kingdom",276
5082191,"105 Hillingdon Hill, Uxbridge UB10 0JQ, United Kingdom",276
3881079,"105 Limpsfield Rd, Warlingham CR6 9RH, United Kingdom",276
3887055,"105 Mungo Park Rd, Rainham RM13 7PP, United Kingdom",276
3845622,"105 Nalders Rd, Chesham HP5 3DH, United Kingdom",276
3855360,"105 Nibthwaite Rd, Harrow HA1 1TE, United Kingdom",276
3877542,"105 Sanderstead Rd, South Croydon CR2 0PJ, United Kingdom",276
5566927,"105 Sheen Ln, Mortlake SW14 8, United Kingdom",276
3863462,"105 St Mark's Rd, Enfield EN1 1BJ, United Kingdom",276
3848446,"105 The Broadway, Southall UB1 1LN, United Kingdom",276
3860419,"105 The Ride, Enfield EN3 7DL, United Kingdom",276
4682881,"105 Thorley Ln, Timperley, Altrincham WA15 7AL, UK",276
5566874,"105 Whitton Rd, Twickenham TW1 1BZ, United Kingdom",276
3882988,"105 Wrythe Ln, Sutton, Carshalton SM5 2RR, United Kingdom",276
3852596,"105-109 Shenley Rd, Borehamwood, United Kingdom",276
3851882,"105-109 Station Rd, Edgware HA8 7JL, United Kingdom",276
3887465,"105-111 South St, Romford RM1 1NX, United Kingdom",276
5083328,"105-141 Turners Hill, Cheshunt, Waltham Cross EN8, United Kingdom",276
3846094,"1053 Great West Rd, Brentford TW8 9BW, United Kingdom",276
3860602,"1057-, 1059 High Rd, Romford RM6 4AU, United Kingdom",276
3871444,"1058-1059 Whitgift Centre, Croydon CR0 1UW, United Kingdom",276
3880562,"105A Central Rd, Morden SM4 5SQ, United Kingdom",276
5564825,"105A High St, Harrow HA3 5DL, United Kingdom",276
3888728,"105A Station Rd, West Wickham BR4 0PX, United Kingdom",276
3850796,"105B The Broadway, Southall UB1 1LN, United Kingdom",276
3882107,"106 Beckenham Ln, Bromley BR2 0DW, United Kingdom",276
3864727,"106 Bennett's Castle Ln, Dagenham RM8 3XS, United Kingdom",276
5709722,"106 Chepstow Rd, Newport NP19 8EE",276
3856281,"106 Cockfosters Rd, Barnet EN4 0DP, United Kingdom",276
3874234,"106 Ewell Rd, Surbiton KT6 6HA, United Kingdom",276
5564235,"106 Field End Rd, Ruislip, Pinner HA5 1RL, United Kingdom",276
5089348,"106 Hedgemans Rd, Dagenham RM9 6HT, United Kingdom",276
3860135,"106 High St, Barnet EN5 5XQ, United Kingdom",276
5569283,"106 High St, Brentwood CM14 4AP, United Kingdom",276
3878997,"106 High St, Carshalton SM5 3AE, United Kingdom",276
5666610,"106 High St, Cowes PO31 7AT",276
3857118,"106 High St, Harrow HA1 3LP, United Kingdom",276
3887489,"106 High St, Orpington BR6 0JY, United Kingdom",276
3877913,"106 N End, Croydon CR0 1UD, United Kingdom",276
3884923,"106 North Rd, Dartford DA1 3NB, United Kingdom",276
3885758,"106 Perry St, Bexleyheath, Dartford DA1 4RL, United Kingdom",276
3843936,"106 Porters Way, West Drayton UB7 9AD, United Kingdom",276
3845677,"106 Porters Way, West Drayton UB7 9AD, United Kingdom",276
3878816,"106 Purley Downs Rd, South Croydon CR2 0RB, United Kingdom",276
4684749,"106 St James' St, Newport PO30 1TS, UK",276
3848545,"106 Staines Rd, Hounslow TW3 3LH, United Kingdom",276
5565606,"106 The Broadway, Southall UB1 1QF, United Kingdom",276
3877872,"106 Tolworth Broadway, Surbiton KT6 7HT, United Kingdom",276
3880088,"106 Valenciennes Square Pentagon Centre, Chatham ME4 4HY, United Kingdom",276
3845697,"106 Walton Rd, Molesey, East Molesey KT8 0HP, United Kingdom",276
3854798,"106 Wembley Park Dr, Wembley HA9 8HP, United Kingdom",276
3884064,"106-108 Bond St, Chelmsford CM1 1GH, United Kingdom",276
3882510,"106-108 Chaldon Rd, Caterham CR3 5PH, United Kingdom",276
5570161,"106-108 Clapham High St, Clapham SW4 7UJ, United Kingdom",276
3867535,"106-108 High St, Waltham Cross EN8 7BX, United Kingdom",276
3882085,"106-108 High St, West Wickham BR4 0ND, United Kingdom",276
3847760,"106-108 Lancaster Rd, Barnet EN4 8AL, United Kingdom",276
3877514,"106-110 High St, New Malden KT3 4EU, United Kingdom",276
3869015,"106-112 Acton High Street, Acton W3 6QX, UK",276
3880764,"1063/4/7 the mall whitgift Center, Croydon CR0 1UX, United Kingdom",276
3844680,"106A Pembroke Rd, Ruislip HA4 8NW, United Kingdom",276
5570847,"107 Addiscombe Rd, Croydon CR0 6SG, United Kingdom",276
5572022,"107 Bellegrove Rd, Welling DA16 3PG, United Kingdom",276
5605975,"107 Blatchington Rd, Hove BN3 3YG",276
3882393,"107 Central Rd, Morden SM4 5SQ, United Kingdom",276
3874119,"107 Chiltern Dr, Surbiton KT5 8LS, United Kingdom",276
3877450,"107 Ditton Rd, Surbiton KT6 6RL, United Kingdom",276
3849589,"107 Ealing Rd, Brentford TW8 0LF, United Kingdom",276
3886916,"107 Goodmayes La, Ilford IG3 9PL, United Kingdom",276
3865118,"107 Grafton Rd, Dagenham RM8 3EU, United Kingdom",276
5565172,"107 High Rd, Bushey, Hertfordshire, Bushey WD23 1JD, United Kingdom",276
5667382,"107 High St, Cowes PO31 7AT",276
3847129,"107 High St, Feltham TW13 4HG, United Kingdom",276
5566341,"107 High St, Hounslow TW3 1QT, United Kingdom",276
5571867,"107 High St, Ilford IG6 2AH, United Kingdom",276
5570651,"107 High St, New Malden KT3 4BP, United Kingdom",276
4683494,"107 High St, Sandown PO36 8AF, UK",276
4684085,"107 High St, Shanklin PO37 6NS, UK",276
5568251,"107 High St, Watford WD17 2DQ, United Kingdom",276
3849909,"107 High Street Whitton, Twickenham TW2 7LD, United Kingdom",276
3845716,"107 Hillingdon Hill, Uxbridge UB10 0JQ, United Kingdom",276
3849304,"107 Hindes Rd, Harrow HA1 1RU, United Kingdom",276
3871475,"107 Kingston Rd, New Malden KT3 3PA, United Kingdom",276
5571072,"107 Main Rd, Sidcup DA14 6ND, United Kingdom",276
3892870,"107 Meads Ln, Ilford IG3 8NT, United Kingdom",276
3897228,"107 Meads Ln, Ilford IG3 8NT, United Kingdom",276
3884334,"107 Movers Ln, Barking IG11 7UQ, United Kingdom",276
4619618,"107 Old Rd, Chesterfield S40 3QT, UK",276
5571382,"107 Queensway, Orpington BR5 1DG, United Kingdom",276
3889313,"107 Ripple Rd, Barking IG11 7NY, United Kingdom",276
3886984,"107 Riverdale Rd, Erith DA8 1PY, United Kingdom",276
3895889,"107 Rose Ln, Romford RM6 5NR, United Kingdom",276
5172109,"107 School Green Rd, Freshwater PO40 9AZ",276
4684751,"107 St James' St, Newport PO30 1UR, UK",276
4682116,"107 St James' St, Newport PO30 1XH, UK",276
3844222,"107 Staines Rd W, Sunbury-on-Thames TW16 7BQ, United Kingdom",276
5564609,"107 Station Rd, West Drayton UB7 7LT, United Kingdom",276
4581295,"107 Stoke Rd, Gosport PO12 1LR, UK",276
5571968,"107 Upminster Rd S, Rainham RM13 9AA, United Kingdom",276
5571001,"107 Upper Shirley Rd, Croydon CR0 5HF, United Kingdom",276
3870296,"107 Wembley Park Dr, Wembley, Wembley park HA9 8GH, United Kingdom",276
3881724,"107 Wrythe La, Carshalton SM5 2RR, United Kingdom",276
5570855,"107-109 Terrace Rd, Walton-on-Thames KT12 2SG, United Kingdom",276
3885670,"1074 High Rd, Romford RM6 4BD, United Kingdom",276
3894288,"1075 High Rd, Romford RM6 4AU, United Kingdom",276
3846973,"1078-1084 Uxbridge Rd, Hayes UB4 0RJ, United Kingdom",276
3889851,"107A Barley Ln, Ilford IG3 8XQ, United Kingdom",276
3883679,"107A St James' Rd, Sutton SM1 2TJ, United Kingdom",276
3857121,"107A Uxbridge Rd, Harrow HA3 6DN, United Kingdom",276
5572063,"107N Mungo Park Rd, Rainham RM13 7PP, United Kingdom",276
3874483,"108 Acre Rd, Kingston upon Thames KT2 6EN, United Kingdom",276
3881237,"108 Beckenham Ln, Bromley BR2 0DW, United Kingdom",276
3888348,"108 Broadway, Bexleyheath DA6 7DQ, United Kingdom",276
3888636,"108 Clarence Rd, Grays RM17 6RA, United Kingdom",276
4683350,"108 Clatterford Rd, Newport PO30 1NZ, UK",276
3860642,"108 Cockfosters Rd, Barnet EN4 0DP, United Kingdom",276
3896826,"108 Eltham High St, Eltham SE9 1BW, United Kingdom",276
3797343,"108 Fisherton St, Salisbury SP2 7QY, United Kingdom",276
5087041,"108 Foxley Ln, Purley CR8 3NB, United Kingdom",276
5572082,"108 Goodmayes Rd, Ilford IG3 9UZ, United Kingdom",276
5567029,"108 Heath Road, Twickenham TW1 4BW, United Kingdom",276
3888391,"108 Heron Way, Upminster RM14 1EE, United Kingdom",276
5571816,"108 High Rd, Romford RM6 6NX, United Kingdom",276
3851655,"108 High St, Brentford TW8 8AT, United Kingdom",276
3893248,"108 High St, Ilford IG6 2DR, United Kingdom",276
4684750,"108 High St, Newport PO30 1TJ, UK",276
3881540,"108 High St, West Wickham BR4 0LT, United Kingdom",276
5571442,"108 Horley Road, Earlswood, Redhill RH1 5AA, United Kingdom",276
3895295,"108 Horns Rd, Ilford IG2 6BL, United Kingdom",276
3846365,"108 King Charles' Rd, Surbiton KT5 8QJ, United Kingdom",276
3886920,"108 Levett Gardens, Ilford IG3 9BX, United Kingdom",276
3845693,"108 Manor Ln, Sunbury-on-Thames TW16 6JB, United Kingdom",276
3848492,"108 Marsh Rd, Pinner HA5 5NA, United Kingdom",276
3872421,"108 Orme Rd, Kingston upon Thames KT1 3SB, United Kingdom",276
3885704,"108 Poverest Rd, Orpington BR5 1RD, United Kingdom",276
3885896,"108 Poverest Rd, Orpington BR5 1RD, United Kingdom",276
4683165,"108 Regent St, Shanklin PO37 7AP, UK",276
5565726,"108 South Rd, Southall UB1 1RB, United Kingdom",276
3882967,"108 South St, Romford RM1 1SS, United Kingdom",276
3887509,"108 South St, Romford RM1 1SS, United Kingdom",276
4684760,"108 St James' St, Newport PO30 1UR, UK",276
3873528,"108 Tolworth Broadway, Surbiton KT6 7JD, United Kingdom",276
3848638,"108 Vine Ln, Uxbridge UB10 0BE, United Kingdom",276
5571757,"108 Welling High St, Welling DA16 1TJ, United Kingdom",276
3797463,"108 Wilton Rd, Salisbury SP2 7JJ, United Kingdom",276
3798232,"108 Wilton Rd, Salisbury SP2 7JJ, United Kingdom",276
3798240,"108 Wilton Rd, Salisbury SP2 7JJ, United Kingdom",276
3881598,"108 Woodcote Rd, Wallington SM6 0LY, United Kingdom",276
3877828,"108-110 High St, Sutton SM1 1LT, United Kingdom",276
5564297,"108-110 Pembroke Rd, Ruislip HA4 8NW, United Kingdom",276
3897145,"1085-1087 High Rd, Romford RM6 4AU, United Kingdom",276
3849713,"1086 Uxbridge Rd, Hayes UB4 0RJ, United Kingdom",276
5571051,"108A High St, Croydon CR0 1ND, United Kingdom",276
3857598,"109 Arundel Dr, Borehamwood WD6 2LY, United Kingdom",276
3882493,"109 Banstead Rd, Carshalton SM5 3NP, United Kingdom",276
3892957,"109 Belgrave Rd, Ilford IG1 3LG, United Kingdom",276
5571534,"109 Bellegrove Rd, Welling DA16 3PG, United Kingdom",276
5572202,"109 Bellegrove Rd, Welling DA16 3PG, United Kingdom",276
3887158,"109 Burnt Ash Ln, Bromley BR1 5AB, United Kingdom",276
3859588,"109 Burnt Oak Broadway, Edgware HA8 5EN, United Kingdom",276
3878912,"109 Chiltern Dr, Surbiton KT5 8LS, United Kingdom",276
3798157,"109 Fisherton St, Salisbury SP2 7SS, United Kingdom",276
3860671,"109 Goat Ln, Enfield EN1 4UB, United Kingdom",276
3879591,"109 Hayes Ln, Kenley CR8 5JR, United Kingdom",276
3896782,"109 High Rd, Ilford IG1 1DE, United Kingdom",276
3882983,"109 High St, Banstead SM7, United Kingdom",276
5569616,"109 High St, Ilford IG6 2AH, United Kingdom",276
3878520,"109 High St, New Malden KT3 4BP, United Kingdom",276
3849150,"109 High St, Ruislip HA4 8JN, United Kingdom",276
4683745,"109 High St, Sandown PO36 8AF, UK",276
3844355,"109 High St, Staines TW18 4PQ, United Kingdom",276
3860842,"109 High St, Waltham Cross EN8 7AJ, United Kingdom",276
3872313,"109 Manor Dr N, New Malden KT3 5PD, United Kingdom",276
3889922,"109 Mungo Park Rd, Rainham RM13 7PP, United Kingdom",276
3888670,"109 Rowdowns Rd, Dagenham RM9 6NH, United Kingdom",276
3882881,"109 S End, Croydon CR0 1BG, United Kingdom",276
3878423,"109 Southbridge Rd, Croydon CR0 1AJ, United Kingdom",276
3879004,"109 Stafford Rd, Croydon CR0 4NN, United Kingdom",276
3881757,"109 Station Rd, Sidcup DA15 7ES, United Kingdom",276
3881754,"109 Station Rd, Sidcup DA15 7ET, United Kingdom",276
3888721,"109 Upminster Rd S, Rainham RM13 9AA, United Kingdom",276
3834311,"109 Vicarage Farm Rd, Hounslow TW3 4NN, United Kingdom",276
3887710,"109 Welling High St, Welling DA16 1TY, United Kingdom",276
3864996,"109 Whitefields Rd, Cheshunt, Waltham Cross EN8 0EL, United Kingdom",276
3881631,"109-111 High St, Sutton SM1 1JG, United Kingdom",276
3883050,"109-111 Queensway, Orpington BR5 1DG, United Kingdom",276
3882352,"109-117 Cherry Orchard Road, Addiscombe, Croydon CR0 6BE, United Kingdom",276
3857639,"109-119 Cherry Orchard Rd, Croydon CR0 6BE, United Kingdom",276
3846970,"1090 Uxbridge Rd, Hayes UB4 0RJ, United Kingdom",276
3844296,"1091 Greenford Rd, Greenford UB6 0EJ, United Kingdom",276
3895493,"1094 High Rd, Romford RM6 4AB, United Kingdom",276
3849415,"1094 Uxbridge Rd, Hayes UB4 8QH, United Kingdom",276
3880763,"1098-99, The Mall Whitgift Centre, Croydon CR0 1UU, United Kingdom",276
4684701,"109A Adelaide Grove, East Cowes PO32 6DF, UK",276
3798577,"109C Exeter St, Salisbury SP1 2SF, United Kingdom",276
3864305,"10a Cartersfield Rd, Waltham Abbey EN9 1JD, United Kingdom",276
3883420,"10a Lion Rd, Bexleyheath DA6 8NR, United Kingdom",276
5666420,"10A Shooters Hill, Cowes PO31 7BG",276
3882387,"10a The Broadway, Sutton SM3 8AY, United Kingdom",276
3848183,"10b, Watford WD17 2TA, United Kingdom",276
3878618,"10th Floor, AMP House, 4 Dingwall Rd, Croydon CR0 2LX, United Kingdom",276
3855259,"11 & 12 High Road, Central Square, Wembley HA9 7AJ, United Kingdom",276
3851712,"11 Allendale Rd, Greenford UB6 0RB, United Kingdom",276
3855016,"11 Alperton Ln, Perivale, Greenford UB6 8DH, United Kingdom",276
5083295,"11 Amwell St, Hoddesdon EN11 8TP, United Kingdom",276
5082046,"11 Ashcroft Dr, Denham, Uxbridge UB9 5JF, United Kingdom",276
4682717,"11 Ashley Common Rd, New Milton BH25 5BS, UK",276
5086584,"11 Ashley Rd, Thames Ditton KT7 0NH, United Kingdom",276
3866709,"11 Autumn Cl, Enfield EN1 4JA, United Kingdom",276
4683912,"11 Avenue Rd, Sandown PO36 8BN, UK",276
3877553,"11 Beeches Ave, Carshalton SM5 3LB, United Kingdom",276
3895311,"11 Beehive Ln, Ilford IG1 3RG, United Kingdom",276
3895354,"11 Beehive Ln, Ilford IG1 3RG, United Kingdom",276
3877554,"11 Beynon Rd, Carshalton SM5 3RL, United Kingdom",276
4684022,"11 Binstead Lodge Rd, Ryde PO33 3SG, UK",276
3884425,"11 Blackfen Rd, Sidcup DA15 9LU, United Kingdom",276
3846308,"11 Boyd Ave, Southall UB1 3BT, United Kingdom",276
3855522,"11 Broadhurst Ave, Edgware HA8 8TP, United Kingdom",276
3847463,"11 Bullsland Ln, Chorleywood, Rickmansworth WD3 5BD, United Kingdom",276
3889863,"11 Burchwall Cl, Romford RM5 3JU, United Kingdom",276
5571601,"11 Camden Rd, Tunbridge Wells TN1 2PS, United Kingdom",276
5086847,"11 Castlemaine Ave, Ewell, Epsom KT17 2RD, United Kingdom",276
3855617,"11 Cat Hill, Barnet EN4 8HG, United Kingdom",276
4479681,"11 Chapel Mews, Hove BN3 1AR, UK",276
3807346,"11 Christie St, Paisley PA1 1NB, United Kingdom",276
3888310,"11 Collier Row La, Romford RM5 3BL, United Kingdom",276
5089523,"11 Collier Row Ln, Romford RM5 3BL, United Kingdom",276
5571984,"11 Collier Row Rd, Romford RM5 3NP, United Kingdom",276
3850894,"11 Crossmead, Watford WD19 4JG, United Kingdom",276
5571450,"11 Croydon Rd, Caterham CR3 6PA, United Kingdom",276
3847504,"11 Dawley Rd, Hayes UB3 1LS, United Kingdom",276
3882332,"11 Dering Pl, Croydon CR0 1DT, United Kingdom",276
3886759,"11 Derry Downs, Orpington BR5 4DT, United Kingdom",276
5710116,"11 Don Street, St Helier JE2 4WA",276
3858527,"11 E Barnet Rd, Barnet EN4 8RR, United Kingdom",276
3845720,"11 East Ave, Hayes UB3 2HW, United Kingdom",276
3889371,"11 East Mall, Liberty Shopping Centre, Romford RM1 3RL, United Kingdom",276
5087601,"11 Eaton Rd, Sidcup DA14 4PE, United Kingdom",276
4683192,"11 Esplanade, Ryde PO33 2DY, UK",276
3887538,"11 Essex Way, Great Warley, Brentwood CM13 3AX, United Kingdom",276
3880674,"11 Eton Rd, Orpington BR6 9HD, United Kingdom",276
3883814,"11 Ewell Bypass, Epsom KT17 2PZ, United Kingdom",276
5571600,"11 Fairway, Petts Wood, Orpington BR5 1EF, United Kingdom",276
3847011,"11 Feltham Rd, Ashford TW15 1DQ, United Kingdom",276
3860433,"11 Fern Dells, Hatfield AL10 9HX, United Kingdom",276
3847052,"11 Forest Dr, Theydon Bois, Epping CM16 7EX, United Kingdom",276
4447126,"11 Forthaven, Ballyclare BT39 9GU, UK",276
3855246,"11 Genotin Terrace, Enfield EN1 2AF, United Kingdom",276
5089525,"11 Gordon Rd, Dagenham, Romford RM6 6DD, United Kingdom",276
3873033,"11 Green Way, Hackbridge SM6 7AU, United Kingdom",276
3851563,"11 Grove Rd, Northwood HA6 2AP, United Kingdom",276
3865693,"11 Heath Rd, Welwyn AL6 0TP, United Kingdom",276
3896268,"11 High Rd, Dagenham, Romford RM6 6PU, United Kingdom",276
5569204,"11 High St, Cheshunt, Waltham Cross EN8 0BX, United Kingdom",276
5572284,"11 High St, Grays RM17 6NB, United Kingdom",276
3885698,"11 High St, Orpington BR5 3NL, United Kingdom",276
3884463,"11 High St, Orpington BR6 6BG, United Kingdom",276
3856768,"11 High St, Pinner HA5 5PJ, United Kingdom",276
3880444,"11 High St, Purley CR8 2AF, United Kingdom",276
3854874,"11 Holland Gardens, Brentford TW8 0BE, United Kingdom",276
3886874,"11 Ingrave Rd, Brentwood CM15 8AP, United Kingdom",276
3884322,"11 Julia Gardens, Barking IG11 0UQ, United Kingdom",276
3882281,"11 Keymer Cl, Biggin Hill, Westerham TN16 3DF, United Kingdom",276
5568095,"11 King St, Watford WD18 0BW, United Kingdom",276
5048209,"11 Lanark Rd West, Currie EH14 5ES, United Kingdom",276
3798333,"11 Lancaster Rd, Salisbury SP4 6FB, United Kingdom",276
3889836,"11 Lark Cl, Warley, Brentwood CM14 5GP, United Kingdom",276
