1655970,"Kidonias, Souda 732 00, Greece",83
4832542,"Kilkis 50, Patra 262 23, Greece",83
4832872,"Kilkis ke Lemesou, Patra 264 41, Greece",83
1357639,"Kinopiastes, Greece",83
5238235,"Kinopiastes, Kinopiastes, Greece",83
1586438,"Kiotari - Palia Eparxiaki Odos, Epar.Od. Pilonas-Katavias, Kiotari 851 09, Greece",83
1586452,"Kiotari 851 09, Greece",83
1591613,"Kiotari Beach, Kiotari 85109, Greece",83
1585617,"Kiotari, 851 09, Greece",83
1587922,"Kiotari, 851 09, Greece",83
1591588,"Kiotari, 851 09, Greece",83
1585125,"Kiotari, Rodos 851 09, Greece",83
1588118,"Kiotari-Bay, Kiotari 851 09, Greece",83
1372759,"Kiprou 138, Igoumenitsa 461 00, Greece",83
1701596,"Kiprou 14, Ierapetra 722 00, Greece",83
5388760,"Kiprou 15, Ag. Nikolaos 721 00, Greece",83
4832742,"Kiprou 2, Patra 264 41, Greece",83
1700928,"Kiprou 21, Ierapetra 722 00, Greece",83
1700814,"Kiprou 36, Ierapetra 722 00, Greece",83
1699353,"Kiprou 60, Ierapetra 722 00, Greece",83
1701802,"Kiprou 60, Ierapetra 722 00, Greece",83
1441578,"Kiprou 71, Igoumenitsa 461 00, Greece",83
1439462,"Kiprou 8, Igoumenitsa 461 00, Greece",83
1586561,"Kira Tis Ro 9, Arhagelos, Archaggelos 851 02, Greece",83
5380785,"Kiras tis Ro 23, Rodos 851 00, Greece",83
1350782,"Kiras Vasilikis 17, Igoumenitsa 461 00, Greece",83
4832605,"Kirillou 14, Patra 262 25, Greece",83
1695951,"Kirillou Loukareos 15, Iraklio 712 01, Greece",83
1680441,"Kirillou Loukareos 25, Iraklio 712 01, Greece",83
1695239,"Kirillou Loukareos 39, Iraklio 712 01, Greece",83
5388114,"Kirilou Loukareos 6, ????? ???????? ????? 721 00, Greece",83
1699060,"Kirva 25, Ierapetra 72280, Greece",83
1590753,"Kissamos 730 01, Greece",83
1632041,"Kissamos 730 01, Greece",83
1589348,"Kissamos 730 12, Greece",83
1589350,"Kissamos 730 12, Greece",83
1589590,"Kissamos 730 12, Greece",83
5236602,"Kissamos 730 12, Greece",83
5236617,"Kissamos 730 12, Greece",83
5236618,"Kissamos 730 12, Greece",83
1588917,"Kissamos 734 00, Greece",83
1589768,"Kissamos 734 00, Greece",83
1590270,"Kissamos 734 00, Greece",83
1591361,"Kissamos 734 00, Greece",83
1591755,"Kissamos 734 00, Greece",83
5100627,"Kissamos 734 00, Greece",83
5100644,"Kissamos 734 00, Greece",83
5100646,"Kissamos 734 00, Greece",83
5236587,"Kissamos 734 00, Greece",83
1591162,"Kissamos Chania, Kissamos 734 00, Greece",83
1591653,"KISSAMOS FISHERMAN, Kissamos 734 00, Greece",83
1589382,"Kissamos Port, Kissamos 734 00, Greece",83
1589778,"Kissamos, 734 00, Greece",83
1588753,"Kissamos, Greece",83
1588755,"Kissamos, Greece",83
1588897,"Kissamos, Greece",83
1588898,"Kissamos, Greece",83
1588914,"Kissamos, Greece",83
1588918,"Kissamos, Greece",83
1589103,"Kissamos, Greece",83
1589108,"Kissamos, Greece",83
1589210,"Kissamos, Greece",83
1589211,"Kissamos, Greece",83
1589381,"Kissamos, Greece",83
1589494,"Kissamos, Greece",83
1589766,"Kissamos, Greece",83
1589785,"Kissamos, Greece",83
1591125,"Kissamos, Greece",83
1591348,"Kissamos, Greece",83
1591352,"Kissamos, Greece",83
1591353,"Kissamos, Greece",83
1591719,"Kissamos, Greece",83
1592008,"Kissamos, Greece",83
1655702,"Kissamos, Greece",83
1655885,"Kissamos, Greece",83
5236424,"Kissamos, Greece",83
5236548,"Kissamos, Greece",83
5236573,"Kissamos, Greece",83
1591126,"Kissamos, Kissamos - Kastelli 734 00, Greece",83
1655582,"Kissamou 101, Chania 731 36, Greece",83
1654926,"Kissamou 155, Chania 731 36, Greece",83
1656053,"Kissamou 160, Chania 731 31, Greece",83
1633392,"Kissamou 170, Chania 731 36, Greece",83
1658588,"Kissamou 179, Chania, Greece",83
5389721,"Kissamou 186, Chania 731 00, Greece",83
1658040,"Kissamou 192, Chania, Greece",83
5390298,"Kissamou 20, Chania 731 36, Greece",83
1656168,"Kissamou 41, Chania 731 36, Greece",83
1655590,"Kissamou 55, Chania 731 36, Greece",83
1658570,"Kissamou 60, Chania 731 31, Greece",83
1633333,"Kissamou 69, Chania 731 36, Greece",83
1658568,"Kissamou 71, Chania 731 36, Greece",83
1656045,"Kissamou 85, Chania 731 36, Greece",83
1655013,"Kissamou 98, Chania 731 36, Greece",83
5236399,"Kissamou, Koleni 734 00, Greece",83
1590129,"Kissos 740 53, Greece",83
5019146,"Kisthiniou 15, Rodos 851 00, Greece",83
5110237,"Kiteou, Malevizi 715 00",83
5110352,"Kladera Agia Fotia, Sitia 723 00",83
5380787,"Klavdiou Peper 107, Rodos 851 00, Greece",83
1543536,"Klouvas 846 00, Greece",83
1544092,"Klouvas 846 00, Greece",83
1544565,"Klouvas 846 00, Greece",83
1545123,"Klouvas 846 00, Greece",83
1584481,"Km Rodou- Kamirou 23O, Soroni 851 06, Greece",83
1694447,"Knosos 714 09, Greece",83
1697339,"Knosos 714 09, Greece",83
1699566,"Knosou 4, Ag. Nikolaos 721 00, Greece",83
5018851,"Knossou 18, Ag. Pelagia 715 00, Greece",83
5381969,"Ko 31, Rodos 851 00, Greece",83
5381522,"Ko 5, Rodos 851 00, Greece",83
5017865,"Koen 7, Kerkira 491 00, Greece",83
5018545,"Kokkini Hani 715 00",83
5018515,"Kokkini Hani Old Road -Aghios Nikolaos, Kokkini Hani 715 00",83
1697441,"Kokkini Hani, Iraklio 715 00, Greece",83
5018514,"Kokk?ni Kh?nion, Kokk?ni Kh?nion 71500",83
5235668,"Kokkini xani palea eo irakliou agiou nikolaou, Kokkini Hani 71500 715 00",83
5017835,"Kokkini, Pelekas 491 00, Greece",83
5017923,"Kokkinia Lefkimi, Kavos, Greece",83
1672660,"Kokkino Chorio, Chania Chania 730 08, Greece",83
5389265,"Kokkino Chorio, Vamos 730 08, Greece",83
1658217,"Kokkino Metochi - Drapanias, Kissamos 734 00, Greece",83
1591144,"Kokkino Metochi Drapanias, Kissamos 734 00, Greece",83
5385706,"Kokkinos Pirgos 702 00, Greece",83
1674679,"Kokkinos Pirgos, 702 00, Greece",83
5100685,"Kokkinou 64, Chania 731 31, Greece",83
1674474,"Kokkinou Pirgou 30, Timpaki 702 00, Greece",83
1659593,"Kokkinou Pirgou, Timpaki 702 00, Greece",83
1674366,"Kokkinou Pyrgou Ave., Timpaki 702 00, Greece",83
1347768,"Kokonetsi Alexandrou 15, Kerkira 491 00, Greece",83
4819976,"Kokylia, Argostoli 281 00, Greece",83
1583985,"Kolimbia, Kolymbia 851 03, Greece",83
5017958,"Kolimvari, 730 06, Greece",83
5018138,"Kolokotroni - Stavros, Koumari?s 731 33",83
1673177,"Kolokotroni 11, Rethimno 741 00, Greece",83
4832819,"Kolokotroni 19, Patra 262 21, Greece",83
4833003,"Kolokotroni 5, Patra 262 21, Greece",83
5373526,"Kolokotroni 5, Patra 262 21, Greece",83
4832761,"Kolokotroni 7-9, Patra 262 21, Greece",83
1589104,"Kolpos Kissamou, Greece",83
1582272,"Kolymbia, 851 03, Greece",83
1584032,"Kolymbia, 851 03, Greece",83
1583849,"Kolymbia, Rhodos Nord 851 03, Greece",83
1589351,"Kolymvari, Greece",83
1590767,"Kolymvari, Greece",83
1591459,"Kolymvari, Greece",83
1591721,"Kolymvari, Greece",83
5236513,"Kolymvari, Greece",83
5236315,"Komitades 730 11, Greece",83
5389448,"Komitades 730 11, Greece",83
5238228,"KOMMENO, Kerkira 490 83, Greece",83
1349105,"KOMMENO, PALEOKASTRITSA 490 83, Greece",83
1655007,"Kommos Mournion, Chania, 73100, Greece",83
5655516,"Komninon kai Soumelas 41, ????????? 551 32",83
1348942,"Kompitsi 491 00, Greece",83
1353693,"Kompitsi 491 00, Greece",83
1658602,"Komvos Atsipopoulo, Rethymno 741 00, Greece",83
1590529,"Komvos Mournies, Municipality of El. Venizelos, Chania 733 00, Greece",83
1583923,"Kon / nou Idreou 56, Rodos 851 00, Greece",83
1585196,"Kon / nou Idreou 69, Rodos 851 00, Greece",83
1585687,"Kon / nou Idreou 71, Rodos 851 00, Greece",83
1584792,"Kon / nou Idreou 75, Rodos 851 00, Greece",83
1584595,"Kon / nou Paleologou 11, Rodos 851 00, Greece",83
1699758,"Kon / nou Paleologou 19, Ag. Nikolaos 721 00, Greece",83
5235651,"Kon / nou Paleologou 24, Ag. Nikolaos 721 00, Greece",83
1659565,"Kon / nou Paleologou 25, Rethymno 741 00, Greece",83
1584543,"Kon / nou Paleologou 27, Rodos 851 00, Greece",83
1701002,"Kon / nou Paleologou 28, Ag. Nikolaos 721 00, Greece",83
1700915,"Kon / nou Paleologou 33, Ag. Nikolaos 721 00, Greece",83
1699822,"Kon / nou Paleologou 41, Ag. Nikolaos 721 00, Greece",83
1700851,"Kon / nou Paleologou 41, Ag. Nikolaos 721 00, Greece",83
1658737,"Kon / nou Paleologou 43, Rethymno 741 00, Greece",83
1590123,"Kon / nou Paleologou 6, Rethymno 741 00, Greece",83
1701099,"Kon / nou Paleologou 74, Agios Nikolaos (Creta) 721 00, Greece",83
1701342,"Kon / nou Paleologou 76, Ag. Nikolaos 721 00, Greece",83
1701061,"Kon / nou Paleologou to Koritsas, Ag. Nikolaos 721 00, Greece",83
1671928,"Kon / nou Paleologou, Rethymno 741 00, Greece",83
1701663,"Kon / nou Sfakianaki 9, Ag. Nikolaos 721 00, Greece",83
1378193,"Kon / nou Zavitsianou 11, Kerkira 491 00, Greece",83
5238213,"Kon / nou Zavitsianou 5, Kerkira 491 00, Greece",83
4832884,"Kon. Triantafyllou 8, Patra 264 43, Greece",83
4832815,"Kon/nou Gkotsi 9, Patra 262 23, Greece",83
5381832,"Kon/nou Idreou 47, Rodos 851 00, Greece",83
5380769,"Kon/nou Paleologou 11, Rodos 851 00, Greece",83
5384942,"Kon/nou Paleologou, Rethymno 741 00, Greece",83
5110341,"Kondilaki 16, Sitia 723 00",83
1673201,"Kondilaki 32, Iraklio 713 05, Greece",83
5236346,"Kondilaki 47, Chania, Greece",83
1700254,"Kondilaki 5, Ag. Nikolaos 721 00, Greece",83
1659369,"Kondilaki 74, Iraklio 713 05, Greece",83
5018444,"Kondilaki Street 101 G2, 3rd floor, Heraklio Town 713 05, Greece",83
1509433,"Kondili 10, Kalampaka 422 00, Greece",83
1506471,"Kondili 20, Kalampaka 422 00, Greece",83
1509220,"Kondili 22, Kalampaka 422 00, Greece",83
1509729,"Kondili 26, Kalampaka 422 00, Greece",83
1506754,"Kondili 27, Kalampaka 422 00, Greece",83
1517551,"Kondili 30, Kalampaka 422 00, Greece",83
5239649,"Kondili 33, Kalampaka 422 00, Greece",83
1509409,"Kondili 49, Kalampaka 422 00, Greece",83
1509717,"Kondili 55, Kalampaka 422 00, Greece",83
5239579,"Kondili 59, Kalampaka 422 00, Greece",83
1509720,"Kondili 7, Kalampaka 422 00, Greece",83
1680436,"Konitsis 33, Iraklio 713 07, Greece",83
1583947,"Konstantinidi 1, Rodos, Greece",83
5019071,"Konstantinidi 5, Rodos 851 00, Greece",83
5019175,"Konstantinidi 9, Rodos 851 00, Greece",83
5018913,"Konstantinos Kotsikas, Adamas 848 01",83
5177561,"Konstantinos Paleologos 29, Patra 263 31",83
1669409,"Konstantinou Paleologou 8, Old town, Kon / nou Paleologou, Rethymno 741 00, Greece",83
1659730,"Konstantinoupoleos 1, Rethymno 741 00, Greece",83
5018416,"Konstantinoupoleos 12, Iraklio 713 04, Greece",83
1669413,"Konstantinoupoleos 15, Rethymno 741 00, Greece",83
4832986,"Konstantinoupoleos 35, Patra 262 23, Greece",83
4832543,"Konstantinoupoleos 54-56, Patra 262 23, Greece",83
4832992,"Konstantinoupoleos 58, Patra 262 23, Greece",83
4832752,"Konstantinoupoleos 65, Patra 262 23, Greece",83
4832812,"Konstantinoupoleos 71, Patra 262 23, Greece",83
4832545,"Konstantinoupoleos 72, Patra 262 23, Greece",83
4832997,"Konstantinoupoleos 82, Patra 262 23, Greece",83
4832813,"Konstantinoupoleos 82-84, Patra 262 23, Greece",83
1669412,"Konstantinoupoleos, Rethymno 741 00, Greece",83
1545712,"Kontochori area, Fira, Thira 847 00, Greece",83
1549077,"Kontochori, Kontochori-Fira, Fira 847 00, Greece",83
1582523,"Kontochori, Thira 847 00, Greece",83
1545705,"Kontochori, Thira, 84700, Greece",83
4832588,"Kontogouri 10, Patra 263 33, Greece",83
1372762,"Kontokali Bay hotel, Kerkira 491 00, Greece",83
5238272,"Kontokali, 491 00, Greece",83
1348859,"Kontokali, Greece",83
1350524,"Kontokali, Greece",83
1350525,"Kontokali, Greece",83
1351474,"Kontokali, Greece",83
1353665,"Kontokali, Greece",83
1359965,"Kontokali, Greece",83
5017627,"Kontokali, Greece",83
5017823,"Kontokali, Greece",83
5017824,"Kontokali, Greece",83
5238159,"Kontokali, Greece",83
5238191,"Kontokali, Greece",83
5238323,"Kontokali, Greece",83
5238407,"Kontokali, Greece",83
5373148,"Kontokali, Greece",83
5373524,"Kontokali, Greece",83
5373784,"Kontokali, Greece",83
5373289,"Kontokali, Kerkira 491 00, Greece",83
1584172,"Kontourioti sq, Mandraki Harbour, Rodos 851 00, Greece",83
1634088,"Kopetoi, Paleohora 730 04, Greece",83
1655969,"Korai 1, Chania 731 32, Greece",83
1671533,"Korai 1-15, Iraklio 712 02, Greece",83
1680447,"Korai 1-15, Iraklio 712 02, Greece",83
5235995,"Korai 10, Iraklio 712 02, Greece",83
1667369,"Korai 12, Iraklio 712 02, Greece",83
5235857,"Korai 13, Iraklio 712 02, Greece",83
1671549,"Korai 15, Iraklio 712 02, Greece",83
1695960,"Korai 20, Iraklio 712 02, Greece",83
5744848,"Korai 9, Patra 262 22, Greece",83
1588932,"korai street, Platanias 730 14, Greece",83
1658906,"Korakas, Rodh?kinon 740 60, Greece",83
1588900,"Korfalona Beach, Kissamos 734 00, Greece",83
1521960,"KORFOS AREA, Cyclades 848 00, Greece",83
5110453,"Korfos, Ornos, Greece",83
4825671,"Koridalleos 56-58, Patra 264 43, Greece",83
4826172,"Koridalleos 79, Patra 264 43, Greece",83
4826663,"Korinthou 130, Patra 263 32, Greece",83
4826613,"Korinthou 131, Patra 262 23, Greece",83
4832816,"Korinthou 161, Patra 262 23, Greece",83
4833188,"Korinthou 166, Patra 262 23, Greece",83
4832548,"Korinthou 181, Patra 262 23, Greece",83
4833005,"Korinthou 190, Patra 262 21, Greece",83
5744844,"Korinthou 226, Patra 262 21, Greece",83
4832982,"Korinthou 23, Patra 262 23, Greece",83
4832762,"Korinthou 238, Patra 262 21, Greece",83
4826796,"Korinthou 239, Patra 262 21, Greece",83
4832764,"Korinthou 242, Patra 26221, Greece",83
4832564,"Korinthou 245, Patra 262 21, Greece",83
4823308,"Korinthou 252, Patra 262 21, Greece",83
4832571,"Korinthou 270, Patra 262 21, Greece",83
4832569,"Korinthou 297-303, Patra 262 21, Greece",83
4832775,"Korinthou 321, Patra 262 21, Greece",83
4826379,"Korinthou 323, Patra 262 21, Greece",83
4832914,"Korinthou 335, Patra 262 22, Greece",83
4832746,"Korinthou 34, Patra 262 23, Greece",83
4832780,"Korinthou 353, Patra 262 22, Greece",83
4832851,"Korinthou 368, Patra 262 22, Greece",83
4826378,"Korinthou 387, Patra 262 22, Greece",83
4832985,"Korinthou 67, Patra 262 23, Greece",83
4826403,"Korinthou 71, Patra 262 23, Greece",83
4832750,"Korinthou 73, Patra 262 23, Greece",83
4832754,"Korinthou 92, Patra 262 23, Greece",83
4826634,"Korinthou ke Astiggos, Patra 262 23, Greece",83
4826387,"Korinthou ke Pl. Geor. A, Patra 262 21, Greece",83
1377528,"Korissia 490 80, Greece",83
1441876,"Korissia 490 80, Greece",83
1439663,"Korissia, Municipality of Korissia, Greece",83
1508885,"Koritsas 14, Kalampaka 422 00, Greece",83
5018675,"Koritsas 39, Ag. Nikolaos 721 00, Greece",83
1633378,"Korkidi 29, Chania 731 36, Greece",83
1701411,"Kornarou 90, Sitia 723 00, Greece",83
1667448,"Koronaiou Panou 13, Rethymno 741 00, Greece",83
1693876,"Koroneou 10, Iraklio 712 02, Greece",83
5100666,"Koroneou 13, Chania 731 36, Greece",83
1633406,"Koroneou 18, Chania 731 36, Greece",83
1697537,"Koroneou 23, Iraklio 712 02, Greece",83
1697437,"Koroneou 26, Iraklio 712 02, Greece",83
1695961,"Koroneou 3, Iraklio 712 02, Greece",83
1675331,"Koroneou 4, Iraklio 712 01, Greece",83
1673199,"Koroneou 5, Iraklio 712 02, Greece",83
1696776,"Koroneou 7, Iraklio 712 02, Greece",83
1694192,"Koroneou to 25is Avgoustou, Iraklio 712 02, Greece",83
1697546,"Kos 6 Amoudara, Gazi 714 14, Greece",83
1582265,"Kos Str.14, R?dos 851 00, Greece",83
1583126,"Koskinou 851 00, Greece",83
1583774,"Koskinou Municipal District, Koskinou 85105, Greece",83
1583571,"Koskinou, Greece",83
1583663,"Koskinou, Greece",83
1584586,"Koskinou, Greece",83
1659600,"Kosmon 12, Iraklio 712 01, Greece",83
4832856,"Kosti Palama 95, Patra 264 42, Greece",83
5017984,"Kosti Palama, Stalos 731 00, Greece",83
5110285,"Kothri Michail 22, Ierapetra 722 00, Greece",83
4832878,"Kotopouli 52, Patra 264 42, Greece",83
5177498,"Koufonissia, Koufonisi - Chora 843 00",83
1505182,"Koumaries, Kalambaka 422 00, Greece",83
1505154,"Koumaries, Kalampaka 422 00, Greece",83
1667382,"Kounavon 33, Giofyros, Iraklio 713 04, Greece",83
1698413,"Koundourou 1, Ag. Nikolaos 721 00, Greece",83
5235380,"Koundourou 1, Ag. Nikolaos 721 00, Greece",83
1700749,"Koundourou 16, Ag. Nikolaos 721 00, Greece",83
5235704,"Koundourou 17, Ag. Nikolaos 721 00, Greece",83
1700478,"Koundourou 3, Ag. Nikolaos 721 00, Greece",83
1699770,"Koundourou 30, Ag. Nikolaos 721 00, Greece",83
5018738,"Koundourou 34, Ag. Nikolaos 721 00, Greece",83
1699713,"Koundourou 5, Ag. Nikolaos 721 00, Greece",83
1699978,"Koundourou 6, Ag. Nikolaos 721 00, Greece",83
1700259,"Koundourou 8, Ag. Nikolaos 721 00, Greece",83
1701454,"Koundourou 9, Ag. Nikolaos 721 00, Greece",83
1700141,"Koundourou, Ag. Nikolaos 721 00, Greece",83
1700997,"Koundourou, Ag. Nikolaos 721 00, Greece",83
4819926,"Kounopetra, Lixouri, Kefalonia, Kefalonia 282 00, Greece",83
1658767,"Kounoupidiana ,, Knossou, Chania 731 00, Greece",83
1591953,"Kounoupidiana 731 00, Greece",83
1591813,"Kounoupidiana, Chania 731 00, Greece",83
1591949,"Kounoupidiana, Greece",83
1633931,"Kountoura Selinou, Paleochora 730 01, Greece",83
1671114,"Kountouriotou 1, Rethymno 741 00, Greece",83
1658803,"Kountouriotou 100, Rethimno 741 00, Greece",83
1659755,"Kountouriotou 109, Rethymno 741 00, Greece",83
5235865,"Kountouriotou 127, Rethymno 741 00, Greece",83
5018254,"Kountouriotou 139, Rethimno 741 00, Greece",83
5018249,"Kountouriotou 153, Rethymno 741 00, Greece",83
1658611,"Kountouriotou 158, Rethymno 741 00, Greece",83
1671946,"Kountouriotou 158, Rethymno 741 00, Greece",83
1669391,"Kountouriotou 159, Rethymno 741 00, Greece",83
1670865,"Kountouriotou 162, Rethymno 741 00, Greece",83
1669385,"Kountouriotou 17, Rethymno 741 00, Greece",83
1670856,"Kountouriotou 174, Rethymno 741 00, Greece",83
1667438,"Kountouriotou 23, Rethymno 741 00, Greece",83
1658605,"Kountouriotou 29, Rethymno 741 00, Greece",83
1671965,"Kountouriotou 33, Rethymno 741 00, Greece",83
1658609,"Kountouriotou 77, Rethymno 741 00, Greece",83
5236068,"Kountouriotou 77, Rethymno 741 00, Greece",83
1658756,"Kountouriotou 78, Rethymno 741 00, Greece",83
1658749,"Kountouriotou 84, Rethymno 741 00, Greece",83
1667153,"Kountouriotou to Hortatzi, Gonia 741 00, Greece",83
1658750,"Kountouriotou, Rethymno 741 00, Greece",83
1700649,"Kouper 47, Ierapetra 722 00, Greece",83
5110302,"Kouper 97, Ierapetra 722 00, Greece",83
1374342,"Kouramaditika 491 00, Greece",83
1699886,"Kouremenos - Plakopoules Area, Palekastro 723 00, Greece",83
1699871,"Kouremenos 723 00, Greece",83
5018791,"Kouremenos 723 00, Greece",83
5018777,"KOUREMENOS BAY, Palekastro 723 00, Greece",83
5235576,"Kouremenos Beach Rd, Kouremenos 723 00, Greece",83
1699909,"Kouremenos Beach Rd, Palekastro 723 00, Greece",83
5018529,"Kouremenos of Palekastro, Palekastro 723 00, Greece",83
5018763,"Kouremenos, Palekastro 723 00, Greece",83
1673629,"Kournas, 730 07, Greece",83
1655298,"Kournidaki Joseph Oasis of Varypetrou, Chania 731 00, Greece",83
1677043,"Kouses 704 00, Greece",83
1439910,"Kouspades 490 80, Greece",83
1440295,"Kouspades 490 80, Greece",83
5100583,"Kouspades 490 80, Greece",83
1440484,"Kouspades, Boukari 49080, Greece",83
1441557,"Kouspades, Greece",83
1673227,"koutelos beach, Vouvas 730 11, Greece",83
1701463,"koutsounari 177, ierapetra 722 00, Greece",83
1699749,"Koutsounari 722 00, Greece",83
1699761,"Koutsounari 722 00, Greece",83
5235408,"Koutsounari 722 00, Greece",83
1701467,"koutsounari Greece, Ierapetra 722 00, Greece",83
1701799,"Koutsouras 720 55, Greece",83
5018757,"Koutsouras 720 55, Greece",83
5018818,"Koutsouras 720 55, Greece",83
5235176,"Koutsouras 720 55, Greece",83
1701416,"Koutsouras, 720 55, Greece",83
1696364,"Koziri 5, Iraklio 712 01, Greece",83
1585782,"Krana Square, Lindos 851 07, Greece",83
1590408,"Krana, Lindos 851 07, Greece",83
5387650,"Krasi 700 05, Greece",83
1700081,"Krasi, Greece",83
1701129,"Krasi, Greece",83
1583980,"Kremasti 851 04, Greece",83
1584696,"Kremasti 851 04, Greece",83
1584931,"Kremasti 851 04, Greece",83
5112639,"Kremasti 851 04, Greece",83
5238466,"Kremasti 851 04, Greece",83
5112644,"Kremasti Area, R?dos, Greece",83
1700807,"Krhth, Ierapetra, Greece",83
1669402,"Kriari 1, Rethymno 741 00, Greece",83
1658952,"Kriari 32, Chania 73100, Greece",83
1588764,"Kriari 34, Chania 731 35, Greece",83
1591988,"Kriari 40, Chania 73100, Greece",83
1655022,"Kriari 40, Chania 73100, Greece",83
1656042,"Kriari 40, Chania, Greece",83
5384928,"Kriari 40, Chania, Greece",83
1672864,"Kriari 57, Rethymno 741 00, Greece",83
5235080,"krikri, Ag. Nikolaos 721 00, Greece",83
1440572,"krioneri, Parga 480 60, Greece",83
5235819,"Kriti, Hrakleio 700 02, Greece",83
1586408,"Kritinia box 265, Rhodos - Kamiros Skala 851 08, Greece",83
1694264,"Kritis, Iraklio 714 09, Greece",83
1700543,"Kritis, Iraklio 714 09, Greece",83
1700257,"Kritsa, Agios Nikolaos 72051, Greece",83
5018704,"Kritsas 1, Ag. Nikolaos 721 00, Greece",83
1701473,"Kritsotopoula, Kritsa 720 51, Greece",83
1700013,"Kritsotopoulas, Kritsa 720 51, Greece",83
1701459,"Kritsotopoulas, Kritsa 720 51, Greece",83
1670778,"Krousonas, Greece",83
1679333,"Krousonas, Greece",83
1697906,"Krousonas, Greece",83
5387644,"Kroustas 721 00, Greece",83
1667858,"Kryoneritis, Finikas 740 60, Greece",83
1439231,"Ksamil 9706, Albania",83
5238302,"Ksamil 9706, Albania",83
5238164,"Ksamil, Albania",83
5238165,"Ksamil, Albania",83
5238166,"Ksamil, Albania",83
1589551,"Ktistaki 6, Chania 731 34, Greece",83
5177425,"Kyllini - Lixouri, Lixouri, Kefalonia 282 00",83
1701057,"Kyprou kai Kozyri (corner), Agios Nikolaos Lassithiou 721 00, Greece",83
1695596,"Kyriakou Skepetzis 9, Iraklio 714 09, Greece",83
5704646,"K???? 2, ?????? 412 22",83
5704644,"K???? 4, ?????? 412 22",83
5704639,"K???? 46, ?????? 412 23",83
5235590,"L.IKAROU 61, NEA ALIKARNASSOS, Iraklio 716 01, Greece",83
5018544,"Lachana 10, Iraklio 712 02, Greece",83
1590074,"Lachania 851 09, Greece",83
1590085,"Lachania 851 09, Greece",83
5112850,"Lachania 851 09, Greece",83
5112838,"Lachania street 1, Lachania, Greece",83
1590079,"Lachania, Lachania, Greece",83
1589507,"Lachania, Lachania, Rhodos 851 09, Greece",83
5238774,"Lachitos, Rodos 851 00, Greece",83
5019207,"Ladiko, Faliraki 851 03, Greece",83
5376377,"Ladochoriou, Ladochorion 461 00, Greece",83
5238735,"Laerma 851 09, Greece",83
1679168,"Lagolio - square, Lagolio 702 00, Greece",83
1590178,"Lake Kournas, Georgioupoli 730 07, Greece",83
1699599,"Lake Voulismeni, 721 00, Greece",83
1701561,"Lakerda and Kalimeraki corner, Ierapetra 722 00, Greece",83
4819676,"Lakithra 281 00, Greece",83
4819868,"Lakithra 281 00, Greece",83
4819980,"Lakithra 281 00, Greece",83
4819633,"Lakithra Kefalonia, Kefalonia 281 00, Greece",83
5017925,"Lakka 490 82, Greece",83
5017896,"Lakka Bay, Lakka 490 82, Greece",83
1442518,"Lakka bay, Paxos 490 82, Greece",83
5017702,"Lakka, Greece",83
5017906,"Lakka, Greece",83
1443421,"Lakka, Paxos 490 82, Greece",83
5018072,"Lakki beach ,, Chora Sfakion 730 11, Greece",83
5017762,"Lakones, Paleocastritsa, Lakones, Greece",83
1583586,"Lalisou, ????? 851 00, Greece",83
1669844,"lameriana, Rethymno 740 52, Greece",83
1680026,"Lampraki 101, Epano Archanes 701 00, Greece",83
5110297,"Lampraki 45, Ierapetra 722 00, Greece",83
1700215,"Landscaping of Thick Sand, Ierapetra 722 00, Greece",83
1677028,"Lappa 1, Iraklio 713 05, Greece",83
1585043,"Lardos 851 09, Greece",83
1585564,"Lardos 851 09, Greece",83
1587721,"Lardos 851 09, Greece",83
1588312,"Lardos 851 09, Greece",83
1589075,"Lardos 851 09, Greece",83
1589076,"Lardos 851 09, Greece",83
1589920,"Lardos 851 09, Greece",83
5238706,"Lardos 851 09, Greece",83
1583576,"LARDOS 85109, Lardos, Lardos, Greece",83
1588037,"Lardos Bay, Lardos 85109, Greece",83
1589917,"Lardos Lindos Provincial Road, Lindos 851 07, Greece",83
5110526,"Lardos main square, Lardos, Greece",83
1589875,"Lardos, 851 09, Greece",83
1583589,"Lardos, Afandou 851 00, Greece",83
1583633,"Lardos, Greece",83
1585042,"Lardos, Greece",83
1587957,"Lardos, Greece",83
1587960,"Lardos, Greece",83
1588319,"Lardos, Greece",83
5110547,"Lardos, Greece",83
5238694,"Lardos, Greece",83
5019235,"lardos, Rodos 851 09, Greece",83
5019289,"Lardos, rodos 851 09, Greece",83
1588300,"lardos-lothiarika-pefkoi, lindos 851 09, Greece",83
1584460,"lardou - lindou ave, Lindos 851 07, Greece",83
4819883,"Larniou1, Fiskardo 280 84, Greece",83
4823141,"Lase, Argostoli 281 00, Greece",83
4819723,"Lassi, Argostoli 281 00, Greece",83
4819911,"Lassi, Argostoli 281 00, Greece",83
4819988,"LASSI, Argostoli 281 00, Greece",83
4819919,"Lassi, Kefalonia 281 00, Greece",83
5236257,"Lassiti, Greece, Pitsidia, Greece",83
5018746,"Lasthenous 23, Ag. Nikolaos 721 00, Greece",83
1700047,"Lasthenous 23, Ierapetra 722 00, Greece",83
1699408,"Lasthenous 26, Ierapetra 722 00, Greece",83
5110298,"Lasthenous 27, Ierapetra 722 00, Greece",83
1675007,"Lasthenous 28, Ierapetra 722 00, Greece",83
1701744,"Lasthenous 36, Ierapetra 722 00, Greece",83
1679394,"Lasthenous and Venizelou square, Ierapetra 722 00, Greece",83
1701669,"Lasthenous to Sfakianaki, Ag. Nikolaos 721 00, Greece",83
5388346,"Lastros 720 57, Greece",83
5387329,"Latous 2, Ag. Nikolaos 721 00, Greece",83
1701341,"Latous 25, Ag. Nikolaos 721 00, Greece",83
1701003,"Latous 28, Ag. Nikolaos 721 00, Greece",83
1699253,"Latous, Ag. Nikolaos 721 00, Greece",83
1669841,"Laurels, RETHYMNO 740 54, Greece",83
1352960,"Lavrenti Mavili 2, Kerkira 491 00, Greece",83
1348713,"Lavrenti Mavili 21, Kerkira 491 00, Greece",83
1383296,"Lazaretto, Greece",83
1655604,"Lefka Ori, Sfakia 730 11, Greece",83
1350754,"lefka perouladon, sidari, kerkyra 490 81, Greece",83
1384425,"Lefkada 311 00, Greece",83
1384426,"Lefkada 311 00, Greece",83
1386939,"Lefkada 311 00, Greece",83
5238216,"Lefkada, Greece",83
1695599,"Lefkadia Rodias Gazi pob 517, Iraklio 714 14, Greece",83
1439896,"Lefkimmi 490 80, Greece",83
1440504,"Lefkimmi 490 80, Greece",83
1443028,"Lefkimmi 490 80, Greece",83
1443029,"Lefkimmi 490 80, Greece",83
1443035,"Lefkimmi 490 80, Greece",83
1443038,"Lefkimmi 490 80, Greece",83
5100589,"Lefkimmi 490 80, Greece",83
1440304,"Lefk?mmi Buka, Lefk?mmi 49080, Greece",83
1351494,"Lefkimmi National Road, Kerkira, Greece",83
1347819,"Lefkimmi, Greece",83
1350562,"Lefkimmi, Greece",83
1389857,"Lefkimmi, Greece",83
1439685,"Lefkimmi, Greece",83
1440518,"Lefkimmi, Greece",83
1442484,"Lefkimmi, Greece",83
5373341,"Lefkimmi, Greece",83
1378728,"Lefkimmis Rd (3rd km), Kanalia, Kerkyra, 49100, Greece",83
5238175,"Lefkimmis, Kerkira 491 00, Greece",83
1381484,"Lefkimmis, Lefkimmi 490 80, Greece",83
1439683,"Lefkimmis, Lefkimmi 490 80, Greece",83
1443027,"Lefkimmis, Lefkimmi 490 80, Greece",83
1443745,"Lefkimmis, Lefkimmi 490 80, Greece",83
4832973,"Lefkosias 156, Patra 264 41, Greece",83
4832686,"Lefkosias 21, Patra 264 41, Greece",83
1696141,"Lefkosias 27, Iraklio 713 04, Greece",83
1697555,"Lefteri Skepetzi 14, Iraklio 713 07, Greece",83
1674697,"Legends ,, 700 12, Greece",83
1349286,"Legends Hotel & Apartments, Sidari 490 81, Greece",83
1584962,"Lemesou, Pastida 851 06, Greece",83
5018690,"Lenika 67 Elounda, Ag. Nikolaos 721 00, Greece",83
5018519,"Lenikou Street, Analipsi 700 14, Greece",83
5018572,"Lentas 704 00, Greece",83
1350783,"Leof. 49 Martiron 15, Igoumenitsa 461 00, Greece",83
5018382,"Leof. 62 Martiron 1, Iraklio, Greece",83
5385347,"Leof. 62 Martiron 105, Iraklio 713 04, Greece",83
1668061,"Leof. 62 Martiron 176, Iraklio 713 03, Greece",83
1668068,"Leof. 62 Martiron 192, Iraklio 713 03, Greece",83
1696575,"Leof. 62 Martiron 193, Iraklio 713 04, Greece",83
5385360,"Leof. 62 Martiron 213, Xeropotamos 713 03, Greece",83
1668036,"Leof. 62 Martiron 310, Iraklio 713 03, Greece",83
1678855,"Leof. 62 Martiron 310, Iraklio 713 03, Greece",83
1678856,"Leof. 62 Martiron 362, Xeropotamos 713 03, Greece",83
1695212,"Leof. 62 Martiron 40, Iraklio, Greece",83
1694281,"Leof. 62 Martiron 422, Iraklio 713 03, Greece",83
1680427,"Leof. 62 Martiron 52, Iraklio 713 03, Greece",83
1696363,"Leof. 62 Martiron 58, Iraklio 713 03, Greece",83
1680656,"Leof. 62 Martiron 62, Iraklio 713 04, Greece",83
1677087,"Leof. 62 Martiron 84, Iraklio 713 03, Greece",83
1678427,"Leof. 62 Martyron 11, Iraklio, Greece",83
1696790,"Leof. 62 Martyron 124-126, Iraklio 713 03, Greece",83
1699248,"Leof. 62 Martyron 124-126, Iraklio 713 03, Greece",83
1696614,"Leof. 62 Martyron 145, Iraklio, Greece",83
1695251,"Leof. 62 Martyron 148, Iraklio 713 04, Greece",83
1668041,"Leof. 62 Martyron 160-162, Iraklio 713 03, Greece",83
1680424,"Leof. 62 Martyron 165, Iraklio 713 04, Greece",83
1695202,"Leof. 62 Martyron 377, Iraklio 713 04, Greece",83
5235967,"Leof. 62 Martyron 38, Iraklio 713 03, Greece",83
1699274,"LEOF. 62 WITNESSES No. 56, Iraklio 713 03, Greece",83
1361750,"Leof. Alexandras 25, Kerkira 491 00, Greece",83
1353344,"Leof. Alexandras 27, Kerkira 491 00, Greece",83
1360776,"Leof. Alexandras 27, Kerkira 491 00, Greece",83
1353351,"Leof. Alexandras 27-31, Kerkira 491 00, Greece",83
1347772,"Leof. Alexandras 31, Kerkira 491 00, Greece",83
1384433,"Leof. Alexandras 33, Kerkira 491 00, Greece",83
1382587,"Leof. Alexandras 36, Kerkira 491 00, Greece",83
1693902,"Leof. Andrea Papandreou 1, Iraklio 713 05, Greece",83
1677456,"Leof. Andrea Papandreou 100, Gazi 714 14, Greece",83
1696281,"Leof. Andrea Papandreou 108, Amoudara Herakliou 714 14, Greece",83
1677434,"Leof. Andrea Papandreou 108, Malevizi 714 14, Greece",83
1697016,"Leof. Andrea Papandreou 116, Gazi 714 14, Greece",83
1695249,"Leof. Andrea Papandreou 127, Gazi 714 14, Greece",83
1678848,"Leof. Andrea Papandreou 127, Iraklio 714 14, Greece",83
5235580,"Leof. Andrea Papandreou 140, Malevizi, Greece",83
1674323,"Leof. Andrea Papandreou 15, Gazi 714 14, Greece",83
1660104,"Leof. Andrea Papandreou 150, Ammoudara - Iraklion 714 14, Greece",83
1678846,"Leof. Andrea Papandreou 167, Iraklio 714 14, Greece",83
5236059,"Leof. Andrea Papandreou 187, Ag. Dimitrios 714 14, Greece",83
1697547,"Leof. Andrea Papandreou 187, Gazi 710 02, Greece",83
1695584,"Leof. Andrea Papandreou 201, Iraklio 714 14, Greece",83
1671136,"Leof. Andrea Papandreou 213-219, Gazi 714 14, Greece",83
1674386,"Leof. Andrea Papandreou 22, Gazi 714 14, Greece",83
1693822,"Leof. Andrea Papandreou 22, Gazi 714 14, Greece",83
1697517,"Leof. Andrea Papandreou 239, Iraklio 714 14, Greece",83
1696582,"Leof. Andrea Papandreou 24-26, Iraklio 713 05, Greece",83
5018551,"Leof. Andrea Papandreou 251, Gazi 714 14, Greece",83
1694273,"Leof. Andrea Papandreou 301, Gazi 714 14, Greece",83
1668049,"Leof. Andrea Papandreou 32, Malevizi 714 14, Greece",83
5235797,"Leof. Andrea Papandreou 42, Gazi 714 14, Greece",83
1680657,"Leof. Andrea Papandreou 50, Gazi, Greece",83
1696771,"Leof. Andrea Papandreou 51, Iraklio 713 05, Greece",83
1674390,"Leof. Andrea Papandreou 58, Gazi 714 14, Greece",83
1680428,"Leof. Andrea Papandreou 62, Iraklio 713 05, Greece",83
5018859,"Leof. Andrea Papandreou 72, Gazi 714 14, Greece",83
1695586,"Leof. Andrea Papandreou 72, Iraklio 714 14, Greece",83
5235805,"Leof. Andrea Papandreou 82, Iraklio 714 14, Greece",83
1677437,"Leof. Andrea Papandreou 92, Gazi 714 14, Greece",83
1677448,"Leof. Andrea Papandreou 92, Gazi 714 14, Greece",83
1667364,"Leof. Andrea Papandreou, 714 14, Greece",83
1660114,"Leof. Andrea Papandreou, Greece 714 14, Greece",83
1678842,"Leof. Andrea Papandreou, Iraklio 714 14, Greece",83
1677435,"Leof. Andrea Papandreou, Malevizi 714 14, Greece",83
1358542,"Leof. Democracy, Kerkira 491 00, Greece",83
1375555,"Leof. Democracy, Kerkira 491 00, Greece",83
5238080,"Leof. Democracy, Kerkira 491 00, Greece",83
1351060,"Leof. Dimokratias 1, Kerkira 491 00, Greece",83
1673193,"Leof. Dimokratias 12, Iraklio 713 06, Greece",83
1695237,"Leof. Dimokratias 12, Iraklio 713 06, Greece",83
1677029,"Leof. Dimokratias 16b, Iraklio 713 06, Greece",83
1696336,"Leof. Dimokratias 18, Iraklio 713 06, Greece",83
1347770,"Leof. Dimokratias 2, Kerkira 491 00, Greece",83
1348661,"Leof. Dimokratias 2, Kerkira 491 00, Greece",83
1378794,"Leof. Dimokratias 2, Kerkira 491 00, Greece",83
1677036,"Leof. Dimokratias 26, Iraklio 713 06, Greece",83
1696606,"Leof. Dimokratias 33, Iraklio 713 06, Greece",83
1432628,"Leof. Dimokratias 359, Kerkira 491 00, Greece",83
5235975,"Leof. Dimokratias 53, Iraklio 713 06, Greece",83
1677076,"Leof. Dimokratias 83, Iraklio 713 06, Greece",83
1678852,"Leof. Dimokratias 91, Iraklio 713 06, Greece",83
1696462,"Leof. Dimokratias, Iraklio 713 06, Greece",83
1590530,"Leof. El. Venizelou 18, Kounoupidiana 731 00, Greece",83
1658594,"Leof. El. Venizelou 18, Kounoupidiana 731 00, Greece",83
1658957,"Leof. El. Venizelou 21, Kounoupidiana 731 00, Greece",83
1656141,"Leof. El. Venizelou, Kounoupidiana 731 00, Greece",83
1584500,"Leof. Eleftherias 1, Kremasti 851 04, Greece",83
1584549,"Leof. Eleftherias 19, Kremasti 851 04, Greece",83
1583655,"Leof. Eleftherias 22, Kremasti 851 04, Greece",83
5380924,"Leof. Eleftherias 25, Kremasti 851 04, Greece",83
1584557,"Leof. Eleftherias 37, Kremasti 851 04, Greece",83
1585668,"Leof. Eleftherias 45, Kremasti 851 04, Greece",83
5238650,"Leof. Eleftherias 69, Kremasti 851 04, Greece",83
5238649,"Leof. Eleftherias 90, Kremasti 851 04, Greece",83
1348366,"Leof. Eptanisou, Kerkira 491 00, Greece",83
1384413,"Leof. Eptanisou, Kerkira 491 00, Greece",83
1693887,"Leof. Eth. Antistaseos 108, Iraklio 713 06, Greece",83
1695978,"Leof. Eth. Antistaseos 108, Iraklio 713 06, Greece",83
1697525,"Leof. Eth. Antistaseos 122, Iraklio 713 07, Greece",83
1668069,"Leof. Eth. Antistaseos 133, Iraklio 713 06, Greece",83
5235697,"Leof. Eth. Antistaseos 139, Iraklio 713 06, Greece",83
1695253,"Leof. Eth. Antistaseos 21, Iraklio 713 06, Greece",83
1696775,"Leof. Eth. Antistaseos 26, Iraklio 713 06, Greece",83
1680430,"Leof. Eth. Antistaseos 47, Iraklio 713 06, Greece",83
1680431,"Leof. Eth. Antistaseos 47, Iraklio 713 06, Greece",83
1694128,"Leof. Eth. Antistaseos 5, Iraklio 713 06, Greece",83
1675336,"Leof. Eth. Antistaseos 73, Iraklio 713 06, Greece",83
1695980,"Leof. Eth. Antistaseos 84, Iraklio 713 06, Greece",83
5018421,"Leof. Eth. Antistaseos 89, Iraklio 713 06, Greece",83
1697512,"Leof. Eth. Antistaseos 95, Iraklio 713 06, Greece",83
1699269,"Leof. Eth. Antistaseos 95, Iraklio 713 06, Greece",83
1696970,"Leof. Eth. Antistasis 112, Vasilies 715 00, Greece",83
1694729,"Leof. Eth. Antistasis 91, Vasilies 715 00, Greece",83
4832788,"Leof. Geor. Papandreou 77, Patra 262 26, Greece",83
4826676,"Leof. Geor. Papandreou 79, Patra 263 34, Greece",83
4826644,"Leof. Geor. Papandreou 84, Patra 262 26, Greece",83
1347544,"Leof. Grammou 135, Exochi 454 45, Greece",83
1678815,"Leof. Ikarou 13, Iraklio 713 07, Greece",83
1694848,"Leof. Ikarou 17, Iraklio 713 07, Greece",83
1696793,"Leof. Ikarou 20, Nea Alikarnassos 716 01, Greece",83
5235476,"Leof. Ikarou 23, Nea Alikarnassos 716 01, Greece",83
1674379,"Leof. Ikarou 26, Iraklio 713 06, Greece",83
5235589,"Leof. Ikarou 32, Iraklio 713 06, Greece",83
1695988,"Leof. Ikarou 32, Nea Alikarnassos 716 01, Greece",83
1677019,"Leof. Ikarou 50, Iraklio 716 01, Greece",83
1695245,"Leof. Ikarou 58, Iraklio 713 07, Greece",83
1696791,"Leof. Ikarou 71, Nea Alikarnassos 713 07, Greece",83
1678826,"Leof. Ikarou 76, Iraklio 713 07, Greece",83
1677030,"Leof. Ikarou 8, Nea Alikarnassos 716 01, Greece",83
1693890,"Leof. Ikarou 9, hrakleio 713 06, Greece",83
5385354,"Leof. Ikarou 9, Iraklio 713 06, Greece",83
1697574,"Leof. Ikarou 94, Nea Alikarnassos 716 01, Greece",83
1669353,"Leof. Ikarou, Iraklio 712 02, Greece",83
1699445,"Leof. Ikarou, Iraklio 712 02, Greece",83
1695986,"Leof. Ionias 1, Iraklio 713 05, Greece",83
1693889,"Leof. Ionias 110, Iraklio 713 05, Greece",83
1674394,"Leof. Ionias 150, Iraklio 713 05, Greece",83
5235903,"Leof. Ionias 20, Iraklio, Greece",83
1696367,"Leof. Ionias 231, Iraklio 713 05, Greece",83
1695257,"Leof. Ionias 8, Iraklio 713 05, Greece",83
1680425,"Leof. Ionias, Iraklio 713 06, Greece",83
5236044,"Leof. Ionias, Iraklio, Greece",83
4833183,"Leof. Ippokratous 13, Patra 265 04, Greece",83
4825427,"Leof. Ippokratous, Patra 264 43, Greece",83
1584075,"Leof. Iraklidon 104, Ialisos 851 01, Greece",83
5019083,"Leof. Iraklidon 20, Ialisos 851 01, Greece",83
1583710,"Leof. Iraklidon 33, Ialisos 851 01, Greece",83
5381833,"Leof. Iraklidon 377, Ialisos 851 01, Greece",83
1582649,"Leof. Iraklidon 38, Ialisos 851 01, Greece",83
1583706,"Leof. Iraklidon 40, Ixia 851 01, Greece",83
1583605,"Leof. Iraklidon 41, Ialisos 851 01, Greece",83
1584828,"Leof. Iraklidon 6, Ialisos 851 01, Greece",83
1584494,"Leof. Iraklidon 65, Ialisos 851 01, Greece",83
1584125,"Leof. Iraklidon 80, Ialisos 851 01, Greece",83
5238547,"Leof. Iraklidon 80, Ixia, ialyssos 851 01, Greece",83
5238510,"Leof. Iraklidon 851, Rodos 851 00, Greece",83
1584077,"Leof. Iraklidon 92, Ialisos 851 01, Greece",83
1584121,"Leof. Iraklidon 99, Ialisos 851 01, Greece",83
5238527,"Leof. Iraklidon, Ialisos 851 01, Greece",83
5019064,"Leof. Iraklidon, Ialyssos 851 01, Greece",83
1582278,"Leof. Iraklidon, Rodos 851 01, Greece",83
1584289,"Leof. Iraklidon, Rodos 851 01, Greece",83
1584294,"Leof. Iraklidon, Rodos, Greece",83
5019160,"Leof. Iraklidon, Rodos, Greece",83
1658062,"Leof. Irakliou 20, Chania 731 35, Greece",83
1589599,"Leof. Irakliou 8, Chania 731 00, Greece",83
1676838,"Leof. Kalamakiou 0, Kalamaki 702 00, Greece",83
1696589,"Leof. Kalokerinou 152, Iraklio, Greece",83
1696584,"Leof. Kalokerinou 189, Iraklio 712 01, Greece",83
1695983,"Leof. Kalokerinou 194, Iraklio 712 01, Greece",83
1677025,"Leof. Kalokerinou 195, Iraklio 712 01, Greece",83
1695255,"Leof. Kalokerinou 198, Iraklio 712 01, Greece",83
1674381,"Leof. Kalokerinou 212, Iraklio 712 01, Greece",83
1695204,"Leof. Kalokerinou 217, Iraklio 712 01, Greece",83
1696324,"Leof. Kalokerinou 22, Iraklio 712 01, Greece",83
1659588,"Leof. Kalokerinou 225, Iraklio 712 01, Greece",83
1696351,"Leof. Kalokerinou 25, Iraklio 712 01, Greece",83
1697524,"Leof. Kalokerinou 255-261, Iraklio 712 01, Greece",83
1696341,"Leof. Kalokerinou 27, Iraklio 712 01, Greece",83
1659439,"Leof. Kalokerinou 64, Iraklio 712 01, Greece",83
1696624,"Leof. Kalokerinou, Iraklio 712 02, Greece",83
1699707,"Leof. Kapetanaki 53, Epano Archanes 701 00, Greece",83
5235897,"Leof. Kapetanaki 78, Epano Archanes 701 00, Greece",83
1673191,"Leof. Kapetanaki 80, Epano Archanes 701 00, Greece",83
1673187,"Leof. Knosou 10-16, Iraklio 713 06, Greece",83
5235591,"Leof. Knosou 121, Iraklio 714 09, Greece",83
1696322,"Leof. Knosou 125, Iraklio 714 09, Greece",83
1668059,"Leof. Knosou 136, Iraklio 713 06, Greece",83
5235712,"Leof. Knosou 158, Iraklio 714 09, Greece",83
1674385,"Leof. Knosou 174, Iraklio 714 09, Greece",83
1678926,"Leof. Knosou 174, Iraklio 714 09, Greece",83
1694748,"Leof. Knosou 174, Iraklio 714 09, Greece",83
1677037,"Leof. Knosou 198, Iraklio 714 09, Greece",83
1695228,"Leof. Knosou 203, Iraklio 714 09, Greece",83
5385345,"Leof. Knosou 209, Iraklio 714 09, Greece",83
1677032,"Leof. Knosou 212, Iraklio 714 09, Greece",83
1695974,"Leof. Knosou 218, Iraklio 714 09, Greece",83
5385167,"Leof. Knosou 221, Iraklio 714 09, Greece",83
1695968,"Leof. Knosou 257, Iraklio 714 09, Greece",83
1696763,"Leof. Knosou 258, Iraklio 714 09, Greece",83
1695572,"Leof. Knosou 263, Iraklio 714 09, Greece",83
1697527,"Leof. Knosou 40, Iraklio 713 06, Greece",83
1699275,"Leof. Knosou 62-64, Iraklio 713 06, Greece",83
1696583,"Leof. Knosou 88, Iraklio 713 06, Greece",83
1669363,"Leof. Knosou 90, Knosos 714 09, Greece",83
1697548,"Leof. Knosou 93, Iraklio 713 07, Greece",83
1677035,"Leof. Knosou 96, Iraklio 713 06, Greece",83
1671878,"Leof. Knosou 96a, Iraklio 713 06, Greece",83
1669558,"Leof. Knosou, Iraklio 714 09, Greece",83
1694438,"Leof. Knosou, Iraklio 714 09, Greece",83
5385351,"Leof. Knosou, Knosos 714 09, Greece",83
1667395,"Leof. Kokkinou Pirgou 156, Timpaki 702 00, Greece",83
1694583,"Leof. Kokkinou Pirgou 156, Timpaki 702 00, Greece",83
1694598,"Leof. Kokkinou Pirgou 156, Timpaki 702 00, Greece",83
1699076,"Leof. Kokkinou Pirgou 156, Timpaki 702 00, Greece",83
1667379,"Leof. Kokkinou Pirgou, Timpaki 702 00, Greece",83
1694587,"Leof. Kokkinou Pirgou, Timpaki 702 00, Greece",83
1694578,"Leof. Kokkinou Pirgou, tymbaki 702 00, Greece",83
1659757,"Leof. Machis Kritis 139, Rethymno 741 00, Greece",83
1674597,"Leof. Machis Kritis 139, Rethymno 741 00, Greece",83
1669835,"Leof. Machis Kritis 146, Rethymno 741 00, Greece",83
1672659,"Leof. Machis Kritis 149, Rethymno 741 00, Greece",83
1669065,"Leof. Machis Kritis 149, Rethymno 74132, Greece",83
5235749,"Leof. Machis Kritis 153, Rethymno 741 00, Greece",83
5236117,"Leof. Machis Kritis 155, Rethymno 741 00, Greece",83
5386211,"Leof. Machis Kritis 155, Rethymno 741 00, Greece",83
1659602,"Leof. Machis Kritis 160, Platanes Rethymno 741 00, Greece",83
1672617,"Leof. Machis Kritis 165, Platanias Rethymno 741 00, Greece",83
1660123,"Leof. Machis Kritis 165, Rethymno 741 00, Greece",83
1670345,"Leof. Machis Kritis 167, Rethymno 741 00, Greece",83
5236121,"Leof. Machis Kritis 174, Rethymno 741 00, Greece",83
1659283,"Leof. Machis Kritis 192, Rethymno 741 00, Greece",83
1659927,"Leof. Machis Kritis 192, Rethymno 741 00, Greece",83
5235852,"Leof. Machis Kritis 194, Rethymno 741 00, Greece",83
1591484,"Leof. Machis Kritis 197, Platan?s 741 00, Greece",83
1655894,"Leof. Machis Kritis 197, Rethymno 741 00, Greece",83
5018404,"Leof. Machis Kritis 204, Rethymno 741 00, Greece",83
1671133,"Leof. Machis Kritis 206, Rethymno 741 00, Greece",83
1672665,"Leof. Machis Kritis 26, Rethymno 741 00, Greece",83
5236150,"Leof. Machis Kritis 31, Rethymno 741 00, Greece",83
1659477,"Leof. Machis Kritis 52, Rethymno 741 00, Greece",83
1669064,"Leof. Machis Kritis 6, Rethymno 741 00, Greece",83
5018330,"Leof. Machis Kritis 82, Rethymno 741 00, Greece",83
1660126,"Leof. Machis Kritis 85, Rethymno 741 00, Greece",83
1660000,"Leof. Machis Kritis 91, Rethymno 741 00, Greece",83
1655560,"Leof. Machis Kritis, Rethymno 741 00, Greece",83
1658945,"Leof. Martiron Maiou 1940 110, Rethymno 741 00, Greece",83
5018292,"Leof. Martiron Maiou 1940 110, Rethymno 741 00, Greece",83
4832536,"Leof. Milichou 145, Patra 264 43, Greece",83
4832963,"Leof. Milichou ke Aliartou, Patra 264 43, Greece",83
1669359,"Leof. Mpofor 10, Iraklio 712 02, Greece",83
1669360,"Leof. Mpofor, Iraklio 712 02, Greece",83
1695015,"Leof. Nearchou 10, Iraklio 713 06, Greece",83
1667383,"Leof. Nearchou, Iraklio 712 02, Greece",83
1697341,"Leof. Nearchou, Iraklio 712 02, Greece",83
1679447,"Leof. Nearchou, Iraklio, Greece",83
1697342,"Leof. Nearchou, Iraklio, Greece",83
1672103,"Leof. Panepistimiou 37, Giofirakia 715 00, Greece",83
5385355,"Leof. Papanastasiou 1, Iraklio 713 06, Greece",83
1668052,"Leof. Papanastasiou 132-138, Iraklio 714 09, Greece",83
1674491,"Leof. Papanastasiou 136, Iraklio 713 03, Greece",83
1696786,"Leof. Papanastasiou 152, Iraklio 714 09, Greece",83
1696784,"Leof. Papanastasiou 161, Iraklio 714 09, Greece",83
1693888,"Leof. Papanastasiou 171, Iraklio 714 09, Greece",83
1696371,"Leof. Papanastasiou 186, Iraklio 714 09, Greece",83
1659448,"Leof. Papanastasiou, Iraklio 714 09, Greece",83
1697330,"Leof. Plastira 25, Iraklio 712 01, Greece",83
1697029,"Leof. Plastira 26, Iraklio 712 01, Greece",83
1694852,"Leof. Plastira 47, Iraklio 712 01, Greece",83
5236025,"Leof. Plastira 85, Iraklio 712 01, Greece",83
5386213,"Leof. Sofokli Venizelou 11, Iraklio 712 02, Greece",83
5235992,"Leof. Sofokli Venizelou 11, Iraklio, Greece",83
5235715,"Leof. Sofokli Venizelou 168, Iraklio 713 03, Greece",83
5235982,"Leof. Sofokli Venizelou 3, Iraklio 712 02, Greece",83
1695010,"Leof. Sofokli Venizelou 43, Iraklio 712 02, Greece",83
5235666,"Leof. Sofokli Venizelou 5, Iraklio 712 02, Greece",83
1667365,"Leof. Sofokli Venizelou 95, Iraklio 712 02, Greece",83
1667959,"Leof. Sofokli Venizelou, Iraklio 712 02, Greece",83
1667394,"Leof. Sofokli Venizelou, Iraklio 713 03, Greece",83
1658558,"Leof. Soudas 131, Chania 731 34, Greece",83
1658563,"Leof. Soudas 152, Souda 732 00, Greece",83
1656097,"Leof. Soudas 16, Souda 732 00, Greece",83
1655054,"Leof. Soudas, Chania 731 00, Greece",83
1659654,"Leoforos Andrea Papandreou 195 Gazi, Amoudara, Iraklio 714 14, Greece",83
1680453,"Leoforos Dikeosinis 19, Iraklio 712 02, Greece",83
1699727,"Leoforos Dimokratias, Sitia 723 00, Greece",83
5019093,"Leoforos Eleutherias 34, Kremasti 851 04, Greece",83
4826653,"Leoforos Gounari 223, Patra 263 31, Greece",83
5238513,"Leoforos Iraklidon 185, Ixia, Ialyssos 851 01, Greece",83
1583667,"Leoforos Iraklidon, Ixia 851 01, Greece",83
4832757,"Leoforos Korinthou 161, Patra 262 23, Greece",83
1591812,"Leoforos Mournion 53, Chania 731 00, Greece",83
5019224,"leoforos rodou kalitheas, Faliraki 851 05, Greece",83
1583731,"Leoforos Rodou Kamirou, Rodos 851 06, Greece",83
1583602,"Leoforos Rodou Lindou, Rodos 851 00, Greece",83
1583621,"Leoforos Rodou Lindou, Rodos 851 05, Greece",83
4822414,"Leoforos Vergoti 46,, Argostoli 281 00, Greece",83
1693823,"Leonidou 15-27, Iraklio 713 07, Greece",83
1680611,"Leontaritis 26, Malia 700 07, Greece",83
5380770,"Leontos 12, Rodos 851 00, Greece",83
5382309,"Leontos 16, Rodos 851 00, Greece",83
5019198,"Lepini Hill, Afantou, Greece",83
5110229,"Levinou 70, Iraklio 713 04, Greece",83
1697804,"Levinou 71, Iraklio 713 04, Greece",83
5386414,"Levinou 75-77, Iraklio 713 04, Greece",83
1695235,"Levinou 76, Iraklio 713 04, Greece",83
1674377,"Levinou, Iraklio 713 04, Greece",83
1668054,"Levizi 700 01, Greece",83
5018442,"Levizi 714 14, Greece",83
5018470,"Levizi 714 14, Greece",83
5110244,"Levizi 714 14, Greece",83
1362465,"Leyka Leykimmhs, Kerkira 49100, Greece",83
5110544,"LG.Chora - Cyclades, Kalathos, Greece",83
1505160,"Liakata 4 - Liakata 4, Kalampaka 422 00, Greece",83
1348277,"Liapades 490 83, Greece",83
1353672,"Liapades 490 83, Greece",83
1369310,"Liapades 490 83, Greece",83
5017811,"Liapades 490 83, Greece",83
5238123,"Liapades 490 83, Greece",83
5374238,"Liapades 490 83, Greece",83
1351462,"Liapades, 490 83, Greece",83
5098588,"Liapades, 490 83, Greece",83
1348256,"Liapades, Greece",83
1370055,"Liapades, Greece",83
1370059,"Liapades, Greece",83
1370040,"Liapades, Paleokastritsa, Greece",83
1378200,"Lichnos 480 60, Greece",83
1386951,"Lichnos Beach Parga, Parga 480 60, Greece",83
1591601,"Liha, Lindos 851 07, Greece",83
4826827,"Likeou 4, Patra 263 31, Greece",83
4826837,"Likochorou 18, Patra 263 31, Greece",83
5018007,"Limeniskos 734 00, Greece",83
1383742,"Limni 491 00, Greece",83
1353077,"Limni, Greece",83
5017697,"Limni, Greece",83
1349098,"Limnis Troumpetas, Kerkira 490 83, Greece",83
1357632,"Limnis Troumpetas, Kerkira 490 83, Greece",83
1388354,"Limnis Troumpetas, Kerkira 490 83, Greece",83
5110532,"Lindos 26, Lindos 851 07, Greece",83
1587492,"Lindos 274 A, Lindos 851 07, Greece",83
1583582,"Lindos 851 07, Greece",83
1583900,"Lindos 851 07, Greece",83
1584109,"Lindos 851 07, Greece",83
1584189,"Lindos 851 07, Greece",83
1584629,"Lindos 851 07, Greece",83
1584980,"Lindos 851 07, Greece",83
1585551,"Lindos 851 07, Greece",83
1585592,"Lindos 851 07, Greece",83
1586744,"Lindos 851 07, Greece",83
1586968,"Lindos 851 07, Greece",83
1587975,"Lindos 851 07, Greece",83
1588356,"Lindos 851 07, Greece",83
1588988,"Lindos 851 07, Greece",83
1589562,"Lindos 851 07, Greece",83
1589627,"Lindos 851 07, Greece",83
1589822,"Lindos 851 07, Greece",83
1589892,"Lindos 851 07, Greece",83
1589911,"Lindos 851 07, Greece",83
1591287,"Lindos 851 07, Greece",83
5019240,"Lindos 851 07, Greece",83
5238445,"Lindos 851 07, Greece",83
5238479,"Lindos 851 07, Greece",83
5238483,"Lindos 851 07, Greece",83
5238647,"Lindos 851 07, Greece",83
5238703,"Lindos 851 07, Greece",83
5238722,"Lindos 851 07, Greece",83
5238729,"Lindos 851 07, Greece",83
5238784,"Lindos 851 07, Greece",83
5382895,"Lindos 851 07, Greece",83
5110527,"Lindos 851 09, Greece",83
5238805,"Lindos Beach Villa Kiotari, Epar.Od. Pilonas-Katavias, 851 09, Greece",83
1591573,"lindos beach, Greece",83
5110542,"Lindos Olive Suites, Lindos, Greece",83
1584064,"Lindos, 851 07, Greece",83
1585696,"Lindos, 851 07, Greece",83
1586028,"Lindos, 851 07, Greece",83
1588048,"Lindos, 851 07, Greece",83
1588051,"Lindos, 851 07, Greece",83
1588582,"Lindos, 851 07, Greece",83
1589302,"Lindos, 851 07, Greece",83
1589915,"Lindos, 851 07, Greece",83
5019287,"Lindos, 851 07, Greece",83
1583148,"Lindos, Greece",83
1584583,"Lindos, Greece",83
1585506,"Lindos, Greece",83
1585695,"Lindos, Greece",83
1585745,"Lindos, Greece",83
1585755,"Lindos, Greece",83
1585757,"Lindos, Greece",83
1585758,"Lindos, Greece",83
1585763,"Lindos, Greece",83
1586320,"Lindos, Greece",83
1586600,"Lindos, Greece",83
1586692,"Lindos, Greece",83
1586712,"Lindos, Greece",83
1586721,"Lindos, Greece",83
1586738,"Lindos, Greece",83
1587098,"Lindos, Greece",83
1587271,"Lindos, Greece",83
1587490,"Lindos, Greece",83
1587562,"Lindos, Greece",83
1587643,"Lindos, Greece",83
1587648,"Lindos, Greece",83
1587870,"Lindos, Greece",83
1587980,"Lindos, Greece",83
1588045,"Lindos, Greece",83
1588358,"Lindos, Greece",83
1588360,"Lindos, Greece",83
1588806,"Lindos, Greece",83
1588985,"Lindos, Greece",83
1589360,"Lindos, Greece",83
1589434,"Lindos, Greece",83
1589441,"Lindos, Greece",83
1589446,"Lindos, Greece",83
1589619,"Lindos, Greece",83
1589796,"Lindos, Greece",83
1589817,"Lindos, Greece",83
1589836,"Lindos, Greece",83
1589838,"Lindos, Greece",83
1589841,"Lindos, Greece",83
1589842,"Lindos, Greece",83
1589843,"Lindos, Greece",83
1589878,"Lindos, Greece",83
1590098,"Lindos, Greece",83
1590237,"Lindos, Greece",83
1590248,"Lindos, Greece",83
1591598,"Lindos, Greece",83
1591610,"Lindos, Greece",83
5019239,"Lindos, Greece",83
