5581877,"Moshi, Tanzania",304
5582238,"Moshi, Tanzania",304
5582239,"Moshi, Tanzania",304
5582240,"Moshi, Tanzania",304
5582241,"Old Moshi Rd, Tanzania",304
5582242,"Moshi, Tanzania",304
5582243,"Moshi, Tanzania",304
5582244,"Moshi, Tanzania",304
5582245,"Isamilia and kigoma street, Kilimanjaro-moshi 0890, Tanzania",304
5582246,"Moshi, Tanzania",304
5582248,"Moshi, Tanzania",304
5582250,"Moshi, Tanzania",304
5582282,"House 48, Shanghani, Stone Town 3661, Tanzania",304
5582431,"21 REGENT STREET, DAR SE SALAAM, Tanzania",304
5583395,"Moshi, Tanzania",304
5583461,"Moshi, Tanzania",304
5758579,"147 B Shanty Town Rd, Moshi 0255, Tanzania",304
5760653,"8812, 8088 US-60, Rush, KY 41168, USA",304
