478912,Japan,107
478913,Japan,107
478914,Japan,107
478915,Japan,107
478916,Japan,107
478917,Japan,107
478918,Japan,107
478919,Japan,107
478920,Japan,107
478921,Japan,107
478922,Japan,107
478923,Japan,107
478924,Japan,107
478925,Japan,107
478926,Japan,107
478927,Japan,107
478928,Japan,107
478929,Japan,107
478930,Japan,107
478931,Japan,107
478932,Japan,107
478933,Japan,107
478935,Japan,107
478936,Japan,107
478938,Japan,107
478939,Japan,107
478942,Japan,107
478944,Japan,107
478945,Japan,107
479044,Japan,107
479045,Japan,107
479046,Japan,107
479047,Japan,107
479048,Japan,107
479049,Japan,107
479051,Japan,107
479052,Japan,107
479053,Japan,107
479055,Japan,107
479056,Japan,107
479060,Japan,107
479406,Japan,107
479519,Japan,107
479520,Japan,107
479521,Japan,107
479522,Japan,107
479523,Japan,107
479524,Japan,107
479602,Japan,107
479669,Japan,107
480703,Japan,107
480704,Japan,107
480706,Japan,107
480708,Japan,107
480863,Japan,107
480867,Japan,107
480869,Japan,107
480871,Japan,107
480887,Japan,107
480891,Japan,107
480894,Japan,107
480905,Japan,107
480909,Japan,107
480916,Japan,107
480919,Japan,107
480932,Japan,107
480933,Japan,107
481114,Japan,107
481395,Japan,107
481435,Japan,107
481501,Japan,107
481514,Japan,107
481519,Japan,107
481606,Japan,107
481607,Japan,107
481663,Japan,107
481673,Japan,107
481786,Japan,107
481856,Japan,107
481885,Japan,107
481886,Japan,107
481887,Japan,107
481888,Japan,107
482174,Japan,107
482620,Japan,107
482636,Japan,107
482721,Japan,107
482723,Japan,107
482726,Japan,107
482732,Japan,107
482904,Japan,107
482996,Japan,107
483033,Japan,107
483560,Japan,107
483571,Japan,107
483578,Japan,107
483847,Japan,107
483848,Japan,107
483849,Japan,107
483851,Japan,107
483852,Japan,107
483853,Japan,107
483854,Japan,107
483855,Japan,107
483856,Japan,107
483862,Japan,107
483865,Japan,107
483866,Japan,107
483868,Japan,107
483869,Japan,107
483870,Japan,107
483872,Japan,107
483873,Japan,107
483876,Japan,107
483877,Japan,107
483898,Japan,107
483899,Japan,107
483900,Japan,107
483901,Japan,107
484190,Japan,107
484191,Japan,107
484199,Japan,107
484223,Japan,107
484228,Japan,107
484248,Japan,107
484250,Japan,107
484318,Japan,107
484324,Japan,107
484325,Japan,107
484327,Japan,107
484328,Japan,107
484329,Japan,107
484330,Japan,107
484331,Japan,107
484332,Japan,107
484333,Japan,107
484338,Japan,107
484341,Japan,107
484342,Japan,107
484343,Japan,107
484344,Japan,107
484345,Japan,107
484347,Japan,107
484355,Japan,107
484356,Japan,107
484361,Japan,107
484368,Japan,107
484371,Japan,107
484372,Japan,107
484376,Japan,107
484378,Japan,107
484380,Japan,107
484383,Japan,107
484386,Japan,107
484412,Japan,107
484423,Japan,107
484576,Japan,107
484633,Japan,107
484634,Japan,107
484635,Japan,107
484636,Japan,107
484637,Japan,107
484638,Japan,107
484639,Japan,107
484640,Japan,107
484642,Japan,107
484644,Japan,107
484645,Japan,107
484646,Japan,107
484647,Japan,107
484648,Japan,107
484650,Japan,107
484651,Japan,107
484669,Japan,107
484670,Japan,107
484692,Japan,107
484693,Japan,107
484694,Japan,107
484695,Japan,107
484697,Japan,107
484698,Japan,107
484699,Japan,107
484800,Japan,107
484801,Japan,107
484802,Japan,107
484803,Japan,107
484804,Japan,107
484805,Japan,107
484806,Japan,107
484807,Japan,107
484808,Japan,107
484809,Japan,107
484822,Japan,107
484855,Japan,107
484912,Japan,107
484930,Japan,107
484931,Japan,107
484932,Japan,107
484981,Japan,107
491024,Japan,107
491025,Japan,107
491027,Japan,107
491256,Japan,107
491299,Japan,107
491346,Japan,107
491354,Japan,107
491358,Japan,107
491369,Japan,107
491376,Japan,107
491428,Japan,107
491431,Japan,107
491432,Japan,107
491434,Japan,107
491435,Japan,107
491436,Japan,107
491437,Japan,107
491438,Japan,107
491439,Japan,107
491440,Japan,107
491441,Japan,107
491443,Japan,107
491444,Japan,107
491446,Japan,107
491447,Japan,107
491449,Japan,107
491451,Japan,107
491452,Japan,107
491454,Japan,107
491455,Japan,107
491456,Japan,107
491457,Japan,107
491458,Japan,107
491459,Japan,107
491460,Japan,107
491461,Japan,107
491462,Japan,107
491463,Japan,107
491464,Japan,107
491465,Japan,107
491466,Japan,107
491467,Japan,107
491468,Japan,107
491469,Japan,107
491470,Japan,107
491471,Japan,107
491472,Japan,107
491474,Japan,107
491475,Japan,107
491476,Japan,107
491478,Japan,107
491479,Japan,107
491481,Japan,107
491483,Japan,107
491484,Japan,107
491613,Japan,107
491614,Japan,107
491928,Japan,107
492092,Japan,107
492229,Japan,107
492585,Japan,107
492593,Japan,107
492595,Japan,107
492734,Japan,107
492736,Japan,107
492815,Japan,107
492864,Japan,107
492865,Japan,107
492869,Japan,107
492990,Japan,107
492999,Japan,107
493093,Japan,107
493094,Japan,107
493095,Japan,107
493096,Japan,107
493097,Japan,107
493098,Japan,107
493179,Japan,107
493272,Japan,107
493289,Japan,107
493290,Japan,107
493291,Japan,107
493294,Japan,107
493327,Japan,107
493328,Japan,107
493331,Japan,107
493333,Japan,107
493334,Japan,107
493336,Japan,107
493337,Japan,107
493339,Japan,107
493342,Japan,107
493343,Japan,107
493344,Japan,107
493345,Japan,107
493346,Japan,107
493347,Japan,107
493348,Japan,107
493349,Japan,107
493350,Japan,107
493353,Japan,107
493354,Japan,107
493355,Japan,107
493356,Japan,107
493405,Japan,107
493481,Japan,107
493482,Japan,107
493483,Japan,107
493485,Japan,107
493486,Japan,107
493487,Japan,107
493488,Japan,107
493489,Japan,107
493490,Japan,107
493491,Japan,107
493492,Japan,107
493493,Japan,107
493494,Japan,107
493495,Japan,107
493496,Japan,107
493497,Japan,107
493498,Japan,107
493499,Japan,107
493500,Japan,107
493501,Japan,107
493503,Japan,107
493504,Japan,107
493505,Japan,107
493506,Japan,107
493507,Japan,107
493508,Japan,107
493509,Japan,107
493510,Japan,107
493602,Japan,107
493638,Japan,107
493643,Japan,107
494057,Japan,107
494058,Japan,107
494059,Japan,107
494060,Japan,107
494061,Japan,107
494062,Japan,107
494063,Japan,107
494064,Japan,107
494065,Japan,107
494066,Japan,107
494067,Japan,107
494068,Japan,107
494069,Japan,107
494070,Japan,107
494071,Japan,107
494072,Japan,107
494073,Japan,107
494074,Japan,107
494075,Japan,107
494076,Japan,107
494077,Japan,107
494078,Japan,107
494079,Japan,107
494080,Japan,107
494081,Japan,107
494082,Japan,107
494083,Japan,107
494084,Japan,107
494085,Japan,107
494086,Japan,107
494087,Japan,107
494088,Japan,107
494089,Japan,107
494090,Japan,107
494091,Japan,107
494092,Japan,107
494093,Japan,107
494094,Japan,107
494095,Japan,107
494096,Japan,107
494097,Japan,107
494098,Japan,107
494099,Japan,107
494109,Japan,107
494113,Japan,107
494114,Japan,107
494117,Japan,107
494118,Japan,107
494119,Japan,107
494120,Japan,107
494182,Japan,107
494183,Japan,107
494184,Japan,107
494185,Japan,107
494186,Japan,107
494188,Japan,107
494189,Japan,107
494190,Japan,107
494191,Japan,107
494192,Japan,107
494195,Japan,107
494196,Japan,107
494197,Japan,107
494198,Japan,107
494199,Japan,107
494200,Japan,107
494201,Japan,107
494202,Japan,107
494203,Japan,107
494204,Japan,107
494205,Japan,107
494206,Japan,107
494207,Japan,107
494208,Japan,107
494209,Japan,107
494210,Japan,107
494211,Japan,107
494212,Japan,107
494213,Japan,107
494214,Japan,107
494215,Japan,107
494216,Japan,107
494217,Japan,107
494218,Japan,107
494219,Japan,107
494220,Japan,107
494221,Japan,107
494375,Japan,107
494495,Japan,107
494612,Japan,107
494614,Japan,107
494756,Japan,107
494817,Japan,107
495062,Japan,107
495510,Japan,107
495511,Japan,107
495524,Japan,107
495525,Japan,107
495527,Japan,107
495528,Japan,107
495529,Japan,107
495530,Japan,107
495531,Japan,107
495532,Japan,107
495533,Japan,107
495534,Japan,107
495535,Japan,107
495536,Japan,107
495537,Japan,107
495538,Japan,107
495539,Japan,107
495540,Japan,107
495541,Japan,107
495542,Japan,107
495543,Japan,107
495544,Japan,107
495545,Japan,107
495617,Japan,107
495618,Japan,107
495619,Japan,107
495620,Japan,107
495621,Japan,107
495622,Japan,107
495623,Japan,107
495624,Japan,107
495625,Japan,107
495626,Japan,107
495627,Japan,107
495628,Japan,107
495629,Japan,107
495630,Japan,107
495631,Japan,107
495632,Japan,107
495633,Japan,107
495634,Japan,107
495635,Japan,107
495636,Japan,107
495637,Japan,107
495638,Japan,107
495639,Japan,107
495640,Japan,107
495641,Japan,107
495642,Japan,107
495643,Japan,107
495644,Japan,107
495645,Japan,107
495646,Japan,107
495739,Japan,107
495870,Japan,107
495872,Japan,107
495873,Japan,107
495874,Japan,107
495876,Japan,107
495877,Japan,107
495878,Japan,107
495879,Japan,107
495881,Japan,107
495883,Japan,107
495884,Japan,107
495918,Japan,107
496191,Japan,107
496194,Japan,107
496200,Japan,107
496206,Japan,107
496207,Japan,107
496322,Japan,107
496324,Japan,107
496325,Japan,107
496326,Japan,107
496327,Japan,107
496328,Japan,107
496329,Japan,107
496330,Japan,107
496331,Japan,107
496332,Japan,107
496334,Japan,107
496337,Japan,107
496342,Japan,107
496344,Japan,107
496347,Japan,107
496348,Japan,107
496349,Japan,107
496351,Japan,107
496555,Japan,107
496825,Japan,107
496853,Japan,107
496855,Japan,107
496868,Japan,107
496869,Japan,107
496920,Japan,107
496924,Japan,107
497125,Japan,107
497169,Japan,107
497175,Japan,107
497188,Japan,107
497631,Japan,107
497632,Japan,107
497633,Japan,107
497634,Japan,107
497635,Japan,107
497636,Japan,107
497637,Japan,107
497638,Japan,107
497639,Japan,107
497657,Japan,107
497658,Japan,107
497659,Japan,107
497660,Japan,107
497676,Japan,107
497677,Japan,107
497682,Japan,107
497683,Japan,107
497684,Japan,107
497686,Japan,107
497689,Japan,107
497757,Japan,107
497768,Japan,107
497774,Japan,107
497987,Japan,107
497988,Japan,107
497989,Japan,107
497990,Japan,107
497991,Japan,107
498021,Japan,107
498022,Japan,107
498024,Japan,107
498025,Japan,107
498028,Japan,107
498029,Japan,107
498032,Japan,107
498153,Japan,107
498298,Japan,107
498352,Japan,107
498353,Japan,107
498364,Japan,107
498365,Japan,107
498371,Japan,107
498374,Japan,107
498519,Japan,107
498521,Japan,107
498522,Japan,107
498523,Japan,107
498524,Japan,107
498526,Japan,107
498527,Japan,107
498528,Japan,107
498531,Japan,107
498532,Japan,107
498536,Japan,107
498540,Japan,107
498776,Japan,107
498777,Japan,107
498778,Japan,107
498779,Japan,107
498780,Japan,107
498781,Japan,107
498782,Japan,107
498783,Japan,107
498784,Japan,107
498785,Japan,107
498786,Japan,107
498787,Japan,107
498788,Japan,107
498789,Japan,107
498790,Japan,107
498791,Japan,107
498792,Japan,107
498793,Japan,107
498794,Japan,107
498795,Japan,107
498796,Japan,107
498994,Japan,107
499310,Japan,107
499322,Japan,107
499418,Japan,107
499629,Japan,107
499630,Japan,107
499631,Japan,107
499632,Japan,107
499633,Japan,107
499641,Japan,107
499642,Japan,107
499644,Japan,107
499645,Japan,107
499646,Japan,107
499650,Japan,107
499699,Japan,107
499700,Japan,107
499701,Japan,107
499702,Japan,107
499703,Japan,107
499980,Japan,107
499996,Japan,107
500325,Japan,107
500326,Japan,107
500613,Japan,107
500768,Japan,107
501157,Japan,107
501671,Japan,107
501672,Japan,107
501673,Japan,107
501674,Japan,107
501675,Japan,107
501755,Japan,107
501756,Japan,107
501758,Japan,107
501759,Japan,107
501760,Japan,107
507592,Japan,107
507593,Japan,107
507595,Japan,107
507596,Japan,107
507763,Japan,107
508260,Japan,107
508264,Japan,107
508265,Japan,107
508306,Japan,107
508480,Japan,107
508481,Japan,107
508483,Japan,107
508484,Japan,107
508485,Japan,107
508487,Japan,107
508488,Japan,107
508490,Japan,107
508491,Japan,107
508492,Japan,107
508493,Japan,107
508494,Japan,107
508495,Japan,107
508496,Japan,107
508497,Japan,107
508498,Japan,107
508499,Japan,107
508500,Japan,107
508501,Japan,107
508502,Japan,107
508503,Japan,107
508504,Japan,107
508505,Japan,107
508506,Japan,107
508507,Japan,107
508508,Japan,107
508509,Japan,107
508535,Japan,107
508614,Japan,107
508669,Japan,107
508670,Japan,107
508671,Japan,107
508672,Japan,107
508673,Japan,107
508674,Japan,107
508675,Japan,107
508676,Japan,107
508677,Japan,107
508814,Japan,107
508914,Japan,107
509110,Japan,107
509234,Japan,107
509236,Japan,107
509237,Japan,107
509239,Japan,107
509245,Japan,107
509247,Japan,107
509250,Japan,107
509252,Japan,107
509262,Japan,107
509263,Japan,107
509264,Japan,107
509266,Japan,107
509267,Japan,107
509338,Japan,107
509340,Japan,107
509342,Japan,107
509343,Japan,107
509344,Japan,107
509345,Japan,107
509346,Japan,107
509347,Japan,107
509348,Japan,107
509349,Japan,107
509509,Japan,107
509510,Japan,107
509511,Japan,107
509513,Japan,107
509514,Japan,107
509515,Japan,107
509516,Japan,107
509517,Japan,107
509579,Japan,107
509580,Japan,107
509581,Japan,107
509582,Japan,107
509583,Japan,107
509584,Japan,107
509673,Japan,107
509741,Japan,107
509831,Japan,107
510023,Japan,107
510028,Japan,107
510033,Japan,107
510082,Japan,107
510137,Japan,107
510160,Japan,107
518187,Japan,107
518491,Japan,107
518492,Japan,107
518493,Japan,107
518494,Japan,107
518495,Japan,107
518496,Japan,107
518526,Japan,107
518699,Japan,107
518709,Japan,107
518804,Japan,107
518930,Japan,107
519162,Japan,107
519357,Japan,107
519470,Japan,107
519471,Japan,107
519472,Japan,107
519473,Japan,107
519474,Japan,107
519475,Japan,107
519476,Japan,107
519477,Japan,107
519478,Japan,107
519479,Japan,107
519480,Japan,107
519481,Japan,107
519482,Japan,107
519483,Japan,107
519484,Japan,107
519485,Japan,107
519486,Japan,107
519487,Japan,107
519488,Japan,107
519489,Japan,107
519535,Japan,107
519536,Japan,107
519538,Japan,107
519539,Japan,107
519540,Japan,107
519541,Japan,107
519542,Japan,107
519694,Japan,107
519853,Japan,107
519854,Japan,107
519855,Japan,107
519856,Japan,107
519875,Japan,107
519876,Japan,107
519877,Japan,107
519880,Japan,107
519884,Japan,107
519913,Japan,107
519914,Japan,107
519915,Japan,107
519916,Japan,107
519917,Japan,107
519918,Japan,107
519919,Japan,107
519920,Japan,107
519921,Japan,107
519922,Japan,107
519923,Japan,107
519924,Japan,107
519925,Japan,107
519926,Japan,107
519927,Japan,107
519928,Japan,107
519929,Japan,107
519930,Japan,107
519996,Japan,107
520034,Japan,107
520035,Japan,107
520046,Japan,107
520047,Japan,107
520048,Japan,107
520049,Japan,107
520485,Japan,107
520771,Japan,107
520782,Japan,107
520783,Japan,107
520784,Japan,107
520785,Japan,107
520786,Japan,107
520787,Japan,107
520788,Japan,107
520789,Japan,107
520790,Japan,107
520791,Japan,107
520792,Japan,107
520793,Japan,107
520794,Japan,107
520795,Japan,107
520796,Japan,107
520797,Japan,107
520798,Japan,107
520799,Japan,107
520800,Japan,107
520801,Japan,107
520802,Japan,107
520803,Japan,107
520804,Japan,107
520805,Japan,107
520806,Japan,107
520807,Japan,107
520808,Japan,107
520809,Japan,107
520810,Japan,107
520811,Japan,107
520812,Japan,107
520813,Japan,107
520814,Japan,107
520815,Japan,107
520816,Japan,107
520817,Japan,107
520818,Japan,107
520819,Japan,107
520820,Japan,107
520948,Japan,107
521050,Japan,107
521067,Japan,107
521152,Japan,107
521238,Japan,107
521243,Japan,107
521244,Japan,107
521245,Japan,107
521246,Japan,107
521247,Japan,107
521248,Japan,107
521249,Japan,107
521250,Japan,107
521251,Japan,107
521252,Japan,107
521253,Japan,107
521254,Japan,107
521255,Japan,107
521256,Japan,107
521257,Japan,107
521258,Japan,107
521259,Japan,107
521260,Japan,107
521261,Japan,107
521262,Japan,107
521263,Japan,107
521264,Japan,107
521265,Japan,107
521266,Japan,107
521267,Japan,107
521268,Japan,107
521269,Japan,107
521271,Japan,107
521272,Japan,107
521273,Japan,107
521275,Japan,107
521276,Japan,107
521277,Japan,107
521278,Japan,107
521279,Japan,107
521280,Japan,107
521281,Japan,107
521282,Japan,107
521283,Japan,107
521284,Japan,107
521285,Japan,107
521286,Japan,107
521287,Japan,107
521288,Japan,107
521289,Japan,107
521290,Japan,107
521291,Japan,107
521292,Japan,107
521293,Japan,107
521294,Japan,107
521295,Japan,107
521296,Japan,107
521297,Japan,107
521298,Japan,107
521299,Japan,107
521300,Japan,107
521301,Japan,107
521302,Japan,107
521474,Japan,107
521493,Japan,107
521495,Japan,107
521504,Japan,107
521508,Japan,107
521662,Japan,107
521825,Japan,107
521826,Japan,107
521827,Japan,107
521828,Japan,107
521829,Japan,107
521830,Japan,107
521831,Japan,107
521832,Japan,107
521833,Japan,107
521834,Japan,107
521835,Japan,107
521836,Japan,107
521837,Japan,107
521838,Japan,107
521839,Japan,107
521840,Japan,107
521841,Japan,107
521842,Japan,107
521843,Japan,107
521844,Japan,107
521845,Japan,107
521846,Japan,107
521847,Japan,107
521848,Japan,107
521849,Japan,107
521850,Japan,107
521851,Japan,107
521854,Japan,107
521855,Japan,107
521856,Japan,107
521857,Japan,107
522170,Japan,107
522317,Japan,107
522324,Japan,107
522327,Japan,107
522467,Japan,107
522468,Japan,107
522469,Japan,107
522470,Japan,107
522471,Japan,107
522472,Japan,107
522473,Japan,107
522474,Japan,107
522475,Japan,107
522476,Japan,107
522477,Japan,107
522478,Japan,107
522479,Japan,107
522480,Japan,107
522481,Japan,107
522482,Japan,107
522483,Japan,107
522484,Japan,107
522485,Japan,107
522486,Japan,107
522487,Japan,107
522488,Japan,107
522489,Japan,107
522490,Japan,107
522491,Japan,107
522492,Japan,107
522493,Japan,107
522494,Japan,107
522495,Japan,107
522496,Japan,107
522497,Japan,107
522498,Japan,107
522499,Japan,107
522500,Japan,107
522501,Japan,107
522502,Japan,107
522503,Japan,107
522504,Japan,107
522505,Japan,107
522506,Japan,107
