3706067,"Yacht Club Rd, Tanzania",304
3706852,"Kitunda Kiyombo, Tanzania",304
3707636,"Kigamboni, Tanzania",304
3708298,"Mikocheni, Tanzania",304
3708361,"Msasani, Tanzania",304
3708390,"Mzimuni, Tanzania",304
3708406,"Mji mwema, Kigamboni, Tanzania",304
3708605,"Mbezi Samaki, landmark next to shamo tower, mbezi beach 22 rooms, 2 conference hall and restaurant with bar, Mbezi, Tanzania",304
3708690,"Temeke, Tanzania",304
