3721105,"Coco Beach, Tanzania",304
3721108,"Temeke, Tanzania",304
3721159,"Mlingotini Bagamoyo East North, Bagamoyo, Tanzania",304
3721181,"Kigogo Rd, Tanzania",304
3721191,"kigamboni- msifuni camp, Tanzania",304
3721202,"Off Morogoro Road, Kinondoni, Tanzania",304
3721248,"Kigamboni, Tanzania",304
3721258,"Ilala, Tanzania",304
3721340,"Garden Avenue and Ohio Street, Tanzania",304
3721452,"Vikindu, Tanzania",304
3721565,"Kigamboni, Tanzania",304
3721566,"Mwanga, Tanzania",304
3721803,"Mkunguni Street, Kariakoo, Tanzania",304
3722021,Tanzania,304
3722022,Tanzania,304
3722119,Tanzania,304
3722146,"Palm Beach, Tanzania",304
3722218,"Maili Moja, Kibaha P.O.Box 30858, Kibaha, Tanzania",304
3722289,"magila street,off msimbazi street, Tanzania",304
3722311,"Bagamoyo, Tanzania",304
3722343,"Chanika, Tanzania",304
3722429,"P.O.BOX 2653, Tanzania",304
3722616,"Kibaha, Tanzania",304
3722652,Tanzania,304
3722764,"Kibaha, Tanzania",304
3722853,"India Street, Bagamoyo, Tanzania",304
3722857,"Rhobi Mtundi St, Tanzania",304
3722865,"Ilala, Tanzania",304
3722919,"Mkuranga, Tanzania",304
3722923,Tanzania,304
3725563,"Toangoma, Tanzania",304
3732389,"Pugu, Tanzania",304
3732574,Tanzania,304
3732685,"Nyerere Rd, Tanzania",304
