57805,Netherlands,148
57806,Netherlands,148
57807,Netherlands,148
57808,Netherlands,148
57809,Netherlands,148
57810,Netherlands,148
57811,Netherlands,148
57812,Netherlands,148
57813,Netherlands,148
57814,Netherlands,148
57815,Netherlands,148
57816,Netherlands,148
57817,Netherlands,148
58162,Netherlands,148
58702,Netherlands,148
58703,Netherlands,148
58705,Netherlands,148
58706,Netherlands,148
58708,Netherlands,148
58709,Netherlands,148
58710,Netherlands,148
58711,Netherlands,148
58712,Netherlands,148
58714,Netherlands,148
58715,Netherlands,148
58716,Netherlands,148
58717,Netherlands,148
58718,Netherlands,148
58719,Netherlands,148
58720,Netherlands,148
58721,Netherlands,148
58722,Netherlands,148
58723,Netherlands,148
58801,Netherlands,148
59035,Netherlands,148
59158,Netherlands,148
59399,Netherlands,148
59400,Netherlands,148
59401,Netherlands,148
59402,Netherlands,148
59403,Netherlands,148
59404,Netherlands,148
59405,Netherlands,148
59406,Netherlands,148
59407,Netherlands,148
59409,Netherlands,148
59410,Netherlands,148
59411,Netherlands,148
59412,Netherlands,148
59413,Netherlands,148
59414,Netherlands,148
59824,Netherlands,148
59825,Netherlands,148
60078,Netherlands,148
60080,Netherlands,148
60081,Netherlands,148
60082,Netherlands,148
60083,Netherlands,148
60084,Netherlands,148
60449,Netherlands,148
64769,Netherlands,148
64770,Netherlands,148
64771,Netherlands,148
64772,Netherlands,148
64773,Netherlands,148
64774,Netherlands,148
64775,Netherlands,148
64776,Netherlands,148
64777,Netherlands,148
64778,Netherlands,148
64779,Netherlands,148
64780,Netherlands,148
64781,Netherlands,148
64782,Netherlands,148
64783,Netherlands,148
64784,Netherlands,148
64785,Netherlands,148
64786,Netherlands,148
64787,Netherlands,148
64788,Netherlands,148
64789,Netherlands,148
64790,Netherlands,148
64791,Netherlands,148
64792,Netherlands,148
64793,Netherlands,148
64794,Netherlands,148
64795,Netherlands,148
64796,Netherlands,148
65443,Netherlands,148
65798,Netherlands,148
66652,Netherlands,148
66653,Netherlands,148
66654,Netherlands,148
66655,Netherlands,148
66657,Netherlands,148
66658,Netherlands,148
66659,Netherlands,148
66660,Netherlands,148
66661,Netherlands,148
66662,Netherlands,148
66663,Netherlands,148
66665,Netherlands,148
66666,Netherlands,148
67061,Netherlands,148
71921,Netherlands,148
71922,Netherlands,148
71923,Netherlands,148
71924,Netherlands,148
71925,Netherlands,148
71926,Netherlands,148
71927,Netherlands,148
71928,Netherlands,148
71929,Netherlands,148
71930,Netherlands,148
71931,Netherlands,148
71933,Netherlands,148
71934,Netherlands,148
71935,Netherlands,148
71936,Netherlands,148
71937,Netherlands,148
71938,Netherlands,148
72205,Netherlands,148
72404,Netherlands,148
72667,Netherlands,148
72668,Netherlands,148
72731,Netherlands,148
72732,Netherlands,148
72733,Netherlands,148
72734,Netherlands,148
72735,Netherlands,148
72736,Netherlands,148
72737,Netherlands,148
72738,Netherlands,148
72739,Netherlands,148
72740,Netherlands,148
72741,Netherlands,148
72742,Netherlands,148
72743,Netherlands,148
72744,Netherlands,148
72745,Netherlands,148
73935,Netherlands,148
73936,Netherlands,148
73937,Netherlands,148
73938,Netherlands,148
73939,Netherlands,148
73940,Netherlands,148
74938,Netherlands,148
74939,Netherlands,148
74940,Netherlands,148
74941,Netherlands,148
74942,Netherlands,148
74943,Netherlands,148
74944,Netherlands,148
79714,Netherlands,148
79715,Netherlands,148
79716,Netherlands,148
79717,Netherlands,148
79718,Netherlands,148
79719,Netherlands,148
79720,Netherlands,148
79721,Netherlands,148
79722,Netherlands,148
79723,Netherlands,148
79724,Netherlands,148
79725,Netherlands,148
79726,Netherlands,148
79727,Netherlands,148
79728,Netherlands,148
79729,Netherlands,148
80742,Netherlands,148
80743,Netherlands,148
81009,Netherlands,148
81010,Netherlands,148
81011,Netherlands,148
81012,Netherlands,148
81013,Netherlands,148
81014,Netherlands,148
81015,Netherlands,148
81016,Netherlands,148
81017,Netherlands,148
81018,Netherlands,148
81019,Netherlands,148
81287,Netherlands,148
81487,Netherlands,148
81488,Netherlands,148
81489,Netherlands,148
81490,Netherlands,148
81491,Netherlands,148
81492,Netherlands,148
81493,Netherlands,148
81494,Netherlands,148
81495,Netherlands,148
81496,Netherlands,148
81497,Netherlands,148
81498,Netherlands,148
81499,Netherlands,148
81500,Netherlands,148
81501,Netherlands,148
81502,Netherlands,148
81503,Netherlands,148
81504,Netherlands,148
81505,Netherlands,148
81506,Netherlands,148
81507,Netherlands,148
81508,Netherlands,148
81509,Netherlands,148
81510,Netherlands,148
81511,Netherlands,148
81512,Netherlands,148
81513,Netherlands,148
81514,Netherlands,148
81515,Netherlands,148
81517,Netherlands,148
81518,Netherlands,148
81519,Netherlands,148
81602,Netherlands,148
81975,Netherlands,148
82135,Netherlands,148
82138,Netherlands,148
82483,Netherlands,148
82638,Netherlands,148
82639,Netherlands,148
82640,Netherlands,148
82641,Netherlands,148
82642,Netherlands,148
82643,Netherlands,148
82644,Netherlands,148
82645,Netherlands,148
82646,Netherlands,148
82647,Netherlands,148
82648,Netherlands,148
82649,Netherlands,148
82650,Netherlands,148
82651,Netherlands,148
82652,Netherlands,148
82653,Netherlands,148
82654,Netherlands,148
82655,Netherlands,148
83186,Netherlands,148
83187,Netherlands,148
83188,Netherlands,148
83189,Netherlands,148
83190,Netherlands,148
83191,Netherlands,148
83192,Netherlands,148
83193,Netherlands,148
83194,Netherlands,148
83195,Netherlands,148
83196,Netherlands,148
83493,Netherlands,148
83494,Netherlands,148
83495,Netherlands,148
83496,Netherlands,148
83497,Netherlands,148
83498,Netherlands,148
83499,Netherlands,148
83500,Netherlands,148
83501,Netherlands,148
83502,Netherlands,148
83503,Netherlands,148
86783,Netherlands,148
86785,Netherlands,148
86787,Netherlands,148
86789,Netherlands,148
86791,Netherlands,148
86793,Netherlands,148
86795,Netherlands,148
86797,Netherlands,148
86799,Netherlands,148
87227,Netherlands,148
87711,Netherlands,148
87712,Netherlands,148
97276,Netherlands,148
97277,Netherlands,148
97278,Netherlands,148
97601,Netherlands,148
97603,Netherlands,148
97604,Netherlands,148
97605,Netherlands,148
97606,Netherlands,148
97607,Netherlands,148
98033,Netherlands,148
98034,Netherlands,148
98035,Netherlands,148
98036,Netherlands,148
98037,Netherlands,148
98038,Netherlands,148
98039,Netherlands,148
98040,Netherlands,148
98041,Netherlands,148
98042,Netherlands,148
98043,Netherlands,148
98044,Netherlands,148
98045,Netherlands,148
98046,Netherlands,148
98047,Netherlands,148
98048,Netherlands,148
98050,Netherlands,148
98051,Netherlands,148
98052,Netherlands,148
98053,Netherlands,148
98054,Netherlands,148
98055,Netherlands,148
98062,Netherlands,148
98066,Netherlands,148
100353,Netherlands,148
100354,Netherlands,148
100355,Netherlands,148
100356,Netherlands,148
100357,Netherlands,148
100358,Netherlands,148
100359,Netherlands,148
100360,Netherlands,148
100361,Netherlands,148
100362,Netherlands,148
100363,Netherlands,148
100364,Netherlands,148
100365,Netherlands,148
100366,Netherlands,148
100368,Netherlands,148
100719,Netherlands,148
100737,Netherlands,148
100739,Netherlands,148
101039,Netherlands,148
101040,Netherlands,148
101041,Netherlands,148
101042,Netherlands,148
101043,Netherlands,148
101044,Netherlands,148
101045,Netherlands,148
101048,Netherlands,148
101049,Netherlands,148
101050,Netherlands,148
101051,Netherlands,148
101181,Netherlands,148
101182,Netherlands,148
101183,Netherlands,148
101184,Netherlands,148
101185,Netherlands,148
101186,Netherlands,148
101187,Netherlands,148
101188,Netherlands,148
101190,Netherlands,148
101191,Netherlands,148
101192,Netherlands,148
101193,Netherlands,148
101867,Netherlands,148
101868,Netherlands,148
101875,Netherlands,148
101876,Netherlands,148
125887,Netherlands,148
125888,Netherlands,148
125889,Netherlands,148
125890,Netherlands,148
125891,Netherlands,148
125892,Netherlands,148
125893,Netherlands,148
125894,Netherlands,148
125895,Netherlands,148
125896,Netherlands,148
125897,Netherlands,148
125898,Netherlands,148
125899,Netherlands,148
125900,Netherlands,148
125901,Netherlands,148
125902,Netherlands,148
125903,Netherlands,148
125904,Netherlands,148
125905,Netherlands,148
126091,Netherlands,148
126273,Netherlands,148
126320,Netherlands,148
126334,Netherlands,148
126335,Netherlands,148
126336,Netherlands,148
126337,Netherlands,148
126790,Netherlands,148
127131,Netherlands,148
135325,Netherlands,148
135326,Netherlands,148
135327,Netherlands,148
135328,Netherlands,148
135329,Netherlands,148
135330,Netherlands,148
135331,Netherlands,148
135332,Netherlands,148
135333,Netherlands,148
135334,Netherlands,148
135335,Netherlands,148
135336,Netherlands,148
135337,Netherlands,148
135338,Netherlands,148
135339,Netherlands,148
135340,Netherlands,148
135341,Netherlands,148
135342,Netherlands,148
135916,Netherlands,148
135917,Netherlands,148
135919,Netherlands,148
135920,Netherlands,148
135921,Netherlands,148
136076,Netherlands,148
136078,Netherlands,148
136387,Netherlands,148
136389,Netherlands,148
136390,Netherlands,148
136391,Netherlands,148
136392,Netherlands,148
136393,Netherlands,148
136394,Netherlands,148
136395,Netherlands,148
136558,Netherlands,148
143838,Netherlands,148
143839,Netherlands,148
143840,Netherlands,148
143841,Netherlands,148
143842,Netherlands,148
143843,Netherlands,148
143844,Netherlands,148
143845,Netherlands,148
143846,Netherlands,148
143847,Netherlands,148
143848,Netherlands,148
143849,Netherlands,148
143850,Netherlands,148
144588,Netherlands,148
145057,Netherlands,148
145176,Netherlands,148
145177,Netherlands,148
145178,Netherlands,148
145179,Netherlands,148
145180,Netherlands,148
145181,Netherlands,148
145908,Netherlands,148
145909,Netherlands,148
145910,Netherlands,148
145911,Netherlands,148
145912,Netherlands,148
145913,Netherlands,148
145915,Netherlands,148
145916,Netherlands,148
145917,Netherlands,148
145918,Netherlands,148
145919,Netherlands,148
145920,Netherlands,148
145921,Netherlands,148
145922,Netherlands,148
145923,Netherlands,148
146231,Netherlands,148
146979,Netherlands,148
146980,Netherlands,148
146981,Netherlands,148
146982,Netherlands,148
146983,Netherlands,148
146984,Netherlands,148
146985,Netherlands,148
146986,Netherlands,148
146987,Netherlands,148
157671,Netherlands,148
157672,Netherlands,148
157673,Netherlands,148
157674,Netherlands,148
157675,Netherlands,148
158287,Netherlands,148
158760,Netherlands,148
158863,Netherlands,148
158864,Netherlands,148
158865,Netherlands,148
158866,Netherlands,148
158867,Netherlands,148
159827,Netherlands,148
159828,Netherlands,148
159829,Netherlands,148
159830,Netherlands,148
159831,Netherlands,148
159832,Netherlands,148
159833,Netherlands,148
159834,Netherlands,148
159835,Netherlands,148
159836,Netherlands,148
159837,Netherlands,148
159838,Netherlands,148
159839,Netherlands,148
160180,Netherlands,148
160564,Netherlands,148
5204853,Netherlands,148
5209972,Netherlands,148
5210129,"Netherlands, Den Helder, Marsdiepstraat 251 Postcode: Postcode: 1784 AE",148
81296,"Netherlands, Houtsestraat 12, 6613 AC Balgoij, Netherlands",148
71947,"Nettenboetsterstraat 7, 3133 EP Vlaardingen, Netherlands",148
66204,"Neutronenlaan 38, 5405 NH Uden, The Netherlands",148
44011,"Nevenpad 1, 1755 NP Petten, Netherlands",148
83283,"Newtonstraat 19e, 3902 HP Veenendaal, The Netherlands",148
19646,"Newtonstraat 34, 1446 VR Purmerend, Netherlands",148
59061,"Niekerkerdiep 1, 9822 AH Niekerk Grootegast, Netherlands",148
83248,"Nielant 2, 6852 Huissen, Netherlands",148
59164,"Nienoord 1, 9351 AC Leek, Netherlands",148
59161,"Nienoord 1, Leek, Netherlands",148
58970,"Nienoord 20, 9351 AC Leek, Netherlands",148
5375302,"Nieuw Loopveld 2, 1181 ZK Amstelveen, Netherlands",148
82929,"Nieuw Walden 16, 1394 PB Nederhorst Den Berg, Netherlands",148
12951,"Nieuw-Loosdrechtsedijk 105B, 1231 KN Loosdrecht, Netherlands",148
5208057,"Nieuw-Loosdrechtsedijk 211, 1231 KT Loosdrecht, Netherlands",148
5004267,"Nieuw-Loosdrechtsedijk 212, 1231 LE Loosdrecht, Netherlands",148
4804,"Nieuwe &#39;s-Gravelandseweg 1d-e, 1405 HH Bussum, Netherlands",148
65139,"Nieuwe Aamsestraat 32A, 6662 ND Elst, The Netherlands",148
68152,"Nieuwe Aamsestraat 94, 6662 NK Elst, Netherlands",148
5389285,"Nieuwe Aamsestraat 94, 6662 NK Elst, Netherlands",148
83042,"Nieuwe Aamsestraat 96, 6662 NK Elst, Netherlands",148
5385400,"Nieuwe Akkers 39, 9765 GB Paterswolde, Netherlands",148
41693,"Nieuwe Baan 4, 6049 ES Herten, Netherlands",148
101627,"Nieuwe Boomgaard 5, 3451 KP Netherlands",148
81214,"Nieuwe Ervenweg 5, 5944 NG Arcen, Netherlands",148
20680,"Nieuwe Gouw 14, 1121 GX Landsmeer, Netherlands",148
5377230,"Nieuwe Gouw 18, 1121 GX Landsmeer, Netherlands",148
20790,"Nieuwe Gouw 3, 1121 GW Landsmeer, Netherlands",148
20930,"Nieuwe Gouw 48, 1121 GX Landsmeer, Netherlands",148
145219,"Nieuwe Groeneweg 2, 4307 RT Oosterland, Netherlands",148
5205313,"Nieuwe Kalfjeslaan 1, 1181 CA Amstelveen, The Netherlands",148
59567,"Nieuwe Kalfjeslaan 21-B, 1182 AA Amstelveen, The Netherlands",148
18457,"Nieuwe Kalfjeslaan 25, 1182 AA Amstelveen, The Netherlands",148
67189,"Nieuwe Kazernelaan 10, 6711 JC Ede, The Netherlands",148
5390567,"Nieuwe Kazernelaan 8, 6711 JC Ede, Netherlands",148
136042,"Nieuwe Laan 2, 2902 BW Capelle aan den IJssel, The Netherlands",148
127094,"Nieuwe Merwede, Netherlands",148
5374927,"Nieuwe Noord 46, 1621 EP Hoorn, Netherlands",148
85937,"Nieuwe Sluisweg 1, 7005 GB Doetinchem, Netherlands",148
126035,"Nieuwe Spiegelstraat 12, 1406 SH Bussum, The Netherlands",148
64983,"Nieuwe Stationsstraat 13-C, 6711 AG Ede, Netherlands",148
98745,"Nieuwe Steeg 74, 4171 KG Herwijnen, The Netherlands",148
100577,"Nieuwe Vaart 1, 3451 AH Netherlands",148
46841,"Nieuwe Weg 2, 3181 LJ Rozenburg, The Netherlands",148
48240,"Nieuwe Weg 5A, 2253 NB Voorschoten, The Netherlands",148
126482,"Nieuwe Weteringseweg 72, 3737 MD Groenekan, Netherlands",148
72388,"Nieuwe Zeedijk 1, 3221 LZ Hellevoetsluis, Netherlands",148
146101,"Nieuwe-Marktpassage 1, 2801 HW Gouda, The Netherlands",148
57885,"Nieuwehuizen 3, 9401 JS Assen, Netherlands",148
15679,"Nieuwemeerdijk 139, 1171 NH Badhoevedorp, Netherlands",148
5204553,"Nieuwemeerdijk 326, 1171 NT Badhoevedorp, Netherlands",148
40243,"Nieuwendijk 20 - 22, 5591 JK Heeze, Netherlands",148
11374,"Nieuweroordweg 1, 3704 EC Zeist, Netherlands",148
65165,"Nieuweweg 116, Wijchen, Netherlands",148
44072,"Nieuweweg 15, 1784 PG Den Helder, Netherlands",148
44601,"Nieuweweg 17, 1761 EC Anna Paulowna, Netherlands",148
80758,"Nieuweweg 184, 6603 BT Wijchen, Netherlands",148
44597,"Nieuweweg 19, 1761 Anna Paulowna, Netherlands",148
65742,"Nieuweweg 201, 6603 BM Wijchen, Netherlands",148
45354,"Nieuweweg 42, 8723 EB Koudum, Netherlands",148
80667,"Nieuweweg 5, 6561 AA Groesbeek, Netherlands",148
19768,"Nieuweweg 57K, 2685 AS Poeldijk, Netherlands",148
145375,"Nieuweweg 7, 3161 EP Rhoon, Netherlands",148
5209106,"Nieuwgraaf 2, 6921 RJ Duiven, Netherlands",148
81725,"Nieuwgraaf 28, 6921 RJ Duiven, Netherlands",148
67065,"Nieuwgraaf 5, 6921 RJ Duiven, Netherlands",148
146110,"Nieuwland Parc 421, 2952 DE Alblasserdam, Netherlands",148
5004102,"Nieuwlanderweg 101, 1793 ES De Waal, Netherlands",148
5004114,"Nieuwlanderweg 12, 1793 ET De Waal, The Netherlands",148
44389,"Nieuwlanderweg 53, 1793 ES De Waal, Netherlands",148
5074881,"Nieuwlanderweg 72, 1793 EV De Waal, Netherlands",148
5075049,"Nieuwlanderweg 94, 1793 EV De Waal, Netherlands",148
5390362,"Nieuwstraat 1, 1741 BT Schagen, Netherlands",148
28476,"Nieuwstraat 10, 1381 BC Weesp, The Netherlands",148
48164,"Nieuwstraat 10B, 2266 AD Leidschendam, The Netherlands",148
44722,"Nieuwstraat 16, 1741 BT Schagen, Netherlands",148
44183,"Nieuwstraat 1A, 1741 BT Schagen, Netherlands",148
5389633,"Nieuwstraat 1A, 1741 BT Schagen, Netherlands",148
145229,"Nieuwstraat 20-22, 3201 EA Spijkenisse, Netherlands",148
43960,"Nieuwstraat 37, 1741 BV Schagen, Netherlands",148
28236,"Nieuwstraat 41, 1381 BB Weesp, The Netherlands",148
46264,"Nieuwstraat 67, 1741 BV Schagen, Netherlands",148
127091,"Nieuwstraat 7, 5317 JA Nederhemert, The Netherlands",148
43948,"Nieuwstraat 74, 1671 BG Medemblik, Netherlands",148
44435,"Nieuwstraat 8-10, 6271 AZ Gulpen, The Netherlands",148
98190,"Nigtevechtseweg 9, 3633 XR Vreeland, The Netherlands",148
58836,"Nijend 28, 9465 Anderen, Netherlands",148
58833,"Nijend 28, 9465 TR Anderen, Netherlands",148
81148,"Nijesteijn 54, 5258 PM Berlicum, Netherlands",148
126791,"Nijkerk, Netherlands",148
83095,"Nijkerkerstraat 99, 3882 PE Putten, Netherlands",148
67223,"Nijmeegsebaan 114, 6564 CK Heilig Landstichting, Netherlands",148
67230,"Nijmeegsebaan 53, 6564 CC Heilig Landstichting, Netherlands",148
5209878,"Nijmeegsebaan 53, 6564 CC Heilig Landstichting, Netherlands",148
81005,"Nijmeegsebaan 9, 6561 KE Groesbeek, The Netherlands",148
68512,"Nijmeegsestraat 19, 6691 CK Gendt, Netherlands",148
81652,"Nijverheidlaan 9, 6717 EV Ede, Netherlands",148
44016,"Nijverheidsstraat 1, 1704 RA Heerhugowaard, Netherlands",148
48353,"Nijverheidsstraat 1-A, 2288 BB Rijswijk, The Netherlands",148
65261,"Nijverheidsstraat 39, 6681 LN Bemmel, Netherlands",148
79824,"Nijverheidsstraat 40, 6681 LN Bemmel, Netherlands",148
135713,"Nijverheidstraat 20, 2901 AR Capelle aan den IJssel, The Netherlands",148
59725,"Nijverheidstraat 24, 2222 AV Katwijk aan Zee, The Netherlands",148
19837,"Nijverheidsweg 1, 3606 AH Maarssen, Netherlands",148
59463,"Nijverheidsweg 10, 2102 LL Heemstede, Netherlands",148
145431,"Nijverheidsweg 11, 3161 GJ Rhoon, Netherlands",148
59687,"Nijverheidsweg 12, 2215 MH Voorhout, The Netherlands",148
60307,"Nijverheidsweg 12, 2215 MH Voorhout, The Netherlands",148
45081,"Nijverheidsweg 13, 1775 BB Middenmeer, The Netherlands",148
82256,"Nijverheidsweg 13, 6662 NG Elst, Netherlands",148
97147,"Nijverheidsweg 16, 3433 NP Nieuwegein, Netherlands",148
101321,"Nijverheidsweg 17, 3606 AH Maarssen, Netherlands",148
4708,"Nijverheidsweg 2, 1452 PA Ilpendam, Netherlands",148
5208322,"Nijverheidsweg 2, 3606 AJ Maarssen, Netherlands",148
67628,"Nijverheidsweg 21ac, 3931 CW Woudenberg, Netherlands",148
79793,"Nijverheidsweg 25, 6662 NG Elst, Netherlands",148
97999,"Nijverheidsweg 2a, 3606 AJ Maarssen, The Netherlands",148
100999,"Nijverheidsweg 2a, 3606 AJ Maarssen, The Netherlands",148
68189,"Nijverheidsweg 37, 6662 NG Elst, Netherlands",148
5182,"Nijverheidsweg 40, 2102 LL Heemstede, Netherlands",148
44027,"Nijverheidsweg 9, 1613 DZ Grootebroek, Netherlands",148
67626,"Nijverheidsweg 9c, 6651 KS Druten, Netherlands",148
5210138,"Nikadel 1, 1796 De Koog, Netherlands",148
44542,"Nikadel 17, 1796 BP De Koog, Netherlands",148
44686,"Nikadel 19, 1796 BB De Koog, Netherlands",148
44541,"Nikadel 30, 1796 BP De Koog, Netherlands",148
5389841,"Nikadel 39, 1796 BR De Koog, Netherlands",148
5390357,"Nikadel 48, 1796 BP De Koog, Netherlands",148
5074956,"Nikadel 5, 1796 BP De Koog, Netherlands",148
44687,"Nikadel 73, De Koog, Netherlands",148
44078,"Nikadel 75, 1796 BP De Koog, Netherlands",148
5210094,"Nikadel 75a, 1796 De Koog, Netherlands",148
44370,"Nikadel 79, 1796 BR De Koog, Netherlands",148
65333,"Nistelrodeseweg 10, 5406 PT Uden, The Netherlands",148
65346,"Nistelrodeseweg 10, 5406 PT Uden, The Netherlands",148
58823,"Nittersweg 8, 9885 TC Lauwerzijl, Netherlands",148
56586,"Nobellaan 15-24, 2641 XR Pijnacker, The Netherlands",148
55884,"Nobelsingel 6, 2651 Berkel en Rodenrijs, Netherlands",148
5382319,"Nobelstraat 12, 3262 PM Oud-Beijerland, Netherlands",148
5208013,"Nolensstraat 16, 3601 XC Maarssen, The Netherlands",148
16175,"Nollenweg 1, 1931 AV Egmond aan Zee, Netherlands",148
5394371,"Noodweg 43, 1213 PW Hilversum, Netherlands",148
14025,"Noodweg 49, 1213 PW Hilversum, The Netherlands",148
12949,"Noodweg 50, 1213 PZ Hilversum, The Netherlands",148
5389861,"Noord 28-30, 8801 KP Franeker, Netherlands",148
46317,"Noord 6, 8801 KP Franeker, Netherlands",148
5756712,"Noord 90 Noord, Noord, Aruba",148
5758271,"Noord Bona Vista 7, Noord, Aruba",148
99775,"Noord IJsseldijk 107 D, 3402 PG IJsselstein, Netherlands",148
5389346,"Noord Koninginnewal 4, 5701 NK Helmond, Netherlands",148
5758290,"Noord, Aruba",148
5204878,"Noorddammerlaan 80, 1187 AD Amstelveen, Netherlands",148
13773,"Noorddammerlaan 99, 1187 AC Amstelveen, Netherlands",148
19998,"Noorddammerweg 1, 1187 CM Amstelveen, Netherlands",148
19896,"Noorddammerweg 30, 1424 NX De Kwakel, The Netherlands",148
59578,"Noorddammerweg 30, 1424 NX De Kwakel, The Netherlands",148
147826,"Noorddijk 6, 3222 LG Hellevoetsluis, Netherlands",148
60202,"Noordduinseweg 7, 2221 BL Katwijk aan Zee, The Netherlands",148
57535,"Noordeinde 122A, 3341 LW Hendrik-Ido-Ambacht, Netherlands",148
12933,"Noordeinde 130, 1121 AL Landsmeer, Netherlands",148
4878,"Noordeinde 144, 1511 AH Oostzaan, Netherlands",148
5206202,"Noordeinde 43, 1141 AG Monnickendam, Netherlands",148
20412,"Noordeinde 75, 1511 AB Oostzaan, Netherlands",148
59726,"Noordeinde 98, 2371 CW Roelofarendsveen, Netherlands",148
135721,"Noordeindseweg 330-334, Berkel en Roderijs, Netherlands",148
145838,"Noordeindseweg 344, 2651 LM Berkel en Rodenrijs, Netherlands",148
5208882,"Noordeindseweg 70, 2645 BC Delfgauw, Netherlands",148
45210,"Noorder Es 1, 8426 GW Appelscha, Netherlands",148
44944,"Noorder Sandt 2, 1787 CX Julianadorp, Netherlands",148
45263,"Noorder Sandt 4-11, 1787 CX Julianadorp, Netherlands",148
44299,"Noorderbuurt 2, 1778 KW Westerland, Netherlands",148
45076,"Noordereind 2A, 8823 SN Lollum, The Netherlands",148
11552,"Noordereinde 355, 1243 JZ &#39;s-Graveland, Netherlands",148
14698,"Noordereinde 54B, 1243 JJ &#39;s-Graveland, Netherlands",148
18809,"Noordereinde 60, 1243 JJ &#39;s-Graveland, Netherlands",148
161486,"Noorderhoofd 1, 3151 HG Hoek van Holland, Netherlands",148
137065,"Noorderhoofd, 3151 HG Hoek van Holland, Netherlands",148
60157,"Noorderkroon 8, 1188 AC Amstelveen, Netherlands",148
5205749,"Noorderlaaik 4a, 1511 BX Oostzaan, Netherlands",148
43603,"Noorderlichtplein 21, 6133 VB Sittard, Netherlands",148
45325,"Noordervaart 127, 1841 GA Stompetoren, Netherlands",148
5394397,"Noorderweg 229, 1222 PJ Hilversum, Netherlands",148
82504,"Nordlaan 33, 6881 RN Velp, The Netherlands",148
58810,"Norgerweg 19, 9301 JM Roden, Netherlands",148
83053,"Notaris Fischerstraat 30, 6711 BD Ede, Netherlands",148
58451,"Novastraat 13, 9765 ET Paterswolde, Netherlands",148
81952,"Nude 28, 6702 DL Wageningen, Netherlands",148
79800,"Nudepark 73, 6702 DZ Wageningen, Netherlands",148
68655,"Nullen 11, 5846 AD Ledeacker, Netherlands",148
45420,"Number 3, 8552 MN Smallebrugge, Netherlands",148
5208008,"Odenveltlaan 2a, 3451 ZN Netherlands",148
98926,"Odijkerweg 132-134, 3709 JJ Zeist, The Netherlands",148
98511,"Odijkseweg 39, 3994 AS Houten, The Netherlands",148
60049,"Oegstgeesterweg 48, 2231 AZ Rijnsburg, Netherlands",148
42889,"Oensel 1A, 6333 EN Schimmert, Netherlands",148
5210075,"Oesterstraat 6, 1794 AR Oosterend, Netherlands",148
136671,"Oever 1, 3221 LC Hellevoetsluis, Netherlands",148
147232,"Oeverkruid 20, 4941 VV Raamsdonksveer, Netherlands",148
58778,"Olingermeeden 1, 9903 ES Appingedam, Netherlands",148
135716,"Olm 9, 2925 CJ Krimpen aan den IJssel, The Netherlands",148
5614,"Olmenlaan 115, 1161 JT Zwanenburg, The Netherlands",148
5197,"Olmenlaan 139, 1161 JV Zwanenburg, The Netherlands",148
5210098,"Olmenlaan 2, 1702 KB Heerhugowaard, Netherlands",148
5409,"Olmenlaan 52, 1161 JX Zwanenburg, The Netherlands",148
21053,"Olmenlaan 74, 1161 JX Zwanenburg, The Netherlands",148
136192,"Olmenwede 1, 2993 Barendrecht, Netherlands",148
5383017,"Onderdijkserijweg 2-A, 2995 AR Heerjansdam, Netherlands",148
97181,"Onderdoor 68, 3995 DX Houten, Netherlands",148
5383324,"Onderlangs 6A, 2991 EM Barendrecht, Netherlands",148
16096,"Ondernemingsweg 112, 1422 DZ Uithoorn, Netherlands",148
101282,"Ondernemingsweg 15, 1422 DZ Uithoorn, Netherlands",148
5378663,"Ondernemingsweg 8, 2404 HN Alphen aan den Rijn, Netherlands",148
83085,"Oosterbeek, Netherlands",148
45314,"Oosterboekelweg 2-A, 1718 LN Hoogwoud, The Netherlands",148
46070,"Oosterboekelweg 4, 1718 LN Hoogwoud, The Netherlands",148
40095,"Oosterbroekweg 2-G, 6247 BN Gronsveld, Netherlands",148
5389865,"Oosterburen 30, 8891 GC Midsland, Netherlands",148
45369,"Oosterdijk 6, 1601 DA Enkhuizen, The Netherlands",148
5004197,"Oosterdorpsstraat 11, 3871 AA Hoevelaken, Netherlands",148
45419,"Oosterend 12, 8897 HZ Oosterend Terschelling, Netherlands",148
45833,"Oosterend, Netherlands",148
5074885,"Oosterenderweg 15, 1793 EK De Waal, The Netherlands",148
45430,"Oosterenderweg 15-17, 1793 EK De Waal, The Netherlands",148
44185,"Oosterenderweg 52, 1794 Oosterend, Netherlands",148
19664,"Oostergo 6, 1274 JT Huizen, Netherlands",148
96993,"Oostergracht 25, 3763 LX Soest, Netherlands",148
59201,"Oosterhiemweg 1, 9161 CZ Hollum, Netherlands",148
18579,"Oosterhoutlaan 34, 1181 AM Amstelveen, Netherlands",148
67191,"Oosterhoutsedijk 16, 6663 KS Netherlands",148
66978,"Oosterhoutsedijk 78, 6663 KV Netherlands",148
5612629,"Oosterhoutseweg 139, 4847 DB Teteringen",148
99495,"Oosterhoutseweg 18, 4941 WZ Raamsdonksveer, Netherlands",148
18696,"Oostermeerweg 1, 1184 TS Amstelveen, Netherlands",148
4666355,"Oosterplasweg 35, 5215 HT &#39;s-Hertogenbosch, Netherlands",148
4666693,"Oosterplasweg, &#39;s-Hertogenbosch, Netherlands",148
45317,"Oosterrichtend 50A, 1688 DA Nibbixwoud, Netherlands",148
59132,"Oosterweg 1, 9536 PR Ees, Netherlands",148
67174,"Oosterweg 112-A, 6602 HG Wijchen, The Netherlands",148
41773,"Oosterweg 1A, 6245 LC Eijsden, Netherlands",148
68180,"Oosterweg 279, 6603 AA Wijchen, The Netherlands",148
45309,"Oosterweg 2b, 1619 AC Andijk, Netherlands",148
41414,"Oosterweg 5, 6245 LC Eijsden, Netherlands",148
43201,"Oosterweg 5, 6245 LC Eijsden, Netherlands",148
43671,"Oosterweg 5, 6245 LC Eijsden, Netherlands",148
58045,"Oosterwoldseweg 7, 8433 PS Haulerwijk, Netherlands",148
58829,"Oosthalen 5, 9414 TG Hooghalen, Netherlands",148
5382317,"Oosthavenkade 2, 3134 NV Vlaardingen, Netherlands",148
59637,"Oosthoutlaan 2, 2171 TZ Sassenheim, Netherlands",148
5204635,"Oosthoutplein 15, 2215 VM Voorhout, The Netherlands",148
59781,"Oosthoutplein 5, 2215 VM Voorhout, Netherlands",148
59965,"Oosthoutplein 5, 2215 VM Voorhout, Netherlands",148
44974,"Oostkade, Den Oever, Netherlands",148
102379,"Oostkanaaldijk 6A, 3603 CZ Maarssen, Netherlands",148
60418,"Oostkanaalweg 25, 2461 ER Ter Aar, The Netherlands",148
5384039,"Oostlaan 1, 2641 DK Pijnacker, Netherlands",148
5209319,"Oostlaan 10, 2641 DK Pijnacker, The Netherlands",148
159080,"Oostlaan 11, 2641 GM Pijnacker, The Netherlands",148
5209246,"Oostlaan 15, 2641 DK Pijnacker, Netherlands",148
57422,"Oostlaan 38A, 2641 DL Pijnacker, Netherlands",148
57406,"Oostlaan 5, 2641 DK Pijnacker, The Netherlands",148
56445,"Oostlaan 9a, 2641 DK Pijnacker, Netherlands",148
158888,"Oostmeerlaan 119, 2652 CW Berkel en Rodenrijs, Netherlands",148
56927,"Oostmoerse Scheidweg 2, 3243 LD Stad aan &#39;t Haringvliet, Netherlands",148
56928,"Oostmoerse Scheidweg 2, 3243 LD Stad aan &#39;t Haringvliet, Netherlands",148
81728,"Oostsingel 15, 6921 RV Duiven, The Netherlands",148
19984,"Oostvaardersdijk, 8218AA Lelystad, Netherlands",148
75129,"Oostvlietweg 27, 2266 GM Leidschendam, The Netherlands",148
136472,"Oostvoorne, Netherlands",148
102112,"Oostwaard 33, 3602 AA Maarssen, The Netherlands",148
5209158,"Oostwal 216, 5341 KS Oss, Netherlands",148
45186,"Oostwal 31, 1749 XK Warmenhuizen, Netherlands",148
5664,"Opaallaan 1190, 2132 LN Hoofddorp, Netherlands",148
58824,"Openderweg 26, 9865 XE Opende, Netherlands",148
5209518,"Ophelialaan 139, 1431 HD Aalsmeer, Netherlands",148
5374013,"Ophelialaan 94, 1431 HL Aalsmeer, Netherlands",148
4577,"Ophelialaan 97, 1431 HC Aalsmeer, Netherlands",148
5168160,"Ophoviuslaan 100, 5212 AR &#39;s-Hertogenbosch, Netherlands",148
5389244,"Oploseweg 30, 5825 HN Overloon, Netherlands",148
58795,"Opwierderweg 57, 9902 RB Appingedam, Netherlands",148
5074902,"Orchismient 18, 1796 AX De Koog, Netherlands",148
44853,"Originweg 55, 1795 LB De Cocksdorp, Netherlands",148
44392,"Originweg 69, 1795 LC De Cocksdorp, Netherlands",148
45003,"Originweg 8, 1871 HA Schoorl, Netherlands",148
5168279,"Orthenstraat 49, 5211 SV &#39;s-Hertogenbosch, Netherlands",148
42888,"Osebos 1, 6271 PP Gulpen, Netherlands",148
59079,"Oshaarseweg 24, 7932 PX Echten, Netherlands",148
18879,"Osijlaan 2, 2722 CV Zoetermeer, The Netherlands",148
48357,"Ossenhoek 1, 3253 MH Ouddorp, Netherlands",148
81720,"Otterloseweg 10-Dec, 6733 AM Wekerom, Netherlands",148
57597,"Otto van Zevenderstraat 2, 2636 Schipluiden, The Netherlands",148
48751,"Oud Bonaventurasedijk 76a, 3291CL Strijen, Netherlands",148
160785,"Oud Drimmelen 12, 4924 EK Drimmelen, The Netherlands",148
14207,"Oud Huizerweg 2, 1411 GZ Naarden, The Netherlands",148
125989,"Oud Wulfseweg 1, 3992 LT Houten, The Netherlands",148
98936,"Oud Wulfseweg 3, 3992 LT Houten, The Netherlands",148
145760,"Oud-Cromstrijensedijk Westzijde 59, 3286 BS Klaaswaal, Netherlands",148
5207966,"Oud-Loosdrechtsedijk 131, 1231 LT Loosdrecht, Netherlands",148
5208299,"Oud-Loosdrechtsedijk 166, 1231 NE Loosdrecht, Netherlands",148
101928,"Oud-Loosdrechtsedijk 191, 1231 LV Loosdrecht, Netherlands",148
14903,"Oud-Loosdrechtsedijk 243, 1231 LX Loosdrecht, Netherlands",148
5004191,"Oud-Loosdrechtsedijk 253, 1231 LZ Loosdrecht, Netherlands",148
5004236,"Oud-Loosdrechtsedijk 253, 1231 LZ Loosdrecht, Netherlands",148
19523,"Ouddiemerlaan 104, Diemen, Netherlands",148
5205382,"Ouddiemerlaan 11, 1111 GS Diemen, The Netherlands",148
19274,"Ouddiemerlaan 201, 1111 GZ Diemen, The Netherlands",148
19386,"Ouddiemerlaan 63, 1111 GV Diemen, The Netherlands",148
19040,"Ouddiemerlaan 65, 1111 Diemen, Netherlands",148
48198,"Ouddorp, Netherlands",148
44494,"Oude Akerweg 40, 6294 AM Vijlen, The Netherlands",148
58046,"Oude Asserstraat 32, 9481 Vries, Netherlands",148
42147,"Oude Baan 36, 6286 BE Wittem, Netherlands",148
136778,"Oude Beekhoek 2, 4851 SP Ulvenhout, The Netherlands",148
44860,"Oude Dijkje 14, 1796 ML De Koog, The Netherlands",148
44393,"Oude Dijkje 4, 1796 ML De Koog, The Netherlands",148
5074892,"Oude Dijkje 4, 1796 ML De Koog, The Netherlands",148
45008,"Oude Dijkje 41, 1796 MK De Koog, The Netherlands",148
5074887,"Oude Dijkje 8, 1796 ML De Koog, Netherlands",148
59173,"Oude Gracht 1, 9341 AA Veenhuizen, Netherlands",148
14567,"Oude Haagseweg 200, 1171 PE Badhoevedorp, Netherlands",148
5209355,"Oude Haven 1, 2171 GG Sassenheim, Netherlands",148
14475,"Oude Heereweg 24, 1871 GS Schoorl, Netherlands",148
65644,"Oude Holleweg 5, 6572 AA Berg en Dal, Netherlands",148
67893,"Oude IJsselweg 24, 7075 DN Etten, Netherlands",148
66826,"Oude Kerkweg 100, 6717 JS Ede, Netherlands",148
80995,"Oude Klapstraat 76, 6602 AG Wijchen, The Netherlands",148
5209750,"Oude Klapstraat 78, 6602 AG Wijchen, The Netherlands",148
28105,"Oude Kleefsebaan 116, 6571 BK Berg en Dal, Netherlands",148
64871,"Oude Kleefsebaan 116, 6571 BK Berg en Dal, Netherlands",148
79858,"Oude Kleefsebaan 123A, 6572 AK Berg en Dal, Netherlands",148
68551,"Oude Kleefsebaan 134 A, 6571 BK Berg en Dal, Netherlands",148
67610,"Oude Kleefsebaan 59, 6571 BD Berg en Dal, Netherlands",148
67617,"Oude Kleefsebaan 76, 6611 AP Overasselt, Netherlands",148
5210070,"Oude Kleefsebaan 94, 6571 BJ Berg en Dal, Netherlands",148
5389862,"Oude Koemarkt 4, 8441 EV Heerenveen, Netherlands",148
5375995,"Oude Kruisweg 36, 2142 EG Cruquius, Netherlands",148
57621,"Oude Maaspad, Rhoon, Netherlands",148
5385405,"Oude Middelhorst 1a, 9751 TK Haren, Netherlands",148
5383169,"Oude Moolweg 11, 4325 EA Renesse, Netherlands",148
126172,"Oude Postweg, 1251 Laren, The Netherlands",148
97399,"Oude Postweg, Austerlitz, Netherlands",148
5390381,"Oude Provincialeweg 2, 1733 NG Nieuwe Niedorp, Netherlands",148
59165,"Oude Rijksweg 8, 9798 PA Garmerwolde, Netherlands",148
83149,"Oude Rijn, Netherlands",148
74448,"Oude Rijnsburgerweg 32, 2342 BC Oegstgeest, Netherlands",148
99065,"Oude Schans 47-63, 3752 AH Bunschoten-Spakenburg, Netherlands",148
44180,"Oude Slotstraat 22, 1741 CH Schagen, The Netherlands",148
99615,"Oude Sluis 4, 3433 ZC Nieuwegein, The Netherlands",148
5394708,"Oude Sluis 7, 3433 ZC Nieuwegein, Netherlands",148
83638,"Oude Touwbaan 18-20, 7205 AS Zutphen, Netherlands",148
47122,"Oude Trambaan 141, 2265 DA Leidschendam, The Netherlands",148
48195,"Oude Veerdam 4, 3231 NC Brielle, Netherlands",148
60442,"Oude Vlietweg 6, 2231 Rijnsburg, The Netherlands",148
81043,"Oude Wanroijseweg 24, 5454 NA Sint Hubert, The Netherlands",148
60190,"Oude Weerlaan 60, 2181 HZ Hillegom, The Netherlands",148
85778,"Oude Zeeweg 21, 8071 TM Nunspeet, Netherlands",148
102109,"Oudedijk 56, 3612 AC Tienhoven, Netherlands",148
18054,"Oudegracht 69, 1381 XX Weesp, Netherlands",148
5383078,"Oudeland 104, 3335 VJ Zwijndrecht, Netherlands",148
136049,"Oudeland 106, 3335 VJ Zwijndrecht, The Netherlands",148
145772,"Oudendijk 3, 4311 NA Bruinisse, Netherlands",148
12941,"Oudendijk, Heemskerk, Netherlands",148
4848,"Ouderkerkerlaan 12, 1185 AB Amstelveen, Netherlands",148
18084,"Ouderkerkerlaan 150, 1185 AG Amstelveen, Netherlands",148
19462,"Ouderkerkerlaan 16, 1112 Diemen, The Netherlands",148
19262,"Ouderkerkerlaan 34, 1112 BE Diemen, The Netherlands",148
19473,"Ouderkerkerlaan 6, 1112 BE Diemen, The Netherlands",148
28566,"Ouderkerkerlaan 6, 1112 BE Diemen, The Netherlands",148
5205370,"Ouderkerkerlaan 8, 1112 BE Diemen, Netherlands",148
16243,"Ouderkerkerplas, 1191 Ouderkerk aan de Amstel, Netherlands",148
45364,"Oudeschild, Netherlands",148
58453,"Oudestreek 47, 9354 AD Zevenhuizen, Netherlands",148
14527,"Oudevaartsgat 8, 1671 HM Medemblik, The Netherlands",148
5208878,"Oudeweg 100, 2631 PB Nootdorp, Netherlands",148
47141,"Oudeweg 29-31, 2631 PA Nootdorp, Netherlands",148
57032,"Oudeweg 74, 2631 PB Nootdorp, Netherlands",148
71062,"Oudeweg 75, 2631 PB Nootdorp, Netherlands",148
65259,"Oudewei 2, 6685 MC Haalderen, The Netherlands",148
83057,"Outside the Bruggepoort 3, 3841 CT Harderwijk, Netherlands",148
136288,"Ouverturelaan 67, 3208 CM Spijkenisse, Netherlands",148
67058,"Overasselt, Netherlands",148
126230,"Overboslaan 15, 3722 Bilthoven, Netherlands",148
98992,"Overeindseweg 25A, 3439 LP Nieuwegein, Netherlands",148
48919,"Overgoo 13, 2266 JZ Leidschendam, The Netherlands",148
82345,"Overhagenseweg 4A, 6883 GV Velp, Netherlands",148
143974,"Overhandstraat 71, 3195 SE Pernis, Netherlands",148
4860,"Overtoom 80, 1551 PB Westzaan, Netherlands",148
158930,"Overveldsestraat 10, 4841 KX Prinsenbeek, Netherlands",148
102475,"p / a De Open Hof, Kerkweg 60, 3603 CM Maarssen, The Netherlands",148
102476,"P / a Zwanenkamp 1301, 3607 NZ Maarssen, The Netherlands",148
5386931,"P. Snoepweg 10, 2353 KA Leiderdorp, Netherlands",148
5380486,"P.C. Hooftlaan 8, 3142 GH Maassluis, Netherlands",148
15795,"Pa Verkuijllaan 20, 1171 EE Badhoevedorp, Netherlands",148
15317,"Pa Verkuijllaan 22, 1171 EE Badhoevedorp, Netherlands",148
15705,"Pa Verkuijllaan 5, 1171 EA Badhoevedorp, Netherlands",148
19611,"Paadje 3, 1733 NE Nieuwe Niedorp, The Netherlands",148
82516,"Paalbergweg 21, 7351 AC Hoenderloo, Netherlands",148
97733,"Paardenhoeve 82, 3992 PK Houten, The Netherlands",148
40230,"Paardestraat 19, 6131 HA Sittard, Netherlands",148
82689,"Paasberg 2, 6862 CC Oosterbeek, Netherlands",148
5383012,"Paddeweg 35, 2992 CK Barendrecht, Netherlands",148
5383018,"Paddeweg 41-43, 2992 CK Barendrecht, Netherlands",148
44874,"Painting 93, 1791 BC Den Burg, Netherlands",148
5390380,"Paktuinen 8, 1601 GD Enkhuizen, Netherlands",148
5208488,"Palaceplein 253, 2587 WL Netherlands",148
5209496,"Palet 1-A, 2182 LB Hillegom, Netherlands",148
80928,"Palinggracht 146, 6642 EH Beuningen, Netherlands",148
4667147,"Palmboomstraat 103, 5213 VC &#39;s-Hertogenbosch, Netherlands",148
16061,"Palmbosweg 16-20, 3853 LB Ermelo, Netherlands",148
83096,"Palmbosweg 4, 3853 LB Ermelo, Netherlands",148
67190,"Palmbosweg 8, 3853 LB Ermelo, Netherlands",148
56961,"Pampus 1, 3251 ND Stellendam, Netherlands",148
28881,"Pampuslaan 15, 1382 JM Weesp, The Netherlands",148
20827,"Pampusweg 1, 1398 PR Muiden, Netherlands",148
28598,"Pampusweg 12, 1398 PT Muiden, The Netherlands",148
28385,"Pampusweg 15, 1398 PR Muiden, Netherlands",148
28592,"Pampusweg 15, 1398 PV Muiden, Netherlands",148
5205695,"Pampusweg 22, 1398 PR Muiden, Netherlands",148
18037,"Pampusweg 26, 1398 PR Muiden, Netherlands",148
5388326,"Pancratiusplein 42, 6411 JZ Heerlen, Netherlands",148
44992,"Pancratiusstraat 30, 6411 Heerlen, Netherlands",148
18316,"Pandora 4a-5, 1183 KK Amstelveen, Netherlands",148
5390360,"Pannekeetweg 20, 1704 PL Heerhugowaard, Netherlands",148
5390817,"Pannerdense Waard 14, 6911 KM Pannerden, Netherlands",148
82067,"Pannerdenseweg 48a, 6686 BH Doornenburg, Netherlands",148
80711,"Panoramaberg 3, 6561 EP Groesbeek, Netherlands",148
5390658,"Panoramaweg 23A, 6721 MK Bennekom, Netherlands",148
98268,"Panweg 1, 4157 PB Enspijk, Netherlands",148
97143,"Panweg 116A, 3705 GG Zeist, The Netherlands",148
5209988,"Papenweg 50, 6241 BV Bunde, Netherlands",148
42486,"Papenweg 82, 6241 BW Bunde, Netherlands",148
42043,"Papenweg 93, 6241 BT Bunde, Netherlands",148
158681,"Papland 18, 4206 CL Gorinchem, Netherlands",148
5758274,"Paraguana 10, Noord, Aruba",148
19677,"Parallelweg 1, 1948 NK Beverwijk, Netherlands",148
43943,"Parallelweg 15, 1781 EA Den Helder, Netherlands",148
43957,"Parallelweg 15, 1781 EA Den Helder, Netherlands",148
4666986,"Parallelweg 21, 5223 AL &#39;s-Hertogenbosch, Netherlands",148
19676,"Parallelweg 3, 1948 NK Beverwijk, Netherlands",148
41772,"Parallelweg 4, 6411 ND Heerlen, Netherlands",148
5210115,"Parallelweg 7, 1781 EA Den Helder, Netherlands",148
97585,"Parallelweg 9, 3981 HG Bunnik, Netherlands",148
5772,"Parallelweg 99, 1948 NL Beverwijk, Netherlands",148
98929,"Parcel boat 15, 3991 CH Houten, The Netherlands",148
96987,"Parcel boat 35, 3991 CH Houten, The Netherlands",148
49175,"Park de Wervelaan 25, 2283 Rijswijk, The Netherlands",148
125950,"Parkerbaan 12, 3439 MC Nieuwegein, The Netherlands",148
5208042,"Parkhout 2, 3432 NE Nieuwegein, Netherlands",148
5209499,"Parklaan 176, 2171 EK Sassenheim, The Netherlands",148
87981,"Parklaan 2, 5404 NH Uden, The Netherlands",148
4812,"Parklaan 4-A, 2771 GB Boskoop, Netherlands",148
59630,"Parklaan 60, Sassenheim, Netherlands",148
5389283,"Parksesteeg 1, 6611 KH Overasselt, Netherlands",148
44118,"Parkstraat 10, 1787 AC Julianadorp, Netherlands",148
44163,"Parkstraat 14-16, 1787 AC Julianadorp, Netherlands",148
46378,"Parkstraat 18, 1791 CA Den Burg, Netherlands",148
44712,"Parkstraat 28, 1791 CB Den Burg, Netherlands",148
45062,"Parkstraat 32, 1791 Den Burg, Netherlands",148
86162,"Parkstraat 32, 6881 JG Velp, Netherlands",148
81757,"Parkstraat 36, 6881 JG Velp, Netherlands",148
83279,"Parkstraat 3A, 6881 JA Velp, Netherlands",148
44706,"Parkstraat 4-8, 1791 CA Den Burg, Netherlands",148
46164,"Parkstraat 5, 1791 CA Den Burg, Netherlands",148
46562,"Parkstraat 5, 1791 CA Den Burg, Netherlands",148
14910,"Parkweg 1, 3221 LV Hellevoetsluis, Netherlands",148
101637,"Parkweg 1, 3603 AA Maarssen, The Netherlands",148
5386509,"Parkweg 1, 9642 ZZ Veendam, Netherlands",148
72002,"Parkweg 15, 2271 AD Voorburg, The Netherlands",148
5209192,"Parkweg 19, 6994 CM De Steeg, The Netherlands",148
5208876,"Parkweg 2, 2271 AJ Voorburg, Netherlands",148
145401,"Parkweg 2, 3221 LC Hellevoetsluis, Netherlands",148
71351,"Parkweg 2, 3221 LV Hellevoetsluis, Netherlands",148
58830,"Parkweg 2, 9865 VP Opende, Netherlands",148
74597,"Parkweg 20-A, 2271 AJ Voorburg, Netherlands",148
101464,"Parkweg 34, 3451 RK Netherlands",148
5209134,"Parkweg 37, 6717 HL Ede, Netherlands",148
57359,"Parkweg 40 to 42, 2271 AK Voorburg, The Netherlands",148
58905,"Parkweg 5, 9865 VN Opende, Netherlands",148
58908,"Parkweg 5, 9865 VN Opende, Netherlands",148
5208900,"Parkweg 54, 2271 AK Voorburg, Netherlands",148
5384540,"Parkweg 55, 2271 AE Voorburg, Netherlands",148
5208871,"Parkweg 89, 2271 AG Voorburg, Netherlands",148
44270,"Parkzicht 7, 1777 BC Hippolytushoef, Netherlands",148
100804,"Parkzichtlaan 207, 3451 GX Netherlands",148
19447,"Parmentierlaan 64, 1185 CX Amstelveen, Netherlands",148
59750,"Parmentierpad 21, 2171 NP Sassenheim, Netherlands",148
5004126,"Parnassiastraat 31, 1796 AG De Koog, The Netherlands",148
83087,"Pascalstraat 14, 3771 RT Barneveld, Netherlands",148
15895,"Pascalstraat 56, 1171 XV Badhoevedorp, Netherlands",148
44684,"Passage 1, 6271 HA Gulpen, Netherlands",148
41151,"Passage 15, 6271 HA Gulpen, Netherlands",148
100232,"Passage 2, 3431 LP Nieuwegein, Netherlands",148
101765,"Passage 53, 3431 LM Nieuwegein, Netherlands",148
97987,"Passage 65, 3431 LN Nieuwegein, Netherlands",148
98130,"Passage 76, 3431 LR Nieuwegein, Netherlands",148
97189,"Passage 86 ,, Cityplaza shopping center (next to tram stop), 3431 LR Nieuwegein, Netherlands",148
98582,"Passage 9, 3431 LM Nieuwegein, Netherlands",148
42182,"Passartweg 35C, 6413 Heerlen, Netherlands",148
65267,"Passeweg 72, 6601 AJ Wijchen, The Netherlands",148
5209918,"Passeweg 74, 6601 AJ Wijchen, The Netherlands",148
42158,"Past N de Reimsstr 12, 6231 HK Meerssen, Netherlands",148
158952,"Pastel 62, 2907 ZD Capelle aan den IJssel, The Netherlands",148
44580,"Pasteurstraat 4a, 1782 JD Den Helder, The Netherlands",148
68186,"Pastoor Bartenstraat 8, 5373 EG Herpen, Netherlands",148
100841,"Pastoor Boelenslaan 10, 3454 AB Netherlands",148
100410,"Pastoor Boelenslaan 11, 3454 AB Netherlands",148
64692,"Pastoor Bruggemanlaan 1, 6861 GR Oosterbeek, Netherlands",148
81423,"Pastoor Bruggemanlaan 31A, 6861 GR Oosterbeek, Netherlands",148
81745,"Pastoor Bruggemanlaan 33, 6861 GR Oosterbeek, Netherlands",148
4667299,"Pastoor de Kroonstraat 12, 5211 SP &#39;s-Hertogenbosch, Netherlands",148
4665114,"Pastoor de Kroonstraat 94, 5211 SR &#39;s-Hertogenbosch, Netherlands",148
100414,"Pastoor Ohllaan 34, 3451 CC Netherlands",148
42064,"Pastoor Scheepersstraat 13, 6325 CH Berg en Terblijt, Netherlands",148
