5157312,"110 Racecourse Rd, Ascot QLD 4007",266
5157313,"80 Racecourse Rd, Ascot QLD 4007",266
5157317,"47 Hercules St, Hamilton QLD 4007",266
5157329,"60 Park Rd, Milton QLD 4064",266
5157346,"289 Lancaster Rd, Ascot QLD 4007",266
5157374,"5 Rock St, St Lucia QLD 4067",266
5157397,"41 Park Rd, Milton QLD 4064",266
5157691,"2 Gailey Rd, St Lucia QLD 4067",266
5157742,"Cnr Of Rudd St & Freeman Rd, Inala QLD 4077",266
5158589,"1/4-14 Woolley St, Dickson ACT 2602",266
5158742,"29 Dawes St, Kingston ACT 2604",266
5158841,"2 Taber Pl, Isaacs ACT 2607",266
5158842,"116 Easty St, Phillip ACT 2606",266
5158881,"52 Gruner St, Weston ACT 2611",266
5159265,"4 Brighton Rd, Scarborough WA 6019",266
5159284,"150 Great Eastern Hwy, Ascot WA 6104",266
5159299,"8 Hordern St, Victoria Park WA 6100",266
5159505,"51 Leonard St, Victoria Park WA 6100",266
5159506,"98 Ellersdale Ave, Warwick WA 6024",266
5159521,"668 A Beach Road, Warwick WA 6022",266
5159552,"25A Weaponess Rd, Scarborough WA 6019",266
5159554,"92 Stanley St, Scarborough WA 6019",266
5159555,"18/101 Hastings St, Scarborough WA 6019",266
5159557,"73 Stanley St, Scarborough WA 6019",266
5159558,"11/64 Stanley St, Scarborough WA 6019",266
5159559,"24/64 Stanley St, Scarborough WA 6019",266
5159561,"69 Scarborough Beach Rd, Scarborough WA 6019",266
5159562,"11/3 Westborough St, Scarborough WA 6018",266
