4720262,"Moskovskoye Shosse, 12, Nizhnij Novgorod, Nizhegorodskaya oblast', Russia, 603116",177
4721810,"Moskovskoye Shosse, 12, Nizhnij Novgorod, Nizhegorodskaya oblast', Russia, 603116",177
4721772,"Moskovskoye Shosse, 12, ??? ""???"", Nizhnij Novgorod, Nizhegorodskaya oblast', Russia, 603000",177
4721775,"Moskovskoye Shosse, 12, ??? ""???"", Nizhnij Novgorod, Nizhegorodskaya oblast', Russia, 603000",177
4720334,"Moskovskoye Shosse, 122, Nizhnij Novgorod, Nizhegorodskaya oblast', Russia, 603028",177
4721819,"Moskovskoye Shosse, 122, Nizhnij Novgorod, Nizhegorodskaya oblast', Russia, 603028",177
4720333,"Moskovskoye Shosse, 122, Nizhnij Novgorod, ????????????? ???, Russia, 603028",177
4720371,"Moskovskoye Shosse, 122, ??????????? ""????????"", ?. ?. ????????, Nizhegorodskaya oblast', Russia, 603028",177
4720822,"Moskovskoye Shosse, 122-?, Nizhnij Novgorod, Nizhegorodskaya oblast', Russia, 603028",177
4695111,"Moskovskoye Shosse, 12?, Nizhnij Novgorod, Nizhegorodskaya oblast', Russia, 603010",177
4721806,"Moskovskoye Shosse, 139, Nizhnij Novgorod, Nizhegorodskaya oblast', Russia, 603079",177
4721087,"Moskovskoye Shosse, 140, Nizhnij Novgorod, Nizhegorodskaya oblast &#39;, Russia, 603028",177
4720361,"Moskovskoye Shosse, 140, Nizhnij Novgorod, Nizhegorodskaya oblast', Russia, 603028",177
4721717,"Moskovskoye Shosse, 142 ?, Nizhnij Novgorod, Nizhegorodskaya oblast', Russia, 603028",177
4720358,"Moskovskoye Shosse, 144?1, Nizhnij Novgorod, Nizhegorodskaya oblast', Russia, 603028",177
4720816,"Moskovskoye Shosse, 146-?, Nizhnij Novgorod, Nizhegorodskaya oblast', Russia, 603028",177
4694585,"Moskovskoye Shosse, 146??1, Nizhnij Novgorod, Nizhegorodskaya oblast', Russia, 603028",177
4695186,"Moskovskoye Shosse, 15, Nizhnij Novgorod, Nizhegorodskaya oblast &#39;, Russia, 603116",177
4721655,"Moskovskoye Shosse, 161, Nizhnij Novgorod, Nizhegorodskaya oblast', Russia, 603079",177
4722147,"Moskovskoye Shosse, 161, Nizhnij Novgorod, Nizhegorodskaya oblast', Russia, 603079",177
4695476,"Moskovskoye Shosse, 171, Nizhnij Novgorod, Nizhegorodskaya oblast', Russia, 603079",177
4696253,"Moskovskoye Shosse, 171, Nizhnij Novgorod, Nizhegorodskaya oblast', Russia, 603079",177
4720370,"Moskovskoye Shosse, 173, Nizhnij Novgorod, Nizhegorodskaya oblast', Russia, 603079",177
4694923,"Moskovskoye Shosse, 177, Nizhnij Novgorod, Nizhegorodskaya oblast', Russia, 603079",177
4721844,"Moskovskoye Shosse, 177, Nizhnij Novgorod, Nizhegorodskaya oblast', Russia, 603079",177
4720363,"Moskovskoye Shosse, 179, Nizhnij Novgorod, Nizhegorodskaya oblast', Russia, 603079",177
4721349,"Moskovskoye Shosse, 179, Nizhnij Novgorod, Nizhegorodskaya oblast', Russia, 603079",177
4722094,"Moskovskoye Shosse, 187, Nizhnij Novgorod, Nizhegorodskaya oblast', Russia, 603079",177
4696250,"Moskovskoye Shosse, 189, Nizhnij Novgorod, Nizhegorodskaya oblast', Russia, 603028",177
4721539,"Moskovskoye Shosse, 207?, Nizhnij Novgorod, Nizhegorodskaya oblast', Russia, 603047",177
4721342,"Moskovskoye Shosse, 213?, Nizhnij Novgorod, Nizhegorodskaya oblast', Russia, 603047",177
4722093,"Moskovskoye Shosse, 213?, Nizhnij Novgorod, Nizhegorodskaya oblast', Russia, 603047",177
4720356,"Moskovskoye Shosse, 213?, Nizhnij Novgorod, Nizhegorodskaya oblast', Russia, 603079",177
4721699,"Moskovskoye Shosse, 213?, Nizhnij Novgorod, Nizhegorodskaya oblast', Russia, 603079",177
4721876,"Moskovskoye Shosse, 213?, Nizhnij Novgorod, Nizhegorodskaya oblast', Russia, 603079",177
4695055,"Moskovskoye Shosse, 213?, Nizhnij Novgorod, Nizhegorodskaya oblast', Russia, 603000",177
4695054,"Moskovskoye Shosse, 215?, Nizhnij Novgorod, Nizhegorodskaya oblast', Russia, 603028",177
4721411,"Moskovskoye Shosse, 23, ?. ????????, Nizhegorodskaya oblast', Russia, 603116",177
4695052,"Moskovskoye Shosse, 232?, Nizhnij Novgorod, Nizhegorodskaya oblast', Russia, 603028",177
4695051,"Moskovskoye Shosse, 235, Nizhnij Novgorod, Nizhegorodskaya oblast', Russia, 603124",177
4720915,"Moskovskoye Shosse, 235, Nizhnij Novgorod, Nizhegorodskaya oblast', Russia, 603124",177
4695048,"Moskovskoye Shosse, 237, Nizhnij Novgorod, Nizhegorodskaya oblast', Russia, 603124",177
4721538,"Moskovskoye Shosse, 248, Nizhnij Novgorod, Nizhegorodskaya oblast', Russia, 603028",177
4694985,"Moskovskoye Shosse, 248?, Nizhnij Novgorod, Nizhegorodskaya oblast', Russia, 603028",177
4721053,"Moskovskoye Shosse, 25, Nizhnij Novgorod, ?????? ????????, Russia, 603116",177
4721314,"Moskovskoye Shosse, 25A, Nizhnij Novgorod, Nizhegorodskaya oblast', Russia, 603116",177
4721509,"Moskovskoye Shosse, 27?, Nizhnij Novgorod, Nizhegorodskaya oblast', Russia, 603116",177
4720813,"Moskovskoye Shosse, 294, ?. ????????, Nizhegorodskaya oblast', Russia, 603124",177
4720341,"Moskovskoye Shosse, 294?, Nizhnij Novgorod, Nizhegorodskaya oblast', Russia, 603124",177
4720351,"Moskovskoye Shosse, 296, Nizhnij Novgorod, ????????????? ???, Russia, 603124",177
4721674,"Moskovskoye Shosse, 296-?, ??????????? ""????????"", Nizhnij Novgorod, Nizhegorodskaya oblast', Russia, 603124",177
4721366,"Moskovskoye Shosse, 296-?, ??????????? ????????, Nizhnij Novgorod, Nizhegorodskaya oblast', Russia, 603124",177
4720342,"Moskovskoye Shosse, 296?, Nizhnij Novgorod, Nizhegorodskaya oblast', Russia, 603124",177
4720345,"Moskovskoye Shosse, 296?, Nizhnij Novgorod, Nizhegorodskaya oblast', Russia, 603124",177
4720343,"Moskovskoye Shosse, 296?, ??????????? ????????, Nizhnij Novgorod, Nizhegorodskaya oblast', Russia, 603002",177
4720562,"Moskovskoye Shosse, 296?, Nizhnij Novgorod, Nizhegorodskaya oblast', Russia, 603124",177
4720916,"Moskovskoye Shosse, 298, Nizhnij Novgorod, Nizhegorodskaya oblast', Russia, 603124",177
4721056,"Moskovskoye Shosse, 30, Nizhnij Novgorod, Nizhegorodskaya oblast', Russia, 603000",177
4721321,"Moskovskoye Shosse, 30, ??????????? ""?????"", ?. ?. ????????, Nizhegorodskaya oblast', Russia, 603028",177
4720452,"Moskovskoye Shosse, 30, ??????????? ""?????"", ?. ?. ????????, Nizhegorodskaya oblast', Russia, 603116",177
4694933,"Moskovskoye Shosse, 300, Nizhnij Novgorod, Nizhegorodskaya oblast', Russia, 603124",177
4721678,"Moskovskoye Shosse, 300, Nizhnij Novgorod, Nizhegorodskaya oblast', Russia, 603124",177
4721680,"Moskovskoye Shosse, 300, Nizhnij Novgorod, Nizhegorodskaya oblast', Russia, 603124",177
4721295,"Moskovskoye Shosse, 302/2, ?. ????????, Nizhegorodskaya oblast', Russia, 603092",177
4694846,"Moskovskoye Shosse, 304?, Nizhnij Novgorod, Nizhegorodskaya oblast', Russia, 603092",177
4720255,"Moskovskoye Shosse, 30?, Nizhnij Novgorod, Nizhegorodskaya oblast', Russia, 603010",177
4720257,"Moskovskoye Shosse, 30?, Nizhnij Novgorod, Nizhegorodskaya oblast', Russia, 603010",177
4720259,"Moskovskoye Shosse, 30?, Nizhnij Novgorod, Nizhegorodskaya oblast', Russia, 603010",177
4720260,"Moskovskoye Shosse, 30?, Nizhnij Novgorod, Nizhegorodskaya oblast', Russia, 603010",177
4720322,"Moskovskoye Shosse, 30?, Nizhnij Novgorod, Nizhegorodskaya oblast', Russia, 603010",177
4720451,"Moskovskoye Shosse, 30?, Nizhnij Novgorod, Nizhegorodskaya oblast', Russia, 603010",177
4721320,"Moskovskoye Shosse, 30?, Nizhnij Novgorod, Nizhegorodskaya oblast', Russia, 603010",177
4696556,"Moskovskoye Shosse, 30?, Nizhnij Novgorod, Nizhegorodskaya oblast', Russia, 603116",177
4721317,"Moskovskoye Shosse, 31, Nizhnij Novgorod, Nizhegorodskaya oblast', Russia, 603116",177
4696017,"Moskovskoye Shosse, 314-?, Nizhnij Novgorod, ?????? ????????, Russia, 603092",177
4721863,"Moskovskoye Shosse, 33, Nizhnij Novgorod, Nizhegorodskaya oblast', Russia, 603116",177
4694537,"Moskovskoye Shosse, 34, Nizhnij Novgorod, Nizhegorodskaya oblast', Russia, 603028",177
4720828,"Moskovskoye Shosse, 34, Nizhnij Novgorod, ?????? ????????, Russia, 603028",177
4695068,"Moskovskoye Shosse, 34?, Nizhnij Novgorod, Nizhegorodskaya oblast', Russia, 603002",177
4695046,"Moskovskoye Shosse, 352?, Nizhnij Novgorod, Nizhegorodskaya oblast', Russia, 603092",177
4720832,"Moskovskoye Shosse, 4?, Nizhnij Novgorod, Nizhegorodskaya oblast', Russia, 603116",177
4721154,"Moskovskoye Shosse, 52 ? / 1, Nizhnij Novgorod, Nizhegorodskaya oblast &#39;, Russia, 603079",177
4721162,"Moskovskoye Shosse, 52?, Nizhnij Novgorod, Nizhegorodskaya oblast &#39;, Russia, 603079",177
4721797,"Moskovskoye Shosse, 52?/1, Nizhnij Novgorod, Nizhegorodskaya oblast', Russia, 603079",177
4720453,"Moskovskoye Shosse, 77, Nizhnij Novgorod, Nizhegorodskaya oblast', Russia, 603074",177
4696598,"Moskovskoye Shosse, 84, ?. ?. ????????, Nizhegorodskaya oblast', Russia, 603028",177
4694652,"Moskovskoye Shosse, 85, Nizhnij Novgorod, Nizhegorodskaya oblast &#39;, Russia, 603074",177
4720261,"Moskovskoye Shosse, 85, Nizhnij Novgorod, Nizhegorodskaya oblast', Russia, 603079",177
4722221,"Moskovskoye Shosse, 85, Nizhnij Novgorod, Nizhegorodskaya oblast', Russia, 603079",177
4721151,"Moskovskoye Shosse, 9, Nizhnij Novgorod, Nizhegorodskaya oblast &#39;, Russia, 603116",177
4720329,"Moskovskoye Shosse, 94?, Nizhnij Novgorod, Nizhegorodskaya oblast', Russia, 603028",177
4720330,"Moskovskoye Shosse, 94?, Nizhnij Novgorod, Nizhegorodskaya oblast', Russia, 603028",177
4694608,"Moskovskoye Shosse, Nizhnij Novgorod, Nizhegorodskaya oblast', Russia, 603028",177
4695045,"Moskovskoye Shosse, Nizhnij Novgorod, Nizhegorodskaya oblast', Russia, 603092",177
4720930,"Moskovskoye Shosse, Nizhnij Novgorod, Nizhegorodskaya oblast', Russia, 603092",177
4720932,"Moskovskoye Shosse, Nizhnij Novgorod, Nizhegorodskaya oblast', Russia, 603092",177
4721533,"Murashkinskaya Ulitsa, 12, Nizhnij Novgorod, Nizhegorodskaya oblast', Russia, 603002",177
5689064,"Muravey, ??. ??????, 33, ?????? ????????, ????????????? ???., 603011",177
3388491,"Murmanskoye Shosse, 12?, Leningrad Oblast, Russia, 193315",177
4714217,"Myasnikovsky district, hut. Nedvigovka, Rostovskaya oblast &#39;, Russia, 346813",177
4694986,"Naberezhnaya Grebnogo Kanala, 3?, Nizhnij Novgorod, Nizhegorodskaya oblast', Russia, 603163",177
4695153,"Nagulino, Nizhnij Novgorod, Nizhegorodskaya oblast &#39;, Russia, 603069",177
4714218,"Nedvigovka, Rostov Oblast, Russia, 346813",177
4723292,"Nedvigovka, Rostov Oblast, Russia, 346813",177
4723294,"Nedvigovka, Rostov Oblast, Russia, 346813",177
4714122,"Neklinovskaya Ulitsa, 31?, Rostov, Rostovskaya oblast', Russia, 344064",177
4714366,"Neklinovskaya Ulitsa, 43, Rostov, Rostovskaya oblast', Russia, 344064",177
4712673,"Neklinovskiy Pereulok, 4/1, ??? ""?????????????????"", Rostov, Rostovskaya oblast', Russia, 344064",177
4717597,"Nikulinoy Ulitsa, 1, Rostov, Rostovskaya oblast', Russia, 344016",177
4713774,"Nikulinoy Ulitsa, 5, Rostov, Rostovskaya oblast &#39;, Russia, 344016",177
4695112,"Nizhegorodskaya Ulitsa, 15?, Nizhnij Novgorod, Nizhegorodskaya oblast', Russia, 603000",177
4696915,"Nizhegorodskaya Ulitsa, 37/33F, Nizhnij Novgorod, Nizhegorodskaya oblast', Russia, 603109",177
4722169,"Nizhegorodskaya Ulitsa, 5, Nizhnij Novgorod, Nizhegorodskaya oblast', Russia, 603109",177
4695764,"Nizhnevaldayskaya Ulitsa, 32, Nizhnij Novgorod, Nizhegorodskaya oblast &#39;, Russia, 603062",177
4695954,"Nizhnevolzhskaya embankment, 12, Nizhnij Novgorod, Nizhegorodskaya oblast', Russia, 603001",177
4721577,"Nizhnevolzhskaya embankment, 14, Nizhnij Novgorod, Nizhegorodskaya oblast', Russia, 603001",177
4694710,"Nizhnevolzhskaya embankment, 16, Nizhnij Novgorod, Nizhegorodskaya oblast &#39;, Russia, 603000",177
4695621,"Nizhnevolzhskaya embankment, 16, Nizhnij Novgorod, Nizhegorodskaya oblast &#39;, Russia, 603000",177
4695506,"Nizhnevolzhskaya embankment, 16, Nizhnij Novgorod, Nizhegorodskaya oblast &#39;, Russia, 603001",177
4721004,"Nizhnevolzhskaya embankment, 16, Nizhnij Novgorod, Nizhegorodskaya oblast &#39;, Russia, 603001",177
4721254,"Nizhnevolzhskaya embankment, 17 \ 2, Nizhnij Novgorod, Nizhegorodskaya oblast &#39;, Russia, 603001",177
4721253,"Nizhnevolzhskaya embankment, 17, Nizhnij Novgorod, Nizhegorodskaya oblast &#39;, Russia, 603001",177
4721036,"Nizhnevolzhskaya embankment, 17/2, Nizhnij Novgorod, Nizhegorodskaya oblast', Russia, 603001",177
4694818,"Nizhnevolzhskaya embankment, 17?, Nizhnij Novgorod, Nizhegorodskaya oblast', Russia, 603001",177
4694709,"Nizhnevolzhskaya embankment, 19, Nizhnij Novgorod, Nizhegorodskaya oblast &#39;, Russia, 603001",177
4695620,"Nizhnevolzhskaya embankment, 19, Nizhnij Novgorod, Nizhegorodskaya oblast &#39;, Russia, 603001",177
4697306,"Nizhnevolzhskaya embankment, 1B, Nizhnij Novgorod, Nizhegorodskaya oblast &#39;, Russia, 603001",177
4694703,"Nizhnevolzhskaya embankment, 1?, Nizhnij Novgorod, Nizhegorodskaya oblast &#39;, Russia, 603005",177
4696972,"Nizhnevolzhskaya embankment, 21, Nizhnij Novgorod, Nizhegorodskaya oblast &#39;, Russia, 603001",177
4721002,"Nizhnevolzhskaya embankment, 23, Nizhnij Novgorod, Nizhegorodskaya oblast &#39;, Russia, 603001",177
4695646,"Nizhnevolzhskaya embankment, 5/2, Nizhnij Novgorod, Nizhegorodskaya oblast &#39;, Russia, 603001",177
4694882,"Nizhnevolzhskaya embankment, 7, Nizhnij Novgorod, Nizhegorodskaya oblast', Russia, 603001",177
4694817,"Nizhnevolzhskaya embankment, 7/2, Nizhnij Novgorod, Nizhegorodskaya oblast', Russia, 603001",177
4721659,"Nizhnevolzhskaya embankment, 8/7, Nizhnij Novgorod, Nizhegorodskaya oblast &#39;, Russia, 603001",177
4695253,"Nizhnevolzhskaya embankment, Nizhnij Novgorod, Nizhegorodskaya oblast &#39;, Russia, 603001",177
4695594,"Nizhnevolzhskaya embankment, Nizhnij Novgorod, Nizhegorodskaya oblast &#39;, Russia, 603001",177
4696378,"Nizhnevolzhskaya embankment, Nizhnij Novgorod, Nizhegorodskaya oblast &#39;, Russia, 603001",177
4697303,"Nizhnevolzhskaya embankment, Nizhnij Novgorod, Nizhegorodskaya oblast &#39;, Russia, 603005",177
4721288,"Nizhnevolzhskaya embankment, Nizhnij Novgorod, Nizhegorodskaya oblast', Russia, 603001",177
4722217,"Nizhnevolzhskaya nab., 7/2, Nizhnij Novgorod, Nizhegorodskaya oblast', Russia, 603001",177
4715821,"Nizhnyaya Ulitsa, 6, Rostov, Rostovskaya oblast &#39;, Russia, 344039",177
4715822,"Nizhnyaya Ulitsa, 6, Rostov, Rostovskaya oblast &#39;, Russia, 344039",177
3437086,"Novaya Zarya street, 7, ????, Russia, 354068",177
4723047,"Novoshakhtinsk, Rostov Oblast, Russia, 344033",177
4714081,"Observatornaya Ulitsa, Rostov, Rostovskaya oblast &#39;, Russia, 344114",177
4714817,"Obskiy Pereulok, 7, Rostov, Rostovskaya oblast', Russia, 344032",177
4715938,"Ogorodnaya Ulitsa, 70, Bataysk, Rostovskaya oblast', Russia, 346885",177
4715939,"Ogorodnaya Ulitsa, 70, Bataysk, Rostovskaya oblast', Russia, 346885",177
4715132,"Ogorodnaya Ulitsa, 75-77, Bataysk, Rostovskaya oblast', Russia, 346885",177
3386791,"Okkervil river, Russia",177
4714610,"Okruzhnaya Ulitsa, 20, Rostov, Rostovskaya oblast &#39;, Russia, 344025",177
4714802,"Oktyabr&#39;skaya Ulitsa, 2?, Sinyavskoye, Rostovskaya oblast &#39;, Russia, 346859",177
4763494,"Oktyabr&#39;skiy, Sverdlovsk Oblast, Russia, 624005",177
4722991,"Oktyabr'skaya Ulitsa, 38, Chaltyr', Rostovskaya oblast', Russia, 346801",177
4713447,"Orbitalnaya ul., Rostov, Rostovskaya oblast', Russia, 344114",177
4714417,"Orenburgskiy Pereulok, 20/63, Rostov, Rostovskaya oblast', Russia, 344068",177
4715211,"Orskaya Ulitsa, 1?/16?, ????? 2, Rostov, Rostovskaya oblast', Russia, 344065",177
4712529,"Orskaya Ulitsa, 5, Rostov, Rostovskaya oblast', Russia, 344065",177
4712639,"Orskaya Ulitsa, 5, Rostov, Rostovskaya oblast', Russia, 344065",177
4714012,"Orskaya Ulitsa, Rostov, Rostovskaya oblast &#39;, Russia, 344065",177
4716273,"Osobennaya Ulitsa, 77, Rostov, Rostovskaya oblast', Russia, 344064",177
4694481,"per. Ludilnyy, 1, ???. ?, Nizhnij Novgorod, Nizhegorodskaya oblast', Russia, 603022",177
4723360,"per. Zhuravleva, 44, Rostov, Rostovskaya oblast', Russia, 344022",177
4696531,"Perekopskaya Ulitsa, 3, Nizhnij Novgorod, Nizhegorodskaya oblast', Russia, 603029",177
4695895,"Perekopskaya Ulitsa, 3, Nizhnij Novgorod, Nizhegorodskaya oblast', Russia, 603032",177
4693889,"Perekopskaya Ulitsa, 8, ????. 1, ??????? ?????????, Nizhnij Novgorod, Nizhegorodskaya oblast', Russia, 603029",177
4695969,"Perekopskaya Ulitsa, 8/1, Nizhnij Novgorod, Nizhegorodskaya oblast', Russia, 603029",177
4696191,"Perekopskaya Ulitsa, 8/1, Nizhnij Novgorod, Nizhegorodskaya oblast', Russia, 603029",177
4696533,"Perekopskaya Ulitsa, 8/1, Nizhnij Novgorod, Nizhegorodskaya oblast', Russia, 603029",177
4714286,"Pereulok 2-Y Pereulok, 10, Rostov, Rostovskaya oblast &#39;, Russia, 344011",177
4713446,"Pereulok Alyab'yeva, 2/1, Rostov, Rostovskaya oblast', Russia, 346715",177
4720847,"Pereulok Avtogennyy, 9, Nizhnij Novgorod, Nizhegorodskaya oblast &#39;, Russia, 603028",177
5739572,"Pereulok Ayvazovskogo, 7?, Rostov, Rostovskaya oblast', Russia, 344079",177
4712604,"Pereulok Belomorskiy, 20?, Rostov, Rostovskaya oblast', Russia, 344056",177
4715359,"Pereulok Belomorskiy, 20?, Rostov, Rostovskaya oblast', Russia, 344065",177
4715719,"Pereulok Belomorskiy, 98, Rostov, Rostovskaya oblast', Russia, 344065",177
4713435,"Pereulok Botanicheskiy Spusk, 7, Rostov, Rostovskaya oblast &#39;, Russia, 344041",177
4717714,"Pereulok Botanicheskiy Spusk, 7, Rostov, Rostovskaya oblast', Russia, 344041",177
4694466,"Pereulok Boynovskiy, 17-?, Nizhnij Novgorod, Nizhegorodskaya oblast', Russia, 603024",177
4694467,"Pereulok Boynovskiy, 17?, Nizhnij Novgorod, Nizhegorodskaya oblast', Russia, 603024",177
4717346,"Pereulok Dal'niy, 19, Rostov, Rostovskaya oblast', Russia, 344039",177
4716590,"Pereulok Derevyanko, 14, Rostov, Rostovskaya oblast', Russia, 344034",177
4715177,"Pereulok Dneprovskiy, 116-?, Rostov, Rostovskaya oblast', Russia, 344065",177
4712521,"Pereulok Drevesnyy, 24, Rostov, Rostovskaya oblast', Russia, 344093",177
4714584,"Pereulok Energetikov, 5, Rostov, Rostovskaya oblast &#39;, Russia, 344019",177
4695361,"Pereulok Gogolya, 9, Nizhnij Novgorod, Nizhegorodskaya oblast', Russia, 603000",177
4720511,"Pereulok Khmeleva, Nizhnij Novgorod, Nizhegorodskaya oblast', Russia, 603054",177
4693948,"Pereulok Kholodnyy, 10 ?, ?. ?. ????????, Nizhegorodskaya oblast', Russia, 603000",177
4696316,"Pereulok Kholodnyy, 15?, Nizhnij Novgorod, Nizhegorodskaya oblast', Russia, 603000",177
4697273,"Pereulok Koreyskiy, 6, Nizhnij Novgorod, Nizhegorodskaya oblast', Russia, 603081",177
4723177,"Pereulok Kunikova, 4, Azov, Rostovskaya oblast &#39;, Russia, 346781",177
3414017,"Pereulok Lermontova, 1, Russia",177
4722836,"Pereulok Mayakovskogo, 77, Azov, Rostovskaya oblast', Russia, 346789",177
4713031,"Pereulok Mezenskiy, 17, Rostov, Rostovskaya oblast', Russia, 344056",177
4713030,"Pereulok Mezenskiy, 44/28, Rostov, Rostovskaya oblast', Russia, 344056",177
4713068,"Pereulok Mezenskiy, 9?, Rostov, Rostovskaya oblast', Russia, 344056",177
4694523,"Pereulok Motal'nyy, 8, Nizhnij Novgorod, Nizhegorodskaya oblast', Russia, 603140",177
4720786,"Pereulok Motal'nyy, 8, Nizhnij Novgorod, Nizhegorodskaya oblast', Russia, 603140",177
4722119,"Pereulok Motal'nyy, 8, Nizhnij Novgorod, Nizhegorodskaya oblast', Russia, 603140",177
4696504,"Pereulok Motornyy, 1, Nizhnij Novgorod, Nizhegorodskaya oblast', Russia, 603111",177
4696097,"Pereulok Motornyy, 1?, Nizhnij Novgorod, Nizhegorodskaya oblast', Russia, 603043",177
4696578,"Pereulok Motornyy, 2/6, Nizhnij Novgorod, Nizhegorodskaya oblast', Russia, 603111",177
4715763,"Pereulok Nakhichevanskiy, 29 ?????? 8, Rostov, Rostovskaya oblast', Russia, 344022",177
4715755,"Pereulok Nakhichevanskiy, 29, ?.5, Rostov, Rostovskaya oblast', Russia, 344022",177
4715955,"Pereulok Nakhichevanskiy, 38, Rostov, Rostovskaya oblast', Russia, 344022",177
4715517,"Pereulok Nakhichevanskiy, 40?, Rostov, Rostovskaya oblast &#39;, Russia, 344022",177
4694414,"Pereulok Nartova, 2 ?, ?. ?. ????????, Nizhegorodskaya oblast', Russia, 603057",177
4717603,"Pereulok Neftyanoy, 2?, Rostov, Rostovskaya oblast', Russia, 344016",177
4716449,"Pereulok Neftyanoy, 6, Rostov, Rostovskaya oblast', Russia, 344016",177
4721007,"Pereulok Nezhinskiy, 1, Nizhnij Novgorod, Nizhegorodskaya oblast &#39;, Russia, 603001",177
4723453,"Pereulok Osipenko, 47, Azov, Rostovskaya oblast', Russia, 346780",177
4723011,"Pereulok Osipenko, 47?, Azov, Rostovskaya oblast', Russia, 346782",177
4714284,"Pereulok Ostrovskogo, 22, Rostov, Rostovskaya oblast &#39;, Russia, 344002",177
4713658,"Pereulok Ostrovskogo, 22, Rostov, Rostovskaya oblast', Russia, 344002",177
4715797,"Pereulok Ostrovskogo, 22, Rostov, Rostovskaya oblast', Russia, 344002",177
4713830,"Pereulok Ostrovskogo, 42, Rostov, Rostovskaya oblast', Russia, 344082",177
4717558,"Pereulok Ostrovskogo, 44, Rostov, Rostovskaya oblast', Russia, 344082",177
4716922,"Pereulok Ostrovskogo, 62, Rostov, Rostovskaya oblast', Russia, 344000",177
4716923,"Pereulok Ostrovskogo, 62, Rostov, Rostovskaya oblast', Russia, 344082",177
4723449,"Pereulok Ostrovskogo, 62, Rostov, Rostovskaya oblast', Russia, 344082",177
4723454,"Pereulok Ostrovskogo, 62, Rostov, Rostovskaya oblast', Russia, 344082",177
4723444,"Pereulok Ostrovskogo, 78, Rostov, Rostovskaya oblast', Russia, 344002",177
4714685,"Pereulok Ostrovskogo, 96, Rostov, Rostovskaya oblast &#39;, Russia, 344011",177
5525945,"pereulok Pobezhimova, 47, ??????, Russia, 420036",177
4716326,"Pereulok Polesskiy, 64, Rostov, Rostovskaya oblast', Russia, 344013",177
4722848,"Pereulok Przheval&#39;skogo, 30g, Rostov, Rostovskaya oblast &#39;, Russia, 344033",177
4722955,"Pereulok Przheval'skogo, 23, Rostov, Rostovskaya oblast', Russia, 344033",177
4716610,"Pereulok Przheval'skogo, 30?, Rostov, Rostovskaya oblast', Russia, 344033",177
4713361,"Pereulok Semashko, 11, Rostov, Rostovskaya oblast', Russia, 344001",177
4713362,"Pereulok Semashko, 11, Rostov, Rostovskaya oblast', Russia, 344002",177
4717358,"Pereulok Semashko, 114, 110, Rostov, Rostovskaya oblast', Russia, 344011",177
4714596,"Pereulok Semashko, 117?, Rostov, Rostovskaya oblast', Russia, 344018",177
4716935,"Pereulok Semashko, 134, Rostov, Rostovskaya oblast', Russia, 344018",177
4716705,"Pereulok Semashko, 18, Rostov, Rostovskaya oblast', Russia, 344002",177
4716702,"Pereulok Semashko, 19, Rostov, Rostovskaya oblast', Russia, 344002",177
4713643,"Pereulok Semashko, 21, Rostov, Rostovskaya oblast', Russia, 344000",177
4714175,"Pereulok Semashko, 21/60, Rostov, Rostovskaya oblast &#39;, Russia, 344002",177
4722818,"Pereulok Semashko, 21/60, Rostov, Rostovskaya oblast', Russia, 344002",177
4714681,"Pereulok Semashko, 3, office 2, Rostov, Rostovskaya oblast &#39;, Russia, 344002",177
4716723,"Pereulok Semashko, 34, Rostov, Rostovskaya oblast', Russia, 344002",177
4716863,"Pereulok Semashko, 37, Rostov, Rostovskaya oblast', Russia, 344082",177
4713995,"Pereulok Semashko, 45, Rostov, Rostovskaya oblast &#39;, Russia, 344002",177
4715795,"Pereulok Semashko, 48?, Rostov, Rostovskaya oblast', Russia, 344002",177
4713404,"Pereulok Semashko, 49, Rostov, Rostovskaya oblast', Russia, 344002",177
4714379,"Pereulok Semashko, 49, Rostov, Rostovskaya oblast', Russia, 344002",177
4714571,"Pereulok Semashko, 49, Rostov, Rostovskaya oblast', Russia, 344002",177
4715539,"Pereulok Semashko, 51/1, Rostov, Rostovskaya oblast &#39;, Russia, 344002",177
4716914,"Pereulok Semashko, 55, Rostov, Rostovskaya oblast', Russia, 344082",177
4713969,"Pereulok Semashko, 80, Rostov, Rostovskaya oblast', Russia, 344000",177
4714446,"Pereulok Semashko, 85, Rostov, ??????-??-????, Russia, 344010",177
4716302,"Pereulok Semashko, Rostov, Rostovskaya oblast &#39;, Russia, 344002",177
4696112,"Pereulok Striginskiy, 55, Nizhnij Novgorod, Nizhegorodskaya oblast &#39;, Russia, 603069",177
4694096,"Pereulok Tkacheva, 1, Nizhnij Novgorod, Nizhegorodskaya oblast', Russia, 603006",177
4714105,"Pereulok Verkhoyanskiy, 19, Rostov, Rostovskaya oblast', Russia, 344013",177
4713847,"Pereulok Yunnatov, Novocherkassk, Rostovskaya oblast &#39;, Russia, 346428",177
4716932,"Pereulok Zhuravleva, 102/105, Rostov, Rostovskaya oblast', Russia, 344010",177
4716963,"Pereulok Zhuravleva, 136, Rostov, Rostovskaya oblast', Russia, 344022",177
4715959,"Pereulok Zhuravleva, 33, Rostov, Rostovskaya oblast', Russia, 344000",177
4715040,"Pereulok Zhuravleva, 33, Rostov, Rostovskaya oblast', Russia, 344022",177
4715961,"Pereulok Zhuravleva, 33, ??????-??-???, Rostovskaya oblast', Russia, 344010",177
4715848,"Pereulok Zhuravleva, 44, Rostov, Rostovskaya oblast', Russia, 344022",177
4716950,"Pereulok Zonal'nyy, 5 ?, Rostov, Rostovskaya oblast', Russia, 344023",177
4722927,"Petrovskaya Ploshchad &#39;, 14, Azov, Rostovskaya oblast&#39;, Russia, 346780",177
4723287,"Petrovskaya Ploshchad &#39;, 5, Azov, Rostovskaya oblast&#39;, Russia, 346780",177
4715962,"Petrovskaya Ulitsa, 49, Rostov, Rostovskaya oblast', Russia, 344082",177
4714011,"Petrovskiy Bul&#39;var, 20, Azov, Rostovskaya oblast &#39;, Russia, 346780",177
4722810,"Petrovskiy Bul&#39;var, 4, Azov, Rostovskaya oblast &#39;, Russia, 346780",177
4722811,"Petrovskiy Bul&#39;var, 44, Azov, Rostovskaya oblast &#39;, Russia, 346780",177
4722812,"Petrovskiy Bul&#39;var, 44, Azov, Rostovskaya oblast &#39;, Russia, 346780",177
4717308,"Petrovskiy Bul&#39;var, 7, Azov, Rostovskaya oblast &#39;, Russia, 346780",177
4713666,"Petrovskiy Bul'var, 33, Azov, Rostovskaya oblast', Russia, 346780",177
4722903,"Petrovskiy Bul'var, 40, Azov, Rostovskaya oblast', Russia, 346780",177
4723363,"Petrovskiy Bul'var, 5, Azov, Rostovskaya oblast', Russia, 346780",177
4723158,"Petrovskiy Bul'var, 7, Azov, Rostovskaya oblast', Russia, 346780",177
4716608,"Petrozavodskaya Ulitsa, 137-?, Rostov, Rostovskaya oblast', Russia, 344103",177
4722867,"Petrushino, Rostov Oblast, Russia, 346842",177
4716061,"Pionerskaya Ulitsa, 12?, Chaltyr', Rostovskaya oblast', Russia, 346800",177
4765508,"Pionerskaya Ulitsa, 38/8, Patrushi, Sverdlovskaya oblast &#39;, Russia, 624016",177
3403757,"Piskarevskiy prospekt, 47, ?????-?????????, Russia, 195067",177
4695533,"st. Alekseevskaya, 8 a / 1, TC &quot;Alekseevsky passage&quot;, 2nd floor, N. Novgorod, Nizhegorodskaya oblast &#39;, Russia, 603005",177
4713556,"Starocherkasskaya, Rostov Oblast, Russia, 346701",177
4696136,"Sudostroitel'naya Ulitsa, 7?, Nizhnij Novgorod, Nizhegorodskaya oblast', Russia, 603054",177
4762688,"Sverdlovsk Oblast, Russia, 620010",177
4767852,"Sverdlovsk Oblast, Russia, 620050",177
4765560,"Sverdlovsk Oblast, Russia, 620061",177
4765580,"Sverdlovsk Oblast, Russia, 620061",177
4696691,"Akademicheskaya Ulitsa, 10, Nizhnij Novgorod, Nizhegorodskaya oblast', Russia, 603087",177
4693638,"Akademika Blokhinoy Ulitsa, 3, Nizhnij Novgorod, Nizhegorodskaya oblast &#39;, Russia, 603003",177
4695382,"Akademika Blokhinoy Ulitsa, 3, Nizhnij Novgorod, Nizhegorodskaya oblast', Russia, 603006",177
4694095,"Akademika Blokhinoy Ulitsa, 4/43, Nizhnij Novgorod, Nizhegorodskaya oblast', Russia, 603006",177
4713146,"Akhtarskiy Pereulok, 3, Rostov, Rostovskaya oblast &#39;, Russia, 344038",177
4715417,"Akhtarskiy Pereulok, 6-8, Rostov, Rostovskaya oblast', Russia, 344038",177
4713102,"Akhtarskiy Pereulok, 6?, Rostov, Rostovskaya oblast', Russia, 344038",177
4720940,"Akmolinskaya Ulitsa, Nizhnij Novgorod, Nizhegorodskaya oblast', Russia, 603074",177
4715511,"Aksay, Rostov Oblast, Russia",177
4713041,"Aksay, Rostov Oblast, Russia, 344009",177
4714057,"Aksay, Rostov Oblast, Russia, 344009",177
4713496,"Aksay, Rostov Oblast, Russia, 346715",177
4714056,"Aksay, Rostov Oblast, Russia, 346715",177
4713163,"Aksay, Rostov Oblast, Russia, 346720",177
4714378,"Aksay, Rostov Oblast, Russia, 346720",177
4714551,"Aksay, Rostov Oblast, Russia, 346720",177
4712737,"Aksay, Rostov Oblast, Russia, 346721",177
4713497,"Aksayskiy Prospekt, 14, Aksay, Rostovskaya oblast', Russia, 346720",177
4714094,"Aksayskiy Prospekt, 17, Aksay, Rostovskaya oblast &#39;, Russia, 346715",177
4712731,"Aksayskiy Prospekt, 2, Aksay, Rostovskaya oblast', Russia, 344009",177
4714518,"Aksayskiy Prospekt, 23, Aksay, Rostovskaya oblast &#39;, Russia, 346715",177
4715431,"Aksayskiy Prospekt, 23, Aksay, Rostovskaya oblast &#39;, Russia, 346715",177
4713188,"Aksayskiy Prospekt, 23, Aksay, Rostovskaya oblast', Russia, 346715",177
4713952,"Aksayskiy Prospekt, 23, Aksay, Rostovskaya oblast', Russia, 346715",177
4713076,"Aksayskiy Prospekt, 23, Aksay, Rostovskaya oblast', Russia, 346720",177
4713494,"Aksayskiy Prospekt, 4?, Aksay, Rostovskaya oblast', Russia, 344009",177
5744321,"Al Barakat St, Sib, Oman",177
5744322,"Al Barakat St, Sib, Oman",177
5750249,"Al Furusiyya St, Sib, Oman",177
5750244,"Al Khair St, Sib, Oman",177
5744317,"Al Khaudh A' Tijiary St, Sib, Oman",177
5750250,"Al Mazoon St, Sib, Oman",177
4696790,"Alekseevskaja, 10/16, Nizhnij Novgorod, NZ, Russia, 603005",177
4694600,"Alekseevskaya St, 10, Nizhnij Novgorod, Nizhegorodskaya oblast', Russia, 603105",177
4695029,"Alekseevskaya St, 10, ?? ""??????????? Plaza"", Nizhnij Novgorod, Nizhegorodskaya oblast', Russia, 603005",177
4694486,"Alekseevskaya St, 10/16, Nizhnij Novgorod, Nizhegorodskaya oblast', Russia, 603005",177
4694876,"Alekseevskaya St, 10/16, Nizhnij Novgorod, Nizhegorodskaya oblast', Russia, 603005",177
4696857,"Alekseevskaya St, 10/16, Nizhnij Novgorod, Nizhegorodskaya oblast', Russia, 603005",177
4695835,"Alekseevskaya St, 16, Nizhnij Novgorod, Nizhegorodskaya oblast', Russia, 603005",177
4696189,"Alekseevskaya St, 18, Nizhnij Novgorod, Nizhegorodskaya oblast &#39;, Russia, 603005",177
4694772,"Alekseevskaya St, 22, Nizhnij Novgorod, Nizhegorodskaya oblast', Russia, 603005",177
4695671,"Alekseevskaya St, 22-A, Nizhnij Novgorod, Nizhegorodskaya oblast &#39;, Russia, 603950",177
4696440,"Alekseevskaya St, 24, Nizhnij Novgorod, Nizhegorodskaya oblast', Russia, 603005",177
4696905,"Alekseevskaya St, 24/27, Nizhnij Novgorod, Nizhegorodskaya oblast', Russia, 603005",177
4696144,"Alekseevskaya St, 24?, Nizhnij Novgorod, Nizhegorodskaya oblast', Russia, 603005",177
4693639,"Alekseevskaya St, 25, Nizhnij Novgorod, Nizhegorodskaya oblast &#39;, Russia, 603005",177
4694495,"Alekseevskaya St, 26, Nizhnij Novgorod, Nizhegorodskaya oblast', Russia, 603005",177
4695277,"Alekseevskaya St, 26, Nizhnij Novgorod, Nizhegorodskaya oblast', Russia, 603005",177
4696888,"Alekseevskaya St, 3?, Nizhnij Novgorod, Nizhegorodskaya oblast', Russia, 603005",177
4697385,"Alekseevskaya St, 41, Nizhnij Novgorod, Nizhegorodskaya oblast', Russia, 603005",177
4697391,"Alekseevskaya St, 41, Nizhnij Novgorod, Nizhegorodskaya oblast', Russia, 603005",177
4695560,"Alekseevskaya St, 43, Nizhnij Novgorod, Nizhegorodskaya oblast &#39;, Russia, 603005",177
4696268,"Alekseevskaya St, 43, Nizhnij Novgorod, Nizhegorodskaya oblast', Russia, 603005",177
4693641,"Alekseevskaya St, 8? / 1, Nizhnij Novgorod, Nizhegorodskaya oblast &#39;, Russia, 603005",177
4696438,"Alekseevskaya St, 8? / 1, Nizhnij Novgorod, Nizhegorodskaya oblast &#39;, Russia, 603005",177
4696129,"Alekseevskaya St, 8?/1, Nizhnij Novgorod, Nizhegorodskaya oblast', Russia, 603000",177
4696870,"Alekseevskaya St.10/16, N-Novgorod, Russia, 603005",177
4695573,"Alma-Atinskaya Ulitsa, 15?1, Nizhnij Novgorod, Nizhegorodskaya oblast &#39;, Russia, 603034",177
4713729,"Alma-Atinskaya Ulitsa, 26, Rostov, Rostovskaya oblast &#39;, Russia, 344009",177
5744313,"AlNazhah Roundabout, Sib, Oman",177
3440621,"Altufevskoe Highway, 70k1, North-Eastern Administrative District, Russia",177
3405087,"Amusement park, Russia",177
4697519,"Ankudinovskoye Shosse, 34, Nizhnij Novgorod, Nizhegorodskaya oblast', Russia, 603144",177
4694984,"Ankudinovskoye Shosse, 5, Nizhnij Novgorod, Nizhegorodskaya oblast', Russia, 603081",177
5133707,"ap.6, et, Strada Radu de la Afuma?i 4A, Bucure?ti 020667, Romania",177
4713307,"Araratskiy Pereulok, 2/38, Rostov, Rostovskaya oblast', Russia, 344103",177
4695706,"Arkticheskaya Ulitsa, 18, Nizhnij Novgorod, Nizhegorodskaya oblast', Russia, 603032",177
4696246,"Arkticheskaya Ulitsa, 20, Nizhnij Novgorod, Nizhegorodskaya oblast', Russia, 603032",177
4714126,"Armeyskaya Ulitsa, 69, Rostov, Rostovskaya oblast', Russia, 344079",177
4713936,"Armyanskaya ul., 13, Rostov, Rostovskaya oblast', Russia, 344114",177
4696092,"Artel'naya Ulitsa, 1, Nizhnij Novgorod, Nizhegorodskaya oblast', Russia, 603098",177
4697534,"Artel'naya Ulitsa, 1, Nizhnij Novgorod, Nizhegorodskaya oblast', Russia, 603098",177
4697188,"Artel'naya Ulitsa, 21-?, 2 ????, Nizhnij Novgorod, Nizhegorodskaya oblast', Russia, 603098",177
4695318,"Artel'naya Ulitsa, 29, Nizhnij Novgorod, Nizhegorodskaya oblast', Russia, 603098",177
4694913,"Artel'naya Ulitsa, 3, Nizhnij Novgorod, Nizhegorodskaya oblast', Russia, 603098",177
4694941,"Artel'naya Ulitsa, 31, ???? 36, ???? 2, Nizhnij Novgorod, Nizhegorodskaya oblast', Russia, 603098",177
4695824,"Artel'naya Ulitsa, 5, Nizhnij Novgorod, Nizhegorodskaya oblast', Russia, 603098",177
4721247,"Ashkhabadskaya Ulitsa, 15, Nizhnij Novgorod, Nizhegorodskaya oblast &#39;, Russia, 603000",177
4697513,"Ashkhabadskaya Ulitsa, 4, Nizhnij Novgorod, Nizhegorodskaya oblast', Russia, 603105",177
4722887,"Ashkhabadskiy Pereulok, 23?, Rostov, Rostovskaya oblast &#39;, Russia, 344068",177
4715779,"Atamanskaya Ulitsa, 37 &quot;B, Novocherkassk, Rostovskaya oblast &#39;, Russia, 346400",177
4714212,"Atamanskaya Ulitsa, 38, Novocherkassk, Rostovskaya oblast &#39;, Russia, 346410",177
4713133,"Ave. Kosmonavtov, 1, Rostov, Rostovskaya oblast &#39;, Russia, 344092",177
4713841,"Ave. Mikhail Nagibin, 17, Rostov, Rostovskaya oblast &#39;, Russia, 344000",177
4725724,"Avenue Reine Astrid 248, 7180 Seneffe, Belgium",177
4713547,"Avtomobil'nyy Pereulok, 29, Rostov, Rostovskaya oblast', Russia, 344038",177
4713722,"Azov, Rostov Oblast, Russia, 346780",177
4722803,"Azov, Rostov Oblast, Russia, 346780",177
4722804,"Azov, Rostov Oblast, Russia, 346780",177
4722809,"Azov, Rostov Oblast, Russia, 346780",177
4722883,"Azov, Rostov Oblast, Russia, 346780",177
4722885,"Azov, Rostov Oblast, Russia, 346780",177
4722919,"Azov, Rostov Oblast, Russia, 346780",177
4723021,"Azov, Rostov Oblast, Russia, 346780",177
4723452,"Azov, Rostov Oblast, Russia, 346780",177
4722910,"Azov, Rostov Oblast, Russia, 346782",177
4723290,"Azov, Rostov Oblast, Russia, 346782",177
4723289,"Azov, Rostov Oblast, Russia, 346783",177
4715447,"Baklanovskiy Prospekt, 120, Novocherkassk, Rostovskaya oblast &#39;, Russia, 346421",177
4723166,"Baklanovskiy Prospekt, 72, Novocherkassk, Rostovskaya oblast &#39;, Russia, 346411",177
4721665,"Balaklava per., 1, Nizhnij Novgorod, Nizhegorodskaya oblast &#39;, Russia, 603010",177
4715503,"Bataysk, Rostov Oblast, Russia, 346880",177
4715567,"Bataysk, Rostov Oblast, Russia, 346880",177
4715504,"Bataysk, Rostov Oblast, Russia, 346883",177
4712765,"Bataysk, Rostov Oblast, Russia, 346884",177
4722800,"Bataysk, Rostov Oblast, Russia, 346885",177
4715131,"Bataysk, Rostov Oblast, Russia, 346889",177
4712745,"Bataysk, Rostov Oblast, Russia, 346892",177
4713249,"Batumskiy Pereulok, 71/82, Rostov, Rostovskaya oblast &#39;, Russia, 344068",177
4714543,"Bazarnaya Ploshchad', 1/2, Rostov, Rostovskaya oblast', Russia, 344037",177
4717596,"Bazarnaya Ploshchad', 2, Rostov, Rostovskaya oblast', Russia, 344000",177
4712550,"Bazarnaya Ploshchad', 4, Rostov, Rostovskaya oblast', Russia, 344037",177
4720425,"Bazarnaya Ulitsa, 8, Nizhnij Novgorod, Nizhegorodskaya oblast', Russia, 603003",177
4720532,"Bazarnaya Ulitsa, 8, Nizhnij Novgorod, Nizhegorodskaya oblast', Russia, 603003",177
4721452,"Bazarnaya Ulitsa, 8, Nizhnij Novgorod, Nizhegorodskaya oblast', Russia, 603003",177
4721970,"Bazarnaya Ulitsa, 8, Nizhnij Novgorod, Nizhegorodskaya oblast', Russia, 603003",177
4720420,"Bazarnaya Ulitsa, 8, ?-? ""???????"", ?. ?. ????????, Nizhegorodskaya oblast', Russia, 603003",177
4721192,"Bazovyy Proyezd, 1, Nizhnij Novgorod, Nizhegorodskaya oblast &#39;, Russia, 603028",177
4721682,"Bazovyy Proyezd, 1, Nizhnij Novgorod, Nizhegorodskaya oblast', Russia, 603028",177
4721432,"Bazovyy Proyezd, 1-?, Nizhnij Novgorod, Nizhegorodskaya oblast &#39;, Russia, 603028",177
4721685,"Bazovyy Proyezd, 12, Nizhnij Novgorod, Nizhegorodskaya oblast', Russia, 603028",177
4721686,"Bazovyy Proyezd, 12, Nizhnij Novgorod, Nizhegorodskaya oblast', Russia, 603028",177
4694578,"Bazovyy Proyezd, 3, Nizhnij Novgorod, Nizhegorodskaya oblast', Russia, 603028",177
4694603,"Bazovyy Proyezd, 3, Nizhnij Novgorod, Nizhegorodskaya oblast', Russia, 603028",177
4697157,"Bazovyy Proyezd, 3, Nizhnij Novgorod, Nizhegorodskaya oblast', Russia, 603108",177
4721193,"Bazovyy Proyezd, 9?, Nizhnij Novgorod, Nizhegorodskaya oblast &#39;, Russia, 603015",177
4714107,"Belorusskaya Ulitsa, 103, Bataysk, Rostovskaya oblast &#39;, Russia, 346888",177
4712950,"Belorusskaya Ulitsa, 196?, Rostov, Rostovskaya oblast &#39;, Russia, 344056",177
4713036,"Belorusskaya Ulitsa, 196?, Rostov, Rostovskaya oblast', Russia, 344056",177
4712597,"Belorusskaya Ulitsa, 9, ?.??????-??-????, Rostovskaya oblast', Russia, 344065",177
4713021,"Belorusskaya Ulitsa, 95, Rostov, Rostovskaya oblast', Russia, 344056",177
4714131,"Beregovaya street, Rostov, Rostovskaya oblast &#39;, Russia, 344002",177
4714287,"Beregovaya Ulitsa, 10, Rostov, Rostovskaya oblast &#39;, Russia, 344002",177
4716376,"Beregovaya Ulitsa, 10, Rostov, Rostovskaya oblast &#39;, Russia, 344002",177
4713193,"Beregovaya Ulitsa, 10, Rostov, Rostovskaya oblast', Russia, 344002",177
4714951,"Beregovaya Ulitsa, 10, Rostov, Rostovskaya oblast', Russia, 344002",177
4716695,"Beregovaya Ulitsa, 10, Rostov, Rostovskaya oblast', Russia, 344002",177
4712739,"Beregovaya Ulitsa, 12, Rostov, Rostovskaya oblast &#39;, Russia, 344002",177
4714687,"Beregovaya Ulitsa, 13/2, Rostov, Rostovskaya oblast', Russia, 344002",177
4715557,"Beregovaya Ulitsa, 14, Rostov, Rostovskaya oblast &#39;, Russia, 344002",177
4715558,"Beregovaya Ulitsa, 14, Rostov, Rostovskaya oblast &#39;, Russia, 344002",177
4713792,"Beregovaya Ulitsa, 15, Rostov, Rostovskaya oblast &#39;, Russia, 344002",177
4695991,"Beregovaya Ulitsa, 16 ?, ?. ????????, Nizhegorodskaya oblast', Russia, 603117",177
4713440,"Beregovaya Ulitsa, 2, Rostov, Rostovskaya oblast', Russia, 344082",177
4716382,"Beregovaya Ulitsa, 2, Rostov, Rostovskaya oblast', Russia, 344082",177
4714955,"Beregovaya Ulitsa, 21, Rostov, Rostovskaya oblast', Russia, 344002",177
4714949,"Beregovaya Ulitsa, 25 ?/4, ????????? ???????? ???, Rostov, Rostovskaya oblast', Russia, 344000",177
4715810,"Beregovaya Ulitsa, 25, Rostov, Rostovskaya oblast &#39;, Russia, 344002",177
4714575,"Beregovaya Ulitsa, 25, Rostov, ??????-??-????, Russia, 344002",177
4714948,"Beregovaya Ulitsa, 25?, Rostov, Rostovskaya oblast', Russia, 344002",177
4714952,"Beregovaya Ulitsa, 25?, Rostov, Rostovskaya oblast', Russia, 344002",177
4716696,"Beregovaya Ulitsa, 25?, Rostov, Rostovskaya oblast', Russia, 344002",177
4715556,"Beregovaya Ulitsa, 27?, Rostov, Rostovskaya oblast &#39;, Russia, 344002",177
4712994,"Beregovaya Ulitsa, 30, Rostov, Rostovskaya oblast', Russia, 344019",177
4713784,"Beregovaya Ulitsa, 39, Rostov, Rostovskaya oblast &#39;, Russia, 344002",177
4715403,"Beregovaya Ulitsa, 4, Rostov, Rostovskaya oblast', Russia, 344002",177
4715547,"Beregovaya Ulitsa, 49?, Rostov, Rostovskaya oblast &#39;, Russia, 344006",177
4713781,"Beregovaya Ulitsa, 51, Rostov, Rostovskaya oblast &#39;, Russia, 344022",177
4716290,"Beregovaya Ulitsa, 7, Rostov, Rostovskaya oblast &#39;, Russia, 344002",177
4713410,"Beregovaya Ulitsa, 7, Rostov, Rostovskaya oblast', Russia, 344002",177
4715811,"Beregovaya Ulitsa, 7, Rostov, Rostovskaya oblast', Russia, 344002",177
4715837,"Beregovaya Ulitsa, 7, Rostov, Rostovskaya oblast', Russia, 344002",177
4716742,"Beregovaya Ulitsa, 7?9, Rostov, Rostovskaya oblast', Russia, 344002",177
4716373,"Beregovaya Ulitsa, 8, Rostov, Rostovskaya oblast &#39;, Russia, 344000",177
4713256,"Beregovaya Ulitsa, 8, Rostov, Rostovskaya oblast &#39;, Russia, 344001",177
4714954,"Beregovaya Ulitsa, 8, Rostov, Rostovskaya oblast', Russia, 344002",177
4714130,"Beregovaya Ulitsa, Rostov, Rostovskaya oblast &#39;, Russia, 344002",177
4714127,"Beregovaya Ulitsa, Rostov, Rostovskaya oblast &#39;, Russia, 344022",177
4696059,"Beshentsevo Derevnya, 131, Nizhnij Novgorod, Nizhegorodskaya oblast', Russia, 603137",177
4716408,"Betonnyy Pereulok, 330, Rostov, Rostovskaya oblast', Russia, 344091",177
4715409,"Bezymyannyy Pereulok, 29, Rostov, Rostovskaya oblast', Russia, 344004",177
5133886,"bl D16, sc A, et 8, ap 30, ?oseaua Mihai Bravu 98-106, Bucure?ti 030167, Romania",177
4713053,"Bodraya Ulitsa, 28/42, Rostov, Rostovskaya oblast', Russia, 344092",177
4716255,"Bodraya Ulitsa, 47, Rostov, Rostovskaya oblast', Russia, 344068",177
4715878,"Bodraya Ulitsa, 88, Rostov, Rostovskaya oblast', Russia, 344068",177
4715888,"Bodraya Ulitsa, 88, Rostov, Rostovskaya oblast', Russia, 344068",177
4713802,"Bodraya Ulitsa, 88/35, Rostov, Rostovskaya oblast', Russia, 344068",177
4715880,"Bodraya Ulitsa, 88/35, Rostov, Rostovskaya oblast', Russia, 344068",177
4714120,"Bodraya Ulitsa, 90, Rostov, Rostovskaya oblast &#39;, Russia, 344068",177
4713078,"Bodraya Ulitsa, 91, Rostov, Rostovskaya oblast', Russia, 344068",177
4713502,"Bodraya Ulitsa, 92, Rostov, Rostovskaya oblast', Russia, 344068",177
4713077,"Bodraya Ulitsa, 94, Rostov, Rostovskaya oblast', Russia, 344068",177
4715347,"Bogucharskiy Pereulok, 37/235, Rostov, Rostovskaya oblast', Russia, 344023",177
4715103,"Bogucharskiy Pereulok, 39, Rostov, Rostovskaya oblast', Russia, 344023",177
4697296,"Bol&#39;shaya Pecherskaya Ulitsa, 14, Nizhnij Novgorod, Nizhegorodskaya oblast &#39;, Russia, 603005",177
4697295,"Bol&#39;shaya Pecherskaya Ulitsa, 19, Nizhnij Novgorod, Nizhegorodskaya oblast &#39;, Russia, 603005",177
4697293,"Bol&#39;shaya Pecherskaya Ulitsa, 20, Nizhnij Novgorod, Nizhegorodskaya oblast &#39;, Russia, 603005",177
4697292,"Bol&#39;shaya Pecherskaya Ulitsa, 23, Nizhnij Novgorod, Nizhegorodskaya oblast &#39;, Russia, 603005",177
4697288,"Bol&#39;shaya Pecherskaya Ulitsa, 35, Nizhnij Novgorod, Nizhegorodskaya oblast &#39;, Russia, 603155",177
4697287,"Bol&#39;shaya Pecherskaya Ulitsa, 41, Nizhnij Novgorod, Nizhegorodskaya oblast &#39;, Russia, 603155",177
4697286,"Bol&#39;shaya Pecherskaya Ulitsa, 47, Nizhnij Novgorod, Nizhegorodskaya oblast &#39;, Russia, 603155",177
4694938,"Bol&#39;shaya Pecherskaya Ulitsa, 68, Nizhnij Novgorod, Nizhegorodskaya oblast &#39;, Russia, 603024",177
4697297,"Bol&#39;shaya Pecherskaya Ulitsa, 8, Nizhnij Novgorod, Nizhegorodskaya oblast &#39;, Russia, 603005",177
4696784,"Bol&#39;shaya Pokrovskaya Ulitsa, 82, Nizhnij Novgorod, Nizhegorodskaya oblast &#39;, Russia, 603000",177
4717812,"Bol&#39;shesal&#39;skaya Ulitsa, 13, Krym, Rostovskaya oblast &#39;, Russia, 346812",177
4722860,"Bol&#39;shesal&#39;skaya Ulitsa, 5b, Krym, Rostovskaya oblast &#39;, Russia, 346803",177
4721536,"Bol'shaya Pecherskaya Ulitsa, 2, Nizhnij Novgorod, Nizhegorodskaya oblast', Russia, 603005",177
4696871,"Bol'shaya Pecherskaya Ulitsa, 24, ???? 305, Nizhnij Novgorod, Nizhegorodskaya oblast', Russia, 603155",177
4693930,"Bol'shaya Pecherskaya Ulitsa, 25,, Nizhnij Novgorod, Nizhegorodskaya oblast', Russia, 603155",177
4697620,"Bol'shaya Pecherskaya Ulitsa, 25/12, Nizhnij Novgorod, Nizhegorodskaya oblast', Russia, 603155",177
4694483,"Bol'shaya Pecherskaya Ulitsa, 26?, Nizhnij Novgorod, Nizhegorodskaya oblast', Russia, 603155",177
4697389,"Bol'shaya Pecherskaya Ulitsa, 28, Nizhnij Novgorod, Nizhegorodskaya oblast', Russia, 603155",177
4693933,"Bol'shaya Pecherskaya Ulitsa, 31, Nizhnij Novgorod, Nizhegorodskaya oblast', Russia, 603155",177
4697612,"Bol'shaya Pecherskaya Ulitsa, 31/9, Nizhnij Novgorod, Nizhegorodskaya oblast', Russia, 603005",177
4694126,"Bol'shaya Pecherskaya Ulitsa, 32, Nizhnij Novgorod, Nizhegorodskaya oblast', Russia, 603155",177
4720955,"Bol'shaya Pecherskaya Ulitsa, 38, Nizhnij Novgorod, Nizhegorodskaya oblast', Russia, 603155",177
4695817,"Bol'shaya Pecherskaya Ulitsa, 48?, Nizhnij Novgorod, Nizhegorodskaya oblast', Russia, 603155",177
4694115,"Bol'shaya Pecherskaya Ulitsa, 5/9, Nizhnij Novgorod, Nizhegorodskaya oblast', Russia, 603005",177
4697514,"Bol'shaya Pecherskaya Ulitsa, 51, Nizhnij Novgorod, Nizhegorodskaya oblast', Russia, 603155",177
4696320,"Bol'shaya Pecherskaya Ulitsa, 63?, Nizhnij Novgorod, Nizhegorodskaya oblast', Russia, 603155",177
4696298,"Bol'shaya Pokrovskaya Ulitsa, 82, Nizhnij Novgorod, Nizhegorodskaya oblast', Russia, 603000",177
4721401,"Bol'shaya Pokrovskaya Ulitsa, 82, Nizhnij Novgorod, Nizhegorodskaya oblast', Russia, 603000",177
4696552,"Bol'shaya Pokrovskaya Ulitsa, 82, Nizhnij Novgorod, Nizhegorodskaya oblast', Russia, 603022",177
3473902,"Bolotnaya Naberezhnaya, 14, Russia",177
4695245,"Bolshaya Pokrovskaya St, 1, Nizhnij Novgorod, Nizhegorodskaya oblast &#39;, Russia, 603005",177
4696891,"Bolshaya Pokrovskaya St, 10, Nizhnij Novgorod, Nizhegorodskaya oblast', Russia, 603005",177
4693642,"Bolshaya Pokrovskaya St, 12, Nizhnij Novgorod, Nizhegorodskaya oblast &#39;, Russia, 603005",177
4720905,"Bolshaya Pokrovskaya St, 13, Nizhnij Novgorod, Nizhegorodskaya oblast', Russia, 603005",177
4696893,"Bolshaya Pokrovskaya St, 14, Nizhnij Novgorod, Nizhegorodskaya oblast', Russia, 603005",177
4696789,"Bolshaya Pokrovskaya St, 15b, Nizhnij Novgorod, Nizhegorodskaya oblast &#39;, Russia, 603005",177
4693949,"Bolshaya Pokrovskaya St, 16, Nizhnij Novgorod, Nizhegorodskaya oblast', Russia, 603005",177
4697615,"Bolshaya Pokrovskaya St, 18, Nizhnij Novgorod, Nizhegorodskaya oblast &#39;, Russia, 603000",177
4697393,"Bolshaya Pokrovskaya St, 18, Nizhnij Novgorod, Nizhegorodskaya oblast', Russia, 603005",177
4697398,"Bolshaya Pokrovskaya St, 18, Nizhnij Novgorod, Nizhegorodskaya oblast', Russia, 603005",177
4695242,"Bolshaya Pokrovskaya St, 19/6, Nizhnij Novgorod, Nizhegorodskaya oblast &#39;, Russia, 603005",177
4696956,"Bolshaya Pokrovskaya St, 19/6, Nizhnij Novgorod, Nizhegorodskaya oblast &#39;, Russia, 603005",177
4696321,"Bolshaya Pokrovskaya St, 19?, Nizhnij Novgorod, Nizhegorodskaya oblast', Russia, 603005",177
4695500,"Bolshaya Pokrovskaya St, 2, Nizhnij Novgorod, Nizhegorodskaya oblast &#39;, Russia, 603005",177
4696894,"Bolshaya Pokrovskaya St, 2/1, Nizhnij Novgorod, Nizhegorodskaya oblast', Russia, 603005",177
4695240,"Bolshaya Pokrovskaya St, 20, Nizhnij Novgorod, Nizhegorodskaya oblast &#39;, Russia, 603005",177
4695254,"Bolshaya Pokrovskaya St, 22, Nizhnij Novgorod, Nizhegorodskaya oblast', Russia, 603005",177
4721590,"Bolshaya Pokrovskaya St, 24, Nizhnij Novgorod, Nizhegorodskaya oblast', Russia, 603005",177
4696950,"Bolshaya Pokrovskaya St, 29, Nizhnij Novgorod, Nizhegorodskaya oblast &#39;, Russia, 603005",177
4697300,"Bolshaya Pokrovskaya St, 3, Nizhnij Novgorod, Nizhegorodskaya oblast &#39;, Russia, 603005",177
4694646,"Bolshaya Pokrovskaya St, 30, Nizhnij Novgorod, Nizhegorodskaya oblast &#39;, Russia, 603000",177
4696324,"Bolshaya Pokrovskaya St, 32, Nizhnij Novgorod, Nizhegorodskaya oblast', Russia, 603000",177
4695656,"Bolshaya Pokrovskaya St, 35?, Nizhnij Novgorod, Nizhegorodskaya oblast &#39;, Russia, 603000",177
4697318,"Bolshaya Pokrovskaya St, 35?, Nizhnij Novgorod, Nizhegorodskaya oblast &#39;, Russia, 603000",177
4721952,"Bolshaya Pokrovskaya St, 35?, Nizhnij Novgorod, Nizhegorodskaya oblast &#39;, Russia, 603002",177
4696442,"Bolshaya Pokrovskaya St, 35?, Nizhnij Novgorod, Nizhegorodskaya oblast', Russia, 603000",177
4695239,"Bolshaya Pokrovskaya St, 37, Nizhnij Novgorod, Nizhegorodskaya oblast &#39;, Russia, 603000",177
4695493,"Bolshaya Pokrovskaya St, 38, Nizhnij Novgorod, Nizhegorodskaya oblast &#39;, Russia, 603000",177
4696942,"Bolshaya Pokrovskaya St, 38, Nizhnij Novgorod, Nizhegorodskaya oblast &#39;, Russia, 603000",177
4696787,"Bolshaya Pokrovskaya St, 39, lit. ?, Nizhnij Novgorod, Nizhegorodskaya oblast &#39;, Russia, 603000",177
4695638,"Bolshaya Pokrovskaya St, 43, Nizhnij Novgorod, Nizhegorodskaya oblast &#39;, Russia, 603000",177
4696269,"Bolshaya Pokrovskaya St, 4?, Nizhnij Novgorod, Nizhegorodskaya oblast', Russia, 603005",177
4695492,"Bolshaya Pokrovskaya St, 51-55, Nizhnij Novgorod, Nizhegorodskaya oblast &#39;, Russia, 603000",177
4696606,"Bolshaya Pokrovskaya St, 51?, Nizhnij Novgorod, Nizhegorodskaya oblast &#39;, Russia, 603000",177
4695639,"Bolshaya Pokrovskaya St, 53, Nizhnij Novgorod, Nizhegorodskaya oblast &#39;, Russia, 603000",177
4695491,"Bolshaya Pokrovskaya St, 54, Nizhnij Novgorod, Nizhegorodskaya oblast &#39;, Russia, 603000",177
4695664,"Bolshaya Pokrovskaya St, 56, Nizhnij Novgorod, Nizhegorodskaya oblast &#39;, Russia, 603000",177
4696892,"Bolshaya Pokrovskaya St, 6, Nizhnij Novgorod, Nizhegorodskaya oblast', Russia, 603005",177
4695345,"Bolshaya Pokrovskaya St, 62, Nizhnij Novgorod, Nizhegorodskaya oblast', Russia, 603000",177
4695668,"Bolshaya Pokrovskaya St, 70, Nizhnij Novgorod, Nizhegorodskaya oblast &#39;, Russia, 603000",177
4696354,"Bolshaya Pokrovskaya St, 71?, Nizhnij Novgorod, Nizhegorodskaya oblast', Russia, 603000",177
4721000,"Bolshaya Pokrovskaya St, 71?, Nizhnij Novgorod, Nizhegorodskaya oblast', Russia, 603000",177
4694878,"Bolshaya Pokrovskaya St, 73, Nizhnij Novgorod, ?????? ????????, Russia, 603000",177
4721402,"Bolshaya Pokrovskaya St, 75, Nizhnij Novgorod, Nizhegorodskaya oblast', Russia, 603000",177
4693643,"Bolshaya Pokrovskaya St, 8, Nizhnij Novgorod, Nizhegorodskaya oblast &#39;, Russia, 603005",177
4696963,"Bolshaya Pokrovskaya St, 8, Nizhnij Novgorod, Nizhegorodskaya oblast &#39;, Russia, 603005",177
4694775,"Bolshaya Pokrovskaya St, 9, Nizhnij Novgorod, Nizhegorodskaya oblast', Russia, 603005",177
4697381,"Bolshaya Pokrovskaya St, 93-?, 1 ????, ????????????? ????? ?????? ???????, Nizhnij Novgorod, Nizhegorodskaya oblast', Russia, 603000",177
4696296,"Bolshaya Pokrovskaya St, 93?, Nizhnij Novgorod, Nizhegorodskaya oblast', Russia, 603000",177
4721215,"Bolshaya Pokrovskaya St, Nizhnij Novgorod, Nizhegorodskaya oblast &#39;, Russia, 603000",177
4695134,"Bolshaya Pokrovskaya St, ?.20 ?, Nizhnij Novgorod, Nizhegorodskaya oblast', Russia, 603005",177
5527597,"Bolshoy Prospekt, 98, C????-?????????, Leningradskaya oblast', Russia, 197022",177
4694144,"Borsky Bridge, Nizhnij Novgorod, Nizhegorodskaya oblast &#39;, Russia, 603159",177
4716854,"Bratskiy Pereulok, 14/7, Rostov, Rostovskaya oblast', Russia, 344002",177
4714977,"Bratskiy Pereulok, 14/7, Rostov, Rostovskaya oblast', Russia, 344082",177
4716872,"Bratskiy Pereulok, 21, 5 ????, 2 ????, Rostov, Rostovskaya oblast', Russia, 344082",177
4716749,"Bratskiy Pereulok, 21, Rostov, Rostovskaya oblast', Russia, 344050",177
4714577,"Bratskiy Pereulok, 24, Rostov, Rostovskaya oblast', Russia, 344002",177
4714621,"Bratskiy Pereulok, 25, Rostov, Rostovskaya oblast', Russia, 344050",177
4715798,"Bratskiy Pereulok, 35, Rostov, Rostovskaya oblast &#39;, Russia, 344082",177
4714905,"Bratskiy Pereulok, 46, Rostov, Rostovskaya oblast', Russia, 344082",177
4716753,"Bratskiy Pereulok, 48/19, Rostov, Rostovskaya oblast', Russia, 344011",177
4713413,"Bratskiy Pereulok, 73, Rostov, Rostovskaya oblast', Russia, 344011",177
4723351,"Bratskiy Pereulok, 84?, Rostov, Rostovskaya oblast', Russia, 344082",177
4712751,"Budennovskaya Ulitsa, 156, Novocherkassk, Rostovskaya oblast', Russia, 346411",177
4714214,"Budennovskaya Ulitsa, 94, Novocherkassk, Rostovskaya oblast &#39;, Russia, 346411",177
4716301,"Budennovsky prospect, 42/50, Rostov, Rostovskaya oblast &#39;, Russia, 344025",177
4715396,"Budonnovskiy Prospekt, 101, Rostov, Rostovskaya oblast &#39;, Russia, 344018",177
4723445,"Budonnovskiy Prospekt, 101, Rostov, Rostovskaya oblast', Russia, 344010",177
4713632,"Budonnovskiy Prospekt, 103, Rostov, Rostovskaya oblast', Russia, 344012",177
4717281,"Budonnovskiy Prospekt, 104, Rostov, Rostovskaya oblast', Russia, 344000",177
4714124,"Budonnovskiy Prospekt, 112, Rostov, Rostovskaya oblast', Russia, 344011",177
4716291,"Budonnovskiy Prospekt, 12, Rostov, Rostovskaya oblast &#39;, Russia, 344002",177
4714457,"Budonnovskiy Prospekt, 12, Rostov, Rostovskaya oblast', Russia, 344002",177
4716289,"Budonnovskiy Prospekt, 120/1, Rostov, Rostovskaya oblast &#39;, Russia, 344012",177
4716574,"Budonnovskiy Prospekt, 120/1, Rostov, Rostovskaya oblast &#39;, Russia, 344012",177
4716938,"Budonnovskiy Prospekt, 120/1, Rostov, Rostovskaya oblast', Russia, 344012",177
4717368,"Budonnovskiy Prospekt, 141, Rostov, Rostovskaya oblast', Russia, 344000",177
4716848,"Budonnovskiy Prospekt, 17, ???? 213, Rostov, Rostovskaya oblast', Russia, 344002",177
4713918,"Budonnovskiy Prospekt, 19, Rostov, Rostovskaya oblast', Russia, 344082",177
4714102,"Budonnovskiy Prospekt, 19, ????????? ????, Rostov, Rostovskaya oblast', Russia, 344002",177
4714953,"Budonnovskiy Prospekt, 2, Rostov, Rostovskaya oblast', Russia, 344002",177
4716294,"Budonnovskiy Prospekt, 20, Rostov, Rostovskaya oblast &#39;, Russia, 344002",177
4715802,"Budonnovskiy Prospekt, 21, Rostov, Rostovskaya oblast', Russia, 344002",177
4716874,"Budonnovskiy Prospekt, 21, Rostov, Rostovskaya oblast', Russia, 344002",177
4713192,"Budonnovskiy Prospekt, 21/50, Rostov, Rostovskaya oblast', Russia, 344002",177
4715028,"Budonnovskiy Prospekt, 21/50, Rostov, Rostovskaya oblast', Russia, 344002",177
4716883,"Budonnovskiy Prospekt, 21/50, Rostov, Rostovskaya oblast', Russia, 344002",177
4714996,"Budonnovskiy Prospekt, 22 ??? ?????, Rostov, Rostovskaya oblast', Russia, 344002",177
4716297,"Budonnovskiy Prospekt, 22, Rostov, Rostovskaya oblast &#39;, Russia, 344092",177
4716719,"Budonnovskiy Prospekt, 22, Rostov, Rostovskaya oblast', Russia, 344002",177
4716721,"Budonnovskiy Prospekt, 22, ??????-?? -????, Rostovskaya oblast', Russia, 344002",177
4716890,"Budonnovskiy Prospekt, 23, Rostov, Rostovskaya oblast', Russia, 344002",177
4716891,"Budonnovskiy Prospekt, 23, Rostov, Rostovskaya oblast', Russia, 344002",177
4716720,"Budonnovskiy Prospekt, 24, Rostov, Rostovskaya oblast', Russia, 344002",177
4714099,"Budonnovskiy Prospekt, 2?, Rostov, Rostovskaya oblast', Russia, 344002",177
4716826,"Budonnovskiy Prospekt, 2?, Rostov, Rostovskaya oblast', Russia, 344002",177
4716700,"Budonnovskiy Prospekt, 3, 1 ????, Rostov, Rostovskaya oblast', Russia, 344002",177
4717819,"Budonnovskiy Prospekt, 3, Rostov, Rostovskaya oblast &#39;, Russia, 344002",177
4716828,"Budonnovskiy Prospekt, 3, Rostov, Rostovskaya oblast', Russia, 344002",177
4716827,"Budonnovskiy Prospekt, 3, ???? 107, Rostov, Rostovskaya oblast', Russia, 344002",177
4714201,"Budonnovskiy Prospekt, 34, Rostov, Rostovskaya oblast &#39;, Russia, 344007",177
4723356,"Budonnovskiy Prospekt, 35, Rostov, Rostovskaya oblast', Russia, 344082",177
4713642,"Budonnovskiy Prospekt, 35?, Rostov, Rostovskaya oblast', Russia, 344082",177
4723357,"Budonnovskiy Prospekt, 37, Rostov, Rostovskaya oblast', Russia, 344002",177
4712464,"Budonnovskiy Prospekt, 39, Rostov, Rostovskaya oblast &#39;, Russia, 344082",177
4713206,"Budonnovskiy Prospekt, 42, Rostov, Rostovskaya oblast &#39;, Russia, 344002",177
4716752,"Budonnovskiy Prospekt, 42, Rostov, Rostovskaya oblast', Russia, 344002",177
4715542,"Budonnovskiy Prospekt, 46, Rostov, Rostovskaya oblast &#39;, Russia, 344002",177
4716759,"Budonnovskiy Prospekt, 49/97, Rostov, Rostovskaya oblast', Russia, 344092",177
4714679,"Budonnovskiy Prospekt, 49/97, ??? ""?`???? ?????"", Rostov, Rostovskaya oblast', Russia, 344082",177
4715041,"Budonnovskiy Prospekt, 50/78, Rostov, Rostovskaya oblast', Russia, 344002",177
4715047,"Budonnovskiy Prospekt, 51, Rostov, ?????????? ???, Russia, 344082",177
4715053,"Budonnovskiy Prospekt, 55, Rostov, ??????????, Russia, 344002",177
4723354,"Budonnovskiy Prospekt, 59, 1 ????, Rostov, Rostovskaya oblast', Russia, 344011",177
4713207,"Budonnovskiy Prospekt, 59, Rostov, Rostovskaya oblast &#39;, Russia, 344011",177
4714902,"Budonnovskiy Prospekt, 59, Rostov, Rostovskaya oblast', Russia, 344011",177
4717701,"Budonnovskiy Prospekt, 59, Rostov, Rostovskaya oblast', Russia, 344011",177
4717705,"Budonnovskiy Prospekt, 59, Rostov, Rostovskaya oblast', Russia, 344011",177
4717702,"Budonnovskiy Prospekt, 59, ???? 5, Rostov, Rostovskaya oblast', Russia, 344011",177
4713773,"Budonnovskiy Prospekt, 59b, Rostov, Rostovskaya oblast &#39;, Russia, 344011",177
4716306,"Budonnovskiy Prospekt, 59b, Rostov, Rostovskaya oblast &#39;, Russia, 344011",177
4713828,"Budonnovskiy Prospekt, 65, Rostov, Rostovskaya oblast', Russia, 344011",177
4714570,"Budonnovskiy Prospekt, 66, Rostov, Rostovskaya oblast', Russia, 344011",177
4714449,"Budonnovskiy Prospekt, 68/81, Rostov, Rostovskaya oblast', Russia, 344011",177
4714448,"Budonnovskiy Prospekt, 68/81, Rostov, ??????-??-????, Russia, 344010",177
4714958,"Budonnovskiy Prospekt, 7, Rostov, Rostovskaya oblast', Russia, 344002",177
4713968,"Budonnovskiy Prospekt, 72/213, Rostov, Rostovskaya oblast', Russia, 344011",177
4713765,"Budonnovskiy Prospekt, 79, Rostov, Rostovskaya oblast &#39;, Russia, 344011",177
4716701,"Budonnovskiy Prospekt, 7?, Rostov, Rostovskaya oblast', Russia, 344002",177
4713719,"Budonnovskiy Prospekt, 80, Rostov, Rostovskaya oblast', Russia, 344000",177
4716771,"Budonnovskiy Prospekt, 80, Rostov, Rostovskaya oblast', Russia, 344018",177
4717355,"Budonnovskiy Prospekt, 80, Rostov, Rostovskaya oblast', Russia, 344018",177
4717356,"Budonnovskiy Prospekt, 80, Rostov, Rostovskaya oblast', Russia, 344018",177
4717693,"Budonnovskiy Prospekt, 80, ???? 903, Rostov, Rostovskaya oblast', Russia, 344011",177
4714447,"Budonnovskiy Prospekt, 90/133, Rostov, Rostovskaya oblast', Russia, 344018",177
4714565,"Budonnovskiy Prospekt, 92, Rostov, Rostovskaya oblast', Russia, 344018",177
4722768,"Budonnovskiy Prospekt, 93, Rostov, Rostovskaya oblast', Russia, 344002",177
4713966,"Budonnovskiy Prospekt, 93, Rostov, Rostovskaya oblast', Russia, 344033",177
4713660,"Budonnovskiy Prospekt, 93/295, Rostov, Rostovskaya oblast', Russia, 344011",177
4717349,"Budonnovskiy Prospekt, 96, Rostov, Rostovskaya oblast', Russia, 344012",177
4713637,"Budonnovskiy Prospekt, 97, Rostov, Rostovskaya oblast', Russia, 344018",177
4714562,"Budonnovskiy Prospekt, 98 ?, Rostov, Rostovskaya oblast', Russia, 344018",177
4722912,"Budonnovskiy Prospekt, ?. 56, Rostov, Rostovskaya oblast', Russia, 344002",177
4714407,"Budyonnovskiy prosp., 49, Rostov, Rostovskaya oblast', Russia, 344000",177
4714761,"Budyonnovskiy prosp., 96, Rostov, Rostovskaya oblast', Russia, 344018",177
4713755,"Budyonnovsky spusk, 3, Aksay, Rostovskaya oblast &#39;, Russia, 346721",177
3407238,"Bukharestskaya street, 32, Russia",177
4717682,"Bukvennaya Ulitsa, 16, Rostov, Rostovskaya oblast', Russia, 344015",177
4714641,"Bukvennaya Ulitsa, 43, Rostov, Rostovskaya oblast', Russia, 344015",177
4694719,"Bul&#39;var 60 Let Oktyabrya, 3, Nizhnij Novgorod, Nizhegorodskaya oblast &#39;, Russia, 603136",177
4717133,"Bul&#39;var Komarova, 1/1, Rostov, Rostovskaya oblast &#39;, Russia, 344092",177
4713245,"Bul&#39;var Komarova, 20, Rostov, Rostovskaya oblast &#39;, Russia, 344113",177
4712943,"Bul&#39;var Komarova, 23, Rostov, Rostovskaya oblast &#39;, Russia, 344092",177
4715819,"Bul&#39;var Komarova, 23, Rostov, Rostovskaya oblast &#39;, Russia, 344092",177
4714583,"Bul&#39;var Komarova, 28, Rostov, Rostovskaya oblast &#39;, Russia, 344113",177
4713724,"Bul&#39;var Komarova, 7, Rostov, Rostovskaya oblast &#39;, Russia, 344092",177
4696634,"Bul&#39;var Meshcherskiy, 7, Nizhnij Novgorod, Nizhegorodskaya oblast &#39;, Russia, 603070",177
4720874,"Bul&#39;var Meshcherskiy, 7, Nizhnij Novgorod, Nizhegorodskaya oblast &#39;, Russia, 603070",177
4721183,"Bul&#39;var Yubileynyy, 1, Nizhnij Novgorod, Nizhegorodskaya oblast &#39;, Russia, 603094",177
4695688,"Bul&#39;var Yubileynyy, 29?, Nizhnij Novgorod, Nizhegorodskaya oblast &#39;, Russia, 603037",177
4696991,"Bul&#39;var Yubileynyy, 2?, Nizhnij Novgorod, Nizhegorodskaya oblast &#39;, Russia, 603003",177
4695073,"Bul&#39;var Yubileynyy, 31-?, Nizhnij Novgorod, Nizhegorodskaya oblast &#39;, Russia, 603094",177
4695775,"Bul&#39;var Yubileynyy, 32, Nizhnij Novgorod, Nizhegorodskaya oblast &#39;, Russia, 603003",177
4720869,"Bul&#39;var Yubileynyy, 32, Nizhnij Novgorod, Nizhegorodskaya oblast &#39;, Russia, 603003",177
4695378,"Bul&#39;var Yubileynyy, 32, Nizhnij Novgorod, Nizhegorodskaya oblast &#39;, Russia, 603094",177
4721088,"Bul&#39;var Yubileynyy, 5, Nizhnij Novgorod, Nizhegorodskaya oblast &#39;, Russia, 603003",177
4721127,"Bul&#39;var Yubileynyy, 5, Nizhnij Novgorod, Nizhegorodskaya oblast &#39;, Russia, 603003",177
4696930,"Bul&#39;var Yuzhnyy, Nizhnij Novgorod, Nizhegorodskaya oblast &#39;, Russia, 603123",177
4696931,"Bul&#39;var Yuzhnyy, Nizhnij Novgorod, Nizhegorodskaya oblast &#39;, Russia, 603123",177
4695087,"Bul'var 60 Let Oktyabrya, 2, Nizhnij Novgorod, ?????????????, Russia, 603136",177
4695921,"Bul'var 60 Let Oktyabrya, 4, Nizhnij Novgorod, Nizhegorodskaya oblast', Russia, 603136",177
4697482,"Bul'var 60 Let Oktyabrya, 5, Nizhnij Novgorod, Nizhegorodskaya oblast', Russia, 603136",177
4696103,"Bul'var 60 Let Oktyabrya, 5, ?. 2, Nizhnij Novgorod, Nizhegorodskaya oblast', Russia, 603136",177
4697483,"Bul'var 60 Let Oktyabrya, 5a, Nizhnij Novgorod, Nizhegorodskaya oblast', Russia, 603136",177
4714347,"Bul'var Komarova, 1/1, Rostov, Rostovskaya oblast', Russia, 344092",177
4714752,"Bul'var Komarova, 10, Rostov, Rostovskaya oblast', Russia, 344064",177
4717272,"Bul'var Komarova, 10, Rostov, Rostovskaya oblast', Russia, 344092",177
4717218,"Bul'var Komarova, 11, Rostov, Rostovskaya oblast', Russia, 344092",177
4712644,"Bul'var Komarova, 13, Rostov, Rostovskaya oblast', Russia, 344092",177
4715910,"Bul'var Komarova, 13, Rostov, Rostovskaya oblast', Russia, 344092",177
4714360,"Bul'var Komarova, 19, Rostov, Rostovskaya oblast', Russia, 344000",177
4717223,"Bul'var Komarova, 20, ???? 14, Rostov, Rostovskaya oblast', Russia, 344092",177
4717224,"Bul'var Komarova, 22, Rostov, Rostovskaya oblast', Russia, 344113",177
4715782,"Bul'var Komarova, 23, Rostov, Rostovskaya oblast', Russia, 344092",177
4715809,"Bul'var Komarova, 23, Rostov, Rostovskaya oblast', Russia, 344092",177
4717219,"Bul'var Komarova, 24, Rostov, Rostovskaya oblast', Russia, 344000",177
4715654,"Bul'var Komarova, 24, Rostov, Rostovskaya oblast', Russia, 344113",177
4717217,"Bul'var Komarova, 24-?, ??????????? ?`???, Rostov, Rostovskaya oblast', Russia, 344113",177
4715909,"Bul'var Komarova, 24?, Rostov, Rostovskaya oblast', Russia, 344113",177
4712752,"Bul'var Komarova, 28, Rostov, Rostovskaya oblast', Russia, 344092",177
4712642,"Bul'var Komarova, 28, Rostov, Rostovskaya oblast', Russia, 344113",177
4717220,"Bul'var Komarova, 28, Rostov, Rostovskaya oblast', Russia, 344113",177
4712647,"Bul'var Komarova, 28, Rostov, ?????????? ???, Russia, 344113",177
4713941,"Bul'var Komarova, 28/2, Rostov, Rostovskaya oblast', Russia, 344113",177
4713943,"Bul'var Komarova, 28/2, Rostov, Rostovskaya oblast', Russia, 344113",177
4714845,"Bul'var Komarova, 28/3, Rostov, Rostovskaya oblast', Russia, 344113",177
4713619,"Bul'var Komarova, 28?, Rostov, Rostovskaya oblast', Russia, 344113",177
4715649,"Bul'var Komarova, 28?, Rostov, Rostovskaya oblast', Russia, 344000",177
4715645,"Bul'var Komarova, 28?, Rostov, Rostovskaya oblast', Russia, 344113",177
4713052,"Bul'var Komarova, 28?, Rostov, Rostovskaya oblast', Russia, 344113",177
4714351,"Bul'var Komarova, 28?, Rostov, Rostovskaya oblast', Russia, 344113",177
4713620,"Bul'var Komarova, 28?, Rostov, Rostovskaya oblast', Russia, 344113",177
4714779,"Bul'var Komarova, 3?2, Rostov, Rostovskaya oblast', Russia, 344092",177
4714862,"Bul'var Komarova, 6, Rostov, Rostovskaya oblast', Russia, 344092",177
4714352,"Bul'var Komarova, 9, Rostov, Rostovskaya oblast', Russia, 344092",177
4717215,"Bul'var Komarova, 9, Rostov, Rostovskaya oblast', Russia, 344092",177
4714841,"Bul'var Komarova, 9/5, Rostov, Rostovskaya oblast', Russia, 344092",177
4721857,"Bul'var Meshcherskiy, 10?, Nizhnij Novgorod, Nizhegorodskaya oblast', Russia, 603070",177
4696192,"Bul'var Meshcherskiy, 11, Nizhnij Novgorod, Nizhegorodskaya oblast', Russia, 603070",177
4721526,"Bul'var Meshcherskiy, 11, Nizhnij Novgorod, Nizhegorodskaya oblast', Russia, 603070",177
4721753,"Bul'var Meshcherskiy, 2, Nizhnij Novgorod, Nizhegorodskaya oblast', Russia, 603070",177
4720256,"Bul'var Meshcherskiy, 3 ?, ?? ""METRO"", ?. ?. ????????, Nizhegorodskaya oblast', Russia, 603070",177
4695030,"Bul'var Meshcherskiy, 3, Nizhnij Novgorod, Nizhegorodskaya oblast', Russia, 603070",177
4695109,"Bul'var Meshcherskiy, 3, ?. 2, Nizhnij Novgorod, Nizhegorodskaya oblast', Russia, 603070",177
4720254,"Bul'var Meshcherskiy, 3?, Nizhnij Novgorod, Nizhegorodskaya oblast', Russia, 603070",177
4720258,"Bul'var Meshcherskiy, 3?, Nizhnij Novgorod, Nizhegorodskaya oblast', Russia, 603070",177
4720248,"Bul'var Meshcherskiy, 3?1, Nizhnij Novgorod, Nizhegorodskaya oblast', Russia, 603070",177
4694519,"Bul'var Meshcherskiy, 3?2, Nizhnij Novgorod, Nizhegorodskaya oblast', Russia, 603070",177
4721584,"Bul'var Meshcherskiy, 3?2, Nizhnij Novgorod, Nizhegorodskaya oblast', Russia, 603070",177
4722042,"Bul'var Meshcherskiy, 3?2, Nizhnij Novgorod, Nizhegorodskaya oblast', Russia, 603070",177
4722041,"Bul'var Meshcherskiy, 5, Nizhnij Novgorod, Nizhegorodskaya oblast', Russia, 603070",177
4697668,"Bul'var Meshcherskiy, 5?, Nizhnij Novgorod, Nizhegorodskaya oblast', Russia, 603070",177
4722219,"Bul'var Meshcherskiy, 5?, Nizhnij Novgorod, Nizhegorodskaya oblast', Russia, 603070",177
4722220,"Bul'var Meshcherskiy, 7, ?.3, Nizhnij Novgorod, Nizhegorodskaya oblast', Russia, 603070",177
4695110,"Bul'var Meshcherskiy, 7, ????. 3, Nizhnij Novgorod, ?????? ????????, Russia, 603070",177
4720469,"Bul'var Meshcherskiy, 7, ????. 3, Nizhnij Novgorod, ?????? ????????, Russia, 603070",177
4722039,"Bul'var Meshcherskiy, 7/3, ?. ?. ????????, Nizhegorodskaya oblast', Russia, 603070",177
4722036,"Bul'var Meshcherskiy, 9, Nizhnij Novgorod, Nizhegorodskaya oblast', Russia, 603070",177
4696780,"Bul'var Meshcherskiy, 9, Nizhnij Novgorod, Nizhegorodskaya oblast', Russia, 603159",177
4695975,"Bul'var Mira, 10, Nizhnij Novgorod, Nizhegorodskaya oblast', Russia, 603086",177
4721848,"Bul'var Mira, 10, Nizhnij Novgorod, Nizhegorodskaya oblast', Russia, 603086",177
4722146,"Bul'var Mira, 4, Nizhnij Novgorod, Nizhegorodskaya oblast', Russia, 603002",177
4720482,"Bul'var Mira, 5, Nizhnij Novgorod, Nizhegorodskaya oblast', Russia, 603086",177
4694922,"Bul'var Mira, 7, Nizhnij Novgorod, Nizhegorodskaya oblast', Russia, 603086",177
4696130,"Bul'var Mira, 7, Nizhnij Novgorod, Nizhegorodskaya oblast', Russia, 603086",177
4721604,"Bul'var Mira, 8 ?, Nizhnij Novgorod, Nizhegorodskaya oblast', Russia, 603086",177
4721323,"Bul'var Mira, 8, Nizhnij Novgorod, Nizhegorodskaya oblast', Russia, 603086",177
4752261,"Bul'var Tatishcheva, 22, Tolyatti, Samarskaya oblast', Russia, 445031",177
4722092,"Bul'var Yubileynyy, 1, Nizhnij Novgorod, Nizhegorodskaya oblast', Russia, 603094",177
4720443,"Bul'var Yubileynyy, 12 ?????????? ?????????????, Nizhnij Novgorod, Nizhegorodskaya oblast', Russia, 603003",177
4721594,"Bul'var Yubileynyy, 31?, Nizhnij Novgorod, Nizhegorodskaya oblast', Russia, 603003",177
4697383,"Bul'var Yubileynyy, 32, Nizhnij Novgorod, Nizhegorodskaya oblast', Russia, 603000",177
4721557,"Bul'var Yubileynyy, 32, Nizhnij Novgorod, Nizhegorodskaya oblast', Russia, 603094",177
4721496,"Bul'var Yubileynyy, 4, Nizhnij Novgorod, Nizhegorodskaya oblast', Russia, 603003",177
4721631,"Bul'var Yubileynyy, 4, Nizhnij Novgorod, Nizhegorodskaya oblast', Russia, 603003",177
4722099,"Bul'var Yubileynyy, 6, Nizhnij Novgorod, Nizhegorodskaya oblast', Russia, 603094",177
4721422,"Bul'var Yubileynyy, 8, Nizhnij Novgorod, Nizhegorodskaya oblast', Russia, 603003",177
4696987,"Bul'var Yubileynyy, 8, Nizhnij Novgorod, Nizhegorodskaya oblast', Russia, 603094",177
4694785,"Bulvar Zarechny, 6?, Nizhnij Novgorod, Nizhegorodskaya oblast &#39;, Russia, 603033",177
4721593,"Burnakovskiy pr-d, 30, Nizhnij Novgorod, Nizhegorodskaya oblast', Russia, 603074",177
4720948,"Burnakovskiy Proyezd, 1, Nizhnij Novgorod, Nizhegorodskaya oblast', Russia, 603079",177
4720942,"Burnakovskiy Proyezd, 14?, Nizhnij Novgorod, Nizhegorodskaya oblast', Russia, 603074",177
4721269,"Burnakovskiy Proyezd, 15, Nizhnij Novgorod, Nizhegorodskaya oblast', Russia, 603074",177
4720943,"Burnakovskiy Proyezd, 17, Nizhnij Novgorod, Nizhegorodskaya oblast', Russia, 603074",177
4722790,"Chaltyr', Rostov Oblast, Russia, 346800",177
4715560,"Cherkesskaya Ulitsa, 18?, Rostov, Rostovskaya oblast &#39;, Russia, 344004",177
4695193,"Chernigovskaya Ulitsa, 12?, Nizhnij Novgorod, Nizhegorodskaya oblast &#39;, Russia, 603001",177
4695191,"Chernigovskaya Ulitsa, 14, Nizhnij Novgorod, Nizhegorodskaya oblast &#39;, Russia, 603001",177
4695190,"Chernigovskaya Ulitsa, 15, Nizhnij Novgorod, Nizhegorodskaya oblast &#39;, Russia, 603001",177
4696943,"Chernigovskaya Ulitsa, 16, Nizhnij Novgorod, Nizhegorodskaya oblast &#39;, Russia, 603001",177
4697308,"Chernigovskaya Ulitsa, 22, Nizhnij Novgorod, Nizhegorodskaya oblast &#39;, Russia, 603001",177
4696928,"Chernigovskaya Ulitsa, 22, Nizhnij Novgorod, Nizhegorodskaya oblast &#39;, Russia, 603022",177
4695207,"Chernigovskaya Ulitsa, 4, Nizhnij Novgorod, Nizhegorodskaya oblast &#39;, Russia, 603001",177
4695206,"Chernigovskaya Ulitsa, 5, Nizhnij Novgorod, Nizhegorodskaya oblast &#39;, Russia, 603001",177
4695200,"Chernigovskaya Ulitsa, 7b, Nizhnij Novgorod, Nizhegorodskaya oblast &#39;, Russia, 603001",177
4694653,"Chernigovskaya Ulitsa, 7?, Nizhnij Novgorod, Nizhegorodskaya oblast &#39;, Russia, 603001",177
4696954,"Chernigovskaya Ulitsa, 7?, Nizhnij Novgorod, Nizhegorodskaya oblast &#39;, Russia, 603001",177
4722917,"Chernomorskiy Pereulok, 64, Azov, Rostovskaya oblast &#39;, Russia, 346780",177
4723162,"Chernomorskiy Pereulok, 75 ?, Azov, Rostovskaya oblast', Russia, 346780",177
4721096,"Chernoprudskiy Pereulok, 4, Nizhnij Novgorod, Nizhegorodskaya oblast &#39;, Russia, 603005",177
4713129,"Chuguyevskaya Ulitsa, 15, Rostov, Rostovskaya oblast &#39;, Russia, 344023",177
4713299,"Dachnaya Ulitsa, 10, Rostov, Rostovskaya oblast', Russia, 344064",177
4716264,"Dachnaya Ulitsa, 2, Rostov, Rostovskaya oblast', Russia, 344064",177
4713808,"Dachnaya Ulitsa, 8, Rostov, Rostovskaya oblast', Russia, 344064",177
4713351,"Dachnaya Ulitsa, 97, Rostov, Rostovskaya oblast', Russia, 344064",177
4715390,"Dachnaya Ulitsa, 97/85, Rostov, Rostovskaya oblast &#39;, Russia, 344064",177
4696933,"Dal&#39;nyaya Ulitsa, 15, Nizhnij Novgorod, Nizhegorodskaya oblast &#39;, Russia, 603000",177
4716450,"Debal'tsevskaya Ulitsa, 10, Rostov, Rostovskaya oblast', Russia, 344016",177
4714671,"Debal'tsevskaya Ulitsa, 14, Rostov, Rostovskaya oblast', Russia, 344016",177
4714389,"Debal'tsevskaya Ulitsa, 45, Rostov, Rostovskaya oblast', Russia, 344016",177
4695454,"Delegatskaya Ulitsa, 101, Nizhnij Novgorod, Nizhegorodskaya oblast &#39;, Russia, 603140",177
4721805,"Derevoobdelochnaya Ulitsa, 2, ???????? ????, ??????????? ?`???, Nizhnij Novgorod, Nizhegorodskaya oblast', Russia, 603011",177
4695317,"Derevoobdelochnaya Ulitsa, 7-9, Nizhnij Novgorod, Nizhegorodskaya oblast', Russia, 603011",177
4721359,"Derevoobdelochnaya Ulitsa, ?.2, Nizhnij Novgorod, Nizhegorodskaya oblast', Russia, 603011",177
4715418,"Dolomanovskiy Pereulok, 124, Rostov, Rostovskaya oblast', Russia, 344018",177
4715419,"Dolomanovskiy Pereulok, 183, Rostov, Rostovskaya oblast', Russia, 344018",177
4715548,"Dolomanovskiy Pereulok, 68, Rostov, Rostovskaya oblast &#39;, Russia, 344011",177
4716770,"Dolomanovskiy Pereulok, 82, Rostov, Rostovskaya oblast', Russia, 344011",177
4712763,"Don River, Russia, Russia",177
4696520,"Gornaya St, 11, Nizhnij Novgorod, Nizhegorodskaya oblast', Russia, 603062",177
4696050,"Gornaya St, 13 ?????? 3, Nizhnij Novgorod, Nizhegorodskaya oblast', Russia, 603062",177
4693863,"Gornaya St, 13, Nizhnij Novgorod, Nizhegorodskaya oblast', Russia, 603009",177
4697267,"Gornaya St, 13, Nizhnij Novgorod, Nizhegorodskaya oblast', Russia, 603062",177
4694066,"Gornaya St, 30, Nizhnij Novgorod, Nizhegorodskaya oblast', Russia, 603062",177
4696251,"Gornaya St, 4, Nizhnij Novgorod, Nizhegorodskaya oblast', Russia, 603009",177
4696369,"Gornaya St, 5, Nizhnij Novgorod, Nizhegorodskaya oblast &#39;, Russia, 603009",177
4695280,"Gornaya St, 52, Nizhnij Novgorod, Nizhegorodskaya oblast', Russia, 603062",177
4723035,"Gorodishche, Rostov Oblast, Russia, 346741",177
4695629,"Gorokhovetskaya Ulitsa, 12, Nizhnij Novgorod, Nizhegorodskaya oblast &#39;, Russia, 603033",177
4721103,"Gorokhovetskaya Ulitsa, 18A, Nizhnij Novgorod, Nizhegorodskaya oblast &#39;, Russia, 603033",177
4695886,"Gorokhovetskaya Ulitsa, 46, Nizhnij Novgorod, Nizhegorodskaya oblast', Russia, 603033",177
4695627,"Gorokhovetskaya Ulitsa, Nizhnij Novgorod, Nizhegorodskaya oblast &#39;, Russia, 603033",177
4717581,"Gorshkova Prospekt, 2?, Rostov, Rostovskaya oblast', Russia, 344016",177
4695231,"Grebnoy kanal Embankment, 108, Nizhnij Novgorod, Nizhegorodskaya oblast &#39;, Russia, 603155",177
4697290,"Grebnoy kanal Embankment, 108, Nizhnij Novgorod, Nizhegorodskaya oblast &#39;, Russia, 603155",177
4694805,"Grebnoy kanal Embankment, 109, Nizhnij Novgorod, Nizhegorodskaya oblast &#39;, Russia, 603000",177
4694744,"Grebnoy kanal Embankment, 109, Nizhnij Novgorod, Nizhegorodskaya oblast &#39;, Russia, 603093",177
4695685,"Grebnoy kanal Embankment, Nizhnij Novgorod, Nizhegorodskaya oblast &#39;, Russia, 603155",177
4722866,"Grecheskaya Ulitsa, 104, Taganrog, Rostovskaya oblast', Russia, 347900",177
4722841,"Grecheskaya Ulitsa, 105, Taganrog, Rostovskaya oblast &#39;, Russia, 347900",177
4715077,"Grecheskiy Pereulok, 11, Rostov, Rostovskaya oblast', Russia, 344000",177
4715707,"Griboyedovskiy Pereulok, 33, Rostov, Rostovskaya oblast', Russia, 344000",177
4715494,"Griboyedovskiy Pereulok, 6, Rostov, Rostovskaya oblast', Russia, 344082",177
4714206,"Grushevskaya Ulitsa, 8, Aksay, Rostovskaya oblast &#39;, Russia, 346720",177
4713165,"Gulaeva St., 66, Aksay, Rostovskaya oblast &#39;, Russia, 346720",177
4713217,"Gvardeyskiy Pereulok, 11 B, Rostov, Rostovskaya oblast &#39;, Russia, 344000",177
4716370,"Gvardeyskiy Pereulok, 11 B, Rostov, Rostovskaya oblast &#39;, Russia, 344002",177
4717737,"Gvardeyskiy Pereulok, 11?, Rostov, Rostovskaya oblast', Russia, 344011",177
4715410,"Gvardeyskiy Pereulok, 38?, Rostov, Rostovskaya oblast', Russia, 344011",177
4696102,"Gvozdil'naya Ulitsa, 9, Nizhnij Novgorod, Nizhegorodskaya oblast', Russia, 603034",177
4714764,"Instrumental'naya Ulitsa, 2, Rostov, Rostovskaya oblast', Russia, 344029",177
4716418,"Instrumental'naya Ulitsa, 2, Rostov, Rostovskaya oblast', Russia, 344029",177
4717170,"Inzhenernaya Ulitsa, 5?, Rostov, Rostovskaya oblast', Russia, 344064",177
4695608,"Izhevskaya Ulitsa, 40, Nizhnij Novgorod, Nizhegorodskaya oblast &#39;, Russia, 603034",177
4696874,"Izhorskaya Ulitsa, 18, Nizhnij Novgorod, Nizhegorodskaya oblast', Russia, 603000",177
4696865,"Izhorskaya Ulitsa, 18, Nizhnij Novgorod, Nizhegorodskaya oblast', Russia, 603024",177
4696872,"Izhorskaya Ulitsa, 18, Nizhnij Novgorod, Nizhegorodskaya oblast', Russia, 603024",177
4696873,"Izhorskaya Ulitsa, 18, ?. ????????, Nizhegorodskaya oblast', Russia, 603005",177
4694863,"Izhorskaya Ulitsa, 3, Nizhnij Novgorod, Nizhegorodskaya oblast', Russia, 603006",177
4723456,"Izmail'skiy Pereulok, 41, Rostov, Rostovskaya oblast', Russia, 344068",177
4714365,"Izyskatel'skiy Pereulok, 2, Rostov, Rostovskaya oblast', Russia, 344064",177
4714556,"Izyskatel'skiy Pereulok, 4, Rostov, Rostovskaya oblast', Russia, 344064",177
4714558,"Izyskatel'skiy Pereulok, 4/9, Rostov, Rostovskaya oblast', Russia, 344064",177
4716807,"Izyskatel'skiy Pereulok, 6, Rostov, Rostovskaya oblast', Russia, 344064",177
3472534,"Kalanchevskaya ul., 10, ??????????? ???????????????? ?????, Russia",177
4721874,"Kamchatskiy Pereulok, 7, Nizhnij Novgorod, Nizhegorodskaya oblast', Russia, 603124",177
4713450,"Kamyshevakha, Rostov Oblast, Russia, 346715",177
4696028,"Kanavinskaya Ulitsa, 2 a, N. Novgorod, Nizhegorodskaya oblast &#39;, Russia, 603002",177
4720282,"Kanavinskaya Ulitsa, 2, Nizhnij Novgorod, Nizhegorodskaya oblast', Russia, 603002",177
4721169,"Kanavinskaya Ulitsa, 27, Nizhnij Novgorod, Nizhegorodskaya oblast &#39;, Russia, 603002",177
4695139,"Kanavinskaya Ulitsa, 2?, Nizhnij Novgorod, Nizhegorodskaya oblast', Russia, 603002",177
4720481,"Kanavinskaya Ulitsa, 2?, Nizhnij Novgorod, Nizhegorodskaya oblast', Russia, 603002",177
4722070,"Kanavinskaya Ulitsa, 2?, Nizhnij Novgorod, Nizhegorodskaya oblast', Russia, 603002",177
4722065,"Kanavinskaya Ulitsa, 3, Nizhnij Novgorod, Nizhegorodskaya oblast', Russia, 603002",177
4694143,"Kanavinsky Bridge, Nizhnij Novgorod, Nizhegorodskaya oblast &#39;, Russia, 603001",177
4722846,"Kashirskaya Ulitsa, 11/55, Rostov, Rostovskaya oblast &#39;, Russia, 344091",177
4716612,"Kashirskaya Ulitsa, 20, Rostov, Rostovskaya oblast', Russia, 344091",177
4722830,"Kashirskaya Ulitsa, 24, Rostov, Rostovskaya oblast', Russia, 344000",177
4713372,"Kashirskaya Ulitsa, 5, Rostov, Rostovskaya oblast', Russia, 344091",177
4714241,"Kashirskaya Ulitsa, 6, Rostov, Rostovskaya oblast', Russia, 344091",177
4716491,"Kashirskaya Ulitsa, 6, Rostov, Rostovskaya oblast', Russia, 344091",177
4722847,"Kashirskaya Ulitsa, 8 building 2, Rostov, Rostovskaya oblast &#39;, Russia, 344091",177
4722956,"Kashirskaya Ulitsa, 8, Rostov, Rostovskaya oblast', Russia, 344091",177
4722980,"Kashirskaya Ulitsa, 8, ?. 3, Rostov, Rostovskaya oblast', Russia, 344091",177
4722783,"Kashirskaya Ulitsa, 8?5, Rostov, Rostovskaya oblast', Russia, 344090",177
4714231,"Kashirskaya Ulitsa, 9, Rostov, Rostovskaya oblast', Russia, 344091",177
4714238,"Kashirskaya Ulitsa, 9, Rostov, Rostovskaya oblast', Russia, 344091",177
4715836,"Kashirskaya Ulitsa, 9/53?, Rostov, Rostovskaya oblast', Russia, 344091",177
4714838,"Kazakhstanskiy Pereulok, 19?, Rostov, Rostovskaya oblast', Russia, 150000",177
4696944,"Kazbekskiy Pereulok, 4, Nizhnij Novgorod, Nizhegorodskaya oblast &#39;, Russia, 603000",177
4695140,"Kerchenskaya ul., 20?, Nizhnij Novgorod, Nizhegorodskaya oblast', Russia, 603159",177
4713244,"Khabarovskiy Pereulok, Rostov, Rostovskaya oblast', Russia, 344018",177
4735147,"Khovd, Mongolia",177
4762885,"Khrizolitovyy, Sverdlovsk Oblast, Russia, 624054",177
4712519,"Kirgizskaya Ulitsa, 38-?, ???????? ??????, ?????? ? 5221/0228, Rostov, Rostovskaya oblast', Russia, 344065",177
4715321,"Kirgizskaya Ulitsa, 38?, Rostov, Rostovskaya oblast', Russia, 344065",177
4713973,"Kirgizskaya Ulitsa, 38?, Rostov, Rostovskaya oblast &#39;, Russia, 344065",177
4714725,"Kirgizskaya Ulitsa, 38?, Rostov, Rostovskaya oblast', Russia, 344065",177
4714810,"Kirgizskaya Ulitsa, 41, Rostov, Rostovskaya oblast', Russia, 344065",177
4715222,"Kirgizskaya Ulitsa, 9/1, Rostov, Rostovskaya oblast', Russia, 344065",177
4715379,"Kirgizskaya Ulitsa, 9/3, Rostov, Rostovskaya oblast &#39;, Russia, 344065",177
4713613,"Kirgizskaya Ulitsa, 9/3, Rostov, Rostovskaya oblast', Russia, 344065",177
4722799,"Kirovskiy Prospekt, 116, Rostov, Rostovskaya oblast', Russia, 344010",177
4712720,"Kirovskiy Prospekt, 126/23, Rostov, Rostovskaya oblast', Russia, 344000",177
4716502,"Kirovskiy Prospekt, 35, Rostov, Rostovskaya oblast', Russia, 344006",177
5738650,"Kirovskiy Prospekt, 35/113, Rostov, Rostovskaya oblast', Russia, 344010",177
4712715,"Kirovskiy Prospekt, 40 ?, ????????? ??? ""????????????"", Rostov, Rostovskaya oblast', Russia, 344022",177
4715076,"Kirovskiy Prospekt, 44, Rostov, Rostovskaya oblast', Russia, 344000",177
4715855,"Kirovskiy Prospekt, 53, Rostov, Rostovskaya oblast', Russia, 344006",177
4712453,"Kirovskiy Prospekt, 55, Rostov, Rostovskaya oblast &#39;, Russia, 344022",177
4715857,"Kirovskiy Prospekt, 57, Rostov, Rostovskaya oblast', Russia, 344002",177
4713149,"Kirovskiy Prospekt, 57B, Rostov, Rostovskaya oblast &#39;, Russia, 344022",177
4713747,"Kirovskiy Prospekt, 80, Rostov, Rostovskaya oblast &#39;, Russia, 344022",177
4712717,"Kirovskiy Prospekt, 84/1, Rostov, Rostovskaya oblast', Russia, 344006",177
4714156,"Kirovskiy Prospekt, 90, Rostov, Rostovskaya oblast &#39;, Russia, 344010",177
4714909,"Kirovskiy Prospekt, 92, Rostov, Rostovskaya oblast', Russia, 344022",177
4695628,"Klubnaya ul., 5, Nizhnij Novgorod, Nizhegorodskaya oblast &#39;, Russia, 603033",177
4716253,"Knizhnyy Pereulok, 11?, Bataysk, Rostovskaya oblast', Russia, 346880",177
4723164,"Kolontayevskiy Pereulok, 82, Azov, Rostovskaya oblast &#39;, Russia, 346782",177
4714798,"Kolontayevskiy Pereulok, 89 b, Azov, Rostovskaya oblast &#39;, Russia, 346787",177
3384596,"Koltushi, Leningrad Oblast, Russia, 188680",177
4713037,"Komitetskiy Pereulok, 1, Rostov, Rostovskaya oblast', Russia, 344023",177
4695965,"Kommunisticheskaya Ulitsa, 24, Nizhnij Novgorod, Nizhegorodskaya oblast', Russia, 603002",177
4696945,"Kommunisticheskaya Ulitsa, 27, Nizhnij Novgorod, Nizhegorodskaya oblast &#39;, Russia, 603002",177
4721867,"Kommunisticheskaya Ulitsa, 39, Nizhnij Novgorod, Nizhegorodskaya oblast', Russia, 603002",177
4720901,"Kommunisticheskaya Ulitsa, 47, Nizhnij Novgorod, Nizhegorodskaya oblast', Russia, 603002",177
4721575,"Kommunisticheskaya Ulitsa, 75, Nizhnij Novgorod, Nizhegorodskaya oblast', Russia, 603002",177
4714289,"Kommunisticheskiy Prospekt, 10, Rostov, Rostovskaya oblast &#39;, Russia, 344058",177
4717738,"Kommunisticheskiy Prospekt, 11, Rostov, Rostovskaya oblast', Russia, 344058",177
4714007,"Kommunisticheskiy Prospekt, 14, Rostov, Rostovskaya oblast &#39;, Russia, 344000",177
4722964,"Kommunisticheskiy Prospekt, 25/2, Rostov, Rostovskaya oblast', Russia, 344058",177
4722854,"Kommunisticheskiy Prospekt, 27, Rostov, Rostovskaya oblast &#39;, Russia, 344091",177
4713696,"Kommunisticheskiy Prospekt, 27, Rostov, Rostovskaya oblast', Russia, 344091",177
4713699,"Kommunisticheskiy Prospekt, 27, Rostov, Rostovskaya oblast', Russia, 344091",177
4716489,"Kommunisticheskiy Prospekt, 27, Rostov, Rostovskaya oblast', Russia, 344091",177
4716436,"Kommunisticheskiy Prospekt, 29, Rostov, Rostovskaya oblast', Russia, 344091",177
4714291,"Kommunisticheskiy Prospekt, 30, Rostov, Rostovskaya oblast &#39;, Russia, 344091",177
4723148,"Kommunisticheskiy Prospekt, 30, Rostov, Rostovskaya oblast', Russia, 344058",177
4713601,"Kommunisticheskiy Prospekt, 30, Rostov, Rostovskaya oblast', Russia, 344090",177
4713602,"Kommunisticheskiy Prospekt, 30, Rostov, Rostovskaya oblast', Russia, 344091",177
4713692,"Kommunisticheskiy Prospekt, 30, Rostov, Rostovskaya oblast', Russia, 344091",177
4722963,"Kommunisticheskiy Prospekt, 30, Rostov, Rostovskaya oblast', Russia, 344091",177
4723341,"Kommunisticheskiy Prospekt, 30, Rostov, Rostovskaya oblast', Russia, 344091",177
4713598,"Kommunisticheskiy Prospekt, 30, Rostov, ?????????? ???, Russia, 344091",177
4713599,"Kommunisticheskiy Prospekt, 30, ?/? ""????? ??????"", Rostov, Rostovskaya oblast', Russia, 344091",177
4713600,"Kommunisticheskiy Prospekt, 30, ?/? ""????? ??????"", Rostov, Rostovskaya oblast', Russia, 344091",177
4713694,"Kommunisticheskiy Prospekt, 30, ?/? ""????? ??????"", Rostov, Rostovskaya oblast', Russia, 344091",177
4723339,"Kommunisticheskiy Prospekt, 31, 1 ????, Rostov, Rostovskaya oblast', Russia, 344091",177
4717698,"Kommunisticheskiy Prospekt, 31, 2 ????, 1 ????, Rostov, Rostovskaya oblast', Russia, 344091",177
4717554,"Kommunisticheskiy Prospekt, 31, Rostov, Rostovskaya oblast', Russia, 344091",177
4723340,"Kommunisticheskiy Prospekt, 31, Rostov, Rostovskaya oblast', Russia, 344091",177
4714292,"Kommunisticheskiy Prospekt, 32, Rostov, Rostovskaya oblast &#39;, Russia, 344091",177
4715827,"Kommunisticheskiy Prospekt, 32, Rostov, Rostovskaya oblast &#39;, Russia, 344091",177
4722851,"Kommunisticheskiy Prospekt, 32, Rostov, Rostovskaya oblast &#39;, Russia, 344091",177
4713584,"Kommunisticheskiy Prospekt, 32, Rostov, Rostovskaya oblast', Russia, 344091",177
4713589,"Kommunisticheskiy Prospekt, 32, Rostov, Rostovskaya oblast', Russia, 344091",177
4713590,"Kommunisticheskiy Prospekt, 32, Rostov, Rostovskaya oblast', Russia, 344091",177
4713593,"Kommunisticheskiy Prospekt, 32, Rostov, Rostovskaya oblast', Russia, 344091",177
4714255,"Kommunisticheskiy Prospekt, 32, Rostov, Rostovskaya oblast', Russia, 344091",177
4716250,"Kommunisticheskiy Prospekt, 32, Rostov, Rostovskaya oblast', Russia, 344091",177
4716783,"Kommunisticheskiy Prospekt, 32, Rostov, Rostovskaya oblast', Russia, 344091",177
4713680,"Kommunisticheskiy Prospekt, 32, ??????????? ""???????????"", Rostov, Rostovskaya oblast', Russia, 344091",177
4716416,"Kommunisticheskiy Prospekt, 32/3, Rostov, Rostovskaya oblast', Russia, 344091",177
4716410,"Kommunisticheskiy Prospekt, 32?, Rostov, Rostovskaya oblast', Russia, 344091",177
4717821,"Kommunisticheskiy Prospekt, 344091, Rostov, Rostovskaya oblast &#39;, Russia, 344091",177
4717818,"Kommunisticheskiy Prospekt, 36/3, Rostov, Rostovskaya oblast &#39;, Russia, 344091",177
4717042,"Kommunisticheskiy Prospekt, 36/4, Rostov, Rostovskaya oblast &#39;, Russia, 344090",177
4717824,"Kommunisticheskiy Prospekt, 36/4, Rostov, Rostovskaya oblast &#39;, Russia, 344090",177
4716411,"Kommunisticheskiy Prospekt, 37/1, Rostov, Rostovskaya oblast', Russia, 344000",177
4717394,"Kommunisticheskiy Prospekt, 37/1, Rostov, Rostovskaya oblast', Russia, 344091",177
4713182,"Kommunisticheskiy Prospekt, 38, Rostov, Rostovskaya oblast &#39;, Russia, 344091",177
4714794,"Kommunisticheskiy Prospekt, 38, Rostov, Rostovskaya oblast &#39;, Russia, 344091",177
4717393,"Kommunisticheskiy Prospekt, 42, Rostov, Rostovskaya oblast', Russia, 344091",177
4722979,"Kommunisticheskiy Prospekt, 42/4, Rostov, Rostovskaya oblast', Russia, 344000",177
4714000,"Kommunisticheskiy Prospekt, 43/1, Rostov, Rostovskaya oblast &#39;, Russia, 344091",177
4716784,"Kommunisticheskiy Prospekt, 45, Rostov, Rostovskaya oblast', Russia, 344091",177
4713567,"Kommunisticheskiy Prospekt, 46, Rostov, Rostovskaya oblast', Russia, 344090",177
4723095,"Kommunisticheskiy Prospekt, 46, Rostov, Rostovskaya oblast', Russia, 344091",177
4723122,"Kommunisticheskiy Prospekt, 46, Rostov, Rostovskaya oblast', Russia, 344091",177
4713674,"Kommunisticheskiy Prospekt, 46, ?-? ""??????"", Rostov, Rostovskaya oblast', Russia, 344090",177
4722945,"Kommunisticheskiy Prospekt, 46/1, Rostov, ??????-??-????, Russia, 344091",177
4723140,"Kommunisticheskiy Prospekt, 46/2, Rostov, Rostovskaya oblast', Russia, 344000",177
4722890,"Kommunisticheskiy Prospekt, 48/1, Rostov, Rostovskaya oblast', Russia, 344091",177
4713569,"Kommunisticheskiy Prospekt, 51, Rostov, Rostovskaya oblast', Russia, 344090",177
4713677,"Kommunisticheskiy Prospekt, 51, Rostov, Rostovskaya oblast', Russia, 344091",177
4713678,"Kommunisticheskiy Prospekt, 51, Rostov, Rostovskaya oblast', Russia, 344091",177
4717396,"Kommunisticheskiy Prospekt, 53, ???????????????? ??-?? 53, Rostovskaya oblast', Russia, 344090",177
4716494,"Kommunisticheskiy Prospekt, 55, Rostov, Rostovskaya oblast', Russia, 344091",177
4714334,"Kommunistichesky prospect, 34/3, Rostov, Rostovskaya oblast &#39;, Russia, 344091",177
4713845,"Kommunistichesky prospect, 36/4, Rostov, Rostovskaya oblast &#39;, Russia, 344091",177
4696927,"Komsomol&#39;skaya Ploshchad &#39;, Nizhnij Novgorod, Nizhegorodskaya oblast&#39;, Russia, 603011",177
4714290,"Komsomol&#39;skaya Ulitsa, 47, Rassvet, Rostovskaya oblast &#39;, Russia, 346735",177
4721203,"Komsomol&#39;skoye Shosse, 3, Nizhnij Novgorod, Nizhegorodskaya oblast &#39;, Russia, 603034",177
4721222,"Komsomol&#39;skoye Shosse, 3, Nizhnij Novgorod, Nizhegorodskaya oblast &#39;, Russia, 603034",177
4721187,"Komsomol&#39;skoye Shosse, 7, Nizhnij Novgorod, Nizhegorodskaya oblast &#39;, Russia, 603034",177
4695692,"Komsomol&#39;skoye Shosse, Nizhnij Novgorod, Nizhegorodskaya oblast &#39;, Russia, 603010",177
4720304,"Komsomol'skaya Ploshchad', 1, Nizhnij Novgorod, Nizhegorodskaya oblast', Russia, 603011",177
4720305,"Komsomol'skaya Ploshchad', 1, Nizhnij Novgorod, Nizhegorodskaya oblast', Russia, 603140",177
4695961,"Komsomol'skaya Ploshchad', 10/2, Nizhnij Novgorod, Nizhegorodskaya oblast', Russia, 603140",177
4694469,"Komsomol'skaya Ploshchad', 1?, Nizhnij Novgorod, Nizhegorodskaya oblast', Russia, 603011",177
4720317,"Komsomol'skaya Ploshchad', 2, Nizhnij Novgorod, Nizhegorodskaya oblast', Russia, 603011",177
4720318,"Komsomol'skaya Ploshchad', 2, Nizhnij Novgorod, Nizhegorodskaya oblast', Russia, 603011",177
4720319,"Komsomol'skaya Ploshchad', 2, Nizhnij Novgorod, Nizhegorodskaya oblast', Russia, 603011",177
4720320,"Komsomol'skaya Ploshchad', 2, Nizhnij Novgorod, Nizhegorodskaya oblast', Russia, 603011",177
4720306,"Komsomol'skaya Ploshchad', 2, Nizhnij Novgorod, ????????????? ???, Russia, 603140",177
4721394,"Komsomol'skaya Ploshchad', 2, ??????????? ""????????"", Nizhnij Novgorod, Nizhegorodskaya oblast', Russia, 603140",177
4721802,"Komsomol'skaya Ploshchad', 2, ??????????? ""????????"", Nizhnij Novgorod, Nizhegorodskaya oblast', Russia, 603140",177
4721800,"Komsomol'skaya Ploshchad', 2, ??????????? ????????, Nizhnij Novgorod, Nizhegorodskaya oblast', Russia, 603140",177
4722165,"Komsomol'skaya Ploshchad', 3, Nizhnij Novgorod, Nizhegorodskaya oblast', Russia, 603000",177
4694989,"Komsomol'skaya Ploshchad', 3?, Nizhnij Novgorod, Nizhegorodskaya oblast', Russia, 603000",177
4720315,"Komsomol'skaya Ploshchad', 3?, Nizhnij Novgorod, Nizhegorodskaya oblast', Russia, 603011",177
4694887,"Komsomol'skaya Ploshchad', 6, Nizhnij Novgorod, Nizhegorodskaya oblast', Russia, 603140",177
4721837,"Komsomol'skaya Ploshchad', 6, Nizhnij Novgorod, Nizhegorodskaya oblast', Russia, 603140",177
4721838,"Komsomol'skaya Ploshchad', 6, Nizhnij Novgorod, Nizhegorodskaya oblast', Russia, 603140",177
4721839,"Komsomol'skaya Ploshchad', 6, Nizhnij Novgorod, Nizhegorodskaya oblast', Russia, 603140",177
4721392,"Komsomol'skaya Ploshchad', 6/1, Nizhnij Novgorod, Nizhegorodskaya oblast', Russia, 603140",177
4722835,"Komsomol'skaya Ulitsa, 4, Azov, Rostovskaya oblast', Russia, 346782",177
4720293,"Komsomol'skoye Shosse, 12, Nizhnij Novgorod, Nizhegorodskaya oblast', Russia, 603010",177
4720933,"Komsomol'skoye Shosse, 14, Nizhnij Novgorod, Nizhegorodskaya oblast', Russia, 603028",177
4720301,"Komsomol'skoye Shosse, 14?, Nizhnij Novgorod, ????????????? ???, Russia, 603034",177
4694987,"Komsomol'skoye Shosse, 2, Nizhnij Novgorod, Nizhegorodskaya oblast', Russia, 603140",177
4694604,"Komsomol'skoye Shosse, 3?, Nizhnij Novgorod, Nizhegorodskaya oblast', Russia, 603011",177
4694988,"Komsomol'skoye Shosse, 3?, Nizhnij Novgorod, Nizhegorodskaya oblast', Russia, 603011",177
4721792,"Komsomol'skoye Shosse, 5?, Nizhnij Novgorod, Nizhegorodskaya oblast', Russia, 603034",177
4695056,"Komsomol'skoye Shosse, 5?, Nizhnij Novgorod, Nizhegorodskaya oblast', Russia, 603034",177
4720935,"Komsomol'skoye Shosse, 5?, Nizhnij Novgorod, Nizhegorodskaya oblast', Russia, 603079",177
4720445,"Komsomol'skoye Shosse, 6, Nizhnij Novgorod, Nizhegorodskaya oblast', Russia, 603028",177
4721602,"Komsomol'skoye Shosse, 7, Nizhnij Novgorod, Nizhegorodskaya oblast', Russia, 603079",177
4720938,"Komsomol'skoye Shosse, Nizhnij Novgorod, Nizhegorodskaya oblast', Russia, 603010",177
