3469253,"5 Glass Lane, Oloosirkon, Kenya",280
3469282,Kenya,280
3469766,"Unnamed Road, Kenya",280
3470240,"Lower Kabete, Kenya",280
3470536,"Namanga Road, Kitengela, Kenya",280
3470654,"Njoro, Kenya",280
3471288,"BISHOP MAGUA HOUSE, 2ND FLOOR, next to ACK St. James cathedral, Kiambu, Kenya",280
3471498,"Korogocho B Village, Kenya",280
3471507,"Ruaka, Limuru Rd, Kenya",280
3471551,Kenya,280
3477294,"Kiambu District, Kenya",280
3477439,"C58, Kenya",280
3477478,"Ruiru, Kenya",280
3478815,"around oldoyo sabuk Road, Kenya",280
3478816,"School, Chess Bump Drive, Limuru Rd, Ruaka Town, Kenya",280
3478981,"Njoro Ngewa Road, Kenya",280
3479640,"Next To Makumi Road House, Wamakumi Rd, Wangige, Kenya",280
3479761,"Kiambu District, Kenya",280
