3851870,"223 Preston Rd, Wembley HA9 8XD, United Kingdom",276
3849750,"223 Station Rd, West Drayton UB7 7SF, United Kingdom",276
3852416,"223 Twickenham Rd, Isleworth TW7 6DH, United Kingdom",276
3893233,"223 Upminster Rd S, Rainham RM13 9BB, United Kingdom",276
5568484,"223, Deansbrook Road, Edgware, Burnt Oak HA8 9BX, United Kingdom",276
3863801,"223c Turners Hill, Cheshunt, Waltham Cross EN8 9DG, United Kingdom",276
3850100,"224 Cowley Rd, Uxbridge UB8 2NH, United Kingdom",276
5567569,"224 Ealing Rd, Wembley HA0 4QL, United Kingdom",276
5567006,"224 Great West Rd, Hounslow TW5 9AW, United Kingdom",276
3868252,"224 High Road, Loughton, Essex IG10 1ET, United Kingdom",276
5564662,"224 High St, Uxbridge UB8 1LD, United Kingdom",276
3844143,"224 Leatherhead Rd, Chessington KT9 2NB, United Kingdom",276
3844491,"224 Leatherhead Rd, Chessington KT9 2NB, United Kingdom",276
3851345,"224 Leatherhead Rd, Chessington KT9 2NB, United Kingdom",276
3878256,"224 Leatherhead Rd, Chessington KT9 2NB, United Kingdom",276
3878321,"224 Leatherhead Rd, Chessington KT9 2NB, United Kingdom",276
3843972,"224 Northolt Rd, Harrow HA2 8DU, United Kingdom",276
3856170,"224 Preston Rd, Wembley HA9 8PB, United Kingdom",276
3886472,"224 Princes Rd, Dartford DA1 2PZ, United Kingdom",276
3894562,"224 Redbridge Ln E, Ilford IG4 5BQ, United Kingdom",276
3882657,"224 St Nicholas Shopping Cenre, St Nicholas Way, Sutton SM1 1AX, United Kingdom",276
3877647,"224 Sutton Common Rd, Sutton SM3 9PW, United Kingdom",276
5570336,"224 Sutton Common Rd, Sutton SM3 9PW, United Kingdom",276
3888259,"224/226 High St, Orpington BR6 0LS, United Kingdom",276
3880894,"224/226 High Street, Orpington BR6 0LS, United Kingdom",276
3887715,"225 Bellegrove Rd, Welling DA16 3RQ, United Kingdom",276
3895516,"225 Clayhall Ave, Ilford IG5 0NY, United Kingdom",276
3880558,"225 High St, Bromley BR1 1NZ, United Kingdom",276
3879902,"225 High St, Orpington BR6 0NP, United Kingdom",276
5572171,"225 Oxlow Ln, Dagenham RM10 7YA, United Kingdom",276
5089499,"225 Southend Rd, Stanford-le-Hope SS17 7AB, United Kingdom",276
5564303,"225 Twickenham Rd, Isleworth TW7 6DH, United Kingdom",276
3798778,"225 Wilton Rd, Salisbury SP2 7JY, United Kingdom",276
3883013,"225-227 High St, Sutton SM1 1LB, United Kingdom",276
3882755,"225-227 Wickham Rd, Croydon CR0 8TG, United Kingdom",276
3882899,"225-227 Wickham Rd, Croydon CR0 8TG, United Kingdom",276
3881197,"226 Addington Rd, South Croydon, Croydon CR2 8LD, United Kingdom",276
5571165,"226 Godstone Rd, Warlingham, Whyteleafe CR3 0EE, United Kingdom",276
3884672,"226 Heathway, Dagenham RM10 8PE, United Kingdom",276
3894286,"226 High Rd, Ilford IG1 1QF, United Kingdom",276
5572371,"226 High Rd, Romford RM6 6LS, United Kingdom",276
5571018,"226 High St, Bromley, United Kingdom",276
3874255,"226 Hook Rd, Chessington KT9 1PL, United Kingdom",276
3883065,"226 Main Rd, Biggin Hill, Westerham TN16 3BD, United Kingdom",276
3895331,"226 Redbridge Ln E, Ilford IG4 5BQ, United Kingdom",276
3880535,"226 Whitehorse Rd, Croydon CR0 2LB, United Kingdom",276
3889240,"227 Bellegrove Rd, Welling DA16 3RQ, United Kingdom",276
3855187,"227 Charlton Rd, Harrow HA3 9HU, United Kingdom",276
3884256,"227 High St, Orpington BR6 0NZ, United Kingdom",276
3886853,"227 Main Rd, Romford RM2 6NP, United Kingdom",276
4618651,"227 Mill Ln, Dronfield S18, UK",276
5568130,"227 Northolt Rd, Harrow HA2 8HN, United Kingdom",276
3880834,"227 Poverest Rd, Orpington BR5 1RD, United Kingdom",276
3847518,"227 The Broadway, Southall UB1 1ND, United Kingdom",276
3848254,"227 The Pkwy, Iver SL0 0RQ, United Kingdom",276
3849116,"227 Twickenham Rd, Isleworth TW7 6DH, United Kingdom",276
3884667,"227-231 Heathway, Dagenham RM9 5AN, United Kingdom",276
3849749,"227C Beaconsfield Rd, Southall UB1 1DB, United Kingdom",276
3889316,"228 Heathway, Dagenham RM10 8QS, United Kingdom",276
3868643,"228 High Rd, Loughton IG10 1ET, United Kingdom",276
3892882,"228 High Rd, Romford RM6 6LS, United Kingdom",276
3882781,"228 High St, Beckenham BR3 1EN, United Kingdom",276
5570697,"228 High St, Bromley BR1 1PQ, United Kingdom",276
3857638,"228 High St, Enfield EN3 4EZ, United Kingdom",276
3871438,"228 Mitcham Rd, Croydon CR0 3JJ, United Kingdom",276
3878429,"228 Whitehorse Rd, Croydon CR0 2LB, United Kingdom",276
5564813,"228, 226 Preston Rd, Wembley HA9 8PB, United Kingdom",276
5568485,"228-230 Station Rd, Edgware HA8 7AU, United Kingdom",276
3851741,"228-246 High St, Brentford TW8 0AB, United Kingdom",276
3849972,"228-246 High St, Brentford TW8 0JG, United Kingdom",276
5572079,"229 - 231 Cranbrook Rd, Ilford IG1 4TF, United Kingdom",276
5567999,"229 Charlton Rd, Harrow HA3 9HU, United Kingdom",276
3850815,"229 Chertsey Rd, Addlestone KT15 2EW, United Kingdom",276
3847323,"229 Donnefield Ave, Edgware HA8, United Kingdom",276
3878376,"229 Gander Green Ln, Sutton SM1 2EZ, United Kingdom",276
3886548,"229 Green Ln, Ilford IG1 1XR, United Kingdom",276
3859037,"229 Greenford Rd, Greenford UB6 8QY, United Kingdom",276
3895503,"229 High Rd, Ilford IG1 1NE, United Kingdom",276
3879906,"229 High St, Orpington BR6 0JU, United Kingdom",276
3845749,"229 High St, Uxbridge UB8 1LD, United Kingdom",276
3860710,"229 Ordnance Rd, Enfield EN3 6HA, United Kingdom",276
3881020,"229 Southborough Ln, Bromley BR2 8AT, United Kingdom",276
5564818,"229 Station Rd, Harrow HA1 2TB, United Kingdom",276
3886663,"229 Westrow Dr, Barking IG11 9BS, United Kingdom",276
3884371,"229-233 Oxlow Ln, Dagenham RM10 7YA, United Kingdom",276
3872875,"229-253 Kingston Rd, New Malden KT3 3SW, United Kingdom",276
3864973,"229A Turners Hill, Cheshunt, Waltham Cross EN8 9DG, United Kingdom",276
3845883,"22A Bridge St, Pinner HA5 3JF, United Kingdom",276
3868291,"22c Sun St, Waltham Abbey EN9 1EE, United Kingdom",276
4683498,"22E Carisbrooke Rd, Newport PO30 1BL, UK",276
4684092,"23 Arthurs Hill, Shanklin PO37 6EZ, UK",276
5083303,"23 Balfour Rd, Ilford IG1 4JF, United Kingdom",276
3844490,"23 Belmont Ave, New Malden KT3 6QE, United Kingdom",276
4657035,"23 Beresford St, St Helier JE2 4WN, Jersey",276
4656096,"23 Beresford St, St Helier, Jersey JE2 4LJ, United Kingdom",276
4657037,"23 Beresford St, St Helier, Jersey JE2 4WN, United Kingdom",276
3873155,"23 Blagdon Rd, New Malden KT3 4AH, United Kingdom",276
3850750,"23 Botwell Lane, Hayes UB3 2AB, United Kingdom",276
3844727,"23 Botwell Ln, Hayes, United Kingdom",276
3874253,"23 Broad St, Teddington TW11 8QZ, United Kingdom",276
3797340,"23 Butcher Row, Salisbury SP1 1EP, United Kingdom",276
5087065,"23 Camborne Rd, Sutton SM2 6RJ, United Kingdom",276
3848465,"23 Chequers Square, The Pavillions, Uxbridge UB8 1LN, United Kingdom",276
3887603,"23 Choats Rd, Barking, Dagenham RM9 6RH, United Kingdom",276
3851053,"23 Clayton Rd, Hayes UB3 1AA, United Kingdom",276
3850797,"23 Clayton Rd, Hayes UB3 4PL, United Kingdom",276
3863773,"23 Clive Rd, Enfield EN1 1RB, United Kingdom",276
3878806,"23 Coombe Rd, Croydon CR0 1BD, United Kingdom",276
3883632,"23 Croham Manor Rd, South Croydon CR2 7BG, United Kingdom",276
5571264,"23 Croham Rd, South Croydon CR2 7PB, United Kingdom",276
3847115,"23 Cromwell Rd, Feltham TW13 5AS, United Kingdom",276
3872671,"23 Cross Rd, Kingston upon Thames KT2 6HG, United Kingdom",276
3855001,"23 Cunningham Park, Harrow HA1 4QW, United Kingdom",276
3888774,"23 Danes Rd, Romford RM7 0AH, United Kingdom",276
3857399,"23 E Barnet Rd, Barnet EN4 8RN, United Kingdom",276
4653235,"23 Esplanade, Ryde PO33 2DZ, UK",276
4683418,"23 Esplanade, Ryde PO33 2DZ, UK",276
4683520,"23 Esplanade, Ryde PO33 2DZ, UK",276
3874160,"23 Ewell Rd, Sutton, United Kingdom",276
3867397,"23 Forty Hill, Enfield EN2 9HT, United Kingdom",276
3798575,"23 Fowler's Hill, Salisbury SP1 2QT, United Kingdom",276
3851639,"23 Gravel Rd, Twickenham TW2 6RH, United Kingdom",276
3884199,"23 Hayes Ln, Bromley BR2 9EA, United Kingdom",276
3881216,"23 High St, Orpington BR6 6BG, United Kingdom",276
3878694,"23 High St, Purley CR8 2AA, United Kingdom",276
4682982,"23 High St, Shanklin PO37 6JW, UK",276
3887761,"23 High St, Sidcup DA14 6EQ, United Kingdom",276
3845010,"23 High St, Teddington TW11 8EX, United Kingdom",276
5567592,"23 High Street Harlesden, Harlesden NW10 4NE, United Kingdom",276
5572241,"23 High Street, Romford RM6 6PU, United Kingdom",276
3878372,"23 Kingswood Dr, Sutton SM2 5NB, United Kingdom",276
3799297,"23 Lancaster Rd, Old Sarum, Salisbury SP4 6FB, United Kingdom",276
3882629,"23 Lansdowne Rd, Purley CR8 2PD, United Kingdom",276
3896408,"23 Market Service Rd, Carshalton SM5 1AG, United Kingdom",276
3887101,"23 Mill Rd, Erith DA8 1HW, United Kingdom",276
3886532,"23 New Rd, Rainham RM13 8DP, United Kingdom",276
3798588,"23 New St, Salisbury, United Kingdom",276
3878533,"23 Oak Hill Grove, Surbiton KT6 6DU, United Kingdom",276
3797799,"23 Oak Ln, Figheldean, Salisbury SP4 8JS, United Kingdom",276
3798585,"23 Old George Mall, Salisbury, Wiltshire SP1 2AF, United Kingdom",276
3855999,"23 Oldfields Circus, Northolt UB5 4RR, United Kingdom",276
3848669,"23 Owen Rd, Hayes UB4 9LB, United Kingdom",276
5172027,"23 Palmerston Rd, Shanklin PO37 6AS",276
5087057,"23 Park Hill Rd, Croydon CR0 5FJ, United Kingdom",276
3886370,"23 Powys Cl, Bexleyheath DA7 5RR, United Kingdom",276
4656865,"23 Queen St, St Helier, St. Helier JE2 4WD, United Kingdom",276
3866311,"23 Regent Gardens, Ilford IG3 8UL, United Kingdom",276
3888074,"23 Retford Rd, Romford RM3 9LX, United Kingdom",276
3884671,"23 Ripple Rd, Barking IG11 7NW, United Kingdom",276
4590875,"23 Rose St, Wokingham RG40 1XS, UK",276
4683490,"23 Sandown Rd, Sandown PO36 9JL, UK",276
3834136,"23 School Rd, Sale M33 7XX, United Kingdom",276
4684692,"23 Shooters Hill Rd, Cowes PO31 8BQ, UK",276
3851732,"23 Shrewsbury Walk, Isleworth TW7 7DE, United Kingdom",276
5564711,"23 South Rd, Southall UB1 1SU, United Kingdom",276
3850951,"23 Staines Rd W, Sunbury-on-Thames TW16 7AB, United Kingdom",276
3883727,"23 Station Approach, Bromley BR2 7EQ, United Kingdom",276
5568290,"23 Station Rd, Harrow HA1 2UA, United Kingdom",276
5571174,"23 Station Square, Orpington BR5 1LY, United Kingdom",276
5570456,"23 Stonecot Hill, Sutton SM3 9HB, United Kingdom",276
3843960,"23 The Broadway, Greenford UB6 9PN, United Kingdom",276
3863992,"23 The Links, Waltham Cross EN8 0NL, United Kingdom",276
3867377,"23 The Town, Enfield EN2 6LU, United Kingdom",276
5571577,"23 Tillingbourne Green, Orpington BR5 2HR, United Kingdom",276
3894638,"23 Upminster Rd S, Rainham RM13 9YS, United Kingdom",276
3846160,"23 Uxbridge Rd, Feltham TW13 5EG, United Kingdom",276
4683014,"23 Ward Ave, Cowes PO31 8AZ, UK",276
3881140,"23 West St, Croydon CR0 1DJ, United Kingdom",276
3881208,"23 Westmoreland Rd, Bromley BR1 1DS, United Kingdom",276
4684719,"23-25 Crocker St, Newport PO30 5DB, UK",276
5082013,"23-25 Market St, Watford WD18 0PA, United Kingdom",276
4684697,"23-25 Worsley Rd, Cowes PO31 8JW, UK",276
3859812,"23-27 Palace Garden Shopcen, Enfield EN2 6SN, United Kingdom",276
3882898,"23-41 Shirley Rd, Croydon CR0 7ER, United Kingdom",276
3881420,"23-51 Whytecliffe Rd S, Purley CR8, United Kingdom",276
3873002,"230 Acacia Rd, Mitcham CR4 1SD, United Kingdom",276
5569448,"230 Baker St, Enfield EN1 3JY, United Kingdom",276
3885664,"230 Bennetts Castle La, Dagenham RM8 3XP, United Kingdom",276
3852900,"230 Hale Ln, Edgware HA8 9PZ, United Kingdom",276
3885511,"230 High St, Orpington BR6 0LS, United Kingdom",276
5565434,"230 High St, Uxbridge UB8 1LD, United Kingdom",276
3877587,"230 High Street, Bromley BR1 1PQ, United Kingdom",276
3859418,"230 Hollies Way, Potters Bar EN6, United Kingdom",276
5564881,"230 Imperial Dr, Harrow HA2 7HJ, United Kingdom",276
5570764,"230 Mitcham Rd, Croydon CR0 3JJ, United Kingdom",276
3856968,"230 Tentelow Ln, Southall UB2 4LR, United Kingdom",276
3845397,"230 Uxbridge Rd, Feltham TW13 5DL, United Kingdom",276
3896642,"231 Aldborough Rd S, Ilford IG3 8HZ, United Kingdom",276
5571666,"231 Bellegrove Rd, Welling DA16 3RQ, United Kingdom",276
5571538,"231 Blackfen Rd, Sidcup DA15, United Kingdom",276
3886196,"231 Broadway, Bexleyheath DA6 7EJ, United Kingdom",276
3855952,"231 Charlton Rd, Harrow HA3 9HU, United Kingdom",276
3855767,"231 Crescent Rd, Barnet EN4 8SB, United Kingdom",276
3888134,"231 Dagenham Rd, Dagenham, Romford RM7 0TP, United Kingdom",276
3849446,"231 High St, Uxbridge UB8 1LD, United Kingdom",276
5571964,"231 Ilford Ln, Ilford IG1 2RZ, United Kingdom",276
5572256,"231 Ilford Ln, Ilford IG1 2RZ, United Kingdom",276
5566293,"231 Powder Mill Ln, Whitton TW2 6EH, United Kingdom",276
5567827,"231 Watford Rd, Harrow HA1 3TU, United Kingdom",276
3865959,"231 Windmill Ln, Cheshunt, Waltham Cross EN8 9AJ, United Kingdom",276
5569640,"231/233 High Rd, Ilford IG1 1NE, United Kingdom",276
3886401,"232 Aldborough Rd S, Ilford IG3 8HG, United Kingdom",276
5569195,"232 High St, Enfield EN3 4EZ, United Kingdom",276
5564359,"232 Imperial Dr, Harrow HA2 7HJ, United Kingdom",276
3879000,"232 Mitcham Rd, Croydon CR0 3JJ, United Kingdom",276
4656506,"232 St John's Rd, Hemel Hempstead HP1 1QQ, UK",276
3883105,"232-236 Addington Rd, South Croydon CR2 8LE, United Kingdom",276
3886972,"233 Blackfen Rd, Sidcup DA15 8PR, United Kingdom",276
3863982,"233 Bullsmoor Ln, Waltham Cross, Enfield EN1 4SB, United Kingdom",276
5568930,"233 E Barnet Rd, Barnet EN4 8SS, United Kingdom",276
5082047,"233 Eastcote Ln, Harrow HA2 8RR, United Kingdom",276
3858654,"233 Harrow Rd, Wembley HA9 6DX, United Kingdom",276
3867222,"233 High Rd, Loughton IG10 1AD, United Kingdom",276
3882075,"233 High St, Bromley BR1 1NZ, United Kingdom",276
3848926,"233 High St, Uxbridge UB8 1GA, United Kingdom",276
3846791,"233 High St, Uxbridge UB8 1LD, United Kingdom",276
3844711,"233 High St, Uxbridge UB8 1LE, United Kingdom",276
3849845,"233 Imperial Dr, Harrow, United Kingdom",276
3847691,"233 Kingshill Ave, Hayes UB4 8BL, United Kingdom",276
3857911,"233 Station Rd, Harrow HA1 2TB, United Kingdom",276
4598267,"233 Wortley Rd, Rotherham S61 1LJ, UK",276
3849952,"233-235 High St, Hounslow TW3 1EA, United Kingdom",276
3854800,"233-237 Watford Rd, Harrow HA1 3TU, United Kingdom",276
5081860,"233a Northolt Road, Harrow on the Hill HA2 8HN, United Kingdom",276
5564433,"233B The Broadway, Southall UB1 1ND, United Kingdom",276
3896220,"234 Grange Road, Plaistow E13 0HG, United Kingdom",276
5564636,"234 High St, Uxbridge UB8 1LE, United Kingdom",276
5571857,"234 Main Rd, Romford RM2 5HA, United Kingdom",276
3883293,"234 The Glades Shopping Centre, Bromley BR1 1HD, United Kingdom",276
3845742,"234 Yeading La, Hayes UB4 9AX, United Kingdom",276
3887563,"234-236 Broadway, Bexleyheath DA6 8AS, United Kingdom",276
3872422,"234A Canbury Park Rd, Kingston upon Thames KT2 6LF, United Kingdom",276
3888807,"235 Broadway, Bexleyheath DA6 7EJ, United Kingdom",276
3867043,"235 Chase Side, Enfield EN2 0RA, United Kingdom",276
3858606,"235 Deansbrook Rd, Edgware HA8 9BX, United Kingdom",276
3879909,"235 High St, Orpington BR6 0NS, United Kingdom",276
3879836,"235 High St, Orpington BR6 0NZ, United Kingdom",276
3843944,"235 Park Rd, Uxbridge UB8 1NS, United Kingdom",276
5567844,"235 Station Rd, Harrow HA1 2TB, United Kingdom",276
5571314,"235-241 High St, Croydon CR0 1QR, United Kingdom",276
3848172,"236 Hanworth Rd, Hounslow TW3 3TU, United Kingdom",276
3883852,"236 King Henry's Dr, New Addington, Croydon CR0 0HN, United Kingdom",276
5568507,"236 Station Rd, Edgware HA8 7AU, United Kingdom",276
3847484,"236 Yeading Ln, Hayes UB4 9AX, United Kingdom",276
5571820,"236-238 High Rd, Dagenham, Romford RM6 6AP, United Kingdom",276
3846802,"236a High St, Hounslow TW3 1HB, United Kingdom",276
3872428,"236E Canbury Park Rd, Kingston upon Thames KT2 6LG, United Kingdom",276
3884401,"237 Broadway, Bexleyheath DA6 7EL, United Kingdom",276
3884493,"237 Broadway, Bexleyheath DA6 7EL, United Kingdom",276
3896094,"237 Grove Rd, Romford RM6 4XF, United Kingdom",276
5050866,"237 Hawthorne Rd, Bootle L20 3AW, United Kingdom",276
3886406,"237 High Rd, Ilford IG1 1NE, United Kingdom",276
3881185,"237 High St, Beckenham BR3 1BN, United Kingdom",276
3858062,"237 Long Elmes, Harrow HA3 6LE, United Kingdom",276
5571515,"237 Lower Addiscombe Rd, Croydon CR0 6RD, United Kingdom",276
5564506,"237 Station Rd, Harrow HA1 2TB, United Kingdom",276
5564807,"237-238 High St, Uxbridge UB8 1LE, United Kingdom",276
5571119,"237-239 High St, Bromley BR1 1NZ, United Kingdom",276
3880910,"238 High St, Beckenham BR3 1EN, United Kingdom",276
3883985,"238 High St, Bromley BR1 1DN, United Kingdom",276
3881211,"238 High St, Bromley BR1 1PQ, United Kingdom",276
5571142,"238 High St, Bromley BR1 1PQ, United Kingdom",276
5565505,"238 High St, Hounslow TW3 1HB, United Kingdom",276
3845040,"238 High St, Uxbridge, United Kingdom",276
3882940,"238 Mitcham Rd, Croydon CR0 3JL, United Kingdom",276
3858616,"238 Station Rd, Edgware HA8 7AU, United Kingdom",276
5569114,"238, Hertford Rd, Enfield EN3 5BL, United Kingdom",276
5568667,"238-240 High St, Barnet EN5 5TD, United Kingdom",276
3893911,"238-240 Main Rd, Romford RM2 5HA, United Kingdom",276
3863537,"238-242 Oxlow Ln, Dagenham RM10 7YX, United Kingdom",276
3887057,"238A Main Rd, Romford RM2 5HA, United Kingdom",276
3882958,"239 Broadway, Bexleyheath DA6 8DB, United Kingdom",276
3849676,"239 Great West Rd, Hounslow TW5 0DG, United Kingdom",276
3849817,"239 Long Elmes, Harrow HA3 6LE, United Kingdom",276
3869009,"239 Preston Rd, Wembley HA9 8PE, United Kingdom",276
5565287,"239 Sipson Rd, Sipson, West Drayton UB7 0HW, United Kingdom",276
3852317,"239 Watford Rd, Harrow HA1 3TU, United Kingdom",276
3844327,"239-241 Lower High St, Watford WD17 2BD, United Kingdom",276
3848267,"239-241 Lower High St, Watford WD17 2BD, United Kingdom",276
3852502,"239-241 Lower High St, Watford WD17 2BD, United Kingdom",276
3864997,"23A High St, Cheshunt, Waltham Cross EN8 0BS, United Kingdom",276
3860467,"23a Howard Business Park, Howard Close, Waltham Abbey EN9 1XE, United Kingdom",276
3848769,"23A Kenilworth Gardens, Hayes UB4 0AY, United Kingdom",276
4682054,"23B Arthurs Hill, Shanklin PO37 6EZ, UK",276
4683806,"23B Cross St, Sandown PO36 8BQ, UK",276
3798570,"23b High St, Salisbury SP1 2NJ, United Kingdom",276
3849473,"23B High Street Whitton, Twickenham TW2, United Kingdom",276
3877559,"23B Nicholson Rd, Croydon CR0 6QT, United Kingdom",276
3885049,"24 Baker St, Orsett, Grays RM16 3LJ, United Kingdom",276
5083155,"24 Beaconsfield Rd, St Albans AL1 3RB, United Kingdom",276
3880016,"24 Beckenham Rd, Beckenham BR3 4PF, United Kingdom",276
4656879,"24 Beresford St, St Helier JE2 4WN, Jersey",276
3887736,"24 Bexley High St, Bexley DA5 1AD, United Kingdom",276
3834468,"24 Boniface Walk, Harrow HA3 6PU, United Kingdom",276
3885519,"24 Borkwood Park, Orpington BR6 9LD, United Kingdom",276
4633460,"24 Bridge St, Tadcaster LS24 9AL, UK",276
5667384,"24 Castle St, East Cowes PO32 6RD",276
3878271,"24 Chatsworth Rd, Croydon CR0 1HA, United Kingdom",276
5081867,"24 Clarendon Road, Arliss Court, Watford WD17 1JY, United Kingdom",276
3847496,"24 Coldharbour Ln, Hayes UB3 3EW, United Kingdom",276
3896776,"24 Collier Row Rd, Romford RM5 3NX, United Kingdom",276
4656586,"24 Commercial Buildings, St Helier JE2 3NB, Jersey",276
4656564,"24 Commercial Buildings, St Helier, Jersey JE2 3NB, Jersey",276
5565550,"24 Cowley Rd, Woodland Pizza & Kebab, Uxbridge UB8 2LT, United Kingdom",276
4683191,"24 Downsview, Sandown PO36 9NY, UK",276
5567402,"24 Ealing Rd, Wembley HA0 4TL, United Kingdom",276
5571237,"24 East St, Bromley BR1 1QU, United Kingdom",276
3858930,"24 East View, Barnet EN5 5TN, United Kingdom",276
3851317,"24 Fit Club Unit 5 QueensGate, 2 Lord Street, Watford. Hertfordshire WD17 2LQ, United Kingdom",276
3859567,"24 Glengall Rd, Edgware HA8 8ST, United Kingdom",276
5564564,"24 Green Ln, Northwood HA6 2QB, United Kingdom",276
3849814,"24 Greenhill Cres, Watford WD18 8XN, United Kingdom",276
3864977,"24 Hedworth Ave, Waltham Cross EN8 8AP, United Kingdom",276
5568617,"24 Heritage Avenue, Beaufort Park, Colindale NW9 5EW, United Kingdom",276
5571497,"24 High St, Banstead SM7 2LJ, United Kingdom",276
5568078,"24 High St, Barnet EN5 5RU, United Kingdom",276
3888920,"24 High St, Gravesend DA11 0AZ, United Kingdom",276
5572314,"24 High St, Ilford IG6 2DF, United Kingdom",276
3831335,"24 High St, Oldham OL1 1JA, United Kingdom",276
3883590,"24 High St, Purley CR8 2AA, United Kingdom",276
4683743,"24 High St, Sandown PO36 8DE, UK",276
3846989,"24 High St, Uxbridge UB8 1JN, United Kingdom",276
3845736,"24 High St, Uxbridge, United Kingdom",276
3883440,"24 High St, West Wickham, United Kingdom",276
3798060,"24 Hillside Cl, West Dean, Salisbury SP5 1EX, United Kingdom",276
3877982,"24 Ivydale Rd, Bognor Regis PO21 5LY, United Kingdom",276
3849606,"24 Joel St, Northwood HA6 1PF, United Kingdom",276
5571351,"24 Kingsway, West Wickham BR4 9JG, United Kingdom",276
3858220,"24 Lytton Rd, Barnet EN5 5BY, United Kingdom",276
3878006,"24 Mallinson Rd, Croydon CR0 4UL, United Kingdom",276
3834100,"24 Market St, Heywood OL10 4HY, United Kingdom",276
4682829,"24 Meadow Rd, East Cowes PO32 6HU, UK",276
3885680,"24 Newbery Rd, Erith DA8 2BY, United Kingdom",276
3888065,"24 Northfield Rd, Dagenham RM9 5UR, United Kingdom",276
3798051,"24 Pembroke Rd, Salisbury SP2 9DG, United Kingdom",276
4684290,"24 Place Rd, Cowes PO31 7UA, UK",276
5083182,"24 Ripon Way, Borehamwood WD6 2HS, United Kingdom",276
3850875,"24 ROWLAND PLACE, GREEN LANE, Northwood HA6 1AD, United Kingdom",276
3843657,"24 Ruxley Cl, Epsom KT19 9ND, United Kingdom",276
4657380,"24 Sand Street, St Helier, Jersey JE2 3QF, United Kingdom",276
3847419,"24 Shenley Ave, Ruislip HA4 6BX, United Kingdom",276
5566574,"24 Spring Grove Rd, Hounslow TW3 4BJ, United Kingdom",276
3858784,"24 St Annes Road, Harrow HA1 1LA, United Kingdom",276
4653253,"24 St John's Rd, Sandown PO36 8ES, UK",276
3858622,"24 Station Rd, Edgware HA8 7AB, United Kingdom",276
3885699,"24 Station Rd, Sidcup DA15 7DU, United Kingdom",276
5571381,"24 Station Square, Orpington BR5 1NA, United Kingdom",276
3887734,"24 Steynton Ave, Bexley DA5 3HP, United Kingdom",276
3865004,"24 Sun St, Waltham Abbey EN9 1EE, United Kingdom",276
5569143,"24 Sun St, Waltham Abbey EN9 1EE, United Kingdom",276
3885402,"24 Sussex Rd, Dartford DA1 1SH, United Kingdom",276
4682794,"24 Terminus Rd, Cowes PO31 7TJ, UK",276
3888849,"24 Thames Rd, Barking IG11 0HZ, United Kingdom",276
3877477,"24 Upper Park Rd, Kingston upon Thames KT2 5LD, United Kingdom",276
3878567,"24 Uvedale Cres, New Addington, Croydon CR0 0BP, United Kingdom",276
3855124,"24 Waltham Dr, Edgware HA8 5PQ, United Kingdom",276
4682635,"24 Western Rd, Shanklin PO37 7NF, UK",276
4684082,"24 Wilton Park Rd, Shanklin PO37 7BT, UK",276
3850995,"24 Wood Ln, Isleworth TW7, United Kingdom",276
5570462,"24 Woodcote Rd, Wallington SM6 0NN, United Kingdom",276
3885631,"24-26 Brunswick Centre, Bloomsbury WC1N 1AW, United Kingdom",276
3863933,"24-26 Crayford High St, Dartford DA1 4HG, United Kingdom",276
5567911,"24-26 Headstone Dr, Harrow HA3 5QH, United Kingdom",276
3878260,"24-26 High St, Kingston upon Thames KT1 1HL, United Kingdom",276
3888866,"24-26 High St, Romford RM1 1HR, United Kingdom",276
3846093,"24-28 Cowleaze Rd, Kingston upon Thames KT2 6DZ, United Kingdom",276
3877860,"24-28 High St, New Malden KT3 4HE, United Kingdom",276
3887825,"240 Bennett's Castle Ln, Dagenham RM8 3UU, United Kingdom",276
3884418,"240 Bexley Rd, Erith DA8 3HB, United Kingdom",276
3888633,"240 High Rd, Dagenham, Romford RM6 6AP, United Kingdom",276
5569325,"240 High St, Enfield EN3 4EZ, United Kingdom",276
5569148,"240 High St, Potters Bar EN6 5DB, United Kingdom",276
3846969,"240 Kingshill Ave, Hayes UB4 8BZ, United Kingdom",276
3857133,"240 Northolt Rd, Harrow HA2 8DU, United Kingdom",276
3888787,"240-242 Broadway, Bexleyheath DA6 8AS, United Kingdom",276
3852210,"241 Goff's Ln, Waltham Cross EN7 5QQ, United Kingdom",276
3888593,"241 Heathway, Dagenham RM9 5AN, United Kingdom",276
3889725,"241 Lower Rd, Belvedere DA17 6DQ, United Kingdom",276
3873498,"241 South Ln, New Malden KT3 5RP, United Kingdom",276
3884272,"241A High St, Orpington BR5 4AR, United Kingdom",276
3889718,"242 Bexley Rd, Erith DA8 3HB, United Kingdom",276
5571852,"242 High Rd, Romford RM6 6AP, United Kingdom",276
5570974,"242 High Sreet, Croydon CR0 1NF, United Kingdom",276
3883250,"242 High St, Bromley BR1 1PQ, United Kingdom",276
3881144,"242 High St, Croydon CR0 1NF, United Kingdom",276
3874091,"242 Kingston Rd, New Malden KT3 3RN, United Kingdom",276
3884094,"242 Main Rd, Romford RM2 5EU, United Kingdom",276
3872933,"242 Ruxley Ln, Chessington Rd, West Ewell, Epsom KT19 9EY, United Kingdom",276
3845418,"242 Western Rd, Southall UB2 5JW, United Kingdom",276
5570160,"242-244 Lavender Hill, Clapham Junction SW11 1LJ, United Kingdom",276
5568664,"242-248 High St, Barnet EN5 5TD, United Kingdom",276
3885443,"242-282 Chigwell Rd, Woodford, Woodford Green IG8 8PP, United Kingdom",276
3896981,"243 Beehive Ln, Ilford IG4 5ED, United Kingdom",276
5571302,"243 High St, Beckenham BR3 1BN, United Kingdom",276
4505773,"243 Leadwell Ln, Robin Hood, Wakefield WF3 3AG, UK",276
3852683,"243 Mutton Ln, Potters Bar EN6 2AT, United Kingdom",276
3885399,"244 Bennett's Castle Ln, Dagenham RM8 3UU, United Kingdom",276
3886205,"244 Bexley Rd, Erith DA8 3HB, United Kingdom",276
3886679,"244 Blackfen Rd, Sidcup DA15 8PW, United Kingdom",276
3892898,"244 High Rd, Ilford IG1 1QF, United Kingdom",276
3861370,"244 High St, Barnet EN5 5TD, United Kingdom",276
3883939,"244 High St, Bromley BR1 1PQ, United Kingdom",276
3884468,"244 High St, Orpington BR6 0LZ, United Kingdom",276
3851935,"244 Martin Way, Morden SM4 4AW, United Kingdom",276
3888350,"244 Sherwood Park Ave, Sidcup DA15 9JN, United Kingdom",276
3856579,"244 Station Rd, Edgware HA8 7AU, United Kingdom",276
3882533,"244 Welbeck Rd, Carshalton SM5 1LW, United Kingdom",276
3880519,"244 Wickham Rd, Croydon CR0 8BJ, United Kingdom",276
4592037,"244-250 New Row, Telford TF3 4BS, UK",276
5571902,"245 Beehive Ln, Ilford IG4 5ED, United Kingdom",276
5572025,"245 Broadway, Bexleyheath DA6 8DB, United Kingdom",276
3881573,"245 Croydon Rd, Beckenham BR3 3PS, United Kingdom",276
3857309,"245 E Barnet Rd, Barnet EN4 8SS, United Kingdom",276
3864262,"245 High Rd, Chigwell IG7 5BL, United Kingdom",276
3849953,"245 High Street, Hounslow, Middlesex TW3 1EA, United Kingdom",276
3845906,"245 Long Elms, Harrow HA3 6LE, United Kingdom",276
3849484,"245 Staines Rd, Hounslow TW3 3JJ, United Kingdom",276
5564438,"245 Station Rd, Harrow HA1 2TB, United Kingdom",276
3886455,"246 Broadway, Bexleyheath DA6 8AS, United Kingdom",276
3877902,"246 High St, Beckenham BR3 1DZ, United Kingdom",276
3867320,"246 Southlands Rd, Bromley BR1 2EQ, United Kingdom",276
5564242,"246 Uxbridge Rd, Hatch End, Pinner HA5 4HS, United Kingdom",276
3881527,"246 Wickham Rd, Croydon CR0 8BJ, United Kingdom",276
3882956,"247 Broadway, Bexleyheath DA6 8DB, United Kingdom",276
3884670,"247 Heathway, Dagenham RM9 5BG, United Kingdom",276
3866256,"247 High St, Enfield EN3 4DR, United Kingdom",276
3864981,"247 High St, Waltham Cross EN8 7BE, United Kingdom",276
5564346,"247 Northolt Rd, Harrow HA2 8HR, United Kingdom",276
5566233,"248 Hanworth Rd, Hounslow TW3 3TY, United Kingdom",276
3882116,"248 High St, Croydon CR0 1NF, United Kingdom",276
3855477,"248 High St, Potters Bar EN6 5DB, United Kingdom",276
3864992,"248 High St, Waltham Cross EN8 7ET, United Kingdom",276
3879908,"248-250 High St, Orpington BR6 0LZ, United Kingdom",276
3877580,"249 Beckenham Rd, Beckenham BR3 4RP, United Kingdom",276
3888376,"249 Blackfen Rd, Sidcup DA15 8PR, United Kingdom",276
3894945,"249 Brentwood Rd, Romford RM1 2RL, United Kingdom",276
3894656,"249 Croydon Rd, Beckenham BR3 3PS, United Kingdom",276
5568723,"249 E Barnet Rd, Barnet EN4 8SS, United Kingdom",276
3873508,"249 Ewell Rd, Surbiton KT6 7AA, United Kingdom",276
3879858,"249 High St, Orpington BR6 0NR, United Kingdom",276
3865889,"249 High St, Waltham Cross EN8 7BE, United Kingdom",276
3851800,"249 Long Elmes, Harrow HA3 6LE, United Kingdom",276
5572321,"249-251 Beehive Ln, Ilford IG4 5ED, United Kingdom",276
3887726,"249-251 Bexley Rd, Erith DA8 3EX, United Kingdom",276
3859053,"249-251 Oldfield Ln N, Greenford UB6 8PX, United Kingdom",276
5567920,"249-251 Station Rd, Harrow HA1 2TB, United Kingdom",276
3846333,"249D Station Rd, Harrow HA1 2TB, United Kingdom",276
3880550,"24A Letchworth Dr, Bromley BR2 9BE, United Kingdom",276
3895316,"24A Whalebone Ln S, Dagenham RM8 1BJ, United Kingdom",276
4683336,"24B Holyrood St, Newport (IOW), Newport PO30 5AZ, UK",276
4684023,"24F Union St, Ryde PO33 2DT, UK",276
5089718,"25 Argyle Rd, Ilford IG1 3BH, United Kingdom",276
3864314,"25 Barnet Rd, Potters Bar EN6 2QX, United Kingdom",276
3848719,"25 Beaulieu Dr, Pinner HA5 1NB, United Kingdom",276
3846392,"25 Bridge St, Pinner HA5 3HR, United Kingdom",276
3848523,"25 Bridge St, Pinner HA5 3HR, United Kingdom",276
4597687,"25 Brinsworth Ln, Brinsworth, Rotherham S60 5BS, UK",276
3883773,"25 Bushey Way, Beckenham BR3 6TA, United Kingdom",276
3848240,"25 Chequers Square, Uxbridge UB8 1LN, United Kingdom",276
3889931,"25 Corbets Tey Rd, Upminster RM14 2AP, United Kingdom",276
5570480,"25 Croham Rd, South Croydon CR2 7PB, United Kingdom",276
5572255,"25 Crown St, Brentwood CM14 4BA, United Kingdom",276
5618330,"25 Derby Rd, Loughborough LE11 5BX",276
4656873,"25 Don Street, St Helier, Jersey JE2 4TR, United Kingdom",276
3883295,"25 Eldred Dr, Orpington BR5 4PE, United Kingdom",276
3879566,"25 Frimley Gardens, Mitcham CR4 3AQ, United Kingdom",276
3882071,"25 George St, Croydon CR0 1LB, United Kingdom",276
3847986,"25 Glanville Mews, Stanmore HA7 4FW, United Kingdom",276
5572346,"25 Goresbrook Rd, Dagenham RM9 6UX, United Kingdom",276
3838465,"25 Hardengreen Ln, Dalkeith EH22 3NX, United Kingdom",276
3848935,"25 Hatton Walk, Enfield EN2 6BP, United Kingdom",276
5565430,"25 Heath Rd, Twickenham TW1 4AW, United Kingdom",276
3887444,"25 High St, Brentwood CM14 4RG, United Kingdom",276
4450046,"25 High St, Carrickfergus BT38 7AN, UK",276
3844381,"25 High St, Dartford DA1 1DT, United Kingdom",276
5646091,"25 High St, Eastleigh SO50 5LF",276
3851838,"25 High St, Harrow HA3 5DJ, United Kingdom",276
5570647,"25 High St, New Malden KT3 4BY, United Kingdom",276
3883722,"25 High St, Orpington BR6 6BG, United Kingdom",276
3884243,"25 High St, Rg Solicitors, Sidcup DA14 6ED, United Kingdom",276
5667022,"25 High St, Ryde PO33 2HT",276
4684047,"25 High St, Shanklin PO37 6JW, UK",276
3844368,"25 High St, Sutton SM1 1DJ, United Kingdom",276
3883037,"25 High Street Downe, Downe, Orpington BR6 7US, United Kingdom",276
5565653,"25 High Street Whitton, Twickenham TW2 7LB, United Kingdom",276
3885403,"25 Hunsdon Cl, Dagenham RM9 5BU, United Kingdom",276
5564702,"25 Joel St, Northwood HA6 1NU, United Kingdom",276
3845004,"25 King St, Twickenham TW1 3SU, United Kingdom",276
3857837,"25 Leeming Rd, Borehamwood WD6 4EB, United Kingdom",276
4618795,"25 Mawdsley St, Bolton BL1 1LL, UK",276
3889781,"25 Meldrum Rd, Dagenham, Ilford IG3 9PQ, United Kingdom",276
3848337,"25 Mornington Cres, Hounslow TW5 9ST, United Kingdom",276
4656137,"25 New St, St. Helier, St Helier, Jersey JE4 8RG, United Kingdom",276
3864575,"25 Norris Ln, Hoddesdon EN11 8QU, United Kingdom",276
5082301,"25 Oatlands Chase, Weybridge KT13 9RW, United Kingdom",276
3845831,"25 Oldfield Ln S, Greenford UB6 9LG, United Kingdom",276
3868974,"25 Parsonage Ln, Sidcup DA14 5EZ, United Kingdom",276
3889391,"25 Pier Rd, Erith DA8 1TA, United Kingdom",276
3888014,"25 Princes Rd, Romford RM1 2SP, United Kingdom",276
5171795,"25 Queen's Rd, Shanklin PO37 6AW, United Kingdom",276
4598268,"25 Redscope Cres, Rotherham S61 3LY, UK",276
3799182,"25 School Dr, Durrington, Salisbury SP4 8EN, United Kingdom",276
5083092,"25 Spencer Rd, Harrow HA3 7AN, United Kingdom",276
4682753,"25 Star St, Ryde PO33 2JH, UK",276
3850899,"25 Station Rd, Harrow HA1 2UA, United Kingdom",276
5565912,"25 Station Rd, Hayes UB3 4BD, United Kingdom",276
3889697,"25 Station Rd, Upminster RM14 2SJ, United Kingdom",276
3863535,"25 Stonehills, Welwyn Garden City AL8 6NA, United Kingdom",276
5603891,"25 Sun St, Lancaster LA1",276
3844366,"25 Tenby Ave, Harrow HA3 8RU, United Kingdom",276
3851324,"25 The Broadway, Stanmore HA7 4DA, United Kingdom",276
3852978,"25 The Broadway, Stanmore HA7 4DA, United Kingdom",276
3855382,"25 The Broadway, Stanmore HA7 4DA, United Kingdom",276
3849471,"25 The Centre, Feltham TW13 4BS, United Kingdom",276
3846511,"25 The Embankment, Twickenham TW1 3DU, United Kingdom",276
5565611,"25 The Green, Southall UB2 4AN, United Kingdom",276
3882293,"25 Tillingbourne Green, Orpington BR5 2HR, United Kingdom",276
3859692,"25 Traps Hill, Loughton IG10 1SZ, United Kingdom",276
3879840,"25 Walnuts Rd, Orpington BR6 0TW, United Kingdom",276
5089522,"25 Waycross Road, Upminster RM14 1LY, United Kingdom",276
3867512,"25 Windmill Hill, Enfield EN2 7AE, United Kingdom",276
4682085,"25 Worsley Rd, Cowes PO31 8JW, UK",276
4684695,"25 Worsley Rd, Cowes PO31 8JW, UK",276
3858324,"25, Ealing Broadway Centre, The Broadway, Ealing W5 5JY, United Kingdom",276
3859583,"25, The Broadwalk Shopping Centre, Station Rd, Edgware HA8 7BD, United Kingdom",276
5709226,"25-26 Commercial St, Newport NP20 1YD",276
3838614,"25-27 High St, Dalkeith EH22 1LD, United Kingdom",276
3888884,"25-27brookdale Avenue, Upminster RM14 2LT, United Kingdom",276
3847006,"25-29 Coldharbour Ln, Hayes UB3 3EB, United Kingdom",276
3874125,"25-29 High St, Kingston upon Thames KT1 1LL, United Kingdom",276
5571595,"25-29 S End, Croydon CR0 1BE, United Kingdom",276
3874089,"25/27 Tooting High Street, Tooting SW17 0SN, United Kingdom",276
3849737,"25/37 Station Road, Hayes UB3 4DX, United Kingdom",276
3817052,"250 Chapel St, Salford M3 5LL, United Kingdom",276
3882244,"250 Godstone Rd, Warlingham, Whyteleafe CR3, United Kingdom",276
5571343,"250 High St, Bromley BR1 1PG, United Kingdom",276
3885643,"250 Hounslow Rd, Hanworth TW13 5JP, United Kingdom",276
3845728,"250 Kingshill Ave, Hayes UB4 8BZ, United Kingdom",276
3855380,"250 Northolt Rd, Harrow HA2 8DY, United Kingdom",276
3846928,"250 Uxbridge Rd, Pinner HA5 4HS, United Kingdom",276
5570994,"251 Beckenham Rd, Beckenham BR3 4RP, United Kingdom",276
5571189,"251 Croydon Rd, Beckenham BR3 3PS, United Kingdom",276
3878748,"251 Eden Park Ave, Beckenham BR3 3JN, United Kingdom",276
5569348,"251 Hertford Rd, Enfield EN3 5JJ, United Kingdom",276
5572128,"251 High Rd, Ilford IG1 1NE, United Kingdom",276
5570989,"251 High St, Beckenham BR3 1BN, United Kingdom",276
3857140,"251 Northolt Rd, Harrow HA2 8HR, United Kingdom",276
3881006,"251 Watling St, Dartford DA2 6EG, United Kingdom",276
3852408,"252 Balmoral Dr, Hayes UB4 8DG, United Kingdom",276
3887746,"252 Blackfen Rd, Sidcup DA15 8PW, United Kingdom",276
3883457,"252 High St, Croydon CR0 1NF, United Kingdom",276
3885521,"252 High St, Orpington BR6 0LZ, United Kingdom",276
3847497,"252 Kingshill Ave, Hayes UB4 8BZ, United Kingdom",276
3849844,"252 Oldfield Ln N, Greenford UB6 8PR, United Kingdom",276
3887704,"252 Rainham Rd S, Dagenham RM10 7UU, United Kingdom",276
3829889,"252 The Quays, Salford M50 3SD, United Kingdom",276
3872323,"252 Winchcombe Rd, Sutton, Carshalton SM5 1SA, United Kingdom",276
3881247,"252B High St, Bromley BR1 1PG, United Kingdom",276
3864967,"253 Bullsmoor Ln, Enfield EN1 4SB, United Kingdom",276
3860974,"253 Cranbrook Rd, Ilford IG1 4TG, United Kingdom",276
3854946,"253 E Barnet Rd, Barnet EN4 8ST, United Kingdom",276
3854965,"253 E Barnet Rd, Barnet EN4 8ST, United Kingdom",276
5569221,"253 Green St, Enfield EN3 7SH, United Kingdom",276
5571166,"253 Lower Addiscombe Rd, Croydon CR0 6RD, United Kingdom",276
5564353,"253 Northolt Rd, Harrow HA2 8HS, United Kingdom",276
5568662,"253 Southbury Rd, Enfield EN1 1RG, United Kingdom",276
3887718,"253 Westwood Ln, Sidcup DA15 9PS, United Kingdom",276
3850186,"253-255 The Broadway, Southall UB1 1NF, United Kingdom",276
3883966,"253/, 255 High St, Orpington BR6 0NY, United Kingdom",276
3847279,"253A Field End Rd, Ruislip, Pinner HA4 9NJ, UK",276
3851952,"254 High Rd, Harrow HA3 7BB, United Kingdom",276
5571521,"254 High St, Bromley BR1 1PG, United Kingdom",276
5571213,"254 High St, Orpington BR6 0LZ, United Kingdom",276
3851859,"254 Northolt Rd, Harrow HA2 8DZ, United Kingdom",276
3886203,"254 Sherwood Park Ave, Sidcup DA15 9JN, United Kingdom",276
3884686,"254-256 Oxlow Ln, Dagenham RM10 7YX, United Kingdom",276
3845730,"254A Kingshill Ave, Hayes UB4 8BZ, United Kingdom",276
4593993,"255 Kimberworth Rd, Rotherham S61 1HF, UK",276
3885369,"256 Heathway, Dagenham RM10 8QS, United Kingdom",276
5571483,"256 High Street, Croydon CR0 1NF, United Kingdom",276
5568009,"256 Streatfield Rd, Harrow HA3 9BY, United Kingdom",276
3848578,"256 Twickenham Rd, Isleworth TW7 7DT, United Kingdom",276
3885372,"256 Wanstead Park Rd, Ilford IG1 3TT, United Kingdom",276
3881186,"256-258 High St, Beckenham BR3 1DZ, United Kingdom",276
3881108,"256A High St, Bromley BR1 1PG, United Kingdom",276
5087024,"256A High St, Croydon CR0 1NF, United Kingdom",276
3885573,"257 Days Ln, Sidcup DA15 8JX, United Kingdom",276
3881533,"257 Lower Addiscombe Rd, Croydon CR0 6RD, United Kingdom",276
3851707,"257 Oldfield Ln N, Greenford UB6 8PX, United Kingdom",276
3884383,"257 Upper Wickham Ln, Welling DA16 3AP, United Kingdom",276
5033699,"257, Southwark Park Road, Southwark S16 3TP, United Kingdom",276
3896627,"258 Barley Ln, Ilford IG3 8XS, United Kingdom",276
3887560,"258 Broadway, Bexleyheath DA6 8BE, United Kingdom",276
3881357,"258 Green Ln, Morden SM4 6SL, United Kingdom",276
3860675,"258 Hertford Rd, Enfield EN3 5BN, United Kingdom",276
3865078,"258 Hertford Rd, Enfield EN3 5BN, United Kingdom",276
5570340,"258 Martin Way, Morden SM4 4AW, United Kingdom",276
4682641,"258 Newport Rd, Cowes PO31 8PE, UK",276
3895304,"258 Perth Rd, Ilford IG2 6DY, United Kingdom",276
5572164,"258 Rainham Rd S, Dagenham RM10 7UU, United Kingdom",276
5571147,"258 Sherwood Park Ave, Sidcup DA15 9JN, United Kingdom",276
3848575,"258 Twickenham Rd, Isleworth TW7 7DT, United Kingdom",276
3848522,"258, Uxbridge Rd, Hatch End HA5 4HS, United Kingdom",276
3844859,"258-260 Bedfont Ln, Feltham TW14 9NU, United Kingdom",276
3889314,"258-262 Heathway, Dagenham RM10 9NT, United Kingdom",276
3848520,"259 Field End Rd, Ruislip HA4 9NJ, United Kingdom",276
3843782,"259 Long Elmes, Harrow HA3 6LE, United Kingdom",276
5568173,"259 Station Rd, Harrow HA1 2TB, United Kingdom",276
3860044,"259 Water Rd, Park Lane, Wembley HA0 1HX, United Kingdom",276
3857400,"25A Rosslyn Ave, Barnet EN4 8DH, United Kingdom",276
5569104,"25a Windmill Hill, Enfield EN2 7AE, United Kingdom",276
3844195,"26 Aldenham Road, The Garden Design Studio, Radlett WD7 8AX, United Kingdom",276
3857419,"26 Ashwood Rd, Potters Bar EN6 2PH, United Kingdom",276
5571122,"26 Avebury Ave, Tonbridge TN9 1TN, United Kingdom",276
3872535,"26 Beaufort Rd, Kingston upon Thames KT1 2TQ, United Kingdom",276
3852187,"26 Bilton Rd, Perivale, Greenford UB6 7DS, United Kingdom",276
3894851,"26 Boulton Rd, Dagenham RM8 3DD, United Kingdom",276
3871366,"26 Bridge Rd, Molesey, East Molesey KT8 9HA, United Kingdom",276
5171836,"26 Broadway, Sandown PO36 9BY, United Kingdom",276
3878576,"26 Brooklyn Rd, Bromley BR2 9SD, United Kingdom",276
3843759,"26 Buckingham Ave, Slough SL1 4QA, United Kingdom",276
3799140,"26 Burnet Way, Salisbury SP1 3HX, United Kingdom",276
5086825,"26 Burnham Rd, Morden SM4 5LX, United Kingdom",276
3877625,"26 Chaldon Rd, Caterham CR3 5PE, United Kingdom",276
3885180,"26 Chesworth Cl, Erith DA8 3AB, United Kingdom",276
3871481,"26 Clarence St, Kingston upon Thames KT1 1NU, United Kingdom",276
3854982,"26 Crescent W, Barnet EN4 0EJ, United Kingdom",276
3860316,"26 Crescent W, Barnet EN4 0EJ, United Kingdom",276
4684756,"26 Crocker St, Newport PO30 5DB, UK",276
3872430,"26 Cromwell Rd, Kingston upon Thames KT2 6RE, United Kingdom",276
3880868,"26 Crown Ln, Morden SM4 5BL, United Kingdom",276
3894264,"26 Danbury Cl, Romford RM6 5HU, United Kingdom",276
3885543,"26 Deepdene Rd, Welling DA16 3QL, United Kingdom",276
3855175,"26 E Barnet Rd, Barnet EN4 8RQ, United Kingdom",276
3883662,"26 Elmfield Rd, Bromley BR1 1LR, United Kingdom",276
4656161,"26 Esplanade, St Helier JE1 2RB, United Kingdom",276
3883459,"26 Fitzjames Ave, Croydon CR0 5DH, United Kingdom",276
3881128,"26 Godstone Rd, Purley CR8 2DB, United Kingdom",276
3797331,"26 Harrington Dr, Bulford Camp, Salisbury SP4 9LB, United Kingdom",276
3888594,"26 Heathway, Dagenham RM10 8RE, United Kingdom",276
3857952,"26 High St, Barnet EN5 5RU, United Kingdom",276
3879567,"26 High St, Caterham CR3 5UA, United Kingdom",276
5570760,"26 High St, Croydon CR0 1GT, United Kingdom",276
3851670,"26 High St, Rickmansworth WD3 1ER, United Kingdom",276
5081894,"26 High St, Slough SL1 1EL, United Kingdom",276
3880793,"26 High Street Downe, Downe, Orpington BR6 7UT, United Kingdom",276
3883038,"26 High Street Downe, Downe, Orpington BR6 7UT, United Kingdom",276
5087048,"26 Highland Rd, Purley CR8 2HS, United Kingdom",276
3848653,"26 Kingston Ln, West Drayton UB7 9EA, United Kingdom",276
3879922,"26 Market Square, Bromley BR1 1NA, United Kingdom",276
3882559,"26 Molesey Dr, Sutton SM3 9UU, United Kingdom",276
3868537,"26 Myles Ct, Goff's Oak, Waltham Cross EN7 5PP, United Kingdom",276
3799131,"26 North St, Wilton, Salisbury SP2 0HJ, United Kingdom",276
5568292,"26 Palmerston Rd, Harrow HA3 7RR, United Kingdom",276
4684672,"26 Pelham Rd, Cowes PO31 7DS, UK",276
4684673,"26 Pelham Rd, Cowes PO31 7DS, UK",276
5571546,"26 Pendleton Rd, Redhill RH1 6QF, United Kingdom",276
5572012,"26 Pickford Ln, Bexleyheath DA7 4QW, United Kingdom",276
3879688,"26 Reigate Rd, Ewell, Epsom KT17 1PG, United Kingdom",276
3849789,"26 Riverside, Guildford GU1 1LW, United Kingdom",276
3797436,"26 Salisbury Rd, Bulford, Salisbury SP4 9DQ, United Kingdom",276
3799473,"26 Salisbury Rd, Bulford, Salisbury SP4 9DQ, United Kingdom",276
3799511,"26 Salisbury Rd, Salisbury SP4 9DQ, United Kingdom",276
3878844,"26 Sanderstead Ct Ave, South Croydon CR2 9AG, United Kingdom",276
4578863,"26 Seafield Cl, East Wittering, Chichester PO20 8DP, UK",276
3881133,"26 Selsdon Rd, Croydon CR2 6PB, United Kingdom",276
3892568,"26 Severn Dr, Upminster RM14 1SW, United Kingdom",276
5568089,"26 Shenley Rd, Borehamwood WD6 1DR, United Kingdom",276
3866629,"26 Southbury Rd, Enfield EN1 1SA, United Kingdom",276
3857289,"26 Spooners Dr, St Albans AL2, United Kingdom",276
5087700,"26 Springhead Rd, Northfleet, Gravesend DA11 9QY, United Kingdom",276
3799246,"26 St Ann St, Salisbury SP1 2DP, United Kingdom",276
3799254,"26 St Ann St, Salisbury SP1 2DP, United Kingdom",276
4682146,"26 St James' St, Newport PO30 1HY, UK",276
3885883,"26 St Michael's Rd, Sittingbourne ME10 3DE, United Kingdom",276
3845410,"26 Staines Rd, Twickenham TW2 5AH, United Kingdom",276
3877947,"26 Station Approach, Bromley BR2 7EH, United Kingdom",276
3889398,"26 Station Road, Upminster RM14 2UB, United Kingdom",276
5570814,"26 Station Way, Sutton SM3 8SQ, United Kingdom",276
3843788,"26 Sutton Ct Rd, Uxbridge UB10 9HP, United Kingdom",276
5568519,"26 The Broadway, Potters Bar EN6 2HW, United Kingdom",276
4520375,"26 The Rushes, Loughborough LE11 5BG, UK",276
3848776,"26 Walton Bridge Rd, Shepperton TW17 8NE, United Kingdom",276
5571321,"26 Wellesley Rd, Croydon CR0 9XY, United Kingdom",276
5570238,"26 West St, Epsom KT18 7RJ, United Kingdom",276
3861079,"26 Wilton Rd, Barnet EN4 9DX, United Kingdom",276
3865539,"26 Woodford Ave, Ilford IG2 6XG, United Kingdom",276
3888080,"26 Woollard Way, Blackmore, Ingatestone CM4 0QN, United Kingdom",276
3877924,"26, 21 N End, Croydon CR0 1TY, United Kingdom",276
3880858,"26, 21 N End, Croydon CR0 1TY, United Kingdom",276
5565104,"26, St George's Shopping Centre, St Anns Road, Harrow HA1 1HS, United Kingdom",276
3882789,"26, Whitgift Shopping Centre, Wellesley Rd, Croydon CR0 1UP, United Kingdom",276
3798792,"26-27 Water Lane,, Fisherton Street, Salisbury SP2 7TE, United Kingdom",276
3887607,"26-28 Goresbrook Rd, Dagenham RM9 6UR, United Kingdom",276
3897258,"26-28 Green Ln, Croydon CR7 8BB, United Kingdom",276
3897246,"26-28 High St, Ilford IG6 2DQ, United Kingdom",276
3868257,"26-28 Queensway, Enfield EN3 4SA, United Kingdom",276
4684079,"26-28 Regent Street, Shanklin, Shanklin PO37 7AA, United Kingdom",276
3889266,"26-28 South Rd, Erith DA8 3RA, United Kingdom",276
3851843,"26-28 St Ann's Road, Middlesex, Harrow HA1 1LA, United Kingdom",276
3851700,"26-28 The Broadway, Greenford UB6 9PT, United Kingdom",276
3851895,"26-28 The Broadway, Greenford UB6 9PT, United Kingdom",276
3887213,"26-30 South St, Romford RM1 1RA, United Kingdom",276
4657008,"26-32 King Street, Jersey JE2 4WF, United Kingdom",276
3877883,"26/ The, 34 Broadway, Surbiton KT6 7HL, United Kingdom",276
5568657,"26/27 Greenhill Park, New Barnet, Barnet EN5 1HQ, United Kingdom",276
3850557,"26/30 High Street, Whitton, Twickenham TW2 7LT, United Kingdom",276
3881276,"260 Croydon Rd, Mitcham CR4 4JA, United Kingdom",276
3881480,"260 Hayes Ln, Coulsdon, Kenley CR8, United Kingdom",276
3878346,"260 High St, Sutton SM1 1PG, United Kingdom",276
5570768,"260 High St, Sutton SM1 1PG, United Kingdom",276
5565789,"260 Kingshill Ave, Hayes UB4 8BZ, United Kingdom",276
3845970,"260 Streatfield Rd, Harrow HA3 9BY, United Kingdom",276
5571176,"260 The Glades Shopping Centre, Bromley BR1 1DN, United Kingdom",276
3844604,"260 Twickenham Rd, Isleworth TW7 7DT, United Kingdom",276
5564826,"260 Yeading Ln, Hayes UB4 9AX, United Kingdom",276
3881209,"260-262 High St, Bromley BR1 1PG, United Kingdom",276
3856145,"261 E Barnet Rd, Barnet EN4 8SX, United Kingdom",276
3887177,"261 High Rd, Ilford IG1 1NJ, United Kingdom",276
3868959,"261 High St, Orpington BR6 0NW, United Kingdom",276
5570961,"261 High St, Orpington BR6 0NW, United Kingdom",276
3882764,"261 Lower Addiscombe Rd, Croydon CR0 6RD, United Kingdom",276
3886249,"261 Main Rd, Sidcup DA14 6QS, United Kingdom",276
3845952,"261 Northolt Rd, Harrow HA2 8HS, United Kingdom",276
3857139,"261 Preston Rd, Harrow HA3 0PS, United Kingdom",276
3851950,"261 Station Rd, Harrow HA1 2TB, United Kingdom",276
3886973,"261- 263 Bexley Rd, Erith DA8 3EX, United Kingdom",276
3886645,"261-275 High Rd, Ilford IG1 1NJ, United Kingdom",276
3892863,"262 Chadwell Heath Ln, Romford RM6 4YL, United Kingdom",276
3872452,"262 Kingston Rd, Teddington TW11 9JQ, United Kingdom",276
3872205,"262 Martin Way, Morden SM4 4AW, United Kingdom",276
5571205,"262 Sherwood Park Ave, Sidcup DA15 9JN, United Kingdom",276
3867527,"262-264 High St, Enfield EN3 4HB, United Kingdom",276
3849735,"262-264 Kingshill Ave, Hayes UB4 8BZ, United Kingdom",276
5564432,"262-264 Yeading Ln, Hayes UB4 9AX, United Kingdom",276
5571637,"263 Croydon Rd, Beckenham BR3 3PS, United Kingdom",276
3865400,"263 E Barnet Rd, Barnet EN4 8SX, United Kingdom",276
3834426,"263 Hanworth Rd, Hounslow TW3 3UA, United Kingdom",276
5572124,"263 Heathway, Dagenham RM10 8QU, United Kingdom",276
3881536,"263 Morland Rd, Croydon CR0 6HE, United Kingdom",276
3888922,"263 Rayleigh Rd, Brentwood CM13 1PL, United Kingdom",276
3849548,"263 St. Margarets Rd, Twickenham TW1 1NJ, United Kingdom",276
3858978,"263 Station Rd, Harrow HA1 2TB, United Kingdom",276
3888596,"264 Heathway, Dagenham RM10 8QS, United Kingdom",276
3880045,"264 High St, Orpington BR6 0NB, United Kingdom",276
5571765,"264 Rainham Rd S, Dagenham RM10 7UU, United Kingdom",276
3888816,"264/265, The Glades Centre,, Bromley BR1 1DN, United Kingdom",276
3895886,"265 Aldborough Rd S, Ilford IG3 8JB, United Kingdom",276
3873810,"265 Ewell Rd, Surbiton KT6 7AA, United Kingdom",276
3884440,"265 King Henry's Dr, New Addington, Croydon CR0 0AE, United Kingdom",276
5571654,"265 Ongar Rd, Brentwood CM15 9DZ, United Kingdom",276
3889918,"266 Brentwood Rd, Romford RM2 5SU, United Kingdom",276
3853035,"266 Northolt Rd, Harrow HA2 7DY, United Kingdom",276
3852548,"266 Preston Rd, Wembley, Harrow HA3 0PY, United Kingdom",276
5565739,"266 Yeading Ln, Hayes UB4 9AX, United Kingdom",276
5572372,"266-268 High Rd, Ilford IG1 1QF, United Kingdom",276
3877699,"266-268 High St, Beckenham BR3 1DZ, United Kingdom",276
3882964,"267 Broadway, Bexleyheath DA6 8DB, United Kingdom",276
3881256,"267 Croydon Rd, Beckenham BR3 3PS, United Kingdom",276
5564138,"267 Field End Rd, Ruislip HA4 9NJ, United Kingdom",276
3866051,"267 High St, Epping CM16 4BP, United Kingdom",276
5572297,"267 Westwood Ln, Sidcup DA15 9PS, United Kingdom",276
3895497,"267-269 Aldborough Rd S, Ilford IG3 8JB, United Kingdom",276
5572083,"267-269 Aldborough Rd S, Ilford IG3 8JB, United Kingdom",276
3851816,"267-269 Preston Rd, Harrow HA3 0PU Preston Rd, Harrow HA3 0PU, United Kingdom",276
3877771,"267A Lower Addiscombe Rd, Croydon CR0 6RD, United Kingdom",276
5568813,"268 High Rd, Loughton IG10 1RB, United Kingdom",276
5564445,"268 Northolt Rd, Harrow HA2 8DY, United Kingdom",276
5571253,"268 Sherwood Park Ave, Sidcup, Bexley DA15 9JN, United Kingdom",276
3844549,"268 Waldegrave Rd, Twickenham TW1 4ST, United Kingdom",276
3888416,"268-272 North St, Romford RM1 4QD, United Kingdom",276
3882660,"268-278 High St, Sutton SM1 1PG, United Kingdom",276
5571012,"268/270 High St, Orpington BR6 0NB, United Kingdom",276
5571290,"269 Broadway, Bexleyheath DA6 8DB, United Kingdom",276
3882342,"269 Croydon Rd, Wallington SM6 7LF, United Kingdom",276
3845160,"269 Edgwarebury Ln, Edgware HA8 8QL, United Kingdom",276
3878428,"269 Galpin's Rd, Mitcham, Croydon CR7 6EY, United Kingdom",276
3885703,"269 High St, Orpington BR5 4AR, United Kingdom",276
3879523,"269 Lower Addiscombe Rd, Croydon, United Kingdom",276
3881143,"269-275 High St, Croydon CR0 1QH, United Kingdom",276
4682698,"26a High St, Newport PO30 1SS, UK",276
3850415,"26A The Centre, Feltham TW13 4AU, United Kingdom",276
3858064,"27 Abercorn Gardens, Harrow HA3 0PB, United Kingdom",276
5082198,"27 Badgers Close, Hayes UB3 1LQ, United Kingdom",276
3878062,"27 Barnett Cl, Leatherhead KT22 7DW, United Kingdom",276
5571606,"27 Bell St, Reigate RH2 7AD, United Kingdom",276
3872214,"27 Breakfield, Coulsdon CR5 2HS, United Kingdom",276
3883579,"27 Breakfield, Coulsdon CR5 2HS, United Kingdom",276
3851871,"27 Bridge St, Pinner HA5 3JW, United Kingdom",276
3846314,"27 Cheviot Rd, Slough SL3 8LA, United Kingdom",276
3858976,"27 College Rd, Harrow HA1 1BA, United Kingdom",276
5564969,"27 Coombe Rd, New Malden KT3 4PX, United Kingdom",276
3892768,"27 Copperfields Way, Romford RM3 0XE, United Kingdom",276
3848911,"27 Cranbrook Dr, Esher KT10 8DW, United Kingdom",276
3880933,"27 Cray Rd, Sidcup DA14 5BY, United Kingdom",276
5710272,"27 Esplanade, St Helier JE2 3QA, United Kingdom",276
3798768,"27 Estcourt Rd, Salisbury SP1 3AS, United Kingdom",276
3896266,"27 Goodmayes Rd, Ilford IG3 9UH, United Kingdom",276
5572047,"27 Goresbrook Rd, Dagenham RM9 6UX, United Kingdom",276
5090783,"27 Greek Street Flat 2, Soho W1D 5DF, United Kingdom",276
3846893,"27 Green Ln, Northwood HA6 2PX, United Kingdom",276
5081966,"27 Grosvenor Rd, Southall UB2 4BP, United Kingdom",276
4656135,"27 Halkett Street, St Helier, Jersey JE2 4WJ, United Kingdom",276
5039424,"27 Hay Ln, Shirley, Solihull B90 4EG, United Kingdom",276
3878388,"27 Hayes Ln, Bromley BR2 9EA, United Kingdom",276
3845807,"27 Heathdale Ave, Hounslow TW4 7HD, United Kingdom",276
3884687,"27 High Rd, Romford RM6 6QD, United Kingdom",276
5572132,"27 High St, Billericay CM12 9BA, United Kingdom",276
5564369,"27 High St, Bushey WD23 1BD, United Kingdom",276
3858983,"27 High St, Harrow, United Kingdom",276
5568808,"27 High St, Ilford IG6 2AW, United Kingdom",276
3884542,"27 High St, Sidcup DA14 6ED, United Kingdom",276
5669085,"27 High St, Ventnor PO38 1RZ",276
3860847,"27 High St, Waltham Cross EN8 7AA, United Kingdom",276
5570716,"27 High St, Walton-on-Thames KT12 1DG, United Kingdom",276
5570696,"27 High St, West Wickham BR4 0LP, United Kingdom",276
5087401,"27 Holstein Way, Erith DA18 4DQ, United Kingdom",276
3845115,"27 Horsenden Ln S, Perivale, Greenford UB6 7RH, United Kingdom",276
3844896,"27 Hounslow Rd, Twickenham TW2, United Kingdom",276
3882074,"27 Hurst Way, South Croydon CR2 7AP, United Kingdom",276
3849795,"27 Joel St, Northwood, United Kingdom",276
3847634,"27 Ken Way, Wembley HA9 9EH, United Kingdom",276
5565537,"27 King St, Southall UB2 4DG, United Kingdom",276
3798541,"27 Lovett Green, Salisbury SP1 3HZ, United Kingdom",276
5571269,"27 Lower Addiscombe Rd, Addiscombe, Croydon CR0 6PQ, United Kingdom",276
3849732,"27 Market Square, Uxbridge UB8 1LH, United Kingdom",276
3799255,"27 Market Walk, Salisbury SP1 1TL, United Kingdom",276
3883871,"27 Norheads Ln, Biggin Hill, Westerham TN16 3XR, United Kingdom",276
3852783,"27 Norval Rd, Wembley HA0 3TD, United Kingdom",276
3872321,"27 Pelhams Walk, Esher KT10 8QA, United Kingdom",276
3850470,"27 Pinn Way, Ruislip HA4 7QN, United Kingdom",276
3892493,"27 Quadrant Arcade, Romford RM1 3ED, United Kingdom",276
3847444,"27 S Hill Ave, Harrow HA1 3PD, United Kingdom",276
3872453,"27 Seaforth Ave, New Malden KT3 6JR, United Kingdom",276
3846871,"27 Seymour Rd, Slough SL1 2NS, United Kingdom",276
5571646,"27 Sidcup Hill, Sidcup DA14 6HJ, United Kingdom",276
3865386,"27 Silver St, Enfield EN1 3EF, United Kingdom",276
3851733,"27 St John's Rd, Isleworth TW7 6NB, United Kingdom",276
3850103,"27 St John's Rd, Wembley HA9 7HU, United Kingdom",276
4683999,"27 St'Micheals Road, St'Helens, Ryde PO33 1YJ, United Kingdom",276
5569041,"27 Station Rd, Cuffley, Potters Bar EN6 4HX, United Kingdom",276
3858639,"27 Station Rd, Edgware HA8 7HX, United Kingdom",276
5568053,"27 Station Rd, Harrow HA1 2UA, United Kingdom",276
3895496,"27 Station Rd, Romford RM6 4BE, United Kingdom",276
5572057,"27 Station Rd, Upminster RM14 2SJ, United Kingdom",276
3889002,"27 Station Square, Orpington BR5 1LZ, United Kingdom",276
4682831,"27 Stubbington Green, Fareham PO14 2JY, UK",276
3843967,"27 Tentelow Ln, Southall UB2 4LQ, United Kingdom",276
3845922,"27 Thames St, Kingston upon Thames KT1 1PH, United Kingdom",276
3857995,"27 The Broadway, Greenford UB6 9PN, United Kingdom",276
3888798,"27 The Mall, Bexleyheath DA6 7JJ, United Kingdom",276
5570449,"27 The Market/Wrythe La, Carshalton SM5 1AG, United Kingdom",276
3845135,"27 Uxbridge Road, Hayes Gate House, Hayes UB4 0JN, United Kingdom",276
3851996,"27 Watford Heath, Watford WD19 4EU, United Kingdom",276
3859733,"27 Watling Ave, Edgware HA8 0LF, United Kingdom",276
4683622,"27 Westfield Park, Ryde PO33 3AB, UK",276
4648086,"27 Westgate, Tadcaster LS24 9JB, UK",276
3871480,"27 Wheatfield Way, Kingston upon Thames KT1 2NU, United Kingdom",276
3877498,"27 Wheatfield Way, Kingston upon Thames KT1 2NU, United Kingdom",276
5571268,"27 Whitehorse Road, Croydon CR0 2JH, United Kingdom",276
3877829,"27 Woodcote Rd, Wallington SM6 0LH, United Kingdom",276
3894575,"27 Woodford Ave, Ilford IG2 6UF, United Kingdom",276
5667390,"27-28 Lugley St, Newport PO30 5HD",276
3885286,"27-28 New Rd, Gravesend DA11 0AA, United Kingdom",276
4519525,"27-28 Swan St, Loughborough LE11 5BS, UK",276
3866623,"27-28 The Town, Enfield EN2 6LU, United Kingdom",276
3883075,"27-29 East St, Bromley BR1 1QE, United Kingdom",276
3799184,"27-29 High St, Bulford, Salisbury SP4 9DR, United Kingdom",276
3881618,"27-29 High St, Carshalton SM5 3AX, United Kingdom",276
5568584,"27-29 High St, Potters Bar EN6 5AJ, United Kingdom",276
5645733,"27-29 Leigh Rd, Eastleigh SO50 9FF",276
3877772,"27-29 Woodside Green, Croydon SE25 5EY, United Kingdom",276
3848063,"27-31 Upton Rd, Watford WD18 0JF, United Kingdom",276
5572018,"270 Broadway, Bexleyheath DA6 8BE, United Kingdom",276
5571918,"270 Cherry Tree Ln, Rainham RM13 8TX, United Kingdom",276
3847565,"270 Heston Rd, Hounslow TW5 0RG, United Kingdom",276
5570719,"270 High St, Beckenham BR3 1DZ, United Kingdom",276
5564926,"270 High St, Uxbridge UB8 1LQ, United Kingdom",276
3852786,"270 Northolt Rd, Harrow HA2 8EB, United Kingdom",276
3854812,"270 Preston Rd, Harrow HA3 0QA, United Kingdom",276
3886964,"270 Sherwood Park Ave, Sidcup DA15 9JN, United Kingdom",276
3882520,"270 Sutton Common Rd, Sutton SM3 9PS, United Kingdom",276
3887609,"270-272 Heathway, Dagenham RM10 8QS, United Kingdom",276
4534352,"271 - 291 Two Ball Lonnen, Newcastle, Fenham NE4 9RX, United Kingdom",276
3854797,"271 Allenby Rd, Southall UB1 2HD, United Kingdom",276
3888700,"271 Broadway, Bexleyheath DA6 8DG, United Kingdom",276
5571688,"271 Green Ln, Ilford IG3 9, United Kingdom",276
3885430,"271 Green Ln, Ilford IG3 9TN, United Kingdom",276
3867149,"271 High Rd, Loughton IG10 1AH, United Kingdom",276
3845644,"271 High St, Berkhamsted HP4 1AA, United Kingdom",276
5572081,"271 Ilford Ln, Ilford IG1 2SD, United Kingdom",276
3857725,"271 Preston Rd, Harrow HA3 0PS, United Kingdom",276
3855983,"272 Abbeydale Rd, Wembley HA0 1TW, United Kingdom",276
3882043,"272 Coulsdon Rd, Coulsdon CR5 1EB, United Kingdom",276
3871515,"272 Ewell Rd, Surbiton KT6 7AG, United Kingdom",276
3846786,"272 Field End Rd, Ruislip HA4 9NA, United Kingdom",276
3850872,"272 Field End Rd, Ruislip HA4 9NA, United Kingdom",276
3851263,"272 Field End Rd, Ruislip HA4 9NA, United Kingdom",276
3852871,"272 Field End Rd, Ruislip HA4 9NA, United Kingdom",276
3865189,"272 High St, Enfield EN3 4HB, United Kingdom",276
5086810,"272 Kingston Rd, Epsom KT19 0SH, United Kingdom",276
3857143,"272 Uxbridge Rd, Pinner HA5 4HS, United Kingdom",276
3887561,"272-274 Broadway, Bexleyheath DA6 8BE, United Kingdom",276
5567616,"272-274 Ealing Rd, Wembley HA0 4LL, United Kingdom",276
3883248,"272B High St, Beckenham BR3 1DZ, United Kingdom",276
3887582,"273 Blackfen Rd, Sidcup DA15 8PR, United Kingdom",276
3871354,"273 Ewell Rd, Surbiton KT6 7AB, United Kingdom",276
5569027,"273 Hertford Rd, Enfield EN3 5JL, United Kingdom",276
5083318,"273 High St, Waltham Cross EN8 7BG, United Kingdom",276
5571367,"273 Main Rd, Sidcup DA14 6QL, United Kingdom",276
3856752,"273 Pinner Rd, Harrow HA1 4HF, United Kingdom",276
3858285,"273 Station Rd, Harrow HA1 2AG, United Kingdom",276
3858290,"273 Station Rd, Harrow HA1 2AG, United Kingdom",276
3889334,"273-275 Ilford Ln, Ilford IG1 2SD, United Kingdom",276
3879679,"274 - 276 Kingston Rd, Epsom KT19 0SH, United Kingdom",276
5564883,"274 High Road, Harrow, Harrow Weald HA3 7BB, United Kingdom",276
5571426,"274 High St, Orpington BR6 0NB, United Kingdom",276
3843973,"274 High St, Slough SL3 8HD, United Kingdom",276
5571513,"274 Lower Addiscombe Rd, Croydon CR0 7AE, United Kingdom",276
3854918,"274 Uxbridge Road, Hatch End, Pinner HA5 4HS, United Kingdom",276
3849414,"274-276 Kingshill Ave, Hayes UB4 8BY, United Kingdom",276
3849723,"274-276 Kingshill Ave, Hayes UB4 8BY, United Kingdom",276
3872944,"274-276 Kingston Rd, Epsom KT19 0SH, United Kingdom",276
3849826,"274/278 Northolt Rd, South Harrow, Harrow HA2 8EB, United Kingdom",276
4491033,"275 Bradford Rd, Bradford BD10 8EG, UK",276
5571085,"275 Broadway, Bexleyheath DA6 8DG, United Kingdom",276
3885203,"275 Oxlow Ln, Dagenham RM10 7YU, United Kingdom",276
3845219,"275 St. Margarets Rd, Twickenham TW1 1PN, United Kingdom",276
3883076,"275 Stafford Rd, Wallington SM6 9BX, United Kingdom",276
3834457,"275-277 High St, Hounslow TW3 1ZA, United Kingdom",276
3857135,"275-277 Preston Rd, Harrow HA3 0PS, United Kingdom",276
3855508,"275-287 Station Rd, Harrow HA1 1NA, United Kingdom",276
3858288,"275-287 Station Rd, Harrow HA1 1NA, United Kingdom",276
3858292,"275-287 Station Rd, Harrow HA1 1NA, United Kingdom",276
3858779,"275-287 Station Rd, Harrow HA1 1NA, United Kingdom",276
3858780,"275-287 Station Rd, Harrow HA1 1NA, United Kingdom",276
5568258,"275-287 Station Rd, Harrow HA1 1NA, United Kingdom",276
3860282,"276 E Barnet Rd, Barnet EN4 8TD, United Kingdom",276
5569630,"276 High Rd, Loughton IG10 1RB, United Kingdom",276
3863793,"276 High St, Waltham Cross EN8 7EA, United Kingdom",276
3852765,"276 Station Rd, Harrow HA1 2EA, United Kingdom",276
3863783,"276C High St, Waltham Cross EN8 7EA, United Kingdom",276
3884416,"277 Broadway, Bexleyheath DA6 8DG, United Kingdom",276
3889244,"277 Broadway, Bexleyheath DA6 8DG, United Kingdom",276
3896622,"277 Cranbrook Rd, Ilford IG1 4TG, United Kingdom",276
3882117,"277 High St, Croydon CR0 1QH, United Kingdom",276
3882083,"277 Lower Addiscombe Rd, Croydon CR0 6RE, United Kingdom",276
3882100,"278 Addington Rd, South Croydon CR2 8LF, United Kingdom",276
3849716,"278 High St, Uxbridge UB8 1LD, United Kingdom",276
3884662,"279 Bexley Rd, Erith DA8 3EX, United Kingdom",276
3874425,"279 Ewell Rd, Surbiton KT6 7AB, United Kingdom",276
3887975,"279 Heathway, Dagenham RM9 5AQ, United Kingdom",276
5571135,"279 High St, Orpington BR6 0NN, United Kingdom",276
5571896,"279 Ilford Ln, Ilford IG1 2SD, United Kingdom",276
3847109,"279 Martindale Rd, Hounslow TW4 7HG, United Kingdom",276
3855949,"279 Northolt Rd, Harrow HA2 8HX, United Kingdom",276
3894625,"279 Oxlow La, Dagenham RM10 7YU, United Kingdom",276
3852167,"279 Preston Rd, Harrow HA3 0PS, United Kingdom",276
3844429,"279 Rickmansworth Rd, Northwood HA6 2QW, United Kingdom",276
3834407,"279 Staines Rd, Hounslow TW4 5AL, United Kingdom",276
3850407,"279 Staines Rd, Hounslow TW4 5AL, United Kingdom",276
3878063,"27A Tattenham Cres, Banstead, Epsom KT18 5QJ, United Kingdom",276
3797941,"27A West St, Wilton, Salisbury SP2 0DL, United Kingdom",276
3838674,"27D Beach Ln, Musselburgh EH21 6JX, United Kingdom",276
3849954,"28 / 29, High St, Hounslow TW3 1RH, United Kingdom",276
5171912,"28 Albert Rd, Sandown PO36 8AW",276
5568006,"28 Aldenham Rd, Radlett WD7 8AX, United Kingdom",276
3847291,"28 Bakers Rd, Uxbridge UB8, United Kingdom",276
3869974,"28 Beddington Ln, Croydon CR0 4TB, United Kingdom",276
4682807,"28 Belvedere St, Newport PO33 2JS, UK",276
3894054,"28 Blackshots Ln, Grays RM16 2BL, United Kingdom",276
5081961,"28 Bridge Rd, Kings Langley WD4 8RF, United Kingdom",276
5572024,"28 Broadway, Bexleyheath DA6 7LL, United Kingdom",276
3885565,"28 Byron Dr, Erith DA8 1YD, United Kingdom",276
5666597,"28 Castle St, East Cowes PO32 6RD",276
3849335,"28 Castle St, Kingston upon Thames KT1 1SS, United Kingdom",276
3798533,"28 Chipper Ln, Salisbury SP1 1BG, United Kingdom",276
3881619,"28 Chipstead Valley Rd, Coulsdon CR5 2RA, United Kingdom",276
4656579,"28 Clarendon Rd, St Helier, St. Helier JE2 3YW, United Kingdom",276
3847990,"28 Colburn Ave, Pinner HA5 4PF, United Kingdom",276
3868289,"28 Collinwood Ave, Enfield EN3 7DU, United Kingdom",276
3879561,"28 Croydon Rd, Caterham CR3 6QB, United Kingdom",276
3886902,"28 Digby Gardens, Dagenham RM10 9JL, United Kingdom",276
3897714,"28 Dumbarton Rd SW2 5LU, United Kingdom",276
3859455,"28 E Barnet Rd, Barnet EN4 8RQ, United Kingdom",276
3880316,"28 Elmwood Rd, Croydon CR0 2SG, United Kingdom",276
5668490,"28 Esplanade, Shanklin PO37 6BG",276
3886384,"28 Faircross Ave, Barking IG11 8UW, United Kingdom",276
3880485,"28 Fairholme Rd, Croydon CR0 3PD, United Kingdom",276
3865387,"28 Faversham Ave, Enfield EN1 2BU, United Kingdom",276
3846242,"28 George Court, 89 Grange Road, Hayes UB3 2RS, United Kingdom",276
3878554,"28 Grange Rd, South Croydon CR2 0NA, United Kingdom",276
5565200,"28 Green Ln, Northwood HA6 2QB, United Kingdom",276
3883419,"28 Heathfield Rd, Bexleyheath DA6 8NP, United Kingdom",276
5565288,"28 High Rd, Uxbridge UB8 2HL, United Kingdom",276
5571492,"28 High St, Banstead SM7 2LJ, United Kingdom",276
3873484,"28 High St, New Malden KT3 4HE, United Kingdom",276
4684762,"28 High St, Newport PO30 1SS, UK",276
