5612493,"Hoolstraat 83, 4847 AB Teteringen",148
16421,"Hoorn 65, 2404 HG Alphen aan den Rijn, The Netherlands",148
81645,"Hoorn 88, 6713 KR Ede, The Netherlands",148
48639,"Hoornbrug, Rijswijk, Netherlands",148
45408,"Hoornderweg 29, 1791 PM Den Burg, Netherlands",148
59786,"Hoornesplein 111, 2221 BE Katwijk aan Zee, The Netherlands",148
59138,"Hoornsemeer, Netherlands",148
83144,"Hoornwerk 19, 7201 GS Zutphen, The Netherlands",148
161119,"Hopgaarde 4, 2803 RR Gouda, Netherlands",148
59124,"Hoppenkampsweg 1, 9761 Eelde, Netherlands",148
28695,"Horloseweg 14, Harderwijk, The Netherlands",148
58855,"Hornstukken 32, 9761 JP Eelde, Netherlands",148
46498,"Hornweg 6, 1721 CV Broek op Langedijk, Netherlands",148
5383164,"Horst 1, 5171 RA Kaatsheuvel, Netherlands",148
59365,"Hortuslaan 4, 2171 CK Sassenheim, Netherlands",148
58124,"Hospitaallaan 10, 9341 AH Veenhuizen, Netherlands",148
48248,"House at Landelaan 45, 2283 VA Rijswijk, Netherlands",148
47011,"House in Landelaan 446, 2283 VH Rijswijk, Netherlands",148
47614,"House in Landelaan 476-A, 2283 VJ Rijswijk, The Netherlands",148
19389,"Houtbosch 2, 1111 ST Diemen, Netherlands",148
28507,"Houtbosch 2, 1111 ST Diemen, Netherlands",148
67486,"Houtduiflaan 3, 6641 ZN Beuningen, The Netherlands",148
5209905,"Houtduiflaan 30, 6641 ZP Beuningen, The Netherlands",148
145430,"Houtduifstraat 7, 4901 BP Oosterhout, The Netherlands",148
97379,"Houtensepad, Lunetten, The Netherlands",148
43703,"Houthemerweg 76, 6231 KW Meerssen, Netherlands",148
5391803,"Houtkampweg 10a, 6731 AW Otterlo, Netherlands",148
81984,"Houtkampweg 13, 7352 TC Hoenderloo, The Netherlands",148
68518,"Houtkampweg 6, 6731 AW Otterlo, The Netherlands",148
83124,"Houtkampweg 9c, 6731 Otterlo, Netherlands",148
60316,"Houtrijk 13A, 2151 DV Nieuw-Vennep, Netherlands",148
65761,"Houtsestraat 12, 6613 AC Balgoij, Netherlands",148
5387397,"Houttuin 6, 2181 JG Hillegom, Netherlands",148
5209382,"Houttuin 6, 2181 JG Hillegom, The Netherlands",148
59974,"Houttuin 8-9, 2181 JG Hillegom, The Netherlands",148
81234,"Houtweg 10 A, 6551 AJ Weurt, The Netherlands",148
87982,"Houtwijk 48, 8251 GD Dronten, The Netherlands",148
82842,"Houtzagersweg 11, 3775 KH Kootwijk, The Netherlands",148
58876,"Hoveniersweg 1, 9502 BW Stadskanaal, Netherlands",148
5374011,"Hueseplein 4, 1185 HH Amstelveen, Netherlands",148
59812,"Hugo de Grootstraat 100, 2405 VK Alphen aan den Rijn, Netherlands",148
59787,"Hugo de Vriesstraat 13, 2152 CT Nieuw-Vennep, The Netherlands",148
98923,"Hugo de Vriesweg 1, 3481 JA Harmelen, The Netherlands",148
100450,"Hugo de Vriesweg 4, 3481 JA Harmelen, The Netherlands",148
5209360,"Huigsloterdijk 257, 2157 LN Abbenes, Netherlands",148
60208,"Huigsloterdijk 369, 2158 LR Buitenkaag, Netherlands",148
5209605,"Huigsloterdijk 390, 2158 LR Buitenkaag, Netherlands",148
59638,"Huigsloterdijk 400, 2158 Buitenkaag, Netherlands",148
126033,"Huis Ter Heideweg 26, 3705 LZ Zeist, The Netherlands",148
100388,"Huis Ter Heideweg 5, 3705 MA Zeist, The Netherlands",148
44229,"Huisduinerweg 3, 1782 GZ Den Helder, The Netherlands",148
65184,"Hulsbroek 36, 6562 JH Groesbeek, The Netherlands",148
67283,"Hunnenpad 9, 5349 BG Oss, The Netherlands",148
68087,"Hunnenweg 16, 3781 NN Voorthuizen, Netherlands",148
41775,"Huntstraat 1, 6135 CP Sittard, Netherlands",148
43195,"Hussenbergstraat 9, 6243 AG Geulle, Netherlands",148
58907,"H?sternoard 2, 9294 MX Oudwoude, Netherlands",148
157748,"Huygensstraat 33, Berkel en Rodenrijs, Netherlands",148
5384052,"Huys de Wervelaan 4, 2283 TA Rijswijk, Netherlands",148
99019,"HX, Sportpark Galecop 10, 3438 Nieuwegein, Netherlands",148
97397,"Hydeparklaan 24, 3941 ZK Doorn, The Netherlands",148
67899,"Idinkweg 6, 7065 AH Sinderen, Netherlands",148
59074,"Ieberen 1, 9443 Schoonloo, Netherlands",148
40952,"Iepenlaan 93, 6241 AD Bunde, The Netherlands",148
136607,"Iersestraat 15, 2912 TH Nieuwerkerk aan den IJssel, The Netherlands",148
20657,"IJdoornlaan 11, 1121 DS Landsmeer, Netherlands",148
65433,"IJkelaarstraat 4, 6611 KN Overasselt, Netherlands",148
57283,"IJmeerstraat 3, 2652 JP Berkel en Rodenrijs, The Netherlands",148
82839,"IJsseldijk 92, 6931 AE Westervoort, Netherlands",148
67946,"IJsselkade 53, 7201 HD Zutphen, Netherlands",148
14635,"IJsselmeer, Netherlands",148
14447,"IJsselmeerdijk 32, 1473 PP Warder, Netherlands",148
44584,"IJsselmeerstraat 184, 1784 Den Helder, Netherlands",148
15982,"IJsselmeerstraat 314, 1271 GE Huizen, Netherlands",148
19808,"IJsselmeerstraat 5, 1271 Huizen, Netherlands",148
14589,"IJsselmeerweg 100, 1411 DL Naarden, Netherlands",148
5004237,"IJsselmeerweg 3, 1411 AA Naarden, Netherlands",148
87630,"IJsselstraat 30, Velp, Netherlands",148
81671,"IJsselstraat 32, 6882 LG Velp, Netherlands",148
14269,"IJsselveld 9, 3417 XH Montfoort, Netherlands",148
5209612,"IJweg 1270, 2133 MJ Hoofddorp, Netherlands",148
16095,"IJweg 1330, 2152 NA Nieuw-Vennep, Netherlands",148
21013,"IJweg 298, 1161 GG Zwanenburg, Netherlands",148
4984,"IJweg 341, 1161 EX Zwanenburg, Netherlands",148
14378,"IJweg 961, 2131 LV Hoofddorp, Netherlands",148
5025,"IJweg 986, 2133 ME Hoofddorp, Netherlands",148
85900,"Imboslaan 13, 6952 JN Dieren, Netherlands",148
160219,"Imkerstraat 12, 2651 KA Berkel en Rodenrijs, The Netherlands",148
68539,"Immenweg 15, 6741 KP Lunteren, Netherlands",148
81565,"Impact 15, 6921 RZ Duiven, Netherlands",148
79806,"Impact 5, 6921 RZ Duiven, Netherlands",148
65272,"Impact 6, 6921 RZ Duiven, Netherlands",148
55985,"Importweg 1, 2645 EC Delfgauw, Netherlands",148
5388459,"In de Cramer 160, 6412 PM Heerlen, Netherlands",148
5387962,"In de Cramer 169, 6412 PM Heerlen, Netherlands",148
5388468,"In de Cramer 84, 6412 PM Heerlen, Netherlands",148
4665117,"In Den Boerenmouw 19, 5211 NG &#39;s-Hertogenbosch, Netherlands",148
5168434,"In Den Boerenmouw 21, 5211 NG &#39;s-Hertogenbosch, Netherlands",148
100599,"In front of the Burchten 262, 3452 MB Vleuten, Netherlands",148
96902,"In front of the Burchten 266, 3452 MB Netherlands",148
100294,"In front of the Burchten 266, 3452 Netherlands",148
100215,"In front of the Burchten, Netherlands",148
81244,"In love Laantje 3A, 5707 LG Helmond, The Netherlands",148
59722,"Industriekade 1-A, 2181 AJ Hillegom, The Netherlands",148
64963,"Industrielaan 27, 5406 XC Uden, The Netherlands",148
67285,"Industriestraat 13-C, 7005 AN Doetinchem, Netherlands",148
98949,"Industriestraat 15, 2802 AC Gouda, Netherlands",148
40099,"Industriestraat 24, 6135 KH Sittard, Netherlands",148
11822,"Industrieweg 0, 1115 AD Duivendrecht, Netherlands",148
13865,"Industrieweg 10, 1231 KH Loosdrecht, Netherlands",148
19663,"Industrieweg 10, 1231 KH Loosdrecht, Netherlands",148
98453,"Industrieweg 10, 1231 KH Loosdrecht, Netherlands",148
60162,"Industrieweg 10, 1231 KH Nieuw- Loosdrecht, Netherlands",148
13862,"Industrieweg 12, 1231 KH Loosdrecht, Netherlands",148
126170,"Industrieweg 12, 1231 KH Loosdrecht, Netherlands",148
79801,"Industrieweg 13, 6702 DR Wageningen, Netherlands",148
44192,"Industrieweg 15, 1785 AG Den Helder, Netherlands",148
102181,"Industrieweg 16, 3606 AS Maarssen, The Netherlands",148
19107,"Industrieweg 19, 1115 AD Duivendrecht, Netherlands",148
43991,"Industrieweg 1a, 1785 AG Den Helder, Netherlands",148
83202,"Industrieweg 20, 6702 DR Wageningen, Netherlands",148
20221,"Industrieweg 20-2, 3846 BD Harderwijk, Netherlands",148
81794,"Industrieweg 22, 6871 KA Renkum, Netherlands",148
80797,"Industrieweg 23, 4143 HP Leerdam, Netherlands",148
19807,"Industrieweg 29, 1115 AD Duivendrecht, Netherlands",148
19775,"Industrieweg 3, 1617 KK Westwoud, Netherlands",148
43730,"Industrieweg 3, 6245 HW Eijsden, Netherlands",148
98133,"Industrieweg 38, 3606 AS Maarssen, The Netherlands",148
45227,"Industrieweg 4, 1785 AG Den Helder, Netherlands",148
64960,"Industrieweg 43, 6651 KR Druten, Netherlands",148
57840,"Industrieweg 44, 9403 AB Assen, Netherlands",148
44995,"Industrieweg 48a, 1613 KV Grootebroek, Netherlands",148
5380799,"Industrieweg 4F, 2631 PG Nootdorp, Netherlands",148
5208913,"Industrieweg 4G, 2631 PG Nootdorp, Netherlands",148
45082,"Industrieweg 6, 1619 BZ Andijk, Netherlands",148
147762,"Industrieweg 6-69, 2712 LB Zoetermeer, Netherlands",148
101929,"Industrieweg 66, 3606 AS Maarssen, The Netherlands",148
126911,"Industrieweg 7, 3738 JW Maartensdijk, Netherlands",148
11547,"Industrieweg 9, 1115 AD Duivendrecht, Netherlands",148
83249,"Industrieweg Oost 2, 6662 NE Elst, Netherlands",148
65172,"Industrieweg Oost 9, 6662 NE Elst, Netherlands",148
64944,"Industrieweg Oost 9a, 6662 NE Elst, Netherlands",148
43740,"Ingenopestraat 6, 6241 BZ Bunde, Netherlands",148
5761256,"Inn Wa, Kin Pun Sakhan, Rd, Myanmar (Burma)",148
19350,"Interaction 2, 1112 XK Diemen, Netherlands",148
19037,"Interaction 32, 1112 XP Diemen, Netherlands",148
19358,"Interaction 40, 1112 XR Diemen, Netherlands",148
19553,"Interaction 58, 1112 XS Diemen, Netherlands",148
28647,"Interaction 58, 1112 XS Diemen, Netherlands",148
19552,"Interaction, 1112 XS Diemen, Netherlands",148
98594,"Ir. DS Tuijnmanweg 3-5, 4131 PN Vianen, Netherlands",148
101935,"Irenestraat 38, 2964 BL Groot-Ammers, Netherlands",148
72679,"Irenestraat 5, 2685 BZ Poeldijk, The Netherlands",148
83597,"Irenestraat 5, 6851 KX Huissen, The Netherlands",148
59710,"Irislaan 281F, 2343 CM Oegstgeest, The Netherlands",148
20222,"Irissenstraat 11, 1764 HT Breezand, Netherlands",148
5379298,"Irisstraat 4, 2981 BN Ridderkerk, Netherlands",148
45932,"Italian Zeedijk 13, 1621 AE Hoorn, The Netherlands",148
81135,"Italianweg 4, Doorwerth, Netherlands",148
48275,"Ivory Zwampad, 2661 Bergschenhoek, Netherlands",148
5389686,"J. Duikerweg 21, 1703 DH Heerhugowaard, Netherlands",148
101738,"J. Homan van der Heideplein 68, 3604 DK Maarssen, Netherlands",148
101319,"J. Homan van der Heideplein, Maarssen, Netherlands",148
145076,"J. Louwerensplein, 3161 Rhoon, Netherlands",148
28074,"J. van der Heijdenstraat 170, 1221 EM Hilversum, Netherlands",148
5757108,"J.E. Irausquin Boulevard 87, Noord, Aruba",148
5384409,"J.H.A. Schaperlaan 137, 2288 AG Rijswijk, Netherlands",148
59004,"J.P. Santeeweg 88, 9312 TB Nietap, Netherlands",148
100234,"Jaap Bijzerweg 3, 3446 CR Woerden, The Netherlands",148
14620,"Jachthaven 1, 1141 AV Monnickendam, Netherlands",148
161536,"Jachthoorn 63, 2907 SE Capelle aan den IJssel, The Netherlands",148
58118,"Jachtlaan 50, 9934 JD Delfzijl, Netherlands",148
4714,"Jadelaan 46, 2132 XW Hoofddorp, Netherlands",148
5379373,"Jadestraat 10, 2665 NS Bleiswijk, Netherlands",148
97203,"Jagersingel 1, 3707JA Zeist, The Netherlands",148
145754,"James Wattstraat 2, 3261 MB Oud-Beijerland, The Netherlands",148
45018,"Jan Aarjensz Prinsstraat 48, 1785 BC Den Helder, Netherlands",148
47138,"Jan Barendselaan 188, 2685 BX Poeldijk, The Netherlands",148
5392956,"Jan Barendselaan 64, 2685 BV Poeldijk, Netherlands",148
72492,"Jan Barendselaan 76, 2685 BV Poeldijk, The Netherlands",148
19438,"Jan Bertsstraat 10, 1111 AR Diemen, The Netherlands",148
145887,"Jan Campertlaan 6, 3201 AX Spijkenisse, Netherlands",148
5168425,"Jan Heinsstraat 30, 5211 TE &#39;s-Hertogenbosch, Netherlands",148
5209225,"Jan Joostenstraat 25, 6687 AB Angeren, Netherlands",148
4913,"Jan Ligthartstraat 67, 1964 HA Heemskerk, Netherlands",148
5722,"Jan Massenstraat 32, 1411 RW Naarden, The Netherlands",148
60317,"Jan Prinsheem 122, 2182 ZD Hillegom, Netherlands",148
4666871,"Jan Sch?fferlaan 3, 5212 SN&#39;s-Hertogenbosch, The Netherlands",148
45209,"Jan Schotanuswei 71, 8567 HH Oudemirdum, Netherlands",148
97395,"Jan Steenlaan, 3723 BS Bilthoven, Netherlands",148
126141,"Jan Steenlaan, 3723 BS Bilthoven, Netherlands",148
47131,"Jan Thijssenweg 14, 2289 AB Rijswijk, The Netherlands",148
5717,"Jan Tooroplaan, Amstelveen, Netherlands",148
18453,"Jan Tooropplantsoen 17, 1182 AC Amstelveen, The Netherlands",148
136666,"Jan van Almondestraat 89, 3176 VA Poortugaal, The Netherlands",148
59772,"Jan van Brabantweg 51, 2171 HC Sassenheim, Netherlands",148
48318,"Jan van de Laarweg 16, 2678 LH De Lier, The Netherlands",148
13607,"Jan van Den Bergstraat 74, 2101 XD Heemstede, The Netherlands",148
159920,"Jan van der Heydenstraat 26, 2665 JA Bleiswijk, The Netherlands",148
97504,"Jan van der Heydenweg 352, 3401 RJ IJsselstein, The Netherlands",148
81144,"Jan van der Spekstraat 29, 5701 BW Helmond, The Netherlands",148
15691,"Jan van Gentstraat 106, 1171 GN Badhoevedorp, Netherlands",148
5526,"Jan van Gentstraat 117, 1171 GK Badhoevedorp, Netherlands",148
15693,"Jan van Gentstraat 120, 1171 GN Badhoevedorp, Netherlands",148
5306,"Jan van Gentstraat 140, 1171 GN Badhoevedorp, Netherlands",148
15904,"Jan van Gentstraat 144, 1171 GN Badhoevedorp, Netherlands",148
4898,"Jan van Goyenstraat 17, 2102 CA Heemstede, The Netherlands",148
83226,"Jan van Riebeeckweg 79, 6861 BE Oosterbeek, The Netherlands",148
45341,"Jan van Scorelpark 13, 1871 EV Schoorl, Netherlands",148
44193,"Jan Verfailleweg 340A, 1783 BL Den Helder, The Netherlands",148
5210081,"Jan Verfailleweg 622, 1783 BW Den Helder, The Netherlands",148
58838,"Jannes Brugginkweg 2, 9423 TC Hoogersmilde, Netherlands",148
157939,"Jansen-Akker 2, 2994 AH Barendrecht, The Netherlands",148
45265,"Javaruggen 1-9, 8754 Makkum, Netherlands",148
82756,"Javastraat 94, 7556 SJ Hengelo, The Netherlands",148
40477,"JB, Raadhuisplein 50, 6171 JC Stein, The Netherlands",148
72050,"JC van Markenlaan 1, 2285 VL Rijswijk, The Netherlands",148
5389955,"Jeltewei 124, 8622 DA Hommerts, Netherlands",148
40331,"Jerichostraat 41, 6418 ET Heerlen, Netherlands",148
42145,"Jerichostraat 41, 6418 ET Heerlen, Netherlands",148
5168242,"Jeroen Boschplein 6, 5211 ML&#39;s-Hertogenbosch, The Netherlands",148
100976,"Jeweler de Vries, Bisonspoor 1079, 3605 KJ Maarssen, Netherlands",148
82816,"JJ Talsmalaan 11, 6862 BZ Oosterbeek, The Netherlands",148
82859,"JJ Talsmalaan 11, 6862 BZ Oosterbeek, The Netherlands",148
45321,"JJP Oudweg 11, 1703 DE Heerhugowaard, The Netherlands",148
46263,"JJP Oudweg 7, 1703 DE Heerhugowaard, Netherlands",148
5209316,"JN, Westerwater 42, 2651 Berkel en Rodenrijs, Netherlands",148
5075033,"Joan Hodshonstraat 3, 1795 AK De Cocksdorp, The Netherlands",148
75330,"Johann Sebastian Bachlaan 51, 2264 VB Leidschendam, The Netherlands",148
5186,"Johannes Verhulststraat 10, 1544 MP Zaandijk, The Netherlands",148
5208324,"Johannes Vermeerstraat 27, 3601 EL Maarssen, The Netherlands",148
11976,"John F. Kennedyplein 27, 1443 EA Purmerend, Netherlands",148
4666690,"Jonge Voetboogstraat 7, 5212 NS&#39;s-Hertogenbosch, The Netherlands",148
59238,"Jongebuorren 5, 8493 LX Terherne, The Netherlands",148
28238,"Jonkheer Doctor CJ Sandbergweg 88, 3852 PV Ermelo, Netherlands",148
83199,"Jonkheer Nedermeijer van Rosenthalweg 50, 6862 ZW Oosterbeek, Netherlands",148
29210,"Joppeweg 1, 2191 AW De Zilk, Netherlands",148
5209668,"Jos Klijnenlaan 711, 6164 AP Geleen, The Netherlands",148
40795,"Jos Klijnenlaan 711, 6164 AZ Geleen, The Netherlands",148
44879,"Joubertstraat 90, 1782 SH Den Helder, The Netherlands",148
81991,"Joubertweg 34, 6861 DN Oosterbeek, The Netherlands",148
60074,"JP Gouverneurlaan 40 / a, 2171 Sassenheim, Netherlands",148
80653,"Jufferstraat 8, 6581 KJ Malden, The Netherlands",148
47857,"Julialaantje 15B, 2282 NW Rijswijk, The Netherlands",148
81199,"Juliana van Stolberglaan 70, 5263DA Vught, The Netherlands",148
20554,"Julianadorp, Netherlands",148
5209402,"Julianalaan 14, 2159 LA Kaag, The Netherlands",148
5003934,"Julianalaan 19, 2159 LB Kaag, The Netherlands",148
60167,"Julianalaan 3, 2159 RA Kaag, The Netherlands",148
5208026,"Julianalaan 55, 3722 GE Bilthoven, Netherlands",148
5209377,"Julianalaan 58, 2159 LC Kaag, The Netherlands",148
42909,"Julianalaan 66, 6051 AV Maasbracht, Netherlands",148
5207,"Julianaplein 1, 2101 ZC Heemstede, Netherlands",148
5386424,"Julianaplein 1, 9301 LA Roden, Netherlands",148
43959,"Julianaplein 122, 1781 HE Den Helder, The Netherlands",148
81125,"Julianaplein 174, 6641 CT Beuningen, Netherlands",148
44804,"Julianaplein 43, 1781 HA Den Helder, The Netherlands",148
83531,"Julianaplein 5, 6671 CA Zetten, The Netherlands",148
4666377,"Julianaplein 8, 5211 BC &#39;s-Hertogenbosch, Netherlands",148
44735,"Julianaplein 9, 1781 HA Den Helder, The Netherlands",148
44138,"Julianaplein 93, 1781 HB Den Helder, The Netherlands",148
44119,"Julianastraat 11, 1791 AK Den Burg, Netherlands",148
47664,"Julianastraat 16, 2291 TP Wateringen, Netherlands",148
47382,"Julianastraat 22, 2291 TP Wateringen, Netherlands",148
46569,"Julianastraat 3, 1791 AK Den Burg, Netherlands",148
146537,"Julianastraat 42, 2987 BM Ridderkerk, Netherlands",148
45056,"Julianastraat 67, 6181 GP Elsloo, Netherlands",148
44306,"Jupiterbaan 15, 8802 BB Franeker, The Netherlands",148
16140,"Jupiterstraat 162, 2132 HH Hoofddorp, Netherlands",148
5210136,"Jutterspleintje 3, 1781 JR Den Helder, The Netherlands",148
161482,"JYSK, Lylantse Baan 4, 2908 LG Capelle aan den IJssel, Netherlands",148
5209608,"Kaag, Julianalaan 19, 2159 LB Netherlands",148
96985,"Kaagschip 9, 3991 CS Houten, The Netherlands",148
44298,"Kaagweg 21, 1741 LC Schagen, Netherlands",148
59856,"Kaagweg 21, 2157 LH Abbenes, Netherlands",148
44237,"Kaagweg 25, 1741 LC Schagen, Netherlands",148
58120,"Kaap de Goede Hoop 1, 9642 AP Veendam, Netherlands",148
59044,"Kaapse Baan 1, 9752 XP Haren, Netherlands",148
43935,"Kaapstraat 2, 1796 AE De Koog, The Netherlands",148
43950,"Kaapstraat 2, 1796 AE De Koog, The Netherlands",148
45268,"Kaapstraat 39, 1796 AE De Koog, The Netherlands",148
57174,"Kaasmakerstraat 42, 3194 DJ Netherlands",148
5208323,"Kaatsbaan 13, 3601 EA Maarssen, Netherlands",148
5208311,"Kaatsbaan 25, 3601 EB Maarssen, The Netherlands",148
101082,"Kaatsbaan 26, 3601 EC Maarssen, The Netherlands",148
18045,"Kaatsbaan 29, 3601 EB Maarssen, The Netherlands",148
101771,"Kaatsbaan 32, 3601 ED Maarssen, The Netherlands",148
101166,"Kaatsbaan 33, 3601 EB Maarssen, The Netherlands",148
101334,"Kaatsbaan 9, 3601 EA Maarssen, Netherlands",148
82336,"Kabeljauwallee 35, 6865 BL Doorwerth, Netherlands",148
5380017,"Kade 6, 4703 GG Roosendaal, Netherlands",148
5075190,"Kadijksweg 13, 1791 LT Den Burg, Netherlands",148
44939,"Kaepwei 5, 8611 JL Gaastmeer, The Netherlands",148
16246,"Kagerplassen, 2361 Warmond, Netherlands",148
59851,"Kagerplein 116, 2172 EE Sassenheim, Netherlands",148
18454,"Kalfjeslaan 49, 1183 TA Amstelveen, Netherlands",148
59980,"Kalslagerring 23, 2151 TA Nieuw-Vennep, Netherlands",148
60031,"Kalslagerring 25, 2151 TA Nieuw-Vennep, Netherlands",148
5391503,"Kalverbos 1, 4001 AJ Tiel, Netherlands",148
5389858,"Kalverstraat 13, 8713 KV Hindeloopen, Netherlands",148
100454,"Kalverstraat 18, 3481 ES Harmelen, Netherlands",148
101766,"Kalverstraat 2, 3481 ES Harmelen, Netherlands",148
59006,"Kalverstraat 7, 9989 BK Warffum, Netherlands",148
101252,"Kamelenspoor 268, 3605 ER Maarssen, Netherlands",148
5004125,"Kamerstraat 2, 1796 AN De Koog, Netherlands",148
5004127,"Kamerstraat 45, 1796 AM De Koog, The Netherlands",148
67704,"Kamervoort 187, 6851 EE Huissen, The Netherlands",148
65752,"Kamervoort 25, 6687 LB Angeren, Netherlands",148
65753,"Kamervoort 25, 6687 LB Angeren, Netherlands",148
45071,"Kamperfoelieweg 1, 1796 MT De Koog, The Netherlands",148
5075127,"Kamperfoelieweg 1, 1796 MT De Koog, The Netherlands",148
44375,"Kamperfoelieweg 27, 1796 MT De Koog, The Netherlands",148
5004104,"Kamperfoelieweg 3, 1796 MT De Koog, The Netherlands",148
44495,"Kamperfoelieweg 7, 1796 MT De Koog, The Netherlands",148
59929,"Kamperfoeliezoom 29, 2353 RR Leiderdorp, The Netherlands",148
56916,"Kamplaan 4, 3233 XD Oostvoorne, Netherlands",148
100525,"Kampstraat 10, 1211 GE Hilversum, Netherlands",148
5394465,"Kampstraat 21-23, 1211 GD Hilversum, Netherlands",148
82634,"Kampstuk 23, 6852 AC Huissen, The Netherlands",148
44930,"Kampweg 1, 8899 BX Oost-Vlieland, Netherlands",148
45162,"Kampweg 1, 8899 BX Oost-Vlieland, Netherlands",148
45278,"Kampweg 1, 8899 BX Oost-Vlieland, Netherlands",148
98951,"Kampweg 70, 3941 HK Doorn, The Netherlands",148
82776,"Kanaal Zuid 444, 7364 CB Lieren, Netherlands",148
28193,"Kanaaldijk 21, 1458 PR Spijkerboor, Netherlands",148
44972,"Kanaaldijk 29, 1832 AB Koedijk, Netherlands",148
99614,"Kanaaldijk 44, 2741 PA Waddinxveen, Netherlands",148
48316,"Kanaaldijk West 2, 3238 LM Zwartewaal, The Netherlands",148
160905,"Kanaalweg 11, 2903 LR Capelle aan den IJssel, Netherlands",148
5206812,"Kanaalweg 23, 2903 LR Capelle aan den IJssel, Netherlands",148
160001,"Kanaalweg 33, 2903 LR Capelle aan den IJssel, Netherlands",148
136562,"Kanaalweg 42A, 2903 LS Capelle aan den IJssel, Netherlands",148
159976,"Kanaalweg 50, 2903 LS Capelle aan den IJssel, Netherlands",148
160015,"Kanaalweg 6, 2903 LS Capelle aan den IJssel, Netherlands",148
5206811,"Kanaalweg 75A, 2903 LR Capelle aan den IJssel, Netherlands",148
5206319,"Kanaalweg 75B, 2903 LR Capelle aan den IJssel, Netherlands",148
44555,"Kanaalweg 90, 1782 GE Den Helder, Netherlands",148
5389867,"Kanadeeskestrjitte 3, 8491 BC Akkrum, Netherlands",148
5004244,"Kanonsdijk 7, 3737 MS Groenekan, Netherlands",148
5210058,"Kantoorstraat 13, 1791 CE Den Burg, Netherlands",148
5210020,"Kantoorstraat 5, 1791 CE Den Burg, Netherlands",148
42831,"Kapellaan 13, 6461 EH Kerkrade, Netherlands",148
20421,"Kapellaan 82, 1851 PE Heiloo, The Netherlands",148
98940,"Kapelweg 37, 3951 AA Maarn, The Netherlands",148
98452,"Kapelweg 4, 3732 GS De Bilt, The Netherlands",148
45235,"Kapittelstraat 6, 6131 ER Sittard, Netherlands",148
5383329,"Karel Doormanstraat 6, 3201 CG Spijkenisse, Netherlands",148
57409,"Karel Doormantrap, 2684 XH Ter Heijde, The Netherlands",148
57243,"Karel Doormanweg 23, 2684 XG Ter Heijde, The Netherlands",148
67592,"Karl Marxstraat 101, 6663 LA Netherlands",148
98945,"Karnemelksweg 3, 3749 AH Lage Vuursche, The Netherlands",148
80924,"Karpergracht 23, 6642 EM Beuningen, Netherlands",148
4666682,"Karrenstraat 1, 5211 EH &#39;s-Hertogenbosch, Netherlands",148
4666348,"Karrenstraat 10, 5211 EH &#39;s-Hertogenbosch, Netherlands",148
5168245,"Karrenstraat 79, 5211 EH &#39;s-Hertogenbosch, Netherlands",148
68158,"Karstraat 39, 6851 DE Huissen, The Netherlands",148
42698,"Kasennerweg 11, 6241 NL Bunde, Netherlands",148
81963,"Kastanjehof 13, 6883 HZ Velp, The Netherlands",148
83050,"Kastanjehof 7A, 6883 HX Velp, The Netherlands",148
44303,"Kastanjelaan 14, 1722 ZB Zuid-Scharwoude, Netherlands",148
83252,"Kastanjelaan 20, 6921 Duiven, Netherlands",148
83601,"Kastanjelaan 4, 6921 ER Duiven, The Netherlands",148
5719,"Kastanjelaan 69, 1161 Zwanenburg, Netherlands",148
59090,"Kasteel 29, 7741 GC Coevorden, Netherlands",148
57448,"Kasteel 3, 3441 BZ Woerden, The Netherlands",148
67905,"Kasteel 4, 5473 VA Heeswijk Dinther, Netherlands",148
5209908,"Kasteellaan 1, 6602 DA Wijchen, The Netherlands",148
80659,"Kasteellaan 15, 6602 DA Wijchen, The Netherlands",148
136900,"Kasteellaan 2, 5076 RE Haaren, The Netherlands",148
66715,"Kasteellaan 28C, 6602 DE Wijchen, The Netherlands",148
5389225,"Kasteellaan 3, 6602 DA Wijchen, Netherlands",148
65790,"Kasteellaan 37, 6602 DB Wijchen, The Netherlands",148
80927,"Kasteellaan 60, 6602 DH Wijchen, The Netherlands",148
81255,"Kasteellaan 9, 6602 DA Wijchen, The Netherlands",148
81222,"Kasteelplein 1, 5701 PP Helmond, Netherlands",148
81256,"Kasteelsestraat 5, 6611 KA Overasselt, Netherlands",148
41704,"Kasteelstraat 35-B, 6235 BM Ulestraten, Netherlands",148
18677,"Katjeskelder 1, 4904 SG Oosterhout, Netherlands",148
44005,"Kattebos 148, 8446 DB Heerenveen, Netherlands",148
79777,"Katwijk - Dijksman-de-Jong Car Dealership, Lageweg 14, 2222AG Katwijk, Netherlands",148
56536,"Katwijkerlaan 105, 2641 PE Pijnacker, The Netherlands",148
55972,"Katwijkerlaan 55C, 2641 PD Pijnacker, The Netherlands",148
59499,"Katwijkerweg 1A, 2231 SE Rijnsburg, Netherlands",148
59650,"Katwijkerweg 1d, 2231 Rijnsburg, The Netherlands",148
5208110,"Kauwenhof 2, 3435 SN Nieuwegein, The Netherlands",148
55965,"Keenenburgweg 10 c, 2636 GM Schipluiden, Netherlands",148
97572,"Keercamp 17, 3992 RV Houten, The Netherlands",148
100510,"Keerderberg 21, 3453 RD De Meern, The Netherlands",148
100856,"Keerderberg 23, 3453 RD Netherlands",148
100863,"Keerderberg 27, 3453 RD Netherlands",148
44989,"Keerderweg 1, 6247 Gronsveld, Netherlands",148
46316,"Keern 33, 1624 NB Hoorn, The Netherlands",148
5208118,"Kees Stipplein 3, 3901 Veenendaal, The Netherlands",148
44574,"Keesomlaan 15, 1791 DA Den Burg, Netherlands",148
46631,"Keesomlaan 15, 1791 DD Den Burg, Netherlands",148
44074,"Keesomlaan 45, 1791 DB Den Burg, The Netherlands",148
44187,"Keesomlaan 45, 1791 DB Den Burg, The Netherlands",148
82471,"Keesomstraat 3-7, 6717 AH Ede, Netherlands",148
57433,"Keetenweg 10, 4696 Stavenisse, Netherlands",148
145220,"Keetenweg 4a, 4696 Stavenisse, Netherlands",148
5390650,"Keijenbergseweg 19, 6871 WG Renkum, Netherlands",148
64987,"Keimate 5, 6663 KB Netherlands",148
44170,"Keinsmerweg 30, 1756 AG &#39;t Zand, The Netherlands",148
44785,"Keinsmerweg 30, 1756 AG &#39;t Zand, The Netherlands",148
44269,"Keizersgracht 94, 1781 BB Den Helder, Netherlands",148
46252,"Keizerstraat 1-A, 1781 GC Den Helder, The Netherlands",148
44966,"Keizerstraat 17, 1781 GD Den Helder, Netherlands",148
45220,"Keizerstraat 30, 1781 GG Den Helder, The Netherlands",148
43958,"Keizerstraat 32, 1781 GG Den Helder, The Netherlands",148
48019,"Keizerstraat 342, 2584 BP Netherlands",148
5210126,"Keizerstraat 54, 1781 GH Den Helder, The Netherlands",148
47335,"Keizerstraat 60, 2584 BK Netherlands",148
5208358,"Keizerstraat 67, 2584 BC Netherlands",148
44731,"Keizerstraat 73, 1781 GE Den Helder, Netherlands",148
5381471,"Kelvinring 46, 2952 BG Alblasserdam, Netherlands",148
5379375,"Kelvinstraat 1, 2723 RJ Zoetermeer, Netherlands",148
44022,"Kelvinstraat 18, 1704 RS Heerhugowaard, Netherlands",148
80923,"Kelvinstraat 7, 6601 HH Wijchen, The Netherlands",148
5389349,"Kempenbaan 1, 5503 NG Veldhoven, Netherlands",148
43874,"Kempervennendreef 8, 5563 VB Westerhoven, Netherlands",148
41214,"Kempkensweg 10, 6412 AW Heerlen, Netherlands",148
41781,"Kempstraat 22,6121 XX Born, 6121 XX Born, Netherlands",148
14384,"Kennemerboulevard 250, 1976 EG IJmuiden, Netherlands",148
4790,"Kennemerboulevard 412, 1976 European Championship IJmuiden, Netherlands",148
18446,"Kennemerboulevard 540, 1976 EM IJmuiden, Netherlands",148
5374015,"Kennemerlaan 77, 1972 EJ IJmuiden, Netherlands",148
5387284,"Kennemerstraatweg 107, 1851 BC Heiloo, Netherlands",148
19660,"Kennemerstraatweg 129-131, 1851 BC Heiloo, Netherlands",148
16225,"Kennemerstraatweg 464, 1851 NG Heiloo, Netherlands",148
20970,"Kennemerstrand 178, 1976 GA IJmuiden, Netherlands",148
5386510,"Kenninckweg 9A, 9947 PA Termunten, Netherlands",148
87152,"Kerkallee 1, 6882 AL Velp, Netherlands",148
82244,"Kerkallee 17, 6882 AL Velp, Netherlands",148
101762,"Kerkbrink 10, 3621 AN Breukelen, Netherlands",148
5208022,"Kerkbrink 29, 3621 AN Breukelen, Netherlands",148
19618,"Kerkbuurt 10, 1511 BD Oostzaan, Netherlands",148
19716,"Kerkbuurt 15, 1511 BB Oostzaan, Netherlands",148
5875,"Kerkbuurt 4, 1511 BD Oostzaan, Netherlands",148
5198,"Kerkbuurt 6, 1511 BD Oostzaan, Netherlands",148
65340,"Kerkeland 3, 6651 KN Druten, Netherlands",148
101473,"Kerkelandenlaan 3A, 1216 RN Hilversum, Netherlands",148
82975,"Kerkendelweg 30, 3775 KN Kootwijk, Netherlands",148
44112,"Kerkgracht 54, 1782 GK Den Helder, The Netherlands",148
5135,"Kerkhoflaan 46, 1161 JD Zwanenburg, The Netherlands",148
59490,"Kerklaan 12, 2223 AN Katwijk aan Zee, The Netherlands",148
48235,"Kerklaan 16A, 2291 CH Wateringen, Netherlands",148
57510,"Kerklaan 20, 2678 SV De Lier, The Netherlands",148
46988,"Kerklaan 21, 2282 CD Rijswijk, The Netherlands",148
58958,"Kerklaan 30, 9751 NN Haren, Netherlands",148
146100,"Kerklaan 32, 2841 XJ Moordrecht, Netherlands",148
58197,"Kerklaan 34, 9751 NN Haren, Netherlands",148
58036,"Kerklaan 37, 9751 NL Haren, Netherlands",148
59731,"Kerklaan 42, 2171 GC Sassenheim, Netherlands",148
135294,"Kerklaan 450, 2903 HJ Capelle aan den IJssel, The Netherlands",148
5380489,"Kerklaan 5, 2291 CD Wateringen, Netherlands",148
5384060,"Kerklaan 56, 2291 CJ Wateringen, Netherlands",148
74666,"Kerklaan 7A, 2282 CD Rijswijk, The Netherlands",148
56086,"Kerkmeesterstraat 29, 2645 LG Delfgauw, The Netherlands",148
59063,"Kerkpad 12, 9331 AC Norg, Netherlands",148
44888,"Kerkpad 2, 6155 KJ Puth, Netherlands",148
43793,"Kerkpad, 6321 PP Wijlre, The Netherlands",148
5852,"Kerkplein 1, 1941 HD Beverwijk, Netherlands",148
5209693,"Kerkplein 1, 5835 AT Beugen, Netherlands",148
5209217,"Kerkplein 100-102, 6641 BH Beuningen, Netherlands",148
14618,"Kerkplein 11, 1151 AH Broek in Waterland, Netherlands",148
81261,"Kerkplein 12, 6581 AC Malden, The Netherlands",148
66516,"Kerkplein 142-156, 6641 BH Beuningen, Netherlands",148
44116,"Kerkplein 17, 1777 CD Hippolytushoef, Netherlands",148
5209368,"Kerkplein 2, 2181 JC Hillegom, Netherlands",148
5209885,"Kerkplein 2, 6581 AC Malden, The Netherlands",148
5209759,"Kerkplein 2A, 6581 AC Malden, The Netherlands",148
80994,"Kerkplein 2b, 6581 AC Malden, The Netherlands",148
5209114,"Kerkplein 30, 7261 AZ Ruurlo, Netherlands",148
79854,"Kerkplein 4, 6581 AC Malden, The Netherlands",148
5210065,"Kerkplein 48-52, 6641 BH Beuningen, Netherlands",148
98136,"Kerkplein 6, 3628 AE Kockengen, Netherlands",148
80661,"Kerkplein 68, 6641 BH Beuningen, Netherlands",148
44117,"Kerkplein 7, 8899 AW Oost-Vlieland, Netherlands",148
66518,"Kerkplein 72, 6641 BH Beuningen, The Netherlands",148
81035,"Kerkplein 84-86, 6641 BH Beuningen, Netherlands",148
5389843,"Kerkplein 9, 1777 CD Hippolytushoef, Netherlands",148
79857,"Kerkplein 9, 6641 BJ Beuningen, Netherlands",148
41788,"Kerkradersteenweg 27, 6466 PA Kerkrade, The Netherlands",148
43719,"Kerkradersteenweg 4, 6468 PA Kerkrade, The Netherlands",148
74749,"Kerksingel 13, 2651 CC Berkel en Rodenrijs, Netherlands",148
157945,"Kerksingel 23, 2651 CC Berkel en Rodenrijs, Netherlands",148
57452,"Kerkstraat 1, 3155 AN Maasland, Netherlands",148
5208319,"Kerkstraat 1, 3441 BN Woerden, The Netherlands",148
42225,"Kerkstraat 1, 6321 AH Wijlre, Netherlands",148
83131,"Kerkstraat 1, 6721 VA Bennekom, Netherlands",148
85923,"Kerkstraat 12, 6661 NS Elst, The Netherlands",148
5208874,"Kerkstraat 14-18, 2271 CS Voorburg, Netherlands",148
56793,"Kerkstraat 15, 2651 CD Berkel en Rodenrijs, Netherlands",148
57798,"Kerkstraat 150, 9603 AL Hoogezand, The Netherlands",148
83477,"Kerkstraat 16a, 6686 BT Doornenburg, Netherlands",148
98137,"Kerkstraat 19, 1404 HG Bussum, Netherlands",148
5206772,"Kerkstraat 1B, 2271 CP Voorburg, The Netherlands",148
82701,"Kerkstraat 1F, 6721 VA Bennekom, Netherlands",148
4610,"Kerkstraat 2, 1551 BN Westzaan, Netherlands",148
46428,"Kerkstraat 2, 1794 AM Oosterend, Netherlands",148
4666318,"Kerkstraat 20, 5211 KG &#39;s-Hertogenbosch, Netherlands",148
4666319,"Kerkstraat 20, 5211 KG &#39;s-Hertogenbosch, Netherlands",148
67903,"Kerkstraat 27, 6686 BS Doornenburg, Netherlands",148
58610,"Kerkstraat 27, 9751 BB Haren, Netherlands",148
59107,"Kerkstraat 285, 9603 AJ Hoogezand, The Netherlands",148
44688,"Kerkstraat 3, 1794 AM Oosterend, Netherlands",148
59493,"Kerkstraat 32, 2231 CX Rijnsburg, The Netherlands",148
57884,"Kerkstraat 34, 9601 AK Hoogezand, Netherlands",148
5208867,"Kerkstraat 4, 2271 CS Voorburg, Netherlands",148
67622,"Kerkstraat 4, 6675 BR Valburg, Netherlands",148
5209962,"Kerkstraat 47, 5701 PL Helmond, Netherlands",148
64859,"Kerkstraat 54, 6551 ZZ Weurt, Netherlands",148
5168239,"Kerkstraat 56, 5211 KH &#39;s-Hertogenbosch, Netherlands",148
81601,"Kerkstraat 56, 6883 HV Velp, Netherlands",148
100973,"Kerkstraat 59, 1211 CL Hilversum, Netherlands",148
5389490,"Kerkstraat 6, 6561 CC Groesbeek, Netherlands",148
5208869,"Kerkstraat 60, 2271 CT Voorburg, The Netherlands",148
5168154,"Kerkstraat 69, 5211 KE &#39;s-Hertogenbosch, Netherlands",148
5210047,"Kerkstraat 7, 1794 AM Oosterend, Netherlands",148
59724,"Kerkstraat 7, 2153 BD Nieuw-Vennep, Netherlands",148
5383327,"Kerkstraat 7, 3341 LC Hendrik-Ido-Ambacht, Netherlands",148
5209193,"Kerkstraat 78, 6987 AD Giesbeek, The Netherlands",148
5390047,"Kerkstraat 8, 1621 CW Hoorn, Netherlands",148
57136,"Kerkstraat 8, 2271 CS Voorburg, The Netherlands",148
81226,"Kerkstraat 8, 5431 DH Cuijk, Netherlands",148
65156,"Kerkstraat 8, 6675 Valburg, Netherlands",148
42900,"Kerkveldweg 1, 6374 LE Landgraaf, The Netherlands",148
100283,"Kerkweg 1, 3481 CP Harmelen, Netherlands",148
5497,"Kerkweg 11, 1961 JA Heemskerk, Netherlands",148
56299,"Kerkweg 19, 2631 CB Nootdorp, Netherlands",148
101256,"Kerkweg 19, 3603 CL Maarssen, Netherlands",148
5208877,"Kerkweg 2, 2631 CD Nootdorp, Netherlands",148
20990,"Kerkweg 24, 2064 KS Spaarndam, Netherlands",148
59771,"Kerkweg 2b, 2215 KM Voorhout, Netherlands",148
101291,"Kerkweg 34, 3628 AP Kockengen, Netherlands",148
101318,"Kerkweg 39, 3603 CL Maarssen, Netherlands",148
100385,"Kerkweg 39, 3628 AM Kockengen, Netherlands",148
21011,"Kerkweg 4, 2064 KP Spaarndam, Netherlands",148
47137,"Kerkweg 49, 2631 CC Nootdorp, Netherlands",148
46499,"Kerkweg 5a, 1761 Anna Paulowna, Netherlands",148
101255,"Kerkweg 60, 3603 CM Maarssen, The Netherlands",148
101003,"Kerkweg 7-11, 3481 CP Harmelen, Netherlands",148
82797,"Kerkweg 72, 8171 VP Vaassen, The Netherlands",148
21049,"Kernweg 1, 1627 LC Hoorn, The Netherlands",148
46385,"Kernweg 25, 1627 LH Hoorn, The Netherlands",148
43196,"Kersboomkensweg 66, 6363 CC Wijnandsrade, The Netherlands",148
68627,"Kersendijk 7, 7054 AK Westendorp, Netherlands",148
43327,"Kerver 7, 5521 DA Eersel, The Netherlands",148
4802,"Kessler Park 30, 2288 GS Rijswijk, The Netherlands",148
47454,"Kessler Park 30, 2288 GS Rijswijk, The Netherlands",148
56025,"Kessler Park 30, 2288 GS Rijswijk, The Netherlands",148
5209257,"Kessler Park 30, 2288 GS Rijswijk, The Netherlands",148
126397,"Ketellapperpad 6, 3828 DM Hoogland, Netherlands",148
145835,"Kethelweg 50, 3135 GM Vlaardingen, Netherlands",148
45099,"Kets 52, 1156 AX Marken, Netherlands",148
4666337,"Ketsheuvel 52, 5231 PT &#39;s-Hertogenbosch, Netherlands",148
143963,"Keurmeesterstraat 17b, 2984 BA Ridderkerk, Netherlands",148
46546,"Keysers Plaet 1023, 1788 Julianadorp, Netherlands",148
102583,"Kieftveen 18, 3781 PP Voorthuizen, The Netherlands",148
67898,"Kieftveen 37, 3781 PP Voorthuizen, Netherlands",148
101287,"Kijfhoek 27, 3335 LD Zwijndrecht, The Netherlands",148
5075047,"Kikkertstraat 1, 1795 AA De Cocksdorp, The Netherlands",148
5074952,"Kikkertstraat 22, 1795 AD De Cocksdorp, Netherlands",148
5210082,"Kikkertstraat 23, 1795 AA De Cocksdorp, The Netherlands",148
5075028,"Kikkertstraat 24, 1795 AD De Cocksdorp, The Netherlands",148
44865,"Kikkertstraat 3, 1795 AA De Cocksdorp, The Netherlands",148
5074861,"Kikkertstraat 3, 1795 AA De Cocksdorp, The Netherlands",148
5074871,"Kikkertstraat 3, 1795 AA De Cocksdorp, The Netherlands",148
5389840,"Kikkertstraat 30, 1795 AD De Cocksdorp, Netherlands",148
5389911,"Kikkertstraat 31, 1795 AB De Cocksdorp, Netherlands",148
5075031,"Kikkertstraat 47, 1795 AB De Cocksdorp, Netherlands",148
5074875,"Kikkertstraat 65, 1795 AC De Cocksdorp, Netherlands",148
5074951,"Kikkertstraat 8, 1795 AD De Cocksdorp, The Netherlands",148
44103,"Kikkertstraat 85, 1795 AC De Cocksdorp, Netherlands",148
81212,"Kikvorsenstraat 7, 6964 BC Hall, Netherlands",148
5628,"Kinheim 4, 1161 RA Zwanenburg, Netherlands",148
5627,"Kinheim 8, 1161 AP Zwanenburg, Netherlands",148
100400,"Kininelaantje 7-A, 1216 BZ Hilversum, The Netherlands",148
81567,"Klaphekweg 16-F, 6713 HN Ede, Netherlands",148
146021,"Klappeijstraat 6, 4901 HE Oosterhout, The Netherlands",148
5209960,"Klappenburgstraat 32, 6681 XS Bemmel, The Netherlands",148
5209919,"Klappenburgstraat 34, 6681 XS Bemmel, The Netherlands",148
146099,"Klappolder 130, 2665 LP Bleiswijk, The Netherlands",148
159958,"Klappolder 150, 2665 LP Bleiswijk, The Netherlands",148
81699,"Klapstraat 32, 6842 AE Netherlands",148
47143,"Klapwijkseweg 2, 2642 RB Pijnacker, The Netherlands",148
48750,"Klarebeekweg 10, 3253 LC Ouddorp, Netherlands",148
48204,"Klarebeekweg 11, 3253 LC Ouddorp, Netherlands",148
65438,"Klarenbeekseweg 13, 7381 AA Klarenbeek, The Netherlands",148
143982,"Klarinetweg 2, 2992 GG Barendrecht, Netherlands",148
160260,"Klaverbaan 142a, 2908 KD Capelle aan den IJssel, The Netherlands",148
100406,"Klaverkamp 15, 3433 AH Nieuwegein, The Netherlands",148
81236,"Klaverland 9, 6566 Millingen aan de Rijn, Netherlands",148
19712,"Klaverweide 4, 1511 XW Oostzaan, The Netherlands",148
74186,"Klaverweide 68-72, 2272 BV Voorburg, The Netherlands",148
5208927,"Klaverweide 80, 2272 BV Voorburg, The Netherlands",148
27844,"Kleenweg 1, 1471 ED Kwadijk, Netherlands",148
98620,"Kleibergsestraat 12A, 4266 GB Eethen, The Netherlands",148
143962,"Kleidijk 94, 3161 EK Rhoon, The Netherlands",148
64991,"Kleidonk 9, 6641 LM Beuningen, Netherlands",148
82928,"Kleiland 9, 8271 RV IJsselmuiden, The Netherlands",148
67095,"Klein Amerika 1, 6562 KC Groesbeek, Netherlands",148
66988,"Klein Amerika 6, 6562 KC Groesbeek, Netherlands",148
5209171,"Klein Zwitserlandlaan 5, 6866 DS Heelsum, Netherlands",148
81060,"Klein-Oirlo 16, 5811 AW Castenray, Netherlands",148
126041,"Kleine Beer 1, 3721 RH Bilthoven, Netherlands",148
5389851,"Kleine Bredeplaats 9, 8861 BV Harlingen, Netherlands",148
5206675,"Kleine Inez Erf 32, 2907 BD Capelle aan den IJssel, The Netherlands",148
59060,"Kleine Kamp 5, 9755 PZ Onnen, Netherlands",148
44085,"Kleine Kerkstraat 4A, 8601 CN Sneek, The Netherlands",148
81071,"Kleine Klaver 11, 6611 DL Overasselt, Netherlands",148
83440,"Kleine Molenstraat 1, 6661 EC Elst, Netherlands",148
5538,"Kleine Noorddijk 1, 1187 NZ Amstelveen, Netherlands",148
81237,"Kleine Poelstraat 13, 5371 KM Ravenstein, The Netherlands",148
58439,"Kleine Straat 8, 9774 Adorp, Netherlands",148
5389690,"Kleine Wijzend 1, 1647 DT Berkhout, Netherlands",148
97890,"Kleiweg 23, 2801 GB Gouda, Netherlands",148
5389869,"Klifweg 15, 8321 EH Urk, Netherlands",148
44887,"Klimmenerweg 10, 6336 AV Hulsberg, Netherlands",148
5074954,"Klimpstraat 18, 1795 AL De Cocksdorp, The Netherlands",148
44568,"Klimpstraat 27, 1795 De Cocksdorp, Netherlands",148
45426,"Klimpstraat 39, 1795 AN De Cocksdorp, Netherlands",148
83347,"Klingelbeekseweg 69, 6862 VS Oosterbeek, Netherlands",148
60469,"Klinkenbergerpad, Oegstgeest, Netherlands",148
81644,"Klinkenbergerweg 2-10, 6711 MK Ede, Netherlands",148
80663,"Klinkerstraat 35, 5361 GV Grave, Netherlands",148
43716,"Klinkertstraat 118, 6433 PB Hoensbroek, The Netherlands",148
82966,"Klipperweg 15, 8102 HR Raalte, The Netherlands",148
100825,"Klokjesbloemlaan 28, 3452 BE Netherlands",148
59623,"Klompenmakerstraat 20, 2672 GA Naaldwijk, The Netherlands",148
47057,"Klompenmakerstraat 30, 2672 GA Naaldwijk, The Netherlands",148
18676,"Klomperweg 108, 6741 PJ Lunteren, Netherlands",148
83136,"Klomperweg 5, 6741 BJ Lunteren, Netherlands",148
40234,"Klompstraat 1, 6411 KR Heerlen, Netherlands",148
85640,"Kloosterlaan 2, 7004 HE Doetinchem, Netherlands",148
66488,"Kloosterplaats 1, 6681 BN Bemmel, Netherlands",148
59616,"Kloosterschuurlaan 16, 2231 MT Rijnsburg, Netherlands",148
81783,"Kloosterstraat 17, 6981 CC Doesburg, Netherlands",148
19975,"Kloosterstraat 23-25, 1115 BJ Duivendrecht, The Netherlands",148
5208325,"Kloosterweg 7, 3481 XB Harmelen, Netherlands",148
5208808,"Kniplaan 22, 2251 AK Voorschoten, The Netherlands",148
58837,"Koaidyk 10, 9264 TP Earnewald, Netherlands",148
59250,"Koaidyk 8, 9264 TP Earnewald, The Netherlands",148
5394460,"Koedijk 1, 3992 LV Houten, Netherlands",148
56782,"Koegelwieckplantsoen 45, 2651 NL Berkel en Rodenrijs, Netherlands",148
97210,"Koekoekslaan 1, 3435 CM Nieuwegein, The Netherlands",148
97432,"Koekoekslaan 1, 3435 CM Nieuwegein, The Netherlands",148
97500,"Koekoekslaan 1, 3435 CM Nieuwegein, The Netherlands",148
44973,"Koekoekspad 25, 1602 NE Enkhuizen, Netherlands",148
65765,"Koelenhofstraat 7, 4004 JR Tiel, Netherlands",148
18695,"Koemarkt 20, 1441 DC Purmerend, The Netherlands",148
5390368,"Koemarkt 51, 1441 DB Purmerend, Netherlands",148
11492,"Koen van Oosterwijklaan 6-A, 1181 DT Amstelveen, Netherlands",148
5390569,"Koepoortstraat 12, 6981 AS Doesburg, Netherlands",148
5390653,"Koestraat 1, 6988 AA Lathum, Netherlands",148
5209189,"Koestraat 12, 5944 BJ Arcen, Netherlands",148
60020,"Koetsiersweg 7, 2171 NL Sassenheim, Netherlands",148
67885,"Koeweg 16, 6731 SJ Otterlo, Netherlands",148
44872,"Kogerstraat 11, 1791 EN Den Burg, Netherlands",148
44704,"Kogerstraat 2, 1791 ES Den Burg, Netherlands",148
5075173,"Kogerstraat 52, 1791 ET Den Burg, The Netherlands",148
5210026,"Kogerstraat 7, Den Burg, Netherlands",148
45688,"Kogerstraat 84, 1791 EV Den Burg, The Netherlands",148
44223,"Kogerstraat 88, 1791 EV Den Burg, The Netherlands",148
44135,"Kogerstraat 9, 1791 EN Den Burg, Netherlands",148
44029,"Kogerstraat 94, 1791 EV Den Burg, The Netherlands",148
16248,"Koggeweg 40, 1607 MT Hem, Netherlands",148
28650,"Kolgans 25, 1111 VS Diemen, Netherlands",148
83532,"kolkakker 9, 7031 LD Wehl, Netherlands",148
4666684,"Kolperstraat 11-13, 5211 KB &#39;s-Hertogenbosch, Netherlands",148
59167,"Kompasstraat 1a, 9866 AP Lutjegast, The Netherlands",148
146975,"Kompasstraat 3, 2901 AM Capelle aan den IJssel, The Netherlands",148
147771,"Kompasstraat 32E, 2901 AM Capelle aan den IJssel, The Netherlands",148
135511,"Kompasstraat 9-11, 2901 AM Capelle aan den IJssel, The Netherlands",148
5380485,"Kon. Julianalaan 234, 2274 JR Voorburg, Netherlands",148
5392149,"Kon. Julianalaan 70, 2274 JL Voorburg, Netherlands",148
83098,"Konijnenbergerweg 3, 8051 CC Hattem, Netherlands",148
15834,"Koning Willem-Alexanderlaan 3, 2135VL Hoofddorp, Netherlands",148
46387,"Koningin Julianalaan 1, 2224 EW Katwijk, The Netherlands",148
101476,"Koningin M?ximalaan 30, 1421 LC Uithoorn, Netherlands",148
57353,"Koninginnelaan 86, 2281 HH Rijswijk, The Netherlands",148
159180,"Koninginnelaan 9, 3181 GK Rozenburg, Netherlands",148
4666689,"Koninginnenlaan 28, 5211 WG &#39;s-Hertogenbosch, Netherlands",148
5168165,"Koninginnenlaan 51, 5211 WE &#39;s-Hertogenbosch, Netherlands",148
99117,"Koninginneweg 11, 1217 KP Hilversum, The Netherlands",148
97156,"Koninginneweg 63a, 1241 Kortenhoef, Netherlands",148
79831,"Koningshof 22, 3911 LH Rhenen, Netherlands",148
99783,"Koningslaan 9, 3981 HD Bunnik, Netherlands",148
5383076,"Koningsplein 2, 2981 EA Ridderkerk, Netherlands",148
43940,"Koningsplein 4, 1781 KK Den Helder, The Netherlands",148
59728,"Koningstraat 112, 1941 BE Beverwijk, Netherlands",148
45065,"Koningstraat 15, 1783KC Den Helder, The Netherlands",148
66986,"Koningstraat 17, 6654 Afferden, Netherlands",148
5210140,"Koningstraat 41, 1781 KC Den Helder, The Netherlands",148
5210137,"Koningstraat 65, 1781 KD Den Helder, The Netherlands",148
5389842,"Koningstraat 86, 1781 KJ Den Helder, Netherlands",148
45249,"Koningstraat, 1781 LE Den Helder, The Netherlands",148
5168316,"Koningsweg 10, 5211 BL &#39;s-Hertogenbosch",148
44159,"Koningsweg 13, 1764 MJ Breezand, Netherlands",148
96971,"Koningsweg 14-16, 3762 EC Soest, Netherlands",148
5074882,"Koningsweg 24, 1794 HP Oosterend, Netherlands",148
98138,"Koningsweg 29C, 3762 XS Soest, Netherlands",148
4666653,"Koningsweg 66, 5211 BN &#39;s-Hertogenbosch, Netherlands",148
49176,"Kooiijk, 2811 Reeuwijk, Netherlands",148
14904,"Kooilaan 1, 2665 KR Bleiswijk, The Netherlands",148
161538,"Kooilaan 1, 2665 KR Bleiswijk, The Netherlands",148
47674,"Kooilaan 1a, 2665 KR Bleiswijk, The Netherlands",148
160902,"Kooilaan 6, 2665 KR Bleiswijk, The Netherlands",148
66990,"Kooistraat 1A, 6654 KH Afferden, The Netherlands",148
136503,"Kooiwalbos 1, 2992 XE Barendrecht, The Netherlands",148
135471,"Kooiwalweg 1 A, 2992 XA Barendrecht, The Netherlands",148
14213,"Kooizandweg 9, 1601 LK Enkhuizen, Netherlands",148
81724,"Koolmeesstraat 2, 6921 KK Duiven, The Netherlands",148
5190,"Koopman Heeresweg 10, 8701 PR Bolsward, The Netherlands",148
58843,"Koopmansplein 8, 9401 EL Assen, Netherlands",148
82820,"Kootwijk, Netherlands",148
98448,"Koppeldijk 1c, 3992 LR Houten, Netherlands",148
5394441,"Koppeldijk 5, 3992 LR Houten, Netherlands",148
67627,"Koppelingsweg 5, 6673 DT Andelst, Netherlands",148
68531,"Koppenwaard 1, 6988 BR Lathum, Netherlands",148
19212,"Korenbloemstraat 2, 1115 DE Duivendrecht, The Netherlands",148
98930,"Korenmolenlaan 3-A, 3447 GG Woerden, The Netherlands",148
5394745,"Korenmolenlaan 4, 3447 GG Woerden, Netherlands",148
44994,"Korenstraat 97, 1773 AR Kreileroord, Netherlands",148
44549,"Korfbaeck 18, 1791 TG Den Burg, Netherlands",148
158771,"Korhoenlaan 7, 3136 ST Vlaardingen, Netherlands",148
56579,"Korte Baan 2-14, 2632 GK Nootdorp, Netherlands",148
44178,"Korte Belkmerweg 34, 1756 CC &#39;t Zand, The Netherlands",148
5209196,"Korte Griet 1, 6932 LK Westervoort, Netherlands",148
81436,"Korte Griet 7, 6932 LK Westervoort, Netherlands",148
126347,"Korte Groenendaal 17, 2801 JP Gouda, The Netherlands",148
82464,"Korte Hofstraat 1, 7201 KH Zutphen, The Netherlands",148
71919,"Korte Kruisweg 48, 2676 BS Maasdijk, The Netherlands",148
97150,"Korte Schaft 12, 3991 AT Houten, The Netherlands",148
20976,"Korte Zijlweg 7, 2051 BD Overveen, The Netherlands",148
48095,"Kortedijk 104, 3134 HB Vlaardingen, The Netherlands",148
45344,"Kortevliet 1 ALRM, 1786 PK Den Helder, The Netherlands",148
44282,"Kortevliet 1 BB, 1786 PK Den Helder, The Netherlands",148
100864,"Kortland 23, 3451 VD Netherlands",148
100421,"Kortland 3, 3451 VD Vleuten, Netherlands",148
46643,"Korvetstraat 67, 1784 MP Den Helder, Netherlands",148
96950,"Kosterijland 15, 3981 AJ Bunnik, Netherlands",148
83397,"Kostverloren 14, 6661 Elst, Netherlands",148
5231,"Kostverlorenhof, Amstelveen, Netherlands",148
18455,"Kostverlorenkade 25, 1183 TL Amstelveen, Netherlands",148
82774,"Kostverlorensteeg 6, 6732 Harskamp, Netherlands",148
5004190,"Koudelaan 25, 3723 ME Bilthoven, The Netherlands",148
43551,"Koutenveld 1b, 6441 DW Brunssum, Netherlands",148
40328,"Kouvenderstraat 135, 6431 HD Hoensbroek, Netherlands",148
83021,"Kraanvogelstraat 15, 6921 WS Duiven, Netherlands",148
65181,"Kraanvogelstraat 20, Wijchen, Netherlands",148
147150,"Krabbeweg 3, 3231 NB Brielle, Netherlands",148
48848,"Krabbeweg 9, 3231 NB Brielle, Netherlands",148
102107,"Krakelingweg 21A, 3707 HN Zeist, Netherlands",148
68510,"Krakkedel 54, 6686 MB Doornenburg, Netherlands",148
147827,"Krammerdijk 5, 3256 LH Achthuizen, Netherlands",148
83029,"Kreuzelweg 3, 5961 NM Horst, Netherlands",148
66060,"Kreytacker 22, 6581 JR Malden, Netherlands",148
28580,"Kriekenoord 13, 1111 PT Diemen, The Netherlands",148
19988,"Kriekenoord 17, 1111 PT Diemen, The Netherlands",148
16302,"Krijgsman 22-25, 1186 DM Amstelveen, The Netherlands",148
44364,"Krimweg 102, 1795 LS De Cocksdorp, Netherlands",148
43934,"Krimweg 102, 1795 MC De Cocksdorp, Netherlands",148
44777,"Krimweg 102D, 1795 LS De Cocksdorp, The Netherlands",148
82766,"Krimweg 152, 7351 TM Netherlands",148
67888,"Krimweg 170, 7351 TM Netherlands",148
5075030,"Krimweg 22, 1795 LP De Cocksdorp, The Netherlands",148
45429,"Krimweg 67A, 1795 LR De Cocksdorp, Netherlands",148
81723,"Krimweg 76, 7351 AW Hoenderloo, The Netherlands",148
4971279,"Kromdel 47, 1831 AE Koedijk, Netherlands",148
18716,"Kromme Aarweg 5, 2403 NB Alphen aan den Rijn, The Netherlands",148
48891,"Kromme Aarweg 5, 2403 NB Alphen aan den Rijn, The Netherlands",148
5209524,"Krommenie?rweg 44, 1521 HK Wormerveer, Netherlands",148
5382918,"Krommeweg 6, 3343 LB Hendrik-Ido-Ambacht, Netherlands",148
5209190,"Kromstraat 2, 5504 BC Veldhoven, Netherlands",148
58612,"Kroonkampweg 10, 9752 KH Haren, Netherlands",148
44710,"Kroonpassage 23, 1781 JT Den Helder, The Netherlands",148
46248,"Kroonpassage 32, 1781 JT Den Helder, The Netherlands",148
46250,"Kroonpassage 36, 1781 JT Den Helder, The Netherlands",148
44325,"Kroonpassage, Den Helder, Netherlands",148
101474,"Kroostweg 43, 3704 EB Zeist, Netherlands",148
13605,"Kruidenhof 10, 1112 PS Diemen, The Netherlands",148
19383,"Kruidenhof 18, 1112 PS Diemen, The Netherlands",148
19509,"Kruidenhof 26, 1112 PS Diemen, The Netherlands",148
5205635,"Kruidenhof 4, 1112 PS Diemen, The Netherlands",148
19273,"Kruidenhof 8, 1112 PS Diemen, The Netherlands",148
71996,"Kruisbalk 7, 2291 ME Wateringen, The Netherlands",148
65336,"Kruisbergseweg 25, 7009 BL Doetinchem, Netherlands",148
101734,"Kruisboog 28, 3994 AE Houten, The Netherlands",148
4666330,"Kruisbroedershof 6, 5211 &#39;s-Hertogenbosch, Netherlands",148
4666502,"Kruiskampsingel 179, 5224 KG &#39;s-Hertogenbosch, Netherlands",148
5388162,"Kruisstraat 10, 6411 BT Heerlen, Netherlands",148
4666687,"Kruisstraat 29 C, 5211 DT &#39;s-Hertogenbosch, Netherlands",148
60323,"Kruisweg 1061, 2131 CT Hoofddorp, Netherlands",148
59495,"Kruisweg 1071, 2131 CT Hoofddorp, Netherlands",148
14266,"Kruisweg 2A, 1436 CC Aalsmeerderbrug, Netherlands",148
99022,"Kruisweg 3, 4131 NX Vianen, Netherlands",148
4704,"Kruisweg 381, 1437 CH Rozenburg, Netherlands",148
12351,"Kruisweg 381, 1437 CH Rozenburg, Netherlands",148
15250,"Kruisweg 387 391, 1437 CH Rozenburg, Netherlands",148
4696,"Kruisweg 387, 1437 CH Rozenburg, Netherlands",148
5029,"Kruisweg 450, 2132 Hoofddorp, Netherlands",148
4693,"Kruisweg 450, 2132 LA Hoofddorp, Netherlands",148
15245,"Kruisweg 456, 2132 LA Hoofddorp, Netherlands",148
59442,"Kruisweg 456, 2132 LA Hoofddorp, Netherlands",148
5003917,"Kruisweg 495, 2132 NA Hoofddorp, Netherlands",148
4786,"Kruisweg 567, 2132 NA Hoofddorp, Netherlands",148
5375541,"Kruisweg 640, 2132 CJ Hoofddorp, Netherlands",148
59452,"Kruisweg 755, 2132 NE Hoofddorp, Netherlands",148
4697,"Kruisweg 791, 2132 NG Hoofddorp, Netherlands",148
18433,"Kruisweg 825-A, 2132 NG Hoofddorp, Netherlands",148
5386986,"Kruisweg 965, 2132 CD Hoofddorp, Netherlands",148
5387283,"Kruisweg 983B, 2132 CE Hoofddorp, Netherlands",148
5387142,"Kruisweg 995, 2132 CE Hoofddorp, Netherlands",148
4666675,"Kruithuis, Citadellaan 7, 5211 XA &#39;s-Hertogenbosch, Netherlands",148
147833,"Kudelstaartseweg 16, 1431 GA Aalsmeer, The Netherlands",148
48757,"Kuijerdamseweg 64, 4322 NM Scharendijke, The Netherlands",148
145221,"Kuijerdamseweg 7, 4326 LL Noordwelle, Netherlands",148
20890,"Kuikensweg 84, 1945 EP Beverwijk, Netherlands",148
5209987,"Kuilenstraat 15, 6231 AT Meerssen, The Netherlands",148
5388363,"Kuilenstraat 2, 6231 AW Meerssen, Netherlands",148
42451,"Kuilenstraat 73, 6231 AV Meerssen, The Netherlands",148
13867,"Kuiperij 6, 1185 XS Amstelveen, Netherlands",148
5207112,"Kuiperstraat 35, 3131 CH Vlaardingen, Netherlands",148
4665125,"Kuipertjeswal 10-A, 5211 GW &#39;s-Hertogenbosch, Netherlands",148
68090,"Kuluutweg 8, 5825 BC Overloon, Netherlands",148
59242,"K?persleantsje 34, 8493 LR Terherne, Netherlands",148
147574,"Kurenpolderweg 31, 4273 LA Hank, Netherlands",148
56684,"Kurhausweg 2A, 2587 RT Netherlands",148
147775,"Kwartellaan 39, 3135 KC Vlaardingen, The Netherlands",148
4666313,"Kwartierenlaan 90, 5235 JB &#39;s-Hertogenbosch, Netherlands",148
144890,"Kwartslaan 113, 3162 RD Rhoon, Netherlands",148
80643,"Kwekersweg 2, 5443 PP Haps, Netherlands",148
56328,"Kwelderplantsoen, 2651 NE Berkel en Rodenrijs, Netherlands",148
99116,"Kweldijk, Zuilichem, Netherlands",148
96992,"Kwikstaartlaan 12, 3704 GS Zeist, The Netherlands",148
19648,"Laag-Nieuwkoop 36, Kockengen, Netherlands",148
45358,"Laagheideweg 11, 5966 PL America, Netherlands",148
45827,"Laagwaalderweg 21, Oudeschild, Netherlands",148
45150,"Laagwaalderweg 39, 1793 ED De Waal, The Netherlands",148
136937,"Laan der Continenten 70, 4847 DG Teteringen, Netherlands",148
81004,"Laan der United Nations 150, 6716 JE Ede, Netherlands",148
18320,"Laan Rozenburg 17, 1181 Amstelveen, The Netherlands",148
5386824,"Laan van Berendrecht 11a, 2352 VR Leiderdorp, Netherlands",148
60134,"Laan van Chopin 17, 2151 GZ Nieuw-Vennep, The Netherlands",148
5113,"Laan van de Helende Meesters 8, 1186 AM Amstelveen, The Netherlands",148
14526,"Laan van Duivenvoorde 4, 2252 AK Voorschoten, The Netherlands",148
97059,"Laan van Duuring 1, 3621 LH Breukelen, The Netherlands",148
67907,"Laan van Henkenshage 3, 5492 BH Sint-Oedenrode, The Netherlands",148
57498,"Laan van Het Haantje 22, 2288 HA Rijswijk, The Netherlands",148
47844,"Laan van Hoornwijck 29, 2289 DG Rijswijk, The Netherlands",148
55932,"Laan van Hoornwijck 29, 2289 DG Rijswijk, The Netherlands",148
47109,"Laan van Hoornwijck 70, 2289 DG Rijswijk, The Netherlands",148
11551,"Laan van Kronenburg 14, 1183 AS Amstelveen, Netherlands",148
18069,"Laan van Kronenburg 14, 1183 AS Amstelveen, Netherlands",148
18417,"Laan van Kronenburg 14, 1183 AS Amstelveen, Netherlands",148
18618,"Laan van Kronenburg 14, 1183 AS Amstelveen, Netherlands",148
97402,"Laan van Laag Kanje 1, 3951 KD Maarn, The Netherlands",148
47124,"Laan van Nieuw Oosteinde 293, 2273 KZ Voorburg, The Netherlands",148
48863,"Laan van Nieuw Oosteinde 34, 2274 EG Voorburg, The Netherlands",148
5208911,"Laan van Nootdorp 1, 2632 GR Nootdorp, The Netherlands",148
5384757,"Laan van Nootdorp 33, 2632 GR Nootdorp, Netherlands",148
101010,"Laan van Rapijnen 27, 3461 GH Linschoten, The Netherlands",148
59643,"Laan van Verhof 3, 2231 BZ Rijnsburg, The Netherlands",148
59613,"Laan van Verhof 65, 2231 DZ Rijnsburg, The Netherlands",148
97503,"Laan van Vollenhove 12, 3706 AA Zeist, The Netherlands",148
5208038,"Laan van Vollenhove 2987, 3706 AL Zeist, The Netherlands",148
136732,"Laan van Welgelegen 72, 4251 KM Werkendam, The Netherlands",148
59246,"Laan van Westerwolde 15, 9541 ZA Vlagtwedde, Netherlands",148
59135,"Laan van Westerwolde 8, 9541 ZA Vlagtwedde, Netherlands",148
79833,"Laan van Westroijen 10, 4003 AZ Tiel, The Netherlands",148
5004232,"Laanakkerweg 4, 4131 PA Vianen, Netherlands",148
45105,"Laanweg 5 B, 1871 BH Schoorl, Netherlands",148
66147,"Laauwikstraat 11, 6663 CD Netherlands",148
67615,"Laauwikstraat 11, 6663 CD Netherlands",148
64689,"Laauwikstraat 8, 6663 Netherlands",148
4649018,"Labradorstroom 75, 1271 DE Huizen, Netherlands",148
98948,"Lage Naarderweg 37, 1217 GN Hilversum, Netherlands",148
57521,"Lage Vaartkant 11, 4872 NC Etten-Leur, The Netherlands",148
45829,"Lagedijkerweg 13-N, 1742 NB Schagen, The Netherlands",148
20485,"Lagelaan 8, 1851 PC Heiloo, Netherlands",148
81074,"Lagewald 10, 6561 KV Groesbeek, Netherlands",148
66984,"Lagewald 13, 6561 KV Groesbeek, Netherlands",148
59436,"Lageweg 14, 2222 AG Katwijk aan Zee, The Netherlands",148
44028,"Lageweg 23, 1628 JS Hoorn, The Netherlands",148
66684,"Lagunesingel 9, 6642 ER Beuningen, Netherlands",148
83198,"Laman Trip-park 7, 6865 CS Doorwerth, Netherlands",148
45470,"Lancasterdijk, 1794 Oosterend, Netherlands",148
5272,"Lanckhorstlaan 8, 2101 BD Heemstede, Netherlands",148
16295,"Landal Beach Resort Ooghduyne, 1787 Julianadorp, Netherlands",148
46480,"Landbouwstraat 21, 1787 AK Julianadorp, Netherlands",148
67908,"Landgoed Middachten 3, 6994 JC De Steeg, The Netherlands",148
45170,"Landgraaf, 6371 KZ Landgraaf, Netherlands",148
19702,"Landlust 3, 1111 HP Diemen, Netherlands",148
147766,"Landmanshof 17, 3342 XD Hendrik-Ido-Ambacht, Netherlands",148
45103,"Landmetersweg 27, 1785 HA, Den Helder, Netherlands",148
4666353,"Landrekenlaan 160, 5235 LE &#39;s-Hertogenbosch, Netherlands",148
43875,"Landsraderweg 11, 6271 NT Gulpen, The Netherlands",148
100370,"Landzigt 18, 3454 PE Netherlands",148
96964,"Landzigt 22, 3454 PE Netherlands",148
98938,"Langbroekerweg 1, 3941 MS Doorn, Netherlands",148
99063,"Langbroekerweg 10, 3941 MT Doorn, The Netherlands",148
80674,"Lange Beijerd 2, 5431 SJ Cuijk, The Netherlands",148
126479,"Lange Brinkweg 87-A, 3764 AC Soest, The Netherlands",148
65168,"Lange Dreef 1, 6662 KL Elst, The Netherlands",148
100058,"Lange Dreef 17, 4124 AJ Hagestein, The Netherlands",148
27666,"Lange Groenendaal 79, 2801 LS Gouda, The Netherlands",148
81055,"Lange Heideweg 7, 6731 EG Otterlo, Netherlands",148
5208983,"Lange Hofstraat 23-23, 7201 HT Zutphen, The Netherlands",148
47647,"Lange Kleiweg 1, 2288 GH Rijswijk, The Netherlands",148
56770,"Lange Kleiweg 50K-M, 2288 GK Rijswijk, The Netherlands",148
45005,"Lange Leane 11, 8711 HK Workum, The Netherlands",148
15262,"Lange Nieuwstraat 793, 1971 GG IJmuiden, Netherlands",148
4665123,"Lange Putstraat 10, 5211 KN &#39;s-Hertogenbosch, Netherlands",148
4665124,"Lange Putstraat 15-17, 5211 KN &#39;s-Hertogenbosch, Netherlands",148
5168164,"Lange Putstraat 7, 5211 KN &#39;s-Hertogenbosch, Netherlands",148
5393607,"Lange Schaft 13-b-1, 3991 AP Houten, Netherlands",148
59991,"Lange Voort 11 FG, 2343 CA Oegstgeest, Netherlands",148
5209616,"Lange Voort 11-BE, 2343 CA Oegstgeest, Netherlands",148
59375,"Lange Voort 15, 2343 CA Oegstgeest, Netherlands",148
59736,"Lange Voort 2 T, 2341 KA Oegstgeest, Netherlands",148
60297,"Lange Voort 273, 2343 CE Oegstgeest, Netherlands",148
5386825,"Lange Voort 2A, 2341 KA Oegstgeest, Netherlands",148
60040,"Lange Voort 2F, 2341 KA Oegstgeest, Netherlands",148
74343,"Lange Voort, 2343 CA Oegstgeest, Netherlands",148
5208773,"Lange Wateringkade 30, 2295 RN Kwintsheul, The Netherlands",148
46195,"Lange Weide 27, 1631 DK Oudendijk, The Netherlands",148
82080,"Lange Weisteeg 3, 5324 JH Ammerzoden, The Netherlands",148
5004271,"Langegracht 20, 3601 AH Maarssen, The Netherlands",148
98798,"Langegracht 44, 3601 AJ Maarssen, The Netherlands",148
5208132,"Langegracht 51, 3601 AK Maarssen, The Netherlands",148
67181,"Langekampweg 22, 6715 Ede, Netherlands",148
81078,"Langekampweg 22, 6715 Ede, Netherlands",148
67175,"Langekampweg 6, 6715 Ede, Netherlands",148
83277,"Langekerkstraat 19, 6851 BM Huissen, The Netherlands",148
85566,"Langekerkstraat 19, 6851 BM Huissen, The Netherlands",148
58486,"Langeleegte 16a, 9641 Veendam, Netherlands",148
58813,"Langelo?rweg 63, 9331 VA Norg, Netherlands",148
44609,"Langen Akker 40, 6325 CM Berg en Terblijt, The Netherlands",148
5394464,"Langestraat 126, 1211 HC Hilversum, Netherlands",148
5209197,"Langestraat 24, 6851 AR Huissen, Netherlands",148
83429,"Langestraat 30, 6851 AR Huissen, Netherlands",148
83246,"Langestraat 45, 6851 AM Huissen, Netherlands",148
5390553,"Langestraat 56, 6851 AS Huissen, Netherlands",148
58537,"Langestraat 63-65, 9671 PC Winschoten, Netherlands",148
59621,"Langevaart 8, 2231 GC Rijnsburg, The Netherlands",148
5074874,"Langeveldstraat 41, 1795 AG De Cocksdorp, Netherlands",148
44156,"Langevliet 16, 1787 BC Julianadorp, Netherlands",148
82783,"Langeweg 14, 8166 GT Emst, Netherlands",148
56078,"Langeweg 336, 3331 Zwijndrecht, Netherlands",148
145214,"Langeweg 350, 3331 LG Zwijndrecht, The Netherlands",148
145215,"Langeweg 350, 3331 LG Zwijndrecht, The Netherlands",148
57696,"Langewijje 10-A, 4434 NE Kwadendamme, Netherlands",148
14909,"Langezand 2, 8754 HR Makkum, The Netherlands",148
85525,"Langschoterweg 7, 6721 MR Bennekom, Netherlands",148
65144,"Langstraat 10, 6691 EG Gendt, Netherlands",148
5004111,"Langwaal 2, 1793 AJ De Waal, The Netherlands",148
48358,"Lantaarndijk 12, 4797 SP Willemstad, Netherlands",148
48760,"Laone 37, 4325 EJ Renesse, Netherlands",148
59848,"Lapinenburgstraat 28, 2182 DX Hillegom, Netherlands",148
127002,"Laren, Netherlands",148
98280,"Larenseweg 28a-18, 1221 CM Hilversum, Netherlands",148
82661,"Larensteinselaan 26-A, 6882 CT Velp, The Netherlands",148
82629,"Larensteinselaan 26-D, 6882 CT Velp, The Netherlands",148
86995,"Larensteinselaan 28, 6882 CZ Velp, Netherlands",148
5389660,"Larserplein 20, 8226 PB Lelystad, Netherlands",148
86015,"Lathumse Plas, 6988 Lathum, Netherlands",148
136071,"Laurens Janszn. Costerstraat 7b, 3261 LH Oud-Beijerland, The Netherlands",148
59249,"Lauwersmeer, Netherlands",148
82704,"Lavendel 16, 3904 LM Veenendaal, Netherlands",148
158662,"Lavendelstraat 117, 3142 NE Maassluis, The Netherlands",148
14088,"Leeghwaterpark 1, 1445 RA Purmerend, Netherlands",148
18881,"Leeghwaterpark 7, 1445 RA Purmerend, Netherlands",148
4855,"Leeghwaterweg 3, 1456 NB Wijdewormer, The Netherlands",148
5389489,"Leegstraat 14, 6645 BC Winssen, Netherlands",148
55827,"Leemolen 46, 2678 MH De Lier, The Netherlands",148
58821,"Leenstertillen 2, 9965 TN Leens, Netherlands",148
58849,"Leensterweg 43-D, 9971 EB Ulrum, Netherlands",148
67909,"Leersum, Netherlands",148
158432,"Leeuwenhoekstraat 1, 2652 XL Berkel en Rodenrijs, Netherlands",148
143959,"Leeuwenhoekstraat 60, 2652 XL Berkel en Rodenrijs, Netherlands",148
161478,"Leeuwenhoekweg 96, 2661 DD Bergschenhoek, Netherlands",148
5375028,"Leeuwenstraat 27, 1211 ES Hilversum, Netherlands",148
101823,"Leeuwenstraat 35, 1211 ES Hilversum, Netherlands",148
81577,"Leeuweriklaan 28, 3704 GR Zeist, The Netherlands",148
20419,"Leeuwerikplein 21, 1444 HX Purmerend, Netherlands",148
68658,"Leeuweriksweg 62, 5402 XE Uden, The Netherlands",148
67290,"Leeuwstraat 68, 5408 PL Volkel, Netherlands",148
16098,"Legmeerdijk 129, 1432 KA Aalsmeer, The Netherlands",148
4911,"Legmeerdijk 227, 1432 KA Aalsmeer, The Netherlands",148
101283,"Legmeerdijk 273, 1430 AA Aalsmeer, The Netherlands",148
102496,"Legmeerdijk 281, 1432 KC Aalsmeer, The Netherlands",148
14549,"Legmeerdijk 313, 1431 GB Aalsmeer, Netherlands",148
59172,"Legolaan 1c, 9861 AT Grootegast, Netherlands",148
15680,"Leibnizstraat 10, 1171 BW Badhoevedorp, Netherlands",148
60416,"Leidsestraat 100, 2182 DR Hillegom, Netherlands",148
20986,"Leidsestraat 170, 2182 DS Hillegom, Netherlands",148
59467,"Leidsestraat 176, 2182 Hillegom, Netherlands",148
60374,"Leidsestraat 177, 2182 DL Hillegom, Netherlands",148
13860,"Leidsestraat 187, 2182 DM Hillegom, Netherlands",148
