4697157,"Bazovyy Proyezd, 3, Nizhnij Novgorod, Nizhegorodskaya oblast', Russia, 603108",177
4721193,"Bazovyy Proyezd, 9?, Nizhnij Novgorod, Nizhegorodskaya oblast &#39;, Russia, 603015",177
4714107,"Belorusskaya Ulitsa, 103, Bataysk, Rostovskaya oblast &#39;, Russia, 346888",177
4712950,"Belorusskaya Ulitsa, 196?, Rostov, Rostovskaya oblast &#39;, Russia, 344056",177
4713036,"Belorusskaya Ulitsa, 196?, Rostov, Rostovskaya oblast', Russia, 344056",177
4712597,"Belorusskaya Ulitsa, 9, ?.??????-??-????, Rostovskaya oblast', Russia, 344065",177
4713021,"Belorusskaya Ulitsa, 95, Rostov, Rostovskaya oblast', Russia, 344056",177
4714131,"Beregovaya street, Rostov, Rostovskaya oblast &#39;, Russia, 344002",177
4714287,"Beregovaya Ulitsa, 10, Rostov, Rostovskaya oblast &#39;, Russia, 344002",177
4716376,"Beregovaya Ulitsa, 10, Rostov, Rostovskaya oblast &#39;, Russia, 344002",177
4713193,"Beregovaya Ulitsa, 10, Rostov, Rostovskaya oblast', Russia, 344002",177
4714951,"Beregovaya Ulitsa, 10, Rostov, Rostovskaya oblast', Russia, 344002",177
4716695,"Beregovaya Ulitsa, 10, Rostov, Rostovskaya oblast', Russia, 344002",177
4712739,"Beregovaya Ulitsa, 12, Rostov, Rostovskaya oblast &#39;, Russia, 344002",177
4714687,"Beregovaya Ulitsa, 13/2, Rostov, Rostovskaya oblast', Russia, 344002",177
4715557,"Beregovaya Ulitsa, 14, Rostov, Rostovskaya oblast &#39;, Russia, 344002",177
4715558,"Beregovaya Ulitsa, 14, Rostov, Rostovskaya oblast &#39;, Russia, 344002",177
4713792,"Beregovaya Ulitsa, 15, Rostov, Rostovskaya oblast &#39;, Russia, 344002",177
4695991,"Beregovaya Ulitsa, 16 ?, ?. ????????, Nizhegorodskaya oblast', Russia, 603117",177
4713440,"Beregovaya Ulitsa, 2, Rostov, Rostovskaya oblast', Russia, 344082",177
4716382,"Beregovaya Ulitsa, 2, Rostov, Rostovskaya oblast', Russia, 344082",177
4714955,"Beregovaya Ulitsa, 21, Rostov, Rostovskaya oblast', Russia, 344002",177
4714949,"Beregovaya Ulitsa, 25 ?/4, ????????? ???????? ???, Rostov, Rostovskaya oblast', Russia, 344000",177
4715810,"Beregovaya Ulitsa, 25, Rostov, Rostovskaya oblast &#39;, Russia, 344002",177
4714575,"Beregovaya Ulitsa, 25, Rostov, ??????-??-????, Russia, 344002",177
4714948,"Beregovaya Ulitsa, 25?, Rostov, Rostovskaya oblast', Russia, 344002",177
4714952,"Beregovaya Ulitsa, 25?, Rostov, Rostovskaya oblast', Russia, 344002",177
4716696,"Beregovaya Ulitsa, 25?, Rostov, Rostovskaya oblast', Russia, 344002",177
4715556,"Beregovaya Ulitsa, 27?, Rostov, Rostovskaya oblast &#39;, Russia, 344002",177
4712994,"Beregovaya Ulitsa, 30, Rostov, Rostovskaya oblast', Russia, 344019",177
4713784,"Beregovaya Ulitsa, 39, Rostov, Rostovskaya oblast &#39;, Russia, 344002",177
4715403,"Beregovaya Ulitsa, 4, Rostov, Rostovskaya oblast', Russia, 344002",177
4715547,"Beregovaya Ulitsa, 49?, Rostov, Rostovskaya oblast &#39;, Russia, 344006",177
4713781,"Beregovaya Ulitsa, 51, Rostov, Rostovskaya oblast &#39;, Russia, 344022",177
4716290,"Beregovaya Ulitsa, 7, Rostov, Rostovskaya oblast &#39;, Russia, 344002",177
4713410,"Beregovaya Ulitsa, 7, Rostov, Rostovskaya oblast', Russia, 344002",177
4715811,"Beregovaya Ulitsa, 7, Rostov, Rostovskaya oblast', Russia, 344002",177
4715837,"Beregovaya Ulitsa, 7, Rostov, Rostovskaya oblast', Russia, 344002",177
4716742,"Beregovaya Ulitsa, 7?9, Rostov, Rostovskaya oblast', Russia, 344002",177
4716373,"Beregovaya Ulitsa, 8, Rostov, Rostovskaya oblast &#39;, Russia, 344000",177
4713256,"Beregovaya Ulitsa, 8, Rostov, Rostovskaya oblast &#39;, Russia, 344001",177
4714954,"Beregovaya Ulitsa, 8, Rostov, Rostovskaya oblast', Russia, 344002",177
4714130,"Beregovaya Ulitsa, Rostov, Rostovskaya oblast &#39;, Russia, 344002",177
4714127,"Beregovaya Ulitsa, Rostov, Rostovskaya oblast &#39;, Russia, 344022",177
4696059,"Beshentsevo Derevnya, 131, Nizhnij Novgorod, Nizhegorodskaya oblast', Russia, 603137",177
4716408,"Betonnyy Pereulok, 330, Rostov, Rostovskaya oblast', Russia, 344091",177
4715409,"Bezymyannyy Pereulok, 29, Rostov, Rostovskaya oblast', Russia, 344004",177
5133886,"bl D16, sc A, et 8, ap 30, ?oseaua Mihai Bravu 98-106, Bucure?ti 030167, Romania",177
4713053,"Bodraya Ulitsa, 28/42, Rostov, Rostovskaya oblast', Russia, 344092",177
4716255,"Bodraya Ulitsa, 47, Rostov, Rostovskaya oblast', Russia, 344068",177
4715878,"Bodraya Ulitsa, 88, Rostov, Rostovskaya oblast', Russia, 344068",177
4715888,"Bodraya Ulitsa, 88, Rostov, Rostovskaya oblast', Russia, 344068",177
4713802,"Bodraya Ulitsa, 88/35, Rostov, Rostovskaya oblast', Russia, 344068",177
4715880,"Bodraya Ulitsa, 88/35, Rostov, Rostovskaya oblast', Russia, 344068",177
4714120,"Bodraya Ulitsa, 90, Rostov, Rostovskaya oblast &#39;, Russia, 344068",177
4713078,"Bodraya Ulitsa, 91, Rostov, Rostovskaya oblast', Russia, 344068",177
4713502,"Bodraya Ulitsa, 92, Rostov, Rostovskaya oblast', Russia, 344068",177
4713077,"Bodraya Ulitsa, 94, Rostov, Rostovskaya oblast', Russia, 344068",177
4715347,"Bogucharskiy Pereulok, 37/235, Rostov, Rostovskaya oblast', Russia, 344023",177
4715103,"Bogucharskiy Pereulok, 39, Rostov, Rostovskaya oblast', Russia, 344023",177
4697296,"Bol&#39;shaya Pecherskaya Ulitsa, 14, Nizhnij Novgorod, Nizhegorodskaya oblast &#39;, Russia, 603005",177
4697295,"Bol&#39;shaya Pecherskaya Ulitsa, 19, Nizhnij Novgorod, Nizhegorodskaya oblast &#39;, Russia, 603005",177
4697293,"Bol&#39;shaya Pecherskaya Ulitsa, 20, Nizhnij Novgorod, Nizhegorodskaya oblast &#39;, Russia, 603005",177
4697292,"Bol&#39;shaya Pecherskaya Ulitsa, 23, Nizhnij Novgorod, Nizhegorodskaya oblast &#39;, Russia, 603005",177
4697288,"Bol&#39;shaya Pecherskaya Ulitsa, 35, Nizhnij Novgorod, Nizhegorodskaya oblast &#39;, Russia, 603155",177
4697287,"Bol&#39;shaya Pecherskaya Ulitsa, 41, Nizhnij Novgorod, Nizhegorodskaya oblast &#39;, Russia, 603155",177
4697286,"Bol&#39;shaya Pecherskaya Ulitsa, 47, Nizhnij Novgorod, Nizhegorodskaya oblast &#39;, Russia, 603155",177
4694938,"Bol&#39;shaya Pecherskaya Ulitsa, 68, Nizhnij Novgorod, Nizhegorodskaya oblast &#39;, Russia, 603024",177
4697297,"Bol&#39;shaya Pecherskaya Ulitsa, 8, Nizhnij Novgorod, Nizhegorodskaya oblast &#39;, Russia, 603005",177
4696784,"Bol&#39;shaya Pokrovskaya Ulitsa, 82, Nizhnij Novgorod, Nizhegorodskaya oblast &#39;, Russia, 603000",177
4717812,"Bol&#39;shesal&#39;skaya Ulitsa, 13, Krym, Rostovskaya oblast &#39;, Russia, 346812",177
4722860,"Bol&#39;shesal&#39;skaya Ulitsa, 5b, Krym, Rostovskaya oblast &#39;, Russia, 346803",177
4721536,"Bol'shaya Pecherskaya Ulitsa, 2, Nizhnij Novgorod, Nizhegorodskaya oblast', Russia, 603005",177
4696871,"Bol'shaya Pecherskaya Ulitsa, 24, ???? 305, Nizhnij Novgorod, Nizhegorodskaya oblast', Russia, 603155",177
4693930,"Bol'shaya Pecherskaya Ulitsa, 25,, Nizhnij Novgorod, Nizhegorodskaya oblast', Russia, 603155",177
4697620,"Bol'shaya Pecherskaya Ulitsa, 25/12, Nizhnij Novgorod, Nizhegorodskaya oblast', Russia, 603155",177
4694483,"Bol'shaya Pecherskaya Ulitsa, 26?, Nizhnij Novgorod, Nizhegorodskaya oblast', Russia, 603155",177
4697389,"Bol'shaya Pecherskaya Ulitsa, 28, Nizhnij Novgorod, Nizhegorodskaya oblast', Russia, 603155",177
4693933,"Bol'shaya Pecherskaya Ulitsa, 31, Nizhnij Novgorod, Nizhegorodskaya oblast', Russia, 603155",177
4697612,"Bol'shaya Pecherskaya Ulitsa, 31/9, Nizhnij Novgorod, Nizhegorodskaya oblast', Russia, 603005",177
4694126,"Bol'shaya Pecherskaya Ulitsa, 32, Nizhnij Novgorod, Nizhegorodskaya oblast', Russia, 603155",177
4720955,"Bol'shaya Pecherskaya Ulitsa, 38, Nizhnij Novgorod, Nizhegorodskaya oblast', Russia, 603155",177
4695817,"Bol'shaya Pecherskaya Ulitsa, 48?, Nizhnij Novgorod, Nizhegorodskaya oblast', Russia, 603155",177
4694115,"Bol'shaya Pecherskaya Ulitsa, 5/9, Nizhnij Novgorod, Nizhegorodskaya oblast', Russia, 603005",177
4697514,"Bol'shaya Pecherskaya Ulitsa, 51, Nizhnij Novgorod, Nizhegorodskaya oblast', Russia, 603155",177
4696320,"Bol'shaya Pecherskaya Ulitsa, 63?, Nizhnij Novgorod, Nizhegorodskaya oblast', Russia, 603155",177
4696298,"Bol'shaya Pokrovskaya Ulitsa, 82, Nizhnij Novgorod, Nizhegorodskaya oblast', Russia, 603000",177
4721401,"Bol'shaya Pokrovskaya Ulitsa, 82, Nizhnij Novgorod, Nizhegorodskaya oblast', Russia, 603000",177
4696552,"Bol'shaya Pokrovskaya Ulitsa, 82, Nizhnij Novgorod, Nizhegorodskaya oblast', Russia, 603022",177
3473902,"Bolotnaya Naberezhnaya, 14, Russia",177
4695245,"Bolshaya Pokrovskaya St, 1, Nizhnij Novgorod, Nizhegorodskaya oblast &#39;, Russia, 603005",177
4696891,"Bolshaya Pokrovskaya St, 10, Nizhnij Novgorod, Nizhegorodskaya oblast', Russia, 603005",177
4693642,"Bolshaya Pokrovskaya St, 12, Nizhnij Novgorod, Nizhegorodskaya oblast &#39;, Russia, 603005",177
4720905,"Bolshaya Pokrovskaya St, 13, Nizhnij Novgorod, Nizhegorodskaya oblast', Russia, 603005",177
4696893,"Bolshaya Pokrovskaya St, 14, Nizhnij Novgorod, Nizhegorodskaya oblast', Russia, 603005",177
4696789,"Bolshaya Pokrovskaya St, 15b, Nizhnij Novgorod, Nizhegorodskaya oblast &#39;, Russia, 603005",177
4693949,"Bolshaya Pokrovskaya St, 16, Nizhnij Novgorod, Nizhegorodskaya oblast', Russia, 603005",177
4697615,"Bolshaya Pokrovskaya St, 18, Nizhnij Novgorod, Nizhegorodskaya oblast &#39;, Russia, 603000",177
4697393,"Bolshaya Pokrovskaya St, 18, Nizhnij Novgorod, Nizhegorodskaya oblast', Russia, 603005",177
4697398,"Bolshaya Pokrovskaya St, 18, Nizhnij Novgorod, Nizhegorodskaya oblast', Russia, 603005",177
4695242,"Bolshaya Pokrovskaya St, 19/6, Nizhnij Novgorod, Nizhegorodskaya oblast &#39;, Russia, 603005",177
4696956,"Bolshaya Pokrovskaya St, 19/6, Nizhnij Novgorod, Nizhegorodskaya oblast &#39;, Russia, 603005",177
4696321,"Bolshaya Pokrovskaya St, 19?, Nizhnij Novgorod, Nizhegorodskaya oblast', Russia, 603005",177
4695500,"Bolshaya Pokrovskaya St, 2, Nizhnij Novgorod, Nizhegorodskaya oblast &#39;, Russia, 603005",177
4696894,"Bolshaya Pokrovskaya St, 2/1, Nizhnij Novgorod, Nizhegorodskaya oblast', Russia, 603005",177
4695240,"Bolshaya Pokrovskaya St, 20, Nizhnij Novgorod, Nizhegorodskaya oblast &#39;, Russia, 603005",177
4695254,"Bolshaya Pokrovskaya St, 22, Nizhnij Novgorod, Nizhegorodskaya oblast', Russia, 603005",177
4721590,"Bolshaya Pokrovskaya St, 24, Nizhnij Novgorod, Nizhegorodskaya oblast', Russia, 603005",177
4696950,"Bolshaya Pokrovskaya St, 29, Nizhnij Novgorod, Nizhegorodskaya oblast &#39;, Russia, 603005",177
4697300,"Bolshaya Pokrovskaya St, 3, Nizhnij Novgorod, Nizhegorodskaya oblast &#39;, Russia, 603005",177
4694646,"Bolshaya Pokrovskaya St, 30, Nizhnij Novgorod, Nizhegorodskaya oblast &#39;, Russia, 603000",177
4696324,"Bolshaya Pokrovskaya St, 32, Nizhnij Novgorod, Nizhegorodskaya oblast', Russia, 603000",177
4695656,"Bolshaya Pokrovskaya St, 35?, Nizhnij Novgorod, Nizhegorodskaya oblast &#39;, Russia, 603000",177
4697318,"Bolshaya Pokrovskaya St, 35?, Nizhnij Novgorod, Nizhegorodskaya oblast &#39;, Russia, 603000",177
4721952,"Bolshaya Pokrovskaya St, 35?, Nizhnij Novgorod, Nizhegorodskaya oblast &#39;, Russia, 603002",177
4696442,"Bolshaya Pokrovskaya St, 35?, Nizhnij Novgorod, Nizhegorodskaya oblast', Russia, 603000",177
4695239,"Bolshaya Pokrovskaya St, 37, Nizhnij Novgorod, Nizhegorodskaya oblast &#39;, Russia, 603000",177
4695493,"Bolshaya Pokrovskaya St, 38, Nizhnij Novgorod, Nizhegorodskaya oblast &#39;, Russia, 603000",177
4696942,"Bolshaya Pokrovskaya St, 38, Nizhnij Novgorod, Nizhegorodskaya oblast &#39;, Russia, 603000",177
4696787,"Bolshaya Pokrovskaya St, 39, lit. ?, Nizhnij Novgorod, Nizhegorodskaya oblast &#39;, Russia, 603000",177
4695638,"Bolshaya Pokrovskaya St, 43, Nizhnij Novgorod, Nizhegorodskaya oblast &#39;, Russia, 603000",177
4696269,"Bolshaya Pokrovskaya St, 4?, Nizhnij Novgorod, Nizhegorodskaya oblast', Russia, 603005",177
4695492,"Bolshaya Pokrovskaya St, 51-55, Nizhnij Novgorod, Nizhegorodskaya oblast &#39;, Russia, 603000",177
4696606,"Bolshaya Pokrovskaya St, 51?, Nizhnij Novgorod, Nizhegorodskaya oblast &#39;, Russia, 603000",177
4695639,"Bolshaya Pokrovskaya St, 53, Nizhnij Novgorod, Nizhegorodskaya oblast &#39;, Russia, 603000",177
4695491,"Bolshaya Pokrovskaya St, 54, Nizhnij Novgorod, Nizhegorodskaya oblast &#39;, Russia, 603000",177
4695664,"Bolshaya Pokrovskaya St, 56, Nizhnij Novgorod, Nizhegorodskaya oblast &#39;, Russia, 603000",177
4696892,"Bolshaya Pokrovskaya St, 6, Nizhnij Novgorod, Nizhegorodskaya oblast', Russia, 603005",177
4695345,"Bolshaya Pokrovskaya St, 62, Nizhnij Novgorod, Nizhegorodskaya oblast', Russia, 603000",177
4695668,"Bolshaya Pokrovskaya St, 70, Nizhnij Novgorod, Nizhegorodskaya oblast &#39;, Russia, 603000",177
4696354,"Bolshaya Pokrovskaya St, 71?, Nizhnij Novgorod, Nizhegorodskaya oblast', Russia, 603000",177
4721000,"Bolshaya Pokrovskaya St, 71?, Nizhnij Novgorod, Nizhegorodskaya oblast', Russia, 603000",177
4694878,"Bolshaya Pokrovskaya St, 73, Nizhnij Novgorod, ?????? ????????, Russia, 603000",177
4721402,"Bolshaya Pokrovskaya St, 75, Nizhnij Novgorod, Nizhegorodskaya oblast', Russia, 603000",177
4693643,"Bolshaya Pokrovskaya St, 8, Nizhnij Novgorod, Nizhegorodskaya oblast &#39;, Russia, 603005",177
4696963,"Bolshaya Pokrovskaya St, 8, Nizhnij Novgorod, Nizhegorodskaya oblast &#39;, Russia, 603005",177
4694775,"Bolshaya Pokrovskaya St, 9, Nizhnij Novgorod, Nizhegorodskaya oblast', Russia, 603005",177
4697381,"Bolshaya Pokrovskaya St, 93-?, 1 ????, ????????????? ????? ?????? ???????, Nizhnij Novgorod, Nizhegorodskaya oblast', Russia, 603000",177
4696296,"Bolshaya Pokrovskaya St, 93?, Nizhnij Novgorod, Nizhegorodskaya oblast', Russia, 603000",177
4721215,"Bolshaya Pokrovskaya St, Nizhnij Novgorod, Nizhegorodskaya oblast &#39;, Russia, 603000",177
4695134,"Bolshaya Pokrovskaya St, ?.20 ?, Nizhnij Novgorod, Nizhegorodskaya oblast', Russia, 603005",177
5527597,"Bolshoy Prospekt, 98, C????-?????????, Leningradskaya oblast', Russia, 197022",177
4694144,"Borsky Bridge, Nizhnij Novgorod, Nizhegorodskaya oblast &#39;, Russia, 603159",177
4716854,"Bratskiy Pereulok, 14/7, Rostov, Rostovskaya oblast', Russia, 344002",177
4714977,"Bratskiy Pereulok, 14/7, Rostov, Rostovskaya oblast', Russia, 344082",177
4716872,"Bratskiy Pereulok, 21, 5 ????, 2 ????, Rostov, Rostovskaya oblast', Russia, 344082",177
4716749,"Bratskiy Pereulok, 21, Rostov, Rostovskaya oblast', Russia, 344050",177
4714577,"Bratskiy Pereulok, 24, Rostov, Rostovskaya oblast', Russia, 344002",177
4714621,"Bratskiy Pereulok, 25, Rostov, Rostovskaya oblast', Russia, 344050",177
4715798,"Bratskiy Pereulok, 35, Rostov, Rostovskaya oblast &#39;, Russia, 344082",177
4714905,"Bratskiy Pereulok, 46, Rostov, Rostovskaya oblast', Russia, 344082",177
4716753,"Bratskiy Pereulok, 48/19, Rostov, Rostovskaya oblast', Russia, 344011",177
4713413,"Bratskiy Pereulok, 73, Rostov, Rostovskaya oblast', Russia, 344011",177
4723351,"Bratskiy Pereulok, 84?, Rostov, Rostovskaya oblast', Russia, 344082",177
4712751,"Budennovskaya Ulitsa, 156, Novocherkassk, Rostovskaya oblast', Russia, 346411",177
4714214,"Budennovskaya Ulitsa, 94, Novocherkassk, Rostovskaya oblast &#39;, Russia, 346411",177
4716301,"Budennovsky prospect, 42/50, Rostov, Rostovskaya oblast &#39;, Russia, 344025",177
4715396,"Budonnovskiy Prospekt, 101, Rostov, Rostovskaya oblast &#39;, Russia, 344018",177
4723445,"Budonnovskiy Prospekt, 101, Rostov, Rostovskaya oblast', Russia, 344010",177
4713632,"Budonnovskiy Prospekt, 103, Rostov, Rostovskaya oblast', Russia, 344012",177
4717281,"Budonnovskiy Prospekt, 104, Rostov, Rostovskaya oblast', Russia, 344000",177
4714124,"Budonnovskiy Prospekt, 112, Rostov, Rostovskaya oblast', Russia, 344011",177
4716291,"Budonnovskiy Prospekt, 12, Rostov, Rostovskaya oblast &#39;, Russia, 344002",177
4714457,"Budonnovskiy Prospekt, 12, Rostov, Rostovskaya oblast', Russia, 344002",177
4716289,"Budonnovskiy Prospekt, 120/1, Rostov, Rostovskaya oblast &#39;, Russia, 344012",177
4716574,"Budonnovskiy Prospekt, 120/1, Rostov, Rostovskaya oblast &#39;, Russia, 344012",177
4716938,"Budonnovskiy Prospekt, 120/1, Rostov, Rostovskaya oblast', Russia, 344012",177
4717368,"Budonnovskiy Prospekt, 141, Rostov, Rostovskaya oblast', Russia, 344000",177
4716848,"Budonnovskiy Prospekt, 17, ???? 213, Rostov, Rostovskaya oblast', Russia, 344002",177
4713918,"Budonnovskiy Prospekt, 19, Rostov, Rostovskaya oblast', Russia, 344082",177
4714102,"Budonnovskiy Prospekt, 19, ????????? ????, Rostov, Rostovskaya oblast', Russia, 344002",177
4714953,"Budonnovskiy Prospekt, 2, Rostov, Rostovskaya oblast', Russia, 344002",177
4716294,"Budonnovskiy Prospekt, 20, Rostov, Rostovskaya oblast &#39;, Russia, 344002",177
4715802,"Budonnovskiy Prospekt, 21, Rostov, Rostovskaya oblast', Russia, 344002",177
4716874,"Budonnovskiy Prospekt, 21, Rostov, Rostovskaya oblast', Russia, 344002",177
4713192,"Budonnovskiy Prospekt, 21/50, Rostov, Rostovskaya oblast', Russia, 344002",177
4715028,"Budonnovskiy Prospekt, 21/50, Rostov, Rostovskaya oblast', Russia, 344002",177
4716883,"Budonnovskiy Prospekt, 21/50, Rostov, Rostovskaya oblast', Russia, 344002",177
4714996,"Budonnovskiy Prospekt, 22 ??? ?????, Rostov, Rostovskaya oblast', Russia, 344002",177
4716297,"Budonnovskiy Prospekt, 22, Rostov, Rostovskaya oblast &#39;, Russia, 344092",177
4716719,"Budonnovskiy Prospekt, 22, Rostov, Rostovskaya oblast', Russia, 344002",177
4716721,"Budonnovskiy Prospekt, 22, ??????-?? -????, Rostovskaya oblast', Russia, 344002",177
4716890,"Budonnovskiy Prospekt, 23, Rostov, Rostovskaya oblast', Russia, 344002",177
4716891,"Budonnovskiy Prospekt, 23, Rostov, Rostovskaya oblast', Russia, 344002",177
4716720,"Budonnovskiy Prospekt, 24, Rostov, Rostovskaya oblast', Russia, 344002",177
4714099,"Budonnovskiy Prospekt, 2?, Rostov, Rostovskaya oblast', Russia, 344002",177
4716826,"Budonnovskiy Prospekt, 2?, Rostov, Rostovskaya oblast', Russia, 344002",177
4716700,"Budonnovskiy Prospekt, 3, 1 ????, Rostov, Rostovskaya oblast', Russia, 344002",177
4717819,"Budonnovskiy Prospekt, 3, Rostov, Rostovskaya oblast &#39;, Russia, 344002",177
4716828,"Budonnovskiy Prospekt, 3, Rostov, Rostovskaya oblast', Russia, 344002",177
4716827,"Budonnovskiy Prospekt, 3, ???? 107, Rostov, Rostovskaya oblast', Russia, 344002",177
4714201,"Budonnovskiy Prospekt, 34, Rostov, Rostovskaya oblast &#39;, Russia, 344007",177
4723356,"Budonnovskiy Prospekt, 35, Rostov, Rostovskaya oblast', Russia, 344082",177
4713642,"Budonnovskiy Prospekt, 35?, Rostov, Rostovskaya oblast', Russia, 344082",177
4723357,"Budonnovskiy Prospekt, 37, Rostov, Rostovskaya oblast', Russia, 344002",177
4712464,"Budonnovskiy Prospekt, 39, Rostov, Rostovskaya oblast &#39;, Russia, 344082",177
4713206,"Budonnovskiy Prospekt, 42, Rostov, Rostovskaya oblast &#39;, Russia, 344002",177
4716752,"Budonnovskiy Prospekt, 42, Rostov, Rostovskaya oblast', Russia, 344002",177
4715542,"Budonnovskiy Prospekt, 46, Rostov, Rostovskaya oblast &#39;, Russia, 344002",177
4716759,"Budonnovskiy Prospekt, 49/97, Rostov, Rostovskaya oblast', Russia, 344092",177
4714679,"Budonnovskiy Prospekt, 49/97, ??? ""?`???? ?????"", Rostov, Rostovskaya oblast', Russia, 344082",177
4715041,"Budonnovskiy Prospekt, 50/78, Rostov, Rostovskaya oblast', Russia, 344002",177
4715047,"Budonnovskiy Prospekt, 51, Rostov, ?????????? ???, Russia, 344082",177
4715053,"Budonnovskiy Prospekt, 55, Rostov, ??????????, Russia, 344002",177
4723354,"Budonnovskiy Prospekt, 59, 1 ????, Rostov, Rostovskaya oblast', Russia, 344011",177
4713207,"Budonnovskiy Prospekt, 59, Rostov, Rostovskaya oblast &#39;, Russia, 344011",177
4714902,"Budonnovskiy Prospekt, 59, Rostov, Rostovskaya oblast', Russia, 344011",177
4717701,"Budonnovskiy Prospekt, 59, Rostov, Rostovskaya oblast', Russia, 344011",177
4717705,"Budonnovskiy Prospekt, 59, Rostov, Rostovskaya oblast', Russia, 344011",177
4717702,"Budonnovskiy Prospekt, 59, ???? 5, Rostov, Rostovskaya oblast', Russia, 344011",177
4713773,"Budonnovskiy Prospekt, 59b, Rostov, Rostovskaya oblast &#39;, Russia, 344011",177
4716306,"Budonnovskiy Prospekt, 59b, Rostov, Rostovskaya oblast &#39;, Russia, 344011",177
4713828,"Budonnovskiy Prospekt, 65, Rostov, Rostovskaya oblast', Russia, 344011",177
4714570,"Budonnovskiy Prospekt, 66, Rostov, Rostovskaya oblast', Russia, 344011",177
4714449,"Budonnovskiy Prospekt, 68/81, Rostov, Rostovskaya oblast', Russia, 344011",177
4714448,"Budonnovskiy Prospekt, 68/81, Rostov, ??????-??-????, Russia, 344010",177
4714958,"Budonnovskiy Prospekt, 7, Rostov, Rostovskaya oblast', Russia, 344002",177
4713968,"Budonnovskiy Prospekt, 72/213, Rostov, Rostovskaya oblast', Russia, 344011",177
4713765,"Budonnovskiy Prospekt, 79, Rostov, Rostovskaya oblast &#39;, Russia, 344011",177
4716701,"Budonnovskiy Prospekt, 7?, Rostov, Rostovskaya oblast', Russia, 344002",177
4713719,"Budonnovskiy Prospekt, 80, Rostov, Rostovskaya oblast', Russia, 344000",177
4716771,"Budonnovskiy Prospekt, 80, Rostov, Rostovskaya oblast', Russia, 344018",177
4717355,"Budonnovskiy Prospekt, 80, Rostov, Rostovskaya oblast', Russia, 344018",177
4717356,"Budonnovskiy Prospekt, 80, Rostov, Rostovskaya oblast', Russia, 344018",177
4717693,"Budonnovskiy Prospekt, 80, ???? 903, Rostov, Rostovskaya oblast', Russia, 344011",177
4714447,"Budonnovskiy Prospekt, 90/133, Rostov, Rostovskaya oblast', Russia, 344018",177
4714565,"Budonnovskiy Prospekt, 92, Rostov, Rostovskaya oblast', Russia, 344018",177
4722768,"Budonnovskiy Prospekt, 93, Rostov, Rostovskaya oblast', Russia, 344002",177
4713966,"Budonnovskiy Prospekt, 93, Rostov, Rostovskaya oblast', Russia, 344033",177
4713660,"Budonnovskiy Prospekt, 93/295, Rostov, Rostovskaya oblast', Russia, 344011",177
4717349,"Budonnovskiy Prospekt, 96, Rostov, Rostovskaya oblast', Russia, 344012",177
4713637,"Budonnovskiy Prospekt, 97, Rostov, Rostovskaya oblast', Russia, 344018",177
4714562,"Budonnovskiy Prospekt, 98 ?, Rostov, Rostovskaya oblast', Russia, 344018",177
4722912,"Budonnovskiy Prospekt, ?. 56, Rostov, Rostovskaya oblast', Russia, 344002",177
4714407,"Budyonnovskiy prosp., 49, Rostov, Rostovskaya oblast', Russia, 344000",177
4714761,"Budyonnovskiy prosp., 96, Rostov, Rostovskaya oblast', Russia, 344018",177
4713755,"Budyonnovsky spusk, 3, Aksay, Rostovskaya oblast &#39;, Russia, 346721",177
3407238,"Bukharestskaya street, 32, Russia",177
4717682,"Bukvennaya Ulitsa, 16, Rostov, Rostovskaya oblast', Russia, 344015",177
4714641,"Bukvennaya Ulitsa, 43, Rostov, Rostovskaya oblast', Russia, 344015",177
4694719,"Bul&#39;var 60 Let Oktyabrya, 3, Nizhnij Novgorod, Nizhegorodskaya oblast &#39;, Russia, 603136",177
4717133,"Bul&#39;var Komarova, 1/1, Rostov, Rostovskaya oblast &#39;, Russia, 344092",177
4713245,"Bul&#39;var Komarova, 20, Rostov, Rostovskaya oblast &#39;, Russia, 344113",177
4712943,"Bul&#39;var Komarova, 23, Rostov, Rostovskaya oblast &#39;, Russia, 344092",177
4715819,"Bul&#39;var Komarova, 23, Rostov, Rostovskaya oblast &#39;, Russia, 344092",177
4714583,"Bul&#39;var Komarova, 28, Rostov, Rostovskaya oblast &#39;, Russia, 344113",177
4713724,"Bul&#39;var Komarova, 7, Rostov, Rostovskaya oblast &#39;, Russia, 344092",177
4696634,"Bul&#39;var Meshcherskiy, 7, Nizhnij Novgorod, Nizhegorodskaya oblast &#39;, Russia, 603070",177
4720874,"Bul&#39;var Meshcherskiy, 7, Nizhnij Novgorod, Nizhegorodskaya oblast &#39;, Russia, 603070",177
4721183,"Bul&#39;var Yubileynyy, 1, Nizhnij Novgorod, Nizhegorodskaya oblast &#39;, Russia, 603094",177
4695688,"Bul&#39;var Yubileynyy, 29?, Nizhnij Novgorod, Nizhegorodskaya oblast &#39;, Russia, 603037",177
4696991,"Bul&#39;var Yubileynyy, 2?, Nizhnij Novgorod, Nizhegorodskaya oblast &#39;, Russia, 603003",177
4695073,"Bul&#39;var Yubileynyy, 31-?, Nizhnij Novgorod, Nizhegorodskaya oblast &#39;, Russia, 603094",177
4695775,"Bul&#39;var Yubileynyy, 32, Nizhnij Novgorod, Nizhegorodskaya oblast &#39;, Russia, 603003",177
4720869,"Bul&#39;var Yubileynyy, 32, Nizhnij Novgorod, Nizhegorodskaya oblast &#39;, Russia, 603003",177
4695378,"Bul&#39;var Yubileynyy, 32, Nizhnij Novgorod, Nizhegorodskaya oblast &#39;, Russia, 603094",177
4721088,"Bul&#39;var Yubileynyy, 5, Nizhnij Novgorod, Nizhegorodskaya oblast &#39;, Russia, 603003",177
4721127,"Bul&#39;var Yubileynyy, 5, Nizhnij Novgorod, Nizhegorodskaya oblast &#39;, Russia, 603003",177
4696930,"Bul&#39;var Yuzhnyy, Nizhnij Novgorod, Nizhegorodskaya oblast &#39;, Russia, 603123",177
4696931,"Bul&#39;var Yuzhnyy, Nizhnij Novgorod, Nizhegorodskaya oblast &#39;, Russia, 603123",177
4695087,"Bul'var 60 Let Oktyabrya, 2, Nizhnij Novgorod, ?????????????, Russia, 603136",177
4695921,"Bul'var 60 Let Oktyabrya, 4, Nizhnij Novgorod, Nizhegorodskaya oblast', Russia, 603136",177
4697482,"Bul'var 60 Let Oktyabrya, 5, Nizhnij Novgorod, Nizhegorodskaya oblast', Russia, 603136",177
4696103,"Bul'var 60 Let Oktyabrya, 5, ?. 2, Nizhnij Novgorod, Nizhegorodskaya oblast', Russia, 603136",177
4697483,"Bul'var 60 Let Oktyabrya, 5a, Nizhnij Novgorod, Nizhegorodskaya oblast', Russia, 603136",177
4714347,"Bul'var Komarova, 1/1, Rostov, Rostovskaya oblast', Russia, 344092",177
4714752,"Bul'var Komarova, 10, Rostov, Rostovskaya oblast', Russia, 344064",177
4717272,"Bul'var Komarova, 10, Rostov, Rostovskaya oblast', Russia, 344092",177
4717218,"Bul'var Komarova, 11, Rostov, Rostovskaya oblast', Russia, 344092",177
4712644,"Bul'var Komarova, 13, Rostov, Rostovskaya oblast', Russia, 344092",177
4715910,"Bul'var Komarova, 13, Rostov, Rostovskaya oblast', Russia, 344092",177
4714360,"Bul'var Komarova, 19, Rostov, Rostovskaya oblast', Russia, 344000",177
4717223,"Bul'var Komarova, 20, ???? 14, Rostov, Rostovskaya oblast', Russia, 344092",177
4717224,"Bul'var Komarova, 22, Rostov, Rostovskaya oblast', Russia, 344113",177
4715782,"Bul'var Komarova, 23, Rostov, Rostovskaya oblast', Russia, 344092",177
4715809,"Bul'var Komarova, 23, Rostov, Rostovskaya oblast', Russia, 344092",177
4717219,"Bul'var Komarova, 24, Rostov, Rostovskaya oblast', Russia, 344000",177
4715654,"Bul'var Komarova, 24, Rostov, Rostovskaya oblast', Russia, 344113",177
4717217,"Bul'var Komarova, 24-?, ??????????? ?`???, Rostov, Rostovskaya oblast', Russia, 344113",177
4715909,"Bul'var Komarova, 24?, Rostov, Rostovskaya oblast', Russia, 344113",177
4712752,"Bul'var Komarova, 28, Rostov, Rostovskaya oblast', Russia, 344092",177
4712642,"Bul'var Komarova, 28, Rostov, Rostovskaya oblast', Russia, 344113",177
4717220,"Bul'var Komarova, 28, Rostov, Rostovskaya oblast', Russia, 344113",177
4712647,"Bul'var Komarova, 28, Rostov, ?????????? ???, Russia, 344113",177
4713941,"Bul'var Komarova, 28/2, Rostov, Rostovskaya oblast', Russia, 344113",177
4713943,"Bul'var Komarova, 28/2, Rostov, Rostovskaya oblast', Russia, 344113",177
4714845,"Bul'var Komarova, 28/3, Rostov, Rostovskaya oblast', Russia, 344113",177
4713619,"Bul'var Komarova, 28?, Rostov, Rostovskaya oblast', Russia, 344113",177
4715649,"Bul'var Komarova, 28?, Rostov, Rostovskaya oblast', Russia, 344000",177
4715645,"Bul'var Komarova, 28?, Rostov, Rostovskaya oblast', Russia, 344113",177
4713052,"Bul'var Komarova, 28?, Rostov, Rostovskaya oblast', Russia, 344113",177
4714351,"Bul'var Komarova, 28?, Rostov, Rostovskaya oblast', Russia, 344113",177
4713620,"Bul'var Komarova, 28?, Rostov, Rostovskaya oblast', Russia, 344113",177
4714779,"Bul'var Komarova, 3?2, Rostov, Rostovskaya oblast', Russia, 344092",177
4714862,"Bul'var Komarova, 6, Rostov, Rostovskaya oblast', Russia, 344092",177
4714352,"Bul'var Komarova, 9, Rostov, Rostovskaya oblast', Russia, 344092",177
4717215,"Bul'var Komarova, 9, Rostov, Rostovskaya oblast', Russia, 344092",177
4714841,"Bul'var Komarova, 9/5, Rostov, Rostovskaya oblast', Russia, 344092",177
4721857,"Bul'var Meshcherskiy, 10?, Nizhnij Novgorod, Nizhegorodskaya oblast', Russia, 603070",177
4696192,"Bul'var Meshcherskiy, 11, Nizhnij Novgorod, Nizhegorodskaya oblast', Russia, 603070",177
4721526,"Bul'var Meshcherskiy, 11, Nizhnij Novgorod, Nizhegorodskaya oblast', Russia, 603070",177
4721753,"Bul'var Meshcherskiy, 2, Nizhnij Novgorod, Nizhegorodskaya oblast', Russia, 603070",177
4720256,"Bul'var Meshcherskiy, 3 ?, ?? ""METRO"", ?. ?. ????????, Nizhegorodskaya oblast', Russia, 603070",177
4695030,"Bul'var Meshcherskiy, 3, Nizhnij Novgorod, Nizhegorodskaya oblast', Russia, 603070",177
4695109,"Bul'var Meshcherskiy, 3, ?. 2, Nizhnij Novgorod, Nizhegorodskaya oblast', Russia, 603070",177
4720254,"Bul'var Meshcherskiy, 3?, Nizhnij Novgorod, Nizhegorodskaya oblast', Russia, 603070",177
4720258,"Bul'var Meshcherskiy, 3?, Nizhnij Novgorod, Nizhegorodskaya oblast', Russia, 603070",177
4720248,"Bul'var Meshcherskiy, 3?1, Nizhnij Novgorod, Nizhegorodskaya oblast', Russia, 603070",177
4694519,"Bul'var Meshcherskiy, 3?2, Nizhnij Novgorod, Nizhegorodskaya oblast', Russia, 603070",177
4721584,"Bul'var Meshcherskiy, 3?2, Nizhnij Novgorod, Nizhegorodskaya oblast', Russia, 603070",177
4722042,"Bul'var Meshcherskiy, 3?2, Nizhnij Novgorod, Nizhegorodskaya oblast', Russia, 603070",177
4722041,"Bul'var Meshcherskiy, 5, Nizhnij Novgorod, Nizhegorodskaya oblast', Russia, 603070",177
4697668,"Bul'var Meshcherskiy, 5?, Nizhnij Novgorod, Nizhegorodskaya oblast', Russia, 603070",177
4722219,"Bul'var Meshcherskiy, 5?, Nizhnij Novgorod, Nizhegorodskaya oblast', Russia, 603070",177
4722220,"Bul'var Meshcherskiy, 7, ?.3, Nizhnij Novgorod, Nizhegorodskaya oblast', Russia, 603070",177
4695110,"Bul'var Meshcherskiy, 7, ????. 3, Nizhnij Novgorod, ?????? ????????, Russia, 603070",177
4720469,"Bul'var Meshcherskiy, 7, ????. 3, Nizhnij Novgorod, ?????? ????????, Russia, 603070",177
4722039,"Bul'var Meshcherskiy, 7/3, ?. ?. ????????, Nizhegorodskaya oblast', Russia, 603070",177
4722036,"Bul'var Meshcherskiy, 9, Nizhnij Novgorod, Nizhegorodskaya oblast', Russia, 603070",177
4696780,"Bul'var Meshcherskiy, 9, Nizhnij Novgorod, Nizhegorodskaya oblast', Russia, 603159",177
4695975,"Bul'var Mira, 10, Nizhnij Novgorod, Nizhegorodskaya oblast', Russia, 603086",177
4721848,"Bul'var Mira, 10, Nizhnij Novgorod, Nizhegorodskaya oblast', Russia, 603086",177
4722146,"Bul'var Mira, 4, Nizhnij Novgorod, Nizhegorodskaya oblast', Russia, 603002",177
4720482,"Bul'var Mira, 5, Nizhnij Novgorod, Nizhegorodskaya oblast', Russia, 603086",177
4694922,"Bul'var Mira, 7, Nizhnij Novgorod, Nizhegorodskaya oblast', Russia, 603086",177
4696130,"Bul'var Mira, 7, Nizhnij Novgorod, Nizhegorodskaya oblast', Russia, 603086",177
4721604,"Bul'var Mira, 8 ?, Nizhnij Novgorod, Nizhegorodskaya oblast', Russia, 603086",177
4721323,"Bul'var Mira, 8, Nizhnij Novgorod, Nizhegorodskaya oblast', Russia, 603086",177
4752261,"Bul'var Tatishcheva, 22, Tolyatti, Samarskaya oblast', Russia, 445031",177
4722092,"Bul'var Yubileynyy, 1, Nizhnij Novgorod, Nizhegorodskaya oblast', Russia, 603094",177
4720443,"Bul'var Yubileynyy, 12 ?????????? ?????????????, Nizhnij Novgorod, Nizhegorodskaya oblast', Russia, 603003",177
4721594,"Bul'var Yubileynyy, 31?, Nizhnij Novgorod, Nizhegorodskaya oblast', Russia, 603003",177
4697383,"Bul'var Yubileynyy, 32, Nizhnij Novgorod, Nizhegorodskaya oblast', Russia, 603000",177
4721557,"Bul'var Yubileynyy, 32, Nizhnij Novgorod, Nizhegorodskaya oblast', Russia, 603094",177
4721496,"Bul'var Yubileynyy, 4, Nizhnij Novgorod, Nizhegorodskaya oblast', Russia, 603003",177
4721631,"Bul'var Yubileynyy, 4, Nizhnij Novgorod, Nizhegorodskaya oblast', Russia, 603003",177
4722099,"Bul'var Yubileynyy, 6, Nizhnij Novgorod, Nizhegorodskaya oblast', Russia, 603094",177
4721422,"Bul'var Yubileynyy, 8, Nizhnij Novgorod, Nizhegorodskaya oblast', Russia, 603003",177
4696987,"Bul'var Yubileynyy, 8, Nizhnij Novgorod, Nizhegorodskaya oblast', Russia, 603094",177
4694785,"Bulvar Zarechny, 6?, Nizhnij Novgorod, Nizhegorodskaya oblast &#39;, Russia, 603033",177
4721593,"Burnakovskiy pr-d, 30, Nizhnij Novgorod, Nizhegorodskaya oblast', Russia, 603074",177
4720948,"Burnakovskiy Proyezd, 1, Nizhnij Novgorod, Nizhegorodskaya oblast', Russia, 603079",177
4720942,"Burnakovskiy Proyezd, 14?, Nizhnij Novgorod, Nizhegorodskaya oblast', Russia, 603074",177
4721269,"Burnakovskiy Proyezd, 15, Nizhnij Novgorod, Nizhegorodskaya oblast', Russia, 603074",177
4720943,"Burnakovskiy Proyezd, 17, Nizhnij Novgorod, Nizhegorodskaya oblast', Russia, 603074",177
4722790,"Chaltyr', Rostov Oblast, Russia, 346800",177
4715560,"Cherkesskaya Ulitsa, 18?, Rostov, Rostovskaya oblast &#39;, Russia, 344004",177
4695193,"Chernigovskaya Ulitsa, 12?, Nizhnij Novgorod, Nizhegorodskaya oblast &#39;, Russia, 603001",177
4695191,"Chernigovskaya Ulitsa, 14, Nizhnij Novgorod, Nizhegorodskaya oblast &#39;, Russia, 603001",177
4695190,"Chernigovskaya Ulitsa, 15, Nizhnij Novgorod, Nizhegorodskaya oblast &#39;, Russia, 603001",177
4696943,"Chernigovskaya Ulitsa, 16, Nizhnij Novgorod, Nizhegorodskaya oblast &#39;, Russia, 603001",177
4697308,"Chernigovskaya Ulitsa, 22, Nizhnij Novgorod, Nizhegorodskaya oblast &#39;, Russia, 603001",177
4696928,"Chernigovskaya Ulitsa, 22, Nizhnij Novgorod, Nizhegorodskaya oblast &#39;, Russia, 603022",177
4695207,"Chernigovskaya Ulitsa, 4, Nizhnij Novgorod, Nizhegorodskaya oblast &#39;, Russia, 603001",177
4695206,"Chernigovskaya Ulitsa, 5, Nizhnij Novgorod, Nizhegorodskaya oblast &#39;, Russia, 603001",177
4695200,"Chernigovskaya Ulitsa, 7b, Nizhnij Novgorod, Nizhegorodskaya oblast &#39;, Russia, 603001",177
4694653,"Chernigovskaya Ulitsa, 7?, Nizhnij Novgorod, Nizhegorodskaya oblast &#39;, Russia, 603001",177
4696954,"Chernigovskaya Ulitsa, 7?, Nizhnij Novgorod, Nizhegorodskaya oblast &#39;, Russia, 603001",177
4722917,"Chernomorskiy Pereulok, 64, Azov, Rostovskaya oblast &#39;, Russia, 346780",177
4723162,"Chernomorskiy Pereulok, 75 ?, Azov, Rostovskaya oblast', Russia, 346780",177
4721096,"Chernoprudskiy Pereulok, 4, Nizhnij Novgorod, Nizhegorodskaya oblast &#39;, Russia, 603005",177
4713129,"Chuguyevskaya Ulitsa, 15, Rostov, Rostovskaya oblast &#39;, Russia, 344023",177
4713299,"Dachnaya Ulitsa, 10, Rostov, Rostovskaya oblast', Russia, 344064",177
4716264,"Dachnaya Ulitsa, 2, Rostov, Rostovskaya oblast', Russia, 344064",177
4713808,"Dachnaya Ulitsa, 8, Rostov, Rostovskaya oblast', Russia, 344064",177
4713351,"Dachnaya Ulitsa, 97, Rostov, Rostovskaya oblast', Russia, 344064",177
4715390,"Dachnaya Ulitsa, 97/85, Rostov, Rostovskaya oblast &#39;, Russia, 344064",177
4696933,"Dal&#39;nyaya Ulitsa, 15, Nizhnij Novgorod, Nizhegorodskaya oblast &#39;, Russia, 603000",177
4716450,"Debal'tsevskaya Ulitsa, 10, Rostov, Rostovskaya oblast', Russia, 344016",177
4714671,"Debal'tsevskaya Ulitsa, 14, Rostov, Rostovskaya oblast', Russia, 344016",177
4714389,"Debal'tsevskaya Ulitsa, 45, Rostov, Rostovskaya oblast', Russia, 344016",177
4695454,"Delegatskaya Ulitsa, 101, Nizhnij Novgorod, Nizhegorodskaya oblast &#39;, Russia, 603140",177
4721805,"Derevoobdelochnaya Ulitsa, 2, ???????? ????, ??????????? ?`???, Nizhnij Novgorod, Nizhegorodskaya oblast', Russia, 603011",177
4695317,"Derevoobdelochnaya Ulitsa, 7-9, Nizhnij Novgorod, Nizhegorodskaya oblast', Russia, 603011",177
4721359,"Derevoobdelochnaya Ulitsa, ?.2, Nizhnij Novgorod, Nizhegorodskaya oblast', Russia, 603011",177
4715418,"Dolomanovskiy Pereulok, 124, Rostov, Rostovskaya oblast', Russia, 344018",177
4715419,"Dolomanovskiy Pereulok, 183, Rostov, Rostovskaya oblast', Russia, 344018",177
4715548,"Dolomanovskiy Pereulok, 68, Rostov, Rostovskaya oblast &#39;, Russia, 344011",177
4716770,"Dolomanovskiy Pereulok, 82, Rostov, Rostovskaya oblast', Russia, 344011",177
4712763,"Don River, Russia, Russia",177
4696520,"Gornaya St, 11, Nizhnij Novgorod, Nizhegorodskaya oblast', Russia, 603062",177
4696050,"Gornaya St, 13 ?????? 3, Nizhnij Novgorod, Nizhegorodskaya oblast', Russia, 603062",177
4693863,"Gornaya St, 13, Nizhnij Novgorod, Nizhegorodskaya oblast', Russia, 603009",177
4697267,"Gornaya St, 13, Nizhnij Novgorod, Nizhegorodskaya oblast', Russia, 603062",177
4694066,"Gornaya St, 30, Nizhnij Novgorod, Nizhegorodskaya oblast', Russia, 603062",177
4696251,"Gornaya St, 4, Nizhnij Novgorod, Nizhegorodskaya oblast', Russia, 603009",177
4696369,"Gornaya St, 5, Nizhnij Novgorod, Nizhegorodskaya oblast &#39;, Russia, 603009",177
4695280,"Gornaya St, 52, Nizhnij Novgorod, Nizhegorodskaya oblast', Russia, 603062",177
4723035,"Gorodishche, Rostov Oblast, Russia, 346741",177
4695629,"Gorokhovetskaya Ulitsa, 12, Nizhnij Novgorod, Nizhegorodskaya oblast &#39;, Russia, 603033",177
4721103,"Gorokhovetskaya Ulitsa, 18A, Nizhnij Novgorod, Nizhegorodskaya oblast &#39;, Russia, 603033",177
4695886,"Gorokhovetskaya Ulitsa, 46, Nizhnij Novgorod, Nizhegorodskaya oblast', Russia, 603033",177
4695627,"Gorokhovetskaya Ulitsa, Nizhnij Novgorod, Nizhegorodskaya oblast &#39;, Russia, 603033",177
4717581,"Gorshkova Prospekt, 2?, Rostov, Rostovskaya oblast', Russia, 344016",177
4695231,"Grebnoy kanal Embankment, 108, Nizhnij Novgorod, Nizhegorodskaya oblast &#39;, Russia, 603155",177
4697290,"Grebnoy kanal Embankment, 108, Nizhnij Novgorod, Nizhegorodskaya oblast &#39;, Russia, 603155",177
4694805,"Grebnoy kanal Embankment, 109, Nizhnij Novgorod, Nizhegorodskaya oblast &#39;, Russia, 603000",177
4694744,"Grebnoy kanal Embankment, 109, Nizhnij Novgorod, Nizhegorodskaya oblast &#39;, Russia, 603093",177
4695685,"Grebnoy kanal Embankment, Nizhnij Novgorod, Nizhegorodskaya oblast &#39;, Russia, 603155",177
4722866,"Grecheskaya Ulitsa, 104, Taganrog, Rostovskaya oblast', Russia, 347900",177
4722841,"Grecheskaya Ulitsa, 105, Taganrog, Rostovskaya oblast &#39;, Russia, 347900",177
4715077,"Grecheskiy Pereulok, 11, Rostov, Rostovskaya oblast', Russia, 344000",177
4715707,"Griboyedovskiy Pereulok, 33, Rostov, Rostovskaya oblast', Russia, 344000",177
4715494,"Griboyedovskiy Pereulok, 6, Rostov, Rostovskaya oblast', Russia, 344082",177
4714206,"Grushevskaya Ulitsa, 8, Aksay, Rostovskaya oblast &#39;, Russia, 346720",177
4713165,"Gulaeva St., 66, Aksay, Rostovskaya oblast &#39;, Russia, 346720",177
4713217,"Gvardeyskiy Pereulok, 11 B, Rostov, Rostovskaya oblast &#39;, Russia, 344000",177
4716370,"Gvardeyskiy Pereulok, 11 B, Rostov, Rostovskaya oblast &#39;, Russia, 344002",177
4717737,"Gvardeyskiy Pereulok, 11?, Rostov, Rostovskaya oblast', Russia, 344011",177
4715410,"Gvardeyskiy Pereulok, 38?, Rostov, Rostovskaya oblast', Russia, 344011",177
4696102,"Gvozdil'naya Ulitsa, 9, Nizhnij Novgorod, Nizhegorodskaya oblast', Russia, 603034",177
4714764,"Instrumental'naya Ulitsa, 2, Rostov, Rostovskaya oblast', Russia, 344029",177
4716418,"Instrumental'naya Ulitsa, 2, Rostov, Rostovskaya oblast', Russia, 344029",177
4717170,"Inzhenernaya Ulitsa, 5?, Rostov, Rostovskaya oblast', Russia, 344064",177
4695608,"Izhevskaya Ulitsa, 40, Nizhnij Novgorod, Nizhegorodskaya oblast &#39;, Russia, 603034",177
4696874,"Izhorskaya Ulitsa, 18, Nizhnij Novgorod, Nizhegorodskaya oblast', Russia, 603000",177
4696865,"Izhorskaya Ulitsa, 18, Nizhnij Novgorod, Nizhegorodskaya oblast', Russia, 603024",177
4696872,"Izhorskaya Ulitsa, 18, Nizhnij Novgorod, Nizhegorodskaya oblast', Russia, 603024",177
4696873,"Izhorskaya Ulitsa, 18, ?. ????????, Nizhegorodskaya oblast', Russia, 603005",177
4694863,"Izhorskaya Ulitsa, 3, Nizhnij Novgorod, Nizhegorodskaya oblast', Russia, 603006",177
4723456,"Izmail'skiy Pereulok, 41, Rostov, Rostovskaya oblast', Russia, 344068",177
4714365,"Izyskatel'skiy Pereulok, 2, Rostov, Rostovskaya oblast', Russia, 344064",177
4714556,"Izyskatel'skiy Pereulok, 4, Rostov, Rostovskaya oblast', Russia, 344064",177
4714558,"Izyskatel'skiy Pereulok, 4/9, Rostov, Rostovskaya oblast', Russia, 344064",177
4716807,"Izyskatel'skiy Pereulok, 6, Rostov, Rostovskaya oblast', Russia, 344064",177
3472534,"Kalanchevskaya ul., 10, ??????????? ???????????????? ?????, Russia",177
4721874,"Kamchatskiy Pereulok, 7, Nizhnij Novgorod, Nizhegorodskaya oblast', Russia, 603124",177
4713450,"Kamyshevakha, Rostov Oblast, Russia, 346715",177
4696028,"Kanavinskaya Ulitsa, 2 a, N. Novgorod, Nizhegorodskaya oblast &#39;, Russia, 603002",177
4720282,"Kanavinskaya Ulitsa, 2, Nizhnij Novgorod, Nizhegorodskaya oblast', Russia, 603002",177
4721169,"Kanavinskaya Ulitsa, 27, Nizhnij Novgorod, Nizhegorodskaya oblast &#39;, Russia, 603002",177
4695139,"Kanavinskaya Ulitsa, 2?, Nizhnij Novgorod, Nizhegorodskaya oblast', Russia, 603002",177
4720481,"Kanavinskaya Ulitsa, 2?, Nizhnij Novgorod, Nizhegorodskaya oblast', Russia, 603002",177
4722070,"Kanavinskaya Ulitsa, 2?, Nizhnij Novgorod, Nizhegorodskaya oblast', Russia, 603002",177
4722065,"Kanavinskaya Ulitsa, 3, Nizhnij Novgorod, Nizhegorodskaya oblast', Russia, 603002",177
4694143,"Kanavinsky Bridge, Nizhnij Novgorod, Nizhegorodskaya oblast &#39;, Russia, 603001",177
4722846,"Kashirskaya Ulitsa, 11/55, Rostov, Rostovskaya oblast &#39;, Russia, 344091",177
4716612,"Kashirskaya Ulitsa, 20, Rostov, Rostovskaya oblast', Russia, 344091",177
4722830,"Kashirskaya Ulitsa, 24, Rostov, Rostovskaya oblast', Russia, 344000",177
4713372,"Kashirskaya Ulitsa, 5, Rostov, Rostovskaya oblast', Russia, 344091",177
4714241,"Kashirskaya Ulitsa, 6, Rostov, Rostovskaya oblast', Russia, 344091",177
4716491,"Kashirskaya Ulitsa, 6, Rostov, Rostovskaya oblast', Russia, 344091",177
4722847,"Kashirskaya Ulitsa, 8 building 2, Rostov, Rostovskaya oblast &#39;, Russia, 344091",177
4722956,"Kashirskaya Ulitsa, 8, Rostov, Rostovskaya oblast', Russia, 344091",177
4722980,"Kashirskaya Ulitsa, 8, ?. 3, Rostov, Rostovskaya oblast', Russia, 344091",177
4722783,"Kashirskaya Ulitsa, 8?5, Rostov, Rostovskaya oblast', Russia, 344090",177
4714231,"Kashirskaya Ulitsa, 9, Rostov, Rostovskaya oblast', Russia, 344091",177
4714238,"Kashirskaya Ulitsa, 9, Rostov, Rostovskaya oblast', Russia, 344091",177
4715836,"Kashirskaya Ulitsa, 9/53?, Rostov, Rostovskaya oblast', Russia, 344091",177
4714838,"Kazakhstanskiy Pereulok, 19?, Rostov, Rostovskaya oblast', Russia, 150000",177
4696944,"Kazbekskiy Pereulok, 4, Nizhnij Novgorod, Nizhegorodskaya oblast &#39;, Russia, 603000",177
4695140,"Kerchenskaya ul., 20?, Nizhnij Novgorod, Nizhegorodskaya oblast', Russia, 603159",177
4713244,"Khabarovskiy Pereulok, Rostov, Rostovskaya oblast', Russia, 344018",177
4735147,"Khovd, Mongolia",177
4762885,"Khrizolitovyy, Sverdlovsk Oblast, Russia, 624054",177
4712519,"Kirgizskaya Ulitsa, 38-?, ???????? ??????, ?????? ? 5221/0228, Rostov, Rostovskaya oblast', Russia, 344065",177
4715321,"Kirgizskaya Ulitsa, 38?, Rostov, Rostovskaya oblast', Russia, 344065",177
4713973,"Kirgizskaya Ulitsa, 38?, Rostov, Rostovskaya oblast &#39;, Russia, 344065",177
4714725,"Kirgizskaya Ulitsa, 38?, Rostov, Rostovskaya oblast', Russia, 344065",177
4714810,"Kirgizskaya Ulitsa, 41, Rostov, Rostovskaya oblast', Russia, 344065",177
4715222,"Kirgizskaya Ulitsa, 9/1, Rostov, Rostovskaya oblast', Russia, 344065",177
4715379,"Kirgizskaya Ulitsa, 9/3, Rostov, Rostovskaya oblast &#39;, Russia, 344065",177
4713613,"Kirgizskaya Ulitsa, 9/3, Rostov, Rostovskaya oblast', Russia, 344065",177
4722799,"Kirovskiy Prospekt, 116, Rostov, Rostovskaya oblast', Russia, 344010",177
4712720,"Kirovskiy Prospekt, 126/23, Rostov, Rostovskaya oblast', Russia, 344000",177
4716502,"Kirovskiy Prospekt, 35, Rostov, Rostovskaya oblast', Russia, 344006",177
5738650,"Kirovskiy Prospekt, 35/113, Rostov, Rostovskaya oblast', Russia, 344010",177
4712715,"Kirovskiy Prospekt, 40 ?, ????????? ??? ""????????????"", Rostov, Rostovskaya oblast', Russia, 344022",177
4715076,"Kirovskiy Prospekt, 44, Rostov, Rostovskaya oblast', Russia, 344000",177
4715855,"Kirovskiy Prospekt, 53, Rostov, Rostovskaya oblast', Russia, 344006",177
4712453,"Kirovskiy Prospekt, 55, Rostov, Rostovskaya oblast &#39;, Russia, 344022",177
4715857,"Kirovskiy Prospekt, 57, Rostov, Rostovskaya oblast', Russia, 344002",177
4713149,"Kirovskiy Prospekt, 57B, Rostov, Rostovskaya oblast &#39;, Russia, 344022",177
4713747,"Kirovskiy Prospekt, 80, Rostov, Rostovskaya oblast &#39;, Russia, 344022",177
4712717,"Kirovskiy Prospekt, 84/1, Rostov, Rostovskaya oblast', Russia, 344006",177
4714156,"Kirovskiy Prospekt, 90, Rostov, Rostovskaya oblast &#39;, Russia, 344010",177
4714909,"Kirovskiy Prospekt, 92, Rostov, Rostovskaya oblast', Russia, 344022",177
4695628,"Klubnaya ul., 5, Nizhnij Novgorod, Nizhegorodskaya oblast &#39;, Russia, 603033",177
4716253,"Knizhnyy Pereulok, 11?, Bataysk, Rostovskaya oblast', Russia, 346880",177
4723164,"Kolontayevskiy Pereulok, 82, Azov, Rostovskaya oblast &#39;, Russia, 346782",177
4714798,"Kolontayevskiy Pereulok, 89 b, Azov, Rostovskaya oblast &#39;, Russia, 346787",177
3384596,"Koltushi, Leningrad Oblast, Russia, 188680",177
4713037,"Komitetskiy Pereulok, 1, Rostov, Rostovskaya oblast', Russia, 344023",177
4695965,"Kommunisticheskaya Ulitsa, 24, Nizhnij Novgorod, Nizhegorodskaya oblast', Russia, 603002",177
4696945,"Kommunisticheskaya Ulitsa, 27, Nizhnij Novgorod, Nizhegorodskaya oblast &#39;, Russia, 603002",177
4721867,"Kommunisticheskaya Ulitsa, 39, Nizhnij Novgorod, Nizhegorodskaya oblast', Russia, 603002",177
4720901,"Kommunisticheskaya Ulitsa, 47, Nizhnij Novgorod, Nizhegorodskaya oblast', Russia, 603002",177
4721575,"Kommunisticheskaya Ulitsa, 75, Nizhnij Novgorod, Nizhegorodskaya oblast', Russia, 603002",177
4714289,"Kommunisticheskiy Prospekt, 10, Rostov, Rostovskaya oblast &#39;, Russia, 344058",177
4717738,"Kommunisticheskiy Prospekt, 11, Rostov, Rostovskaya oblast', Russia, 344058",177
4714007,"Kommunisticheskiy Prospekt, 14, Rostov, Rostovskaya oblast &#39;, Russia, 344000",177
4722964,"Kommunisticheskiy Prospekt, 25/2, Rostov, Rostovskaya oblast', Russia, 344058",177
4722854,"Kommunisticheskiy Prospekt, 27, Rostov, Rostovskaya oblast &#39;, Russia, 344091",177
4713696,"Kommunisticheskiy Prospekt, 27, Rostov, Rostovskaya oblast', Russia, 344091",177
4713699,"Kommunisticheskiy Prospekt, 27, Rostov, Rostovskaya oblast', Russia, 344091",177
4716489,"Kommunisticheskiy Prospekt, 27, Rostov, Rostovskaya oblast', Russia, 344091",177
4716436,"Kommunisticheskiy Prospekt, 29, Rostov, Rostovskaya oblast', Russia, 344091",177
4714291,"Kommunisticheskiy Prospekt, 30, Rostov, Rostovskaya oblast &#39;, Russia, 344091",177
4723148,"Kommunisticheskiy Prospekt, 30, Rostov, Rostovskaya oblast', Russia, 344058",177
4713601,"Kommunisticheskiy Prospekt, 30, Rostov, Rostovskaya oblast', Russia, 344090",177
4713602,"Kommunisticheskiy Prospekt, 30, Rostov, Rostovskaya oblast', Russia, 344091",177
4713692,"Kommunisticheskiy Prospekt, 30, Rostov, Rostovskaya oblast', Russia, 344091",177
4722963,"Kommunisticheskiy Prospekt, 30, Rostov, Rostovskaya oblast', Russia, 344091",177
4723341,"Kommunisticheskiy Prospekt, 30, Rostov, Rostovskaya oblast', Russia, 344091",177
4713598,"Kommunisticheskiy Prospekt, 30, Rostov, ?????????? ???, Russia, 344091",177
4713599,"Kommunisticheskiy Prospekt, 30, ?/? ""????? ??????"", Rostov, Rostovskaya oblast', Russia, 344091",177
4713600,"Kommunisticheskiy Prospekt, 30, ?/? ""????? ??????"", Rostov, Rostovskaya oblast', Russia, 344091",177
4713694,"Kommunisticheskiy Prospekt, 30, ?/? ""????? ??????"", Rostov, Rostovskaya oblast', Russia, 344091",177
4723339,"Kommunisticheskiy Prospekt, 31, 1 ????, Rostov, Rostovskaya oblast', Russia, 344091",177
4717698,"Kommunisticheskiy Prospekt, 31, 2 ????, 1 ????, Rostov, Rostovskaya oblast', Russia, 344091",177
4717554,"Kommunisticheskiy Prospekt, 31, Rostov, Rostovskaya oblast', Russia, 344091",177
4723340,"Kommunisticheskiy Prospekt, 31, Rostov, Rostovskaya oblast', Russia, 344091",177
4714292,"Kommunisticheskiy Prospekt, 32, Rostov, Rostovskaya oblast &#39;, Russia, 344091",177
4715827,"Kommunisticheskiy Prospekt, 32, Rostov, Rostovskaya oblast &#39;, Russia, 344091",177
4722851,"Kommunisticheskiy Prospekt, 32, Rostov, Rostovskaya oblast &#39;, Russia, 344091",177
4713584,"Kommunisticheskiy Prospekt, 32, Rostov, Rostovskaya oblast', Russia, 344091",177
4713589,"Kommunisticheskiy Prospekt, 32, Rostov, Rostovskaya oblast', Russia, 344091",177
4713590,"Kommunisticheskiy Prospekt, 32, Rostov, Rostovskaya oblast', Russia, 344091",177
4713593,"Kommunisticheskiy Prospekt, 32, Rostov, Rostovskaya oblast', Russia, 344091",177
4714255,"Kommunisticheskiy Prospekt, 32, Rostov, Rostovskaya oblast', Russia, 344091",177
4716250,"Kommunisticheskiy Prospekt, 32, Rostov, Rostovskaya oblast', Russia, 344091",177
4716783,"Kommunisticheskiy Prospekt, 32, Rostov, Rostovskaya oblast', Russia, 344091",177
4713680,"Kommunisticheskiy Prospekt, 32, ??????????? ""???????????"", Rostov, Rostovskaya oblast', Russia, 344091",177
4716416,"Kommunisticheskiy Prospekt, 32/3, Rostov, Rostovskaya oblast', Russia, 344091",177
4716410,"Kommunisticheskiy Prospekt, 32?, Rostov, Rostovskaya oblast', Russia, 344091",177
4717821,"Kommunisticheskiy Prospekt, 344091, Rostov, Rostovskaya oblast &#39;, Russia, 344091",177
4717818,"Kommunisticheskiy Prospekt, 36/3, Rostov, Rostovskaya oblast &#39;, Russia, 344091",177
4717042,"Kommunisticheskiy Prospekt, 36/4, Rostov, Rostovskaya oblast &#39;, Russia, 344090",177
4717824,"Kommunisticheskiy Prospekt, 36/4, Rostov, Rostovskaya oblast &#39;, Russia, 344090",177
4716411,"Kommunisticheskiy Prospekt, 37/1, Rostov, Rostovskaya oblast', Russia, 344000",177
4717394,"Kommunisticheskiy Prospekt, 37/1, Rostov, Rostovskaya oblast', Russia, 344091",177
4713182,"Kommunisticheskiy Prospekt, 38, Rostov, Rostovskaya oblast &#39;, Russia, 344091",177
4714794,"Kommunisticheskiy Prospekt, 38, Rostov, Rostovskaya oblast &#39;, Russia, 344091",177
4717393,"Kommunisticheskiy Prospekt, 42, Rostov, Rostovskaya oblast', Russia, 344091",177
4722979,"Kommunisticheskiy Prospekt, 42/4, Rostov, Rostovskaya oblast', Russia, 344000",177
4714000,"Kommunisticheskiy Prospekt, 43/1, Rostov, Rostovskaya oblast &#39;, Russia, 344091",177
4716784,"Kommunisticheskiy Prospekt, 45, Rostov, Rostovskaya oblast', Russia, 344091",177
4713567,"Kommunisticheskiy Prospekt, 46, Rostov, Rostovskaya oblast', Russia, 344090",177
4723095,"Kommunisticheskiy Prospekt, 46, Rostov, Rostovskaya oblast', Russia, 344091",177
4723122,"Kommunisticheskiy Prospekt, 46, Rostov, Rostovskaya oblast', Russia, 344091",177
4713674,"Kommunisticheskiy Prospekt, 46, ?-? ""??????"", Rostov, Rostovskaya oblast', Russia, 344090",177
4722945,"Kommunisticheskiy Prospekt, 46/1, Rostov, ??????-??-????, Russia, 344091",177
4723140,"Kommunisticheskiy Prospekt, 46/2, Rostov, Rostovskaya oblast', Russia, 344000",177
4722890,"Kommunisticheskiy Prospekt, 48/1, Rostov, Rostovskaya oblast', Russia, 344091",177
4713569,"Kommunisticheskiy Prospekt, 51, Rostov, Rostovskaya oblast', Russia, 344090",177
4713677,"Kommunisticheskiy Prospekt, 51, Rostov, Rostovskaya oblast', Russia, 344091",177
4713678,"Kommunisticheskiy Prospekt, 51, Rostov, Rostovskaya oblast', Russia, 344091",177
4717396,"Kommunisticheskiy Prospekt, 53, ???????????????? ??-?? 53, Rostovskaya oblast', Russia, 344090",177
4716494,"Kommunisticheskiy Prospekt, 55, Rostov, Rostovskaya oblast', Russia, 344091",177
4714334,"Kommunistichesky prospect, 34/3, Rostov, Rostovskaya oblast &#39;, Russia, 344091",177
4713845,"Kommunistichesky prospect, 36/4, Rostov, Rostovskaya oblast &#39;, Russia, 344091",177
4696927,"Komsomol&#39;skaya Ploshchad &#39;, Nizhnij Novgorod, Nizhegorodskaya oblast&#39;, Russia, 603011",177
4714290,"Komsomol&#39;skaya Ulitsa, 47, Rassvet, Rostovskaya oblast &#39;, Russia, 346735",177
4721203,"Komsomol&#39;skoye Shosse, 3, Nizhnij Novgorod, Nizhegorodskaya oblast &#39;, Russia, 603034",177
4721222,"Komsomol&#39;skoye Shosse, 3, Nizhnij Novgorod, Nizhegorodskaya oblast &#39;, Russia, 603034",177
4721187,"Komsomol&#39;skoye Shosse, 7, Nizhnij Novgorod, Nizhegorodskaya oblast &#39;, Russia, 603034",177
4695692,"Komsomol&#39;skoye Shosse, Nizhnij Novgorod, Nizhegorodskaya oblast &#39;, Russia, 603010",177
4720304,"Komsomol'skaya Ploshchad', 1, Nizhnij Novgorod, Nizhegorodskaya oblast', Russia, 603011",177
4720305,"Komsomol'skaya Ploshchad', 1, Nizhnij Novgorod, Nizhegorodskaya oblast', Russia, 603140",177
4695961,"Komsomol'skaya Ploshchad', 10/2, Nizhnij Novgorod, Nizhegorodskaya oblast', Russia, 603140",177
4694469,"Komsomol'skaya Ploshchad', 1?, Nizhnij Novgorod, Nizhegorodskaya oblast', Russia, 603011",177
4720317,"Komsomol'skaya Ploshchad', 2, Nizhnij Novgorod, Nizhegorodskaya oblast', Russia, 603011",177
4720318,"Komsomol'skaya Ploshchad', 2, Nizhnij Novgorod, Nizhegorodskaya oblast', Russia, 603011",177
4720319,"Komsomol'skaya Ploshchad', 2, Nizhnij Novgorod, Nizhegorodskaya oblast', Russia, 603011",177
4720320,"Komsomol'skaya Ploshchad', 2, Nizhnij Novgorod, Nizhegorodskaya oblast', Russia, 603011",177
4720306,"Komsomol'skaya Ploshchad', 2, Nizhnij Novgorod, ????????????? ???, Russia, 603140",177
4721394,"Komsomol'skaya Ploshchad', 2, ??????????? ""????????"", Nizhnij Novgorod, Nizhegorodskaya oblast', Russia, 603140",177
4721802,"Komsomol'skaya Ploshchad', 2, ??????????? ""????????"", Nizhnij Novgorod, Nizhegorodskaya oblast', Russia, 603140",177
4721800,"Komsomol'skaya Ploshchad', 2, ??????????? ????????, Nizhnij Novgorod, Nizhegorodskaya oblast', Russia, 603140",177
4722165,"Komsomol'skaya Ploshchad', 3, Nizhnij Novgorod, Nizhegorodskaya oblast', Russia, 603000",177
4694989,"Komsomol'skaya Ploshchad', 3?, Nizhnij Novgorod, Nizhegorodskaya oblast', Russia, 603000",177
4720315,"Komsomol'skaya Ploshchad', 3?, Nizhnij Novgorod, Nizhegorodskaya oblast', Russia, 603011",177
4694887,"Komsomol'skaya Ploshchad', 6, Nizhnij Novgorod, Nizhegorodskaya oblast', Russia, 603140",177
4721837,"Komsomol'skaya Ploshchad', 6, Nizhnij Novgorod, Nizhegorodskaya oblast', Russia, 603140",177
4721838,"Komsomol'skaya Ploshchad', 6, Nizhnij Novgorod, Nizhegorodskaya oblast', Russia, 603140",177
4721839,"Komsomol'skaya Ploshchad', 6, Nizhnij Novgorod, Nizhegorodskaya oblast', Russia, 603140",177
4721392,"Komsomol'skaya Ploshchad', 6/1, Nizhnij Novgorod, Nizhegorodskaya oblast', Russia, 603140",177
4722835,"Komsomol'skaya Ulitsa, 4, Azov, Rostovskaya oblast', Russia, 346782",177
4720293,"Komsomol'skoye Shosse, 12, Nizhnij Novgorod, Nizhegorodskaya oblast', Russia, 603010",177
4720933,"Komsomol'skoye Shosse, 14, Nizhnij Novgorod, Nizhegorodskaya oblast', Russia, 603028",177
4720301,"Komsomol'skoye Shosse, 14?, Nizhnij Novgorod, ????????????? ???, Russia, 603034",177
4694987,"Komsomol'skoye Shosse, 2, Nizhnij Novgorod, Nizhegorodskaya oblast', Russia, 603140",177
4694604,"Komsomol'skoye Shosse, 3?, Nizhnij Novgorod, Nizhegorodskaya oblast', Russia, 603011",177
4694988,"Komsomol'skoye Shosse, 3?, Nizhnij Novgorod, Nizhegorodskaya oblast', Russia, 603011",177
4721792,"Komsomol'skoye Shosse, 5?, Nizhnij Novgorod, Nizhegorodskaya oblast', Russia, 603034",177
4695056,"Komsomol'skoye Shosse, 5?, Nizhnij Novgorod, Nizhegorodskaya oblast', Russia, 603034",177
4720935,"Komsomol'skoye Shosse, 5?, Nizhnij Novgorod, Nizhegorodskaya oblast', Russia, 603079",177
4720445,"Komsomol'skoye Shosse, 6, Nizhnij Novgorod, Nizhegorodskaya oblast', Russia, 603028",177
4721602,"Komsomol'skoye Shosse, 7, Nizhnij Novgorod, Nizhegorodskaya oblast', Russia, 603079",177
4720938,"Komsomol'skoye Shosse, Nizhnij Novgorod, Nizhegorodskaya oblast', Russia, 603010",177
4713444,"Konnyy Pereulok, 43, Rostov, Rostovskaya oblast', Russia, 344048",177
4696197,"Kosmicheskaya Ulitsa, 42, Nizhnij Novgorod, Nizhegorodskaya oblast', Russia, 603142",177
4696696,"Kosmicheskaya Ulitsa, 42, ?.1, Nizhnij Novgorod, Nizhegorodskaya oblast', Russia, 603142",177
4695473,"Kosmicheskaya Ulitsa, 42, ??????? ""???????"", 2-? ??., Nizhnij Novgorod, Nizhegorodskaya oblast', Russia, 603142",177
4696701,"Kosmicheskaya Ulitsa, 46, Nizhnij Novgorod, Nizhegorodskaya oblast', Russia, 603142",177
4696760,"Kosmicheskaya Ulitsa, 48, Nizhnij Novgorod, Nizhegorodskaya oblast', Russia, 603142",177
4696195,"Kosmicheskaya Ulitsa, 51, ??. 156, Nizhnij Novgorod, Nizhegorodskaya oblast', Russia, 603142",177
4696756,"Kosmicheskaya Ulitsa, 51, ???.1, Nizhnij Novgorod, Nizhegorodskaya oblast', Russia, 603142",177
4693730,"Kosmicheskaya Ulitsa, 52, Nizhnij Novgorod, Nizhegorodskaya oblast', Russia, 603018",177
4694758,"Kosmicheskaya Ulitsa, 58?, Nizhnij Novgorod, Nizhegorodskaya oblast', Russia, 603018",177
4716320,"Kovalevskoy Ulitsa, 43, Rostov, Rostovskaya oblast', Russia, 344090",177
4694094,"Kovalikhinskaya Ulitsa, 14/43, Nizhnij Novgorod, Nizhegorodskaya oblast', Russia, 603006",177
4696308,"Kovalikhinskaya Ulitsa, 28?, Nizhnij Novgorod, Nizhegorodskaya oblast', Russia, 603006",177
4697578,"Kovalikhinskaya Ulitsa, 4, Nizhnij Novgorod, Nizhegorodskaya oblast', Russia, 603006",177
4721037,"Kovalikhinskaya Ulitsa, 49?, Nizhnij Novgorod, Nizhegorodskaya oblast', Russia, 603006",177
4696970,"Kovalikhinskaya Ulitsa, 4?, Nizhnij Novgorod, Nizhegorodskaya oblast &#39;, Russia, 603006",177
4697387,"Kovalikhinskaya Ulitsa, 4?, Nizhnij Novgorod, Nizhegorodskaya oblast', Russia, 603006",177
4694484,"Kovalikhinskaya Ulitsa, 8, Nizhnij Novgorod, Nizhegorodskaya oblast', Russia, 603006",177
4697573,"Kovalikhinskaya Ulitsa, 8, Nizhnij Novgorod, Nizhegorodskaya oblast', Russia, 603006",177
4694099,"Kovalikhinskaya Ulitsa, 8, Nizhnij Novgorod, ?????????????, Russia, 603006",177
4694102,"Kovalikhinskaya Ulitsa, 8, Nizhnij Novgorod, ?????? ????????, Russia, 603006",177
4693902,"Kovalikhinskaya Ulitsa, 8, ??? ""????? ????????????? ????????"", ?. ????????, Nizhegorodskaya oblast', Russia, 603006",177
4714004,"Kovalivskogo St., 74-a, Bataysk, Rostov Oblast, Russia, 346880",177
4697311,"Kozhevennyy Pereulok, 10/13, Nizhnij Novgorod, Nizhegorodskaya oblast &#39;, Russia, 603001",177
4714653,"Krasnaya Ulitsa, 87, Rostov, Rostovskaya oblast', Russia, 344058",177
4715439,"Krasnoarmeyskaya Ulitsa, 101, Rostov, Rostovskaya oblast &#39;, Russia, 344000",177
4716976,"Krasnoarmeyskaya Ulitsa, 101, Rostov, Rostovskaya oblast', Russia, 344000",177
4715083,"Krasnoarmeyskaya Ulitsa, 103, Rostov, Rostovskaya oblast', Russia, 344010",177
4714432,"Krasnoarmeyskaya Ulitsa, 103, Rostov, Rostovskaya oblast', Russia, 344025",177
4716975,"Krasnoarmeyskaya Ulitsa, 103/123, Rostov, Rostovskaya oblast', Russia, 344010",177
4713769,"Krasnoarmeyskaya Ulitsa, 104, Rostov, Rostovskaya oblast &#39;, Russia, 344011",177
4714161,"Krasnoarmeyskaya Ulitsa, 105, Rostov, Rostovskaya oblast &#39;, Russia, 344000",177
4715438,"Krasnoarmeyskaya Ulitsa, 105, Rostov, Rostovskaya oblast &#39;, Russia, 344000",177
4713537,"Krasnoarmeyskaya Ulitsa, 105, Rostov, Rostovskaya oblast', Russia, 344000",177
4716763,"Krasnoarmeyskaya Ulitsa, 105, Rostov, Rostovskaya oblast', Russia, 344006",177
4716033,"Krasnoarmeyskaya Ulitsa, 105, Rostov, Rostovskaya oblast', Russia, 344010",177
4713955,"Krasnoarmeyskaya Ulitsa, 105, Rostov, Rostovskaya oblast', Russia, 344022",177
4716027,"Krasnoarmeyskaya Ulitsa, 105, Rostov, Rostovskaya oblast', Russia, 344022",177
4716429,"Krasnoarmeyskaya Ulitsa, 105, Rostov, ??????-??-????, Russia, 344010",177
4716031,"Krasnoarmeyskaya Ulitsa, 105, ?.??????-??-????, Rostovskaya oblast', Russia, 344010",177
4712719,"Krasnoarmeyskaya Ulitsa, 105, ?? ""???????"", Rostov, Rostovskaya oblast', Russia, 344022",177
4716028,"Krasnoarmeyskaya Ulitsa, 105, ?? ""???????"", Rostov, Rostovskaya oblast', Russia, 344022",177
4713536,"Krasnoarmeyskaya Ulitsa, 105?, Rostov, Rostovskaya oblast', Russia, 344022",177
4723447,"Krasnoarmeyskaya Ulitsa, 108, Rostov, Rostovskaya oblast', Russia, 344082",177
4716024,"Krasnoarmeyskaya Ulitsa, 109?, Rostov, Rostovskaya oblast', Russia, 344010",177
4716765,"Krasnoarmeyskaya Ulitsa, 109?, Rostov, Rostovskaya oblast', Russia, 344010",177
4717009,"Krasnoarmeyskaya Ulitsa, 117-135, Rostov, Rostovskaya oblast', Russia, 344022",177
4714430,"Krasnoarmeyskaya Ulitsa, 119, Rostov, Rostovskaya oblast', Russia, 344006",177
4716430,"Krasnoarmeyskaya Ulitsa, 119, Rostov, Rostovskaya oblast', Russia, 344010",177
4716023,"Krasnoarmeyskaya Ulitsa, 121, Rostov, Rostovskaya oblast', Russia, 344010",177
4712714,"Krasnoarmeyskaya Ulitsa, 127, Rostov, Rostovskaya oblast', Russia, 344022",177
4716966,"Krasnoarmeyskaya Ulitsa, 131, Rostov, Rostovskaya oblast', Russia, 344010",177
4717708,"Krasnoarmeyskaya Ulitsa, 132, 201, Rostov, Rostovskaya oblast', Russia, 344006",177
4713925,"Krasnoarmeyskaya Ulitsa, 133, Wolrd Class, 1 ????, Rostov, Rostovskaya oblast', Russia, 344000",177
4716531,"Krasnoarmeyskaya Ulitsa, 133/117, Rostov, Rostovskaya oblast &#39;, Russia, 344010",177
4714154,"Krasnoarmeyskaya Ulitsa, 133/117, Rostov, Rostovskaya oblast &#39;, Russia, 344022",177
4716965,"Krasnoarmeyskaya Ulitsa, 133/117, Rostov, Rostovskaya oblast', Russia, 344000",177
4713631,"Krasnoarmeyskaya Ulitsa, 133/117, Rostov, Rostovskaya oblast', Russia, 344010",177
4715050,"Krasnoarmeyskaya Ulitsa, 134, Rostov, Rostovskaya oblast', Russia, 344010",177
4713261,"Krasnoarmeyskaya Ulitsa, 157, Rostov, Rostovskaya oblast &#39;, Russia, 344022",177
4714269,"Krasnoarmeyskaya Ulitsa, 157, Rostov, Rostovskaya oblast &#39;, Russia, 344022",177
4716960,"Krasnoarmeyskaya Ulitsa, 157, Rostov, Rostovskaya oblast', Russia, 344000",177
4717006,"Krasnoarmeyskaya Ulitsa, 157, Rostov, Rostovskaya oblast', Russia, 344000",177
4713088,"Krasnoarmeyskaya Ulitsa, 157, Rostov, Rostovskaya oblast', Russia, 344010",177
4713090,"Krasnoarmeyskaya Ulitsa, 157, Rostov, Rostovskaya oblast', Russia, 344010",177
4716769,"Krasnoarmeyskaya Ulitsa, 157, Rostov, Rostovskaya oblast', Russia, 344010",177
4716959,"Krasnoarmeyskaya Ulitsa, 157, Rostov, Rostovskaya oblast', Russia, 344010",177
4713086,"Krasnoarmeyskaya Ulitsa, 157, Rostov, Rostovskaya oblast', Russia, 344022",177
4716007,"Krasnoarmeyskaya Ulitsa, 157, Rostov, Rostovskaya oblast', Russia, 344022",177
4716010,"Krasnoarmeyskaya Ulitsa, 157, Rostov, Rostovskaya oblast', Russia, 344022",177
4716011,"Krasnoarmeyskaya Ulitsa, 157, Rostov, Rostovskaya oblast', Russia, 344022",177
4716013,"Krasnoarmeyskaya Ulitsa, 157, Rostov, Rostovskaya oblast', Russia, 344022",177
4716962,"Krasnoarmeyskaya Ulitsa, 157, Rostov, Rostovskaya oblast', Russia, 344022",177
4716008,"Krasnoarmeyskaya Ulitsa, 157/124, Rostov, Rostovskaya oblast', Russia, 344010",177
4717380,"Krasnoarmeyskaya Ulitsa, 158, Rostov, Rostovskaya oblast', Russia, 344002",177
4714898,"Krasnoarmeyskaya Ulitsa, 168/99, Rostov, Rostovskaya oblast', Russia, 344002",177
5738655,"Krasnoarmeyskaya Ulitsa, 168/99, Rostov, Rostovskaya oblast', Russia, 344002",177
4712444,"Krasnoarmeyskaya Ulitsa, 170, Rostov, Rostovskaya oblast &#39;, Russia, 344002",177
4715055,"Krasnoarmeyskaya Ulitsa, 170, Rostov, Rostovskaya oblast', Russia, 344002",177
4715049,"Krasnoarmeyskaya Ulitsa, 170, Rostov, ?????????? ???, Russia, 344010",177
4723352,"Krasnoarmeyskaya Ulitsa, 170/84, Rostov, Rostovskaya oblast', Russia, 344010",177
4717080,"Krasnoarmeyskaya Ulitsa, 176/46, Rostov, Rostovskaya oblast', Russia, 344002",177
4754756,"Krasnoarmeyskaya Ulitsa, 19, ??????, Samarskaya oblast', Russia, 446390",177
4717077,"Krasnoarmeyskaya Ulitsa, 194, Rostov, Rostovskaya oblast', Russia, 344010",177
4722798,"Krasnoarmeyskaya Ulitsa, 198, Rostov, Rostovskaya oblast', Russia, 344000",177
4712722,"Krasnoarmeyskaya Ulitsa, 206, Rostov, Rostovskaya oblast', Russia, 344000",177
4713826,"Krasnoarmeyskaya Ulitsa, 208, Rostov, Rostovskaya oblast', Russia, 344010",177
4713399,"Krasnoarmeyskaya Ulitsa, 210, Rostov, Rostovskaya oblast', Russia, 344022",177
4716032,"Krasnoarmeyskaya Ulitsa, 220/117, Rostov, Rostovskaya oblast', Russia, 344022",177
4716026,"Krasnoarmeyskaya Ulitsa, 224, Rostov, Rostovskaya oblast', Russia, 344022",177
4715052,"Krasnoarmeyskaya Ulitsa, 23, Rostov, Rostovskaya oblast', Russia, 344002",177
4716936,"Krasnoarmeyskaya Ulitsa, 232, Rostov, Rostovskaya oblast', Russia, 344022",177
4712963,"Krasnoarmeyskaya Ulitsa, 236, Rostov, Rostovskaya oblast', Russia, 344022",177
4715703,"Krasnoarmeyskaya Ulitsa, 236, Rostov, Rostovskaya oblast', Russia, 344022",177
4716970,"Krasnoarmeyskaya Ulitsa, 236, Rostov, Rostovskaya oblast', Russia, 344022",177
4716969,"Krasnoarmeyskaya Ulitsa, 240, Rostov, Rostovskaya oblast', Russia, 344022",177
4715694,"Krasnoarmeyskaya Ulitsa, 262?, Rostov, Rostovskaya oblast', Russia, 344022",177
4712471,"Krasnoarmeyskaya Ulitsa, 278, Rostov, Rostovskaya oblast', Russia, 344022",177
4715693,"Krasnoarmeyskaya Ulitsa, 278, Rostov, Rostovskaya oblast', Russia, 344022",177
4716305,"Krasnoarmeyskaya Ulitsa, 33, Rostov, Rostovskaya oblast &#39;, Russia, 344002",177
4717710,"Krasnoarmeyskaya Ulitsa, 33, Rostov, Rostovskaya oblast', Russia, 344010",177
4713795,"Krasnoarmeyskaya Ulitsa, 3?, Rostov, Rostovskaya oblast &#39;, Russia, 344011",177
4716939,"Krasnoarmeyskaya Ulitsa, 43/94, Rostov, Rostovskaya oblast', Russia, 344022",177
4723007,"Krasnoarmeyskaya Ulitsa, 5, Rostov, Rostovskaya oblast', Russia, 344011",177
4717697,"Krasnoarmeyskaya Ulitsa, 5?, Rostov, Rostovskaya oblast', Russia, 344002",177
4713189,"Krasnoarmeyskaya Ulitsa, 61/101, Rostov, Rostovskaya oblast', Russia, 344010",177
4715059,"Krasnoarmeyskaya Ulitsa, 63, Rostov, Rostovskaya oblast', Russia, 344000",177
4715060,"Krasnoarmeyskaya Ulitsa, 63, Rostov, Rostovskaya oblast', Russia, 344000",177
4714197,"Krasnoarmeyskaya Ulitsa, 65-61, Rostov, Rostovskaya oblast &#39;, Russia, 344010",177
4723375,"Krasnoarmeyskaya Ulitsa, 7, 1 ????, Rostov, Rostovskaya oblast', Russia, 344011",177
4715086,"Krasnoarmeyskaya Ulitsa, 87, Rostov, Rostovskaya oblast', Russia, 344022",177
4714440,"Krasnoarmeyskaya Ulitsa, 89, Rostov, Rostovskaya oblast', Russia, 344006",177
4713917,"Krasnoarmeyskaya Ulitsa, 90, Rostov, Rostovskaya oblast', Russia, 344010",177
4723353,"Krasnoarmeyskaya Ulitsa, 94, Rostov, Rostovskaya oblast', Russia, 344001",177
4716245,"Krasnoarmeyskaya Ulitsa, Rostov, Rostovskaya oblast', Russia, 344010",177
4723004,"Krasnoarmeyskiy Pereulok, 90, Azov, Rostovskaya oblast', Russia, 346780",177
4726788,"Krasnoglinskoye Shosse, 5?, ?. ??????, ??? ??????????????, Samarskaya oblast', Russia, 443000",177
4717210,"Krasnokursantskaya Ulitsa, 3, Rostov, Rostovskaya oblast', Russia, 344068",177
4713158,"Krasnosel&#39;skaya Ulitsa, 3, Rostov, Rostovskaya oblast &#39;, Russia, 344041",177
4721650,"Krasnosormovskaya Ulitsa, 4?, Nizhnij Novgorod, Nizhegorodskaya oblast', Russia, 603068",177
4713466,"Krasnosulinskiy Pereulok, Rostov, Rostovskaya oblast', Russia, 344056",177
4696759,"Krasnoural'skaya Ulitsa, 7?, Nizhnij Novgorod, Nizhegorodskaya oblast', Russia, 603041",177
4721285,"Kremenchugskaya Ulitsa, 1, Nizhnij Novgorod, Nizhegorodskaya oblast', Russia, 603034",177
4721214,"Kremlin territory, Nizhnij Novgorod, Nizhegorodskaya oblast &#39;, Russia, 603082",177
4693955,"Kremlin, 10, Nizhnij Novgorod, Nizhegorodskaya oblast', Russia, 603005",177
4696975,"Kremlin, 11?, Nizhnij Novgorod, Nizhegorodskaya oblast &#39;, Russia, 603005",177
4697305,"Kremlin, 1B, Nizhnij Novgorod, Nizhegorodskaya oblast &#39;, Russia, 603082",177
4695660,"Kremlin, 2B, Nizhnij Novgorod, Nizhegorodskaya oblast &#39;, Russia, 603001",177
4695595,"Kremlin, 2B, Nizhnij Novgorod, Nizhegorodskaya oblast &#39;, Russia, 603082",177
4694609,"Kremlin, 2?, Nizhnij Novgorod, Nizhegorodskaya oblast &#39;, Russia, 603082",177
4695662,"Kremlin, 2?, Nizhnij Novgorod, Nizhegorodskaya oblast', Russia, 603001",177
4695648,"Kremlin, 3, Nizhnij Novgorod, Nizhegorodskaya oblast &#39;, Russia, 603082",177
4695250,"Kremlin, 4B, Nizhnij Novgorod, Nizhegorodskaya oblast &#39;, Russia, 603001",177
4695251,"Kremlin, 4B, Nizhnij Novgorod, Nizhegorodskaya oblast &#39;, Russia, 603001",177
4697301,"Kremlin, 6, Nizhnij Novgorod, Nizhegorodskaya oblast &#39;, Russia, 603005",177
4695658,"Kremlin, 6, Nizhnij Novgorod, Nizhegorodskaya oblast &#39;, Russia, 603082",177
4695248,"Kremlin, 6B, Nizhnij Novgorod, Nizhegorodskaya oblast &#39;, Russia, 603005",177
4695657,"Kremlin, 6?, Nizhnij Novgorod, Nizhegorodskaya oblast &#39;, Russia, 603005",177
4693649,"Kremlin, building 6, Nizhnij Novgorod, Nizhegorodskaya oblast &#39;, Russia, 603005",177
4695505,"Kremlin, Nizhnij Novgorod, Nizhegorodskaya oblast &#39;, Russia, 603001",177
4694671,"Kremlin, Nizhnij Novgorod, Nizhegorodskaya oblast &#39;, Russia, 603005",177
4714619,"Krepostnoy Pereulok, 106, Rostov, Rostovskaya oblast', Russia, 344000",177
4712698,"Krepostnoy Pereulok, 108, Rostov, Rostovskaya oblast', Russia, 344022",177
4715387,"Krepostnoy Pereulok, 128, Rostov, Rostovskaya oblast &#39;, Russia, 344010",177
4714782,"Krepostnoy Pereulok, 129, Rostov, Rostovskaya oblast', Russia, 344010",177
4714853,"Krepostnoy Pereulok, 139, Rostov, Rostovskaya oblast', Russia, 344022",177
4714153,"Krepostnoy Pereulok, 147, Rostov, Rostovskaya oblast &#39;, Russia, 344022",177
4714145,"Krepostnoy Pereulok, 43, Rostov, Rostovskaya oblast &#39;, Russia, 344022",177
4714553,"Krepostnoy Pereulok, 66, Rostov, Rostovskaya oblast', Russia, 344022",177
4715845,"Krepostnoy Pereulok, 66, Rostov, Rostovskaya oblast', Russia, 344022",177
4713202,"Krepostnoy Pereulok, 70, Rostov, Rostovskaya oblast &#39;, Russia, 344022",177
4713751,"Krepostnoy Pereulok, 72, Rostov, Rostovskaya oblast &#39;, Russia, 344022",177
4714144,"Krepostnoy Pereulok, 9, Rostov, Rostovskaya oblast &#39;, Russia, 344022",177
4714429,"Krepostnoy Pereulok, 97, Rostov, Rostovskaya oblast', Russia, 344022",177
4715847,"Krepostnoy Pereulok, 97, Rostov, Rostovskaya oblast', Russia, 344022",177
4715702,"Krepostnoy Pereulok, 99, ???? 18, Rostov, Rostovskaya oblast', Russia, 344022",177
4716036,"Krivorozhskaya Ulitsa, 59, Rostov, Rostovskaya oblast', Russia, 344068",177
4717222,"Krivorozhskaya Ulitsa, 68, Rostov, Rostovskaya oblast', Russia, 344068",177
4715911,"Krivorozhskaya Ulitsa, 70, Rostov, Rostovskaya oblast', Russia, 344068",177
4713042,"Krivoshlykovskiy Pereulok, 42, Rostov, Rostovskaya oblast', Russia, 344030",177
4722792,"Krym, Rostov Oblast, Russia, 346803",177
4714339,"Kudryavaya ul., 132, Rostov, Rostovskaya oblast &#39;, Russia, 344020",177
3419350,"Kuibyshevskoe Reservoir, Russia",177
4722904,"Kuleshovka, Rostov Oblast, Russia, 346779",177
4713732,"Kulikovskaya Ulitsa, 16?, Rostov, Rostovskaya oblast &#39;, Russia, 344064",177
4716335,"Kumzhenskaya Ulitsa, 2?, Rostov, Rostovskaya oblast &#39;, Russia, 344033",177
4716387,"Kumzhenskaya Ulitsa, 2?, Rostov, Rostovskaya oblast &#39;, Russia, 344033",177
4755440,"Kvartal'naya Ulitsa, 115, Novaya Usman', ???????????, Russia, 396311",177
5688175,"K?????-????? ""????????"", ??????, ????????????? ???., 633000",177
4717363,"Landshaftnaya Ulitsa, 6, Rostov, Rostovskaya oblast', Russia, 344068",177
4696190,"Lenin Ave, 57, Nizhnij Novgorod, Nizhegorodskaya oblast', Russia, 603135",177
4693982,"Lenin Ave, 64, Nizhnij Novgorod, Nizhegorodskaya oblast', Russia, 603073",177
4693983,"Lenin Ave, 64, Nizhnij Novgorod, Nizhegorodskaya oblast', Russia, 603073",177
4695438,"Lenin Ave, 65, Nizhnij Novgorod, Nizhegorodskaya oblast &#39;, Russia, 603090",177
3385073,"Leningrad Oblast, Russia, 188643",177
3413292,"Leningrad Oblast, Russia, 188753",177
4723000,"Leningradskaya Ulitsa, 31, Azov, Rostovskaya oblast', Russia, 346780",177
3438104,"Leningradsky Ave, 39, Russia",177
4717232,"Lentochnaya Ulitsa, 1, Rostov, Rostovskaya oblast &#39;, Russia, 344041",177
4715945,"Lesoparkovaya Ulitsa, 14, Rostov, Rostovskaya oblast', Russia, 344041",177
4715947,"Lesoparkovaya Ulitsa, 14, Rostov, Rostovskaya oblast', Russia, 344041",177
4715948,"Lesoparkovaya Ulitsa, 14, Rostov, Rostovskaya oblast', Russia, 344041",177
5739599,"Lesoparkovaya Ulitsa, 32/1, Rostov, Rostovskaya oblast', Russia, 344041",177
4716325,"Lesoparkovaya Ulitsa, 51, Rostov, Rostovskaya oblast', Russia, 344041",177
4717640,"Lesoparkovaya Ulitsa, 90?, Rostov, Rostovskaya oblast', Russia, 344041",177
4716474,"Lesoparkovaya Ulitsa, 90?, Rostov, Rostovskaya oblast', Russia, 344041",177
4713007,"Lesozashchitnaya Ulitsa, 3, Rostov, Rostovskaya oblast', Russia, 344020",177
4715204,"Lesozashchitnaya Ulitsa, 3, Rostov, Rostovskaya oblast', Russia, 344020",177
4714305,"Levoberezhnaya Ulitsa, 131, Rostov, Rostovskaya oblast &#39;, Russia, 344015",177
5739605,"Levoberezhnaya Ulitsa, 27, Rostov, Rostovskaya oblast', Russia, 344002",177
4714899,"Levoberezhnaya Ulitsa, 39, Rostov, Rostovskaya oblast', Russia, 344002",177
4713201,"Levoberezhnaya Ulitsa, 47, Rostov, Rostovskaya oblast', Russia, 344002",177
4714611,"Levoberezhnaya Ulitsa, 61, Rostov, Rostovskaya oblast', Russia, 344002",177
4713234,"Levoberezhnaya Ulitsa, 69, Rostov, Rostovskaya oblast', Russia, 344019",177
4714280,"Levoberezhnaya Ulitsa, Rostov, Rostovskaya oblast &#39;, Russia, 344019",177
4713432,"Levobereznaya, 37, Rostov, Rostovskaya oblast', Russia, 344002",177
4713139,"Likbezovskiy Pereulok, 18, Rostov, Rostovskaya oblast &#39;, Russia, 344068",177
4721278,"Lindovskaya Ulitsa, 15-?, Nizhnij Novgorod, Nizhegorodskaya oblast', Russia, 603157",177
4721475,"Liniya Dubravnaya Ulitsa 1, 1, Nizhnij Novgorod, Nizhegorodskaya oblast', Russia, 603051",177
4721654,"Liniya Dubravnaya Ulitsa 11, 1?, Nizhnij Novgorod, Nizhegorodskaya oblast', Russia, 603051",177
4721978,"Liniya Dubravnaya Ulitsa 2, 1?, Nizhnij Novgorod, Nizhegorodskaya oblast', Russia, 603051",177
4715134,"Lipovaya Ulitsa, 3, Rostov, Rostovskaya oblast', Russia, 346715",177
4696506,"Lyuby Shevtsovoy Ulitsa, 1 ?, ?. ?. ????????, Nizhegorodskaya oblast', Russia, 603142",177
4694140,"M7, Nizhnij Novgorod, Nizhegorodskaya oblast &#39;, Russia, 603058",177
4696110,"M7, Nizhnij Novgorod, Nizhegorodskaya oblast &#39;, Russia, 607611",177
3431273,"Magistral'naya Ulitsa, 14, Russia",177
4696940,"Malaya Pokrovskaya Street, 16, Nizhnij Novgorod, Nizhegorodskaya oblast &#39;, Russia, 603000",177
4695353,"Malaya Pokrovskaya Street, 2 ?, Nizhnij Novgorod, Nizhegorodskaya oblast', Russia, 603000",177
4696160,"Malaya Pokrovskaya Street, 31, Nizhnij Novgorod, Nizhegorodskaya oblast', Russia, 603000",177
4721361,"Malaya Pokrovskaya Street, 32, Nizhnij Novgorod, Nizhegorodskaya oblast', Russia, 603000",177
4694512,"Malaya Pokrovskaya Street, 9, Nizhnij Novgorod, Nizhegorodskaya oblast', Russia, 603000",177
4696297,"Malaya Yamskaya Ulitsa, 26, Nizhnij Novgorod, Nizhegorodskaya oblast', Russia, 603000",177
4694506,"Malaya Yamskaya Ulitsa, 78 ?, Nizhnij Novgorod, Nizhegorodskaya oblast', Russia, 603022",177
4694525,"Malaya Yamskaya Ulitsa, 78, 216, Nizhnij Novgorod, Nizhegorodskaya oblast', Russia, 603022",177
5739601,"Maluginoy Street, 119, Rostov, Rostovskaya oblast', Russia, 344011",177
4697002,"Manor st., 6, Nizhnij Novgorod, Nizhegorodskaya oblast &#39;, Russia, 603001",177
4721431,"Manufakturnaya Ulitsa, 12, Nizhnij Novgorod, Nizhegorodskaya oblast', Russia, 603086",177
4722074,"Manufakturnaya Ulitsa, 14, 413, Nizhnij Novgorod, Nizhegorodskaya oblast', Russia, 603086",177
4695201,"Manufakturnaya Ulitsa, 14, Nizhnij Novgorod, Nizhegorodskaya oblast &#39;, Russia, 603086",177
4696305,"Manufakturnaya Ulitsa, 14, Nizhnij Novgorod, Nizhegorodskaya oblast', Russia, 603086",177
4721574,"Manufakturnaya Ulitsa, 15, Nizhnij Novgorod, Nizhegorodskaya oblast', Russia, 603086",177
4721082,"Manufakturnaya Ulitsa, 9, Nizhnij Novgorod, Nizhegorodskaya oblast &#39;, Russia, 603086",177
4723113,"Mashinostroitel&#39;nyy Pereulok, 7, Rostov, Rostovskaya oblast &#39;, Russia, 344033",177
4723056,"Mashinostroitel'nyy Pereulok, 1, Rostov, Rostovskaya oblast', Russia, 344033",177
4722778,"Mashinostroitel'nyy Pereulok, 11, Rostov, Rostovskaya oblast', Russia, 344090",177
4723077,"Mashinostroitel'nyy Pereulok, 16, Rostov, Rostovskaya oblast', Russia, 344090",177
4713576,"Mashinostroitel'nyy Pereulok, 21 ??? ??????, Rostov, Rostovskaya oblast', Russia, 344090",177
4723046,"Mashinostroitel'nyy Pereulok, 3-?, 2 ????, Rostov, Rostovskaya oblast', Russia, 344090",177
4714253,"Mashinostroitel'nyy Pereulok, 5, Rostov, Rostovskaya oblast', Russia, 344033",177
4723053,"Mashinostroitel'nyy Pereulok, 5, Rostov, Rostovskaya oblast', Russia, 344090",177
4723054,"Mashinostroitel'nyy Pereulok, 5, Rostov, Rostovskaya oblast', Russia, 344090",177
4723062,"Mashinostroitel'nyy Pereulok, 7, 1 ????, Rostov, Rostovskaya oblast', Russia, 344090",177
4723063,"Mashinostroitel'nyy Pereulok, 7, 207 ????, 2 ????, Rostov, Rostovskaya oblast', Russia, 344090",177
4723060,"Mashinostroitel'nyy Pereulok, 7, 402 ????, 4 ????, Rostov, Rostovskaya oblast', Russia, 344090",177
4723070,"Mashinostroitel'nyy Pereulok, 7, 411, Rostov, Rostovskaya oblast', Russia, 344090",177
4723071,"Mashinostroitel'nyy Pereulok, 7, ??. 27, Rostov, Rostovskaya oblast', Russia, 344090",177
4723072,"Mashinostroitel'nyy Pereulok, 7, ???? 421, Rostov, Rostovskaya oblast', Russia, 344033",177
4723075,"Mashinostroitel'nyy Pereulok, 7/110, Rostov, Rostovskaya oblast', Russia, 344000",177
4723064,"Mashinostroitel'nyy Pereulok, 7/110, Rostov, Rostovskaya oblast', Russia, 344090",177
4713571,"Mashinostroitel'nyy Pereulok, 7/110, Rostov, Rostovskaya oblast', Russia, 344091",177
4695355,"Maxim Gorky St, 113/30, Nizhnij Novgorod, Nizhegorodskaya oblast', Russia, 603000",177
4695356,"Maxim Gorky St, 113/30, Nizhnij Novgorod, Nizhegorodskaya oblast', Russia, 603000",177
4695831,"Maxim Gorky St, 113/30, Nizhnij Novgorod, Nizhegorodskaya oblast', Russia, 603000",177
4696026,"Maxim Gorky St, 115, Nizhnij Novgorod, Nizhegorodskaya oblast &#39;, Russia, 603000",177
4695555,"Maxim Gorky St, 117, Nizhnij Novgorod, Nizhegorodskaya oblast &#39;, Russia, 603006",177
4722069,"Maxim Gorky St, 117, Nizhnij Novgorod, Nizhegorodskaya oblast', Russia, 603000",177
4697384,"Maxim Gorky St, 117, ?. ?. ????????, Nizhegorodskaya oblast', Russia, 603000",177
4695640,"Maxim Gorky St, 127, Nizhnij Novgorod, Nizhegorodskaya oblast &#39;, Russia, 603006",177
4695616,"Maxim Gorky St, 141, Nizhnij Novgorod, Nizhegorodskaya oblast &#39;, Russia, 603000",177
4694640,"Maxim Gorky St, 141?, Nizhnij Novgorod, Nizhegorodskaya oblast &#39;, Russia, 603000",177
4694873,"Maxim Gorky St, 144, Nizhnij Novgorod, Nizhegorodskaya oblast', Russia, 603000",177
4694492,"Maxim Gorky St, 147-?, Nizhnij Novgorod, ?????? ????????, Russia, 603006",177
4696939,"Maxim Gorky St, 148, Nizhnij Novgorod, Nizhegorodskaya oblast &#39;, Russia, 603000",177
4696315,"Maxim Gorky St, 150?, Nizhnij Novgorod, Nizhegorodskaya oblast', Russia, 603006",177
4694739,"Maxim Gorky St, 151, Nizhnij Novgorod, Nizhegorodskaya oblast &#39;, Russia, 603006",177
4695102,"Maxim Gorky St, 151, ?.????????, Nizhegorodskaya oblast', Russia, 603006",177
4693942,"Maxim Gorky St, 152, Nizhnij Novgorod, Nizhegorodskaya oblast', Russia, 603000",177
4696879,"Maxim Gorky St, 152, Nizhnij Novgorod, Nizhegorodskaya oblast', Russia, 603000",177
4694130,"Maxim Gorky St, 152, Nizhnij Novgorod, Nizhegorodskaya oblast', Russia, 603006",177
4695223,"Maxim Gorky St, 158, Nizhnij Novgorod, Nizhegorodskaya oblast &#39;, Russia, 603006",177
4696920,"Maxim Gorky St, 160, Nizhnij Novgorod, Nizhegorodskaya oblast', Russia, 603006",177
4696257,"Maxim Gorky St, 161, Nizhnij Novgorod, Nizhegorodskaya oblast', Russia, 603006",177
4693656,"Maxim Gorky St, 162, Nizhnij Novgorod, Nizhegorodskaya oblast', Russia, 603006",177
4694104,"Maxim Gorky St, 164, Nizhnij Novgorod, Nizhegorodskaya oblast', Russia, 603006",177
4694108,"Maxim Gorky St, 164, Nizhnij Novgorod, Nizhegorodskaya oblast', Russia, 603006",177
4694682,"Maxim Gorky St, 177, Nizhnij Novgorod, Nizhegorodskaya oblast &#39;, Russia, 603155",177
4694657,"Maxim Gorky St, 177?, Nizhnij Novgorod, Nizhegorodskaya oblast &#39;, Russia, 603155",177
4694681,"Maxim Gorky St, 177?, Nizhnij Novgorod, Nizhegorodskaya oblast &#39;, Russia, 603155",177
4694865,"Maxim Gorky St, 184, Nizhnij Novgorod, Nizhegorodskaya oblast', Russia, 603006",177
4696255,"Maxim Gorky St, 184, Nizhnij Novgorod, Nizhegorodskaya oblast', Russia, 603006",177
4695822,"Maxim Gorky St, 186, Nizhnij Novgorod, Nizhegorodskaya oblast', Russia, 603006",177
4695026,"Maxim Gorky St, 193 ?, ?. ?. ????????, Nizhegorodskaya oblast', Russia, 603000",177
4694473,"Maxim Gorky St, 193?, Nizhnij Novgorod, Nizhegorodskaya oblast', Russia, 603024",177
4695259,"Maxim Gorky St, 195, Nizhnij Novgorod, Nizhegorodskaya oblast', Russia, 603024",177
4694816,"Maxim Gorky St, 20?, Nizhnij Novgorod, Nizhegorodskaya oblast', Russia, 603000",177
4696899,"Maxim Gorky St, 218/22, Nizhnij Novgorod, Nizhegorodskaya oblast', Russia, 603006",177
4696838,"Maxim Gorky St, 218/22, ?.?.????????, Nizhegorodskaya oblast', Russia, 603155",177
4696258,"Maxim Gorky St, 220, Nizhnij Novgorod, Nizhegorodskaya oblast', Russia, 603006",177
4697582,"Maxim Gorky St, 220, Nizhnij Novgorod, Nizhegorodskaya oblast', Russia, 603006",177
4694656,"Maxim Gorky St, 226, Nizhnij Novgorod, Nizhegorodskaya oblast &#39;, Russia, 603155",177
4695815,"Maxim Gorky St, 234, Nizhnij Novgorod, Nizhegorodskaya oblast', Russia, 603155",177
4696886,"Maxim Gorky St, 250, Nizhnij Novgorod, Nizhegorodskaya oblast', Russia, 603000",177
4694862,"Maxim Gorky St, 250, Nizhnij Novgorod, Nizhegorodskaya oblast', Russia, 603155",177
4696884,"Maxim Gorky St, 250, Nizhnij Novgorod, Nizhegorodskaya oblast', Russia, 603155",177
4696032,"Maxim Gorky St, 252, Nizhnij Novgorod, Nizhegorodskaya oblast &#39;, Russia, 603155",177
4695099,"Maxim Gorky St, 252, Nizhnij Novgorod, Nizhegorodskaya oblast', Russia, 603155",177
4696143,"Maxim Gorky St, 252, Nizhnij Novgorod, Nizhegorodskaya oblast', Russia, 603155",177
4694054,"Maxim Gorky St, 262, Nizhnij Novgorod, Nizhegorodskaya oblast', Russia, 603006",177
4696323,"Maxim Gorky St, 262, Nizhnij Novgorod, Nizhegorodskaya oblast', Russia, 603155",177
4722120,"Maxim Gorky St, 4, 2, ???? 2, ??. 3, Nizhnij Novgorod, Nizhegorodskaya oblast', Russia, 603000",177
4696339,"Maxim Gorky St, 51, Nizhnij Novgorod, Nizhegorodskaya oblast', Russia, 603000",177
4697382,"Maxim Gorky St, 59, ?. ????????, Nizhegorodskaya oblast', Russia, 603000",177
4695940,"Maxim Gorky St, 6, ?. ?. ????????, Nizhegorodskaya oblast', Russia, 603134",177
4696555,"Maxim Gorky St, 6, ?. ????????, Nizhegorodskaya oblast', Russia, 603000",177
4696325,"Maxim Gorky St, 77, Nizhnij Novgorod, Nizhegorodskaya oblast', Russia, 603105",177
4696911,"Maxim Gorky St, 80/1, Nizhnij Novgorod, Nizhegorodskaya oblast', Russia, 603000",177
4695606,"Maxim Gorky St, Nizhnij Novgorod, Nizhegorodskaya oblast &#39;, Russia, 603000",177
4721653,"Mednoliteynaya Ulitsa, 1?, Nizhnij Novgorod, Nizhegorodskaya oblast', Russia, 603051",177
4696949,"Mel&#39;nichnyy Pereulok, 3, Nizhnij Novgorod, Nizhegorodskaya oblast &#39;, Russia, 603001",177
4694650,"Mel&#39;nichnyy Pereulok, 7-?, Nizhnij Novgorod, Nizhegorodskaya oblast &#39;, Russia, 603001",177
4694686,"Mel&#39;nichnyy Pereulok, 7?, Nizhnij Novgorod, Nizhegorodskaya oblast &#39;, Russia, 603001",177
4715461,"Metallurgicheskaya ul., 106/1, Rostov, Rostovskaya oblast', Russia, 344000",177
4712693,"Metallurgicheskaya Ulitsa, 102/2, Rostov, Rostovskaya oblast', Russia, 344029",177
4713023,"Metallurgicheskaya Ulitsa, 102/2, Rostov, Rostovskaya oblast', Russia, 344029",177
4713803,"Metallurgicheskaya Ulitsa, 102/2, Rostov, Rostovskaya oblast', Russia, 344029",177
4714342,"Metallurgicheskaya Ulitsa, 107, Rostov, Rostovskaya oblast', Russia, 344029",177
4715383,"Metallurgicheskaya Ulitsa, 110B, Rostov, Rostovskaya oblast &#39;, Russia, 344029",177
4715667,"Metallurgicheskaya Ulitsa, 112, 101 ????, 1 ????, Rostov, Rostovskaya oblast', Russia, 344029",177
4712689,"Metallurgicheskaya Ulitsa, 112, Rostov, Rostovskaya oblast', Russia, 344029",177
4713976,"Metallurgicheskaya Ulitsa, 113, Rostov, Rostovskaya oblast &#39;, Russia, 344029",177
4714406,"Metallurgicheskaya Ulitsa, 117/62, Rostov, Rostovskaya oblast', Russia, 344029",177
4694142,"Metro Bridge, Nizhnij Novgorod, Nizhegorodskaya oblast &#39;, Russia, 603001",177
4694145,"Metro Bridge, Nizhnij Novgorod, Nizhegorodskaya oblast &#39;, Russia, 603002",177
5688799,"METRO Cash & Carry, ???. ?????????, 3?, ?????? ????????, ????????????? ???., 603070",177
5688938,"Metro Cash & Carry, ??. ???????, 4-?, ?????? ????????, ????????????? ???., 603057",177
4714662,"Mezhdunarodnaya Ulitsa, 14, Rostov, Rostovskaya oblast', Russia, 344000",177
4715416,"Mezhdunarodnaya Ulitsa, 23, Rostov, Rostovskaya oblast', Russia, 344004",177
4722878,"Mezhdunarodnaya Ulitsa, 3, Rostov, Rostovskaya oblast &#39;, Russia, 344004",177
4713173,"Mezhdunarodnaya Ulitsa, 7?, Rostov, Rostovskaya oblast &#39;, Russia, 344004",177
4714672,"Mezhevaya Ulitsa, 119, Rostov, Rostovskaya oblast', Russia, 344003",177
4722922,"Mikhail Nagibin Ave., 32-2, Rostov, Rostovskaya oblast &#39;, Russia, 344038",177
4715838,"Mikrorayon Severnyy Massiv, 5, Bataysk, Rostovskaya oblast', Russia, 346880",177
4716486,"Mikrorayon Severnyy Massiv, 7, Bataysk, Rostovskaya oblast', Russia, 346885",177
4714187,"Mikrorayon Severnyy Massiv, 7?, Bataysk, Rostovskaya oblast &#39;, Russia, 346880",177
4693952,"Minin and Pozharsky Square, 1, Nizhnij Novgorod, Nizhegorodskaya oblast', Russia, 603005",177
4695244,"Minin and Pozharsky Square, 2, Nizhnij Novgorod, Nizhegorodskaya oblast &#39;, Russia, 603005",177
4695502,"Minin and Pozharsky Square, 2, Nizhnij Novgorod, Nizhegorodskaya oblast &#39;, Russia, 603005",177
4693644,"Minin and Pozharsky Square, 2/2, Nizhnij Novgorod, Nizhegorodskaya oblast &#39;, Russia, 603005",177
4693646,"Minin and Pozharsky Square, 2/2, Nizhnij Novgorod, Nizhegorodskaya oblast &#39;, Russia, 603005",177
4695647,"Minin and Pozharsky Square, 5, Nizhnij Novgorod, Nizhegorodskaya oblast &#39;, Russia, 603005",177
4695666,"Minin and Pozharsky Square, Nizhnij Novgorod, Nizhegorodskaya oblast &#39;, Russia, 603005",177
4695947,"Minin and Pozharsky Square, Nizhnij Novgorod, Nizhegorodskaya oblast', Russia, 603005",177
4722884,"Mira, 4, Azov, Rostov region, Russia",177
3438105,"MKAD 71 km, Krasnogorskiy, Russia, 143441",177
3401651,"Moika River Emb., 47, Cfyrn-Gtnth, ehu, Russia, 190000",177
4694141,"Molitovsky Bridge, Nizhnij Novgorod, Nizhegorodskaya oblast &#39;, Russia, 603132",177
4695759,"Molodezhny pr., 31-a, Nizhnij Novgorod, Nizhegorodskaya oblast &#39;, Russia, 603004",177
4696754,"Molodezhnyy Prospekt, 1, ?. ????????, Nizhegorodskaya oblast', Russia, 603041",177
4694711,"Molodezhnyy Prospekt, 12 ?, N. Novgorod, Nizhegorodskaya oblast &#39;, Russia, 603004",177
4696204,"Molodezhnyy Prospekt, 17, Nizhnij Novgorod, Nizhegorodskaya oblast', Russia, 603041",177
4696207,"Molodezhnyy Prospekt, 31, Nizhnij Novgorod, Nizhegorodskaya oblast', Russia, 603101",177
4696209,"Molodezhnyy Prospekt, 31/1, Nizhnij Novgorod, Nizhegorodskaya oblast', Russia, 603101",177
4697145,"Molodezhnyy Prospekt, 31/2, Nizhnij Novgorod, Nizhegorodskaya oblast', Russia, 603101",177
4697374,"Molodezhnyy Prospekt, 31/5, Nizhnij Novgorod, Nizhegorodskaya oblast', Russia, 603101",177
4697375,"Molodezhnyy Prospekt, 31/5, Nizhnij Novgorod, Nizhegorodskaya oblast', Russia, 603101",177
4693734,"Molodezhnyy Prospekt, 39, Nizhnij Novgorod, Nizhegorodskaya oblast', Russia, 603142",177
4694559,"Molodezhnyy Prospekt, 39?, Nizhnij Novgorod, Nizhegorodskaya oblast', Russia, 603142",177
4695585,"Molodezhnyy Prospekt, 40, Nizhnij Novgorod, Nizhegorodskaya oblast &#39;, Russia, 603101",177
4695370,"Molodezhnyy Prospekt, 52, Nizhnij Novgorod, Nizhegorodskaya oblast', Russia, 603041",177
4695037,"Molodezhnyy Prospekt, 82, Nizhnij Novgorod, Nizhegorodskaya oblast', Russia, 603142",177
4753909,"Montazhnyy Proyezd, 2, Voronez, ??????????? ???, Russia, 394028",177
3423507,"Moskovskaya ul., 3, Khimki, Russia, 141400",177
4713411,"Moskovskaya Ulitsa, 12, Rostov, Rostovskaya oblast', Russia, 344002",177
4714108,"Moskovskaya Ulitsa, 18, Novocherkassk, Rostovskaya oblast &#39;, Russia, 346400",177
4717813,"Moskovskaya Ulitsa, 19, Azov, Rostovskaya oblast &#39;, Russia, 346780",177
4722874,"Moskovskaya Ulitsa, 21, ground floor, Azov, Rostovskaya oblast &#39;, Russia, 346780",177
4714002,"Moskovskaya Ulitsa, 215, Bataysk, Rostovskaya oblast &#39;, Russia, 346880",177
4723371,"Moskovskaya Ulitsa, 235-?, Azov, Rostovskaya oblast', Russia, 346783",177
4722875,"Moskovskaya Ulitsa, 26, Rostov, Rostovskaya oblast &#39;, Russia, 344097",177
4714797,"Moskovskaya Ulitsa, 260, Azov, Rostovskaya oblast &#39;, Russia, 346783",177
4714009,"Moskovskaya Ulitsa, 292, Azov, Rostovskaya oblast &#39;, Russia, 346780",177
4723159,"Moskovskaya Ulitsa, 292, Azov, Rostovskaya oblast', Russia, 346783",177
4714010,"Moskovskaya Ulitsa, 31, Azov, Rostovskaya oblast &#39;, Russia, 346780",177
4716645,"Moskovskaya Ulitsa, 33, Rostov, Rostovskaya oblast', Russia, 344002",177
4714213,"Moskovskaya Ulitsa, 38/40, Azov, Rostovskaya oblast &#39;, Russia, 346780",177
4715021,"Moskovskaya Ulitsa, 43/13, Rostov, Rostovskaya oblast', Russia, 344002",177
4716716,"Moskovskaya Ulitsa, 43/13, Rostov, Rostovskaya oblast', Russia, 344018",177
4715113,"Moskovskaya Ulitsa, 48, Rostov, Rostovskaya oblast', Russia, 344082",177
4715111,"Moskovskaya Ulitsa, 49, Rostov, Rostovskaya oblast', Russia, 344002",177
4713834,"Moskovskaya Ulitsa, 50, Azov, Rostovskaya oblast', Russia, 346780",177
4713787,"Moskovskaya Ulitsa, 50, Rostov, Rostovskaya oblast &#39;, Russia, 344002",177
4714455,"Moskovskaya Ulitsa, 52-54, Rostov, Rostovskaya oblast', Russia, 344002",177
4716712,"Moskovskaya Ulitsa, 52/54, Rostov, Rostovskaya oblast', Russia, 344002",177
4722796,"Moskovskaya Ulitsa, 55?, Rostov, Rostovskaya oblast', Russia, 344002",177
4716882,"Moskovskaya Ulitsa, 56/58, Rostov, Rostovskaya oblast', Russia, 344002",177
4716839,"Moskovskaya Ulitsa, 58-?, 5 ????, 3 ????, Rostov, Rostovskaya oblast', Russia, 344002",177
4722996,"Moskovskaya Ulitsa, 60, Azov, Rostovskaya oblast', Russia, 346780",177
4716838,"Moskovskaya Ulitsa, 61, Rostov, Rostovskaya oblast', Russia, 344002",177
4712997,"Moskovskaya Ulitsa, 63, Rostov, Rostovskaya oblast', Russia, 344002",177
4716715,"Moskovskaya Ulitsa, 63, Rostov, Rostovskaya oblast', Russia, 344002",177
4716840,"Moskovskaya Ulitsa, 63, Rostov, Rostovskaya oblast', Russia, 344002",177
4716743,"Moskovskaya Ulitsa, 63, Rostov, Rostovskaya oblast', Russia, 344018",177
4716835,"Moskovskaya Ulitsa, 63, ???? 29, Rostov, Rostovskaya oblast', Russia, 344018",177
4714279,"Moskovskaya Ulitsa, 64, Rostov, Rostovskaya oblast &#39;, Russia, 344002",177
4716717,"Moskovskaya Ulitsa, 71, Rostov, Rostovskaya oblast', Russia, 344018",177
4716837,"Moskovskaya Ulitsa, 71, Rostov, Rostovskaya oblast', Russia, 344018",177
4714965,"Moskovskaya Ulitsa, 73, Rostov, Rostovskaya oblast', Russia, 344002",177
4715020,"Moskovskaya Ulitsa, 73/29, Rostov, Rostovskaya oblast', Russia, 344018",177
4715106,"Moskovskaya Ulitsa, 76, Rostov, Rostovskaya oblast', Russia, 344002",177
4713791,"Moskovskaya Ulitsa, Rostov, Rostovskaya oblast &#39;, Russia, 344002",177
4714092,"Moskovskaya, Rostovskaya oblast &#39;, Russia, 344114",177
4756147,"Moskovskiy Prospekt, 42, Voronez, ???????????, Russia, 394000",177
4769859,"Moskovskiy Prospekt, 80, Voronez, ??????????? ???, Russia, 111111",177
4727066,"Moskovskoye Shosse (18 Km), 25, ?.??????, Samarskaya oblast', Russia, 443072",177
4721549,"Moskovskoye Shosse, 106?, Nizhnij Novgorod, Nizhegorodskaya oblast', Russia, 603079",177
4721774,"Moskovskoye Shosse, 12, 2 ????, ????? ???, Nizhnij Novgorod, Nizhegorodskaya oblast', Russia, 603028",177
4722048,"Moskovskoye Shosse, 12, 3 ????, ??? ???, Nizhnij Novgorod, Nizhegorodskaya oblast', Russia, 603028",177
4695377,"Moskovskoye Shosse, 12, Nizhnij Novgorod, Nizhegorodskaya oblast &#39;, Russia, 603010",177
4696788,"Moskovskoye Shosse, 12, Nizhnij Novgorod, Nizhegorodskaya oblast &#39;, Russia, 603010",177
4697474,"Moskovskoye Shosse, 12, Nizhnij Novgorod, Nizhegorodskaya oblast &#39;, Russia, 603010",177
4721144,"Moskovskoye Shosse, 12, Nizhnij Novgorod, Nizhegorodskaya oblast &#39;, Russia, 603010",177
4721145,"Moskovskoye Shosse, 12, Nizhnij Novgorod, Nizhegorodskaya oblast &#39;, Russia, 603010",177
4721147,"Moskovskoye Shosse, 12, Nizhnij Novgorod, Nizhegorodskaya oblast &#39;, Russia, 603010",177
4720999,"Moskovskoye Shosse, 12, Nizhnij Novgorod, Nizhegorodskaya oblast', Russia, 603010",177
4721055,"Moskovskoye Shosse, 12, Nizhnij Novgorod, Nizhegorodskaya oblast', Russia, 603010",177
4721764,"Moskovskoye Shosse, 12, Nizhnij Novgorod, Nizhegorodskaya oblast', Russia, 603010",177
4721767,"Moskovskoye Shosse, 12, Nizhnij Novgorod, Nizhegorodskaya oblast', Russia, 603010",177
4721811,"Moskovskoye Shosse, 12, Nizhnij Novgorod, Nizhegorodskaya oblast', Russia, 603010",177
4722050,"Moskovskoye Shosse, 12, Nizhnij Novgorod, Nizhegorodskaya oblast', Russia, 603010",177
4694133,"Moskovskoye Shosse, 12, Nizhnij Novgorod, Nizhegorodskaya oblast', Russia, 603116",177
