5678433,"354/356 Great Eastern Hwy, Midland WA 6056",266
5678434,"2/226 Great Eastern Hwy, Midland WA 6056",266
5678441,"97/789 Albany Hwy, East Victoria Park WA 6101",266
5678461,"303 Great Eastern Hwy, Midland WA 6056",266
5678488,"1 Leonard St, Victoria Park WA 6100",266
5678508,"Champion Drive Shopping Centre, 10A Champion Dr, Seville Grove WA 6112",266
5678518,"Shepperton Rd, Victoria Park WA 6100",266
5678521,"834 Albany Hwy, East Victoria Park WA 6101",266
5678533,"213 Kent St, Karawara WA 6152",266
5678542,"39a/1140 Albany Hwy, Bentley WA 6102",266
5678544,"2/786 Albany Hwy, East Victoria Park WA 6101",266
5678545,"610 Albany Hwy, Victoria Park WA 6100",266
5678546,"912 Albany Hwy, East Victoria Park WA 6101",266
5678547,"393 Albany Hwy, Victoria Park WA 6100",266
5678554,"2/11 Exchange Rd, Malaga WA 6090",266
5678557,"St Quentins, 20 Saint Quentin Avenue, Claremont WA 6010",266
5678571,"1/18 Welwyn Ave, Manning WA 6152",266
5678573,"Shop7 Waterford Plaza Cnr Manning Rd & Kent St, Karawara WA 6152",266
5678578,"222 Manning Rd, Karawara WA 6152",266
5678579,"48/37 Walanna Dr, Karawara WA 6152",266
5678583,"347 Shepperton Rd, East Victoria Park WA 6101",266
5678593,"64 Dowd St, Welshpool WA 6106",266
5678595,"U 1 73-75 Poole St, Welshpool WA 6106",266
5678598,"43 Tennant St, Welshpool WA 6106",266
5678606,"36 John St, Bentley WA 6102",266
5678617,"35 Merrivale Rd, Pickering Brook WA 6076",266
5678658,"255 Walnut Rd, Bickley WA 6076",266
5678662,"1/8 Simms Rd, Hamilton Hill WA 6163",266
5678680,"1061 Thomas Rd, Anketell WA 6167",266
5678723,"639 Beach Rd, Warwick WA 6024",266
5678767,"359 Albany Hwy, Victoria Park WA 6100",266
5678782,"6/14 Cockburn Rd, Hamilton Hill WA 6163",266
5678798,"1020 Albany Hwy, East Victoria Park WA 6101",266
5678818,"12/82 Champion Dr, Seville Grove WA 6112",266
5679719,"20 Egmont Rd, Henderson WA 6166",266
5679720,"Shop 56a Kwinana Market Pl, Kwinana Town Centre WA 6167",266
5679722,"Kwinana Beach Rd, Kwinana Beach WA 6167",266
5679755,"10/19 Pace Rd, Medina WA 6167",266
5679757,"26 Paterson St, Mundijong WA 6123",266
5679769,"58 Meares Ave, Kwinana Town Centre WA 6167",266
5679773,"4 Chisham Ave, Kwinana Town Centre WA 6167",266
5679775,"177 Kwinana Beach Rd, Kwinana Beach WA 6167",266
5679790,"886 Albany Hwy, East Victoria Park WA 6101",266
5679798,"7/40 Meares Ave, Kwinana Beach WA 6167",266
5679815,"Shop 1/6 Chisham Ave, Kwinana Town Centre WA 6167",266
5679823,"28 Paterson St, Mundijong WA 6123",266
5679849,"2/6 Chisham Ave, Kwinana Town Centre WA 6167",266
5679970,"30 Weston St, Naval Base WA 6165",266
5755021,"Sand St, Douglas, Barbados",266
5755029,"Queen's St, Douglas, Barbados",266
5758774,"228 Haywood Park Speightstown barbados, Douglas, Barbados",266
5770537,"Hauptstrasse 12A, 66482 Zweibrücken, Germany",266
