796228,"5141 Ase Rd, Kwazakele 3, Port, 6205, South Africa",273
796671,"It happened 3, Port, 6205, South Africa",273
796673,"5018 Gaika St, Kwazakele 3, Port, 6205, South Africa",273
796674,"79 Booi St, Zwide 3, Port, 6205, South Africa",273
796678,"Experience 1, Port, 6205, South Africa",273
811054,"Corner Old Cape Way &amp; Buller Louw Drive, Sun Valley, 7975, South Africa",273
