3463113,"Kikuyu, Kenya",280
3463365,"Next To Mary's Salon, Kangawa Road, Vet, Ngong, Kenya",280
3463769,"Kibiku Forest, Kenya",280
3464759,"Kajiado, Kenya",280
3464971,"ooalalua pond, Kenya",280
3464986,"Kandisi River Dam, Kenya",280
3465344,"Ngong Rd, Ngong, Kenya",280
3465614,"Lamu Road, P. O Box No. 38714, Kenya",280
3465873,Kenya,280
3466148,"Next To Ideal Flats Rongai, Magadi Rd, Kenya",280
3467552,"Banana Hill, Kenya",280
3467760,"Seasonal River, Kenya",280
3467763,Kenya,280
3468308,Kenya,280
