442350,Japan,107
442351,Japan,107
442352,Japan,107
442353,Japan,107
442354,Japan,107
442355,Japan,107
442356,Japan,107
442357,Japan,107
442358,Japan,107
442359,Japan,107
442360,Japan,107
442361,Japan,107
442362,Japan,107
442363,Japan,107
442364,Japan,107
442366,Japan,107
442367,Japan,107
442368,Japan,107
442369,Japan,107
442370,Japan,107
442371,Japan,107
442372,Japan,107
442373,Japan,107
442443,Japan,107
442444,Japan,107
442445,Japan,107
442446,Japan,107
442448,Japan,107
442449,Japan,107
442450,Japan,107
442451,Japan,107
442452,Japan,107
442453,Japan,107
442604,Japan,107
442996,Japan,107
443030,Japan,107
443060,Japan,107
443271,Japan,107
443275,Japan,107
443277,Japan,107
443284,Japan,107
443290,Japan,107
443304,Japan,107
443313,Japan,107
443318,Japan,107
443319,Japan,107
443321,Japan,107
443322,Japan,107
443328,Japan,107
443372,Japan,107
443375,Japan,107
443461,Japan,107
443465,Japan,107
443468,Japan,107
443470,Japan,107
443471,Japan,107
443473,Japan,107
443527,Japan,107
443591,Japan,107
443592,Japan,107
443593,Japan,107
443594,Japan,107
443595,Japan,107
443596,Japan,107
443597,Japan,107
443598,Japan,107
443599,Japan,107
443600,Japan,107
443601,Japan,107
443602,Japan,107
443603,Japan,107
443604,Japan,107
443605,Japan,107
443606,Japan,107
443607,Japan,107
443608,Japan,107
443610,Japan,107
443611,Japan,107
443612,Japan,107
443613,Japan,107
443614,Japan,107
443615,Japan,107
443616,Japan,107
443617,Japan,107
443618,Japan,107
443619,Japan,107
443620,Japan,107
443621,Japan,107
443622,Japan,107
443623,Japan,107
443624,Japan,107
443625,Japan,107
443626,Japan,107
443627,Japan,107
443629,Japan,107
443630,Japan,107
443631,Japan,107
443632,Japan,107
443633,Japan,107
443634,Japan,107
443635,Japan,107
443636,Japan,107
443637,Japan,107
443638,Japan,107
443639,Japan,107
443640,Japan,107
443641,Japan,107
443642,Japan,107
443643,Japan,107
443644,Japan,107
443645,Japan,107
443646,Japan,107
443647,Japan,107
443648,Japan,107
443649,Japan,107
443650,Japan,107
443651,Japan,107
443652,Japan,107
443653,Japan,107
443654,Japan,107
443655,Japan,107
443656,Japan,107
443657,Japan,107
443658,Japan,107
443659,Japan,107
443660,Japan,107
443661,Japan,107
443662,Japan,107
443666,Japan,107
443670,Japan,107
443671,Japan,107
443672,Japan,107
443682,Japan,107
443685,Japan,107
443687,Japan,107
443690,Japan,107
443691,Japan,107
443692,Japan,107
443693,Japan,107
443694,Japan,107
443695,Japan,107
443696,Japan,107
443705,Japan,107
443706,Japan,107
443819,Japan,107
443978,Japan,107
444115,Japan,107
444314,Japan,107
444315,Japan,107
444316,Japan,107
444317,Japan,107
444318,Japan,107
444319,Japan,107
444325,Japan,107
444327,Japan,107
444329,Japan,107
444330,Japan,107
444331,Japan,107
444333,Japan,107
444334,Japan,107
444335,Japan,107
444336,Japan,107
444337,Japan,107
444338,Japan,107
444529,Japan,107
445060,Japan,107
445699,Japan,107
445702,Japan,107
446363,Japan,107
446995,Japan,107
447358,Japan,107
447359,Japan,107
447360,Japan,107
447362,Japan,107
447364,Japan,107
447365,Japan,107
447366,Japan,107
447370,Japan,107
447371,Japan,107
447372,Japan,107
447373,Japan,107
447377,Japan,107
447380,Japan,107
447382,Japan,107
447384,Japan,107
447385,Japan,107
447455,Japan,107
447614,Japan,107
447666,Japan,107
447990,Japan,107
448307,Japan,107
448311,Japan,107
448737,Japan,107
448752,Japan,107
448763,Japan,107
448764,Japan,107
448765,Japan,107
448766,Japan,107
448767,Japan,107
448768,Japan,107
448770,Japan,107
448771,Japan,107
448785,Japan,107
448795,Japan,107
448801,Japan,107
448805,Japan,107
448868,Japan,107
448909,Japan,107
449087,Japan,107
449088,Japan,107
449089,Japan,107
449090,Japan,107
449091,Japan,107
449092,Japan,107
449093,Japan,107
449094,Japan,107
449095,Japan,107
449096,Japan,107
449102,Japan,107
449300,Japan,107
449845,Japan,107
450294,Japan,107
450295,Japan,107
450311,Japan,107
450415,Japan,107
450416,Japan,107
450417,Japan,107
450418,Japan,107
450421,Japan,107
450422,Japan,107
450423,Japan,107
450461,Japan,107
450465,Japan,107
450477,Japan,107
450506,Japan,107
450507,Japan,107
450508,Japan,107
450509,Japan,107
450510,Japan,107
450511,Japan,107
450512,Japan,107
450513,Japan,107
450514,Japan,107
450515,Japan,107
450516,Japan,107
450517,Japan,107
450518,Japan,107
450520,Japan,107
450521,Japan,107
450522,Japan,107
450523,Japan,107
450524,Japan,107
450525,Japan,107
450526,Japan,107
450527,Japan,107
450529,Japan,107
450531,Japan,107
450532,Japan,107
450533,Japan,107
450534,Japan,107
450535,Japan,107
450536,Japan,107
450537,Japan,107
450538,Japan,107
450539,Japan,107
450540,Japan,107
450541,Japan,107
450542,Japan,107
450543,Japan,107
450564,Japan,107
450565,Japan,107
450566,Japan,107
450567,Japan,107
450568,Japan,107
450569,Japan,107
450570,Japan,107
450571,Japan,107
450582,Japan,107
450644,Japan,107
450645,Japan,107
450646,Japan,107
450647,Japan,107
450736,Japan,107
450737,Japan,107
450738,Japan,107
450739,Japan,107
450740,Japan,107
450741,Japan,107
450742,Japan,107
450743,Japan,107
450744,Japan,107
450745,Japan,107
450746,Japan,107
450747,Japan,107
450748,Japan,107
450749,Japan,107
450750,Japan,107
450757,Japan,107
450758,Japan,107
450760,Japan,107
450761,Japan,107
450762,Japan,107
450763,Japan,107
450764,Japan,107
450765,Japan,107
450766,Japan,107
450767,Japan,107
450768,Japan,107
450769,Japan,107
450770,Japan,107
450771,Japan,107
450772,Japan,107
450773,Japan,107
450774,Japan,107
450775,Japan,107
450776,Japan,107
450777,Japan,107
450778,Japan,107
450779,Japan,107
450780,Japan,107
450781,Japan,107
450782,Japan,107
450783,Japan,107
450784,Japan,107
450785,Japan,107
450786,Japan,107
450816,Japan,107
450817,Japan,107
450818,Japan,107
450819,Japan,107
450820,Japan,107
450821,Japan,107
450822,Japan,107
450823,Japan,107
450824,Japan,107
450825,Japan,107
450826,Japan,107
450827,Japan,107
450828,Japan,107
450830,Japan,107
450832,Japan,107
450833,Japan,107
450834,Japan,107
450835,Japan,107
450837,Japan,107
450838,Japan,107
450923,Japan,107
452233,Japan,107
452514,Japan,107
452581,Japan,107
452596,Japan,107
452599,Japan,107
452638,Japan,107
452639,Japan,107
452640,Japan,107
452641,Japan,107
452642,Japan,107
452759,Japan,107
452765,Japan,107
452771,Japan,107
452779,Japan,107
452781,Japan,107
452793,Japan,107
452798,Japan,107
452799,Japan,107
452837,Japan,107
452838,Japan,107
452840,Japan,107
452841,Japan,107
452842,Japan,107
452843,Japan,107
452846,Japan,107
452847,Japan,107
452848,Japan,107
452849,Japan,107
452850,Japan,107
452852,Japan,107
452853,Japan,107
452855,Japan,107
452856,Japan,107
452857,Japan,107
452859,Japan,107
452860,Japan,107
452861,Japan,107
452862,Japan,107
452863,Japan,107
452864,Japan,107
452868,Japan,107
452869,Japan,107
452870,Japan,107
452871,Japan,107
452872,Japan,107
452873,Japan,107
452874,Japan,107
452875,Japan,107
452876,Japan,107
452880,Japan,107
452881,Japan,107
452882,Japan,107
452883,Japan,107
452886,Japan,107
452887,Japan,107
452888,Japan,107
452890,Japan,107
452891,Japan,107
452892,Japan,107
452893,Japan,107
452905,Japan,107
452915,Japan,107
453003,Japan,107
453008,Japan,107
453052,Japan,107
453053,Japan,107
453054,Japan,107
453055,Japan,107
453056,Japan,107
453057,Japan,107
453058,Japan,107
453059,Japan,107
453060,Japan,107
453061,Japan,107
453062,Japan,107
453063,Japan,107
453064,Japan,107
453065,Japan,107
453066,Japan,107
453067,Japan,107
453068,Japan,107
453069,Japan,107
453070,Japan,107
453071,Japan,107
453072,Japan,107
453073,Japan,107
453074,Japan,107
453075,Japan,107
453076,Japan,107
453077,Japan,107
453078,Japan,107
453079,Japan,107
453080,Japan,107
453081,Japan,107
453082,Japan,107
453083,Japan,107
453084,Japan,107
453085,Japan,107
453086,Japan,107
453087,Japan,107
453088,Japan,107
453089,Japan,107
453090,Japan,107
453091,Japan,107
453093,Japan,107
453094,Japan,107
453095,Japan,107
453096,Japan,107
453097,Japan,107
453098,Japan,107
453099,Japan,107
453100,Japan,107
453101,Japan,107
453102,Japan,107
453103,Japan,107
453254,Japan,107
453255,Japan,107
453256,Japan,107
453257,Japan,107
453377,Japan,107
453514,Japan,107
453527,Japan,107
453897,Japan,107
454075,Japan,107
454104,Japan,107
454717,Japan,107
454739,Japan,107
454762,Japan,107
454994,Japan,107
455104,Japan,107
455159,Japan,107
455211,Japan,107
455216,Japan,107
455242,Japan,107
455246,Japan,107
455251,Japan,107
455274,Japan,107
455392,Japan,107
455393,Japan,107
455394,Japan,107
455395,Japan,107
455397,Japan,107
455399,Japan,107
455403,Japan,107
455407,Japan,107
455411,Japan,107
455412,Japan,107
455413,Japan,107
455414,Japan,107
455415,Japan,107
455417,Japan,107
455418,Japan,107
455419,Japan,107
455420,Japan,107
455422,Japan,107
455423,Japan,107
455425,Japan,107
455426,Japan,107
455427,Japan,107
455428,Japan,107
455429,Japan,107
455430,Japan,107
455449,Japan,107
455547,Japan,107
455808,Japan,107
455823,Japan,107
455824,Japan,107
455881,Japan,107
455882,Japan,107
455884,Japan,107
455885,Japan,107
455886,Japan,107
455888,Japan,107
455889,Japan,107
455987,Japan,107
456055,Japan,107
456111,Japan,107
456306,Japan,107
456350,Japan,107
456390,Japan,107
456448,Japan,107
456450,Japan,107
456451,Japan,107
456452,Japan,107
456458,Japan,107
456490,Japan,107
456491,Japan,107
456492,Japan,107
456550,Japan,107
456551,Japan,107
456552,Japan,107
456553,Japan,107
456554,Japan,107
456555,Japan,107
456556,Japan,107
456558,Japan,107
456559,Japan,107
456561,Japan,107
457325,Japan,107
457342,Japan,107
457423,Japan,107
457432,Japan,107
457471,Japan,107
457508,Japan,107
457509,Japan,107
457510,Japan,107
457511,Japan,107
457566,Japan,107
457568,Japan,107
457569,Japan,107
457589,Japan,107
457602,Japan,107
457603,Japan,107
457604,Japan,107
457608,Japan,107
457828,Japan,107
458086,Japan,107
458087,Japan,107
458088,Japan,107
458089,Japan,107
458091,Japan,107
458092,Japan,107
458093,Japan,107
458094,Japan,107
458095,Japan,107
458096,Japan,107
458098,Japan,107
458100,Japan,107
458101,Japan,107
458103,Japan,107
458105,Japan,107
458108,Japan,107
458110,Japan,107
458111,Japan,107
458113,Japan,107
458114,Japan,107
458420,Japan,107
458569,Japan,107
458628,Japan,107
458631,Japan,107
458632,Japan,107
458634,Japan,107
458635,Japan,107
458636,Japan,107
458637,Japan,107
458639,Japan,107
458640,Japan,107
458641,Japan,107
458642,Japan,107
458644,Japan,107
458645,Japan,107
458646,Japan,107
458649,Japan,107
458650,Japan,107
458651,Japan,107
458652,Japan,107
458653,Japan,107
458654,Japan,107
458656,Japan,107
458658,Japan,107
458659,Japan,107
458660,Japan,107
458661,Japan,107
458662,Japan,107
458663,Japan,107
458664,Japan,107
458666,Japan,107
458667,Japan,107
458668,Japan,107
458705,Japan,107
458719,Japan,107
458720,Japan,107
458721,Japan,107
458722,Japan,107
458723,Japan,107
458724,Japan,107
458725,Japan,107
458726,Japan,107
458727,Japan,107
458728,Japan,107
458729,Japan,107
458836,Japan,107
458837,Japan,107
458839,Japan,107
458908,Japan,107
458960,Japan,107
458969,Japan,107
458970,Japan,107
458971,Japan,107
458972,Japan,107
458977,Japan,107
458982,Japan,107
458984,Japan,107
458985,Japan,107
458986,Japan,107
458987,Japan,107
458988,Japan,107
458989,Japan,107
458993,Japan,107
458994,Japan,107
458995,Japan,107
458996,Japan,107
458997,Japan,107
458998,Japan,107
458999,Japan,107
459000,Japan,107
459001,Japan,107
459002,Japan,107
459003,Japan,107
459004,Japan,107
459005,Japan,107
459006,Japan,107
459007,Japan,107
459008,Japan,107
459009,Japan,107
459094,Japan,107
459095,Japan,107
459096,Japan,107
459097,Japan,107
459099,Japan,107
459100,Japan,107
459101,Japan,107
459102,Japan,107
459103,Japan,107
459104,Japan,107
459105,Japan,107
459106,Japan,107
459107,Japan,107
459108,Japan,107
459109,Japan,107
459110,Japan,107
459111,Japan,107
459319,Japan,107
459320,Japan,107
459321,Japan,107
459322,Japan,107
459323,Japan,107
459324,Japan,107
459325,Japan,107
459326,Japan,107
459327,Japan,107
459328,Japan,107
459329,Japan,107
459330,Japan,107
459331,Japan,107
459332,Japan,107
459333,Japan,107
459334,Japan,107
459422,Japan,107
459423,Japan,107
459424,Japan,107
459425,Japan,107
459426,Japan,107
459427,Japan,107
459428,Japan,107
459429,Japan,107
459430,Japan,107
459431,Japan,107
459432,Japan,107
459433,Japan,107
459434,Japan,107
459435,Japan,107
459436,Japan,107
459437,Japan,107
459439,Japan,107
459440,Japan,107
459499,Japan,107
459532,Japan,107
459688,Japan,107
459691,Japan,107
459731,Japan,107
459847,Japan,107
459851,Japan,107
459929,Japan,107
460546,Japan,107
460547,Japan,107
460548,Japan,107
460551,Japan,107
460629,Japan,107
460722,Japan,107
460723,Japan,107
461253,Japan,107
461254,Japan,107
461255,Japan,107
461256,Japan,107
461257,Japan,107
461398,Japan,107
461399,Japan,107
461400,Japan,107
461401,Japan,107
461585,Japan,107
461597,Japan,107
461802,Japan,107
462135,Japan,107
462168,Japan,107
462169,Japan,107
462170,Japan,107
462171,Japan,107
462172,Japan,107
462173,Japan,107
462620,Japan,107
462650,Japan,107
462651,Japan,107
462652,Japan,107
462653,Japan,107
475012,Japan,107
475091,Japan,107
475092,Japan,107
475093,Japan,107
475095,Japan,107
475096,Japan,107
475097,Japan,107
475098,Japan,107
475099,Japan,107
475100,Japan,107
475101,Japan,107
475102,Japan,107
475129,Japan,107
475147,Japan,107
475148,Japan,107
475149,Japan,107
475150,Japan,107
475151,Japan,107
475152,Japan,107
475153,Japan,107
475158,Japan,107
475160,Japan,107
475161,Japan,107
475162,Japan,107
475163,Japan,107
475164,Japan,107
475165,Japan,107
475166,Japan,107
475167,Japan,107
475168,Japan,107
475169,Japan,107
475170,Japan,107
475171,Japan,107
475172,Japan,107
475173,Japan,107
475174,Japan,107
475175,Japan,107
475176,Japan,107
475177,Japan,107
475178,Japan,107
475179,Japan,107
475180,Japan,107
475181,Japan,107
475182,Japan,107
475183,Japan,107
475184,Japan,107
475185,Japan,107
475186,Japan,107
475187,Japan,107
475188,Japan,107
475189,Japan,107
475190,Japan,107
475191,Japan,107
475192,Japan,107
475193,Japan,107
475194,Japan,107
475195,Japan,107
475196,Japan,107
475197,Japan,107
475198,Japan,107
475199,Japan,107
475200,Japan,107
475201,Japan,107
475202,Japan,107
475203,Japan,107
475204,Japan,107
475254,Japan,107
475255,Japan,107
475256,Japan,107
475257,Japan,107
475258,Japan,107
475259,Japan,107
475260,Japan,107
475261,Japan,107
475262,Japan,107
475263,Japan,107
475264,Japan,107
475265,Japan,107
475266,Japan,107
475267,Japan,107
475268,Japan,107
475269,Japan,107
475270,Japan,107
475271,Japan,107
475272,Japan,107
475273,Japan,107
475274,Japan,107
475275,Japan,107
475276,Japan,107
475277,Japan,107
475278,Japan,107
475279,Japan,107
475280,Japan,107
475362,Japan,107
475363,Japan,107
475364,Japan,107
475365,Japan,107
475366,Japan,107
475367,Japan,107
475368,Japan,107
475369,Japan,107
475370,Japan,107
475371,Japan,107
475372,Japan,107
475373,Japan,107
475374,Japan,107
475375,Japan,107
475376,Japan,107
475377,Japan,107
475378,Japan,107
475379,Japan,107
475380,Japan,107
475381,Japan,107
475382,Japan,107
475383,Japan,107
475384,Japan,107
475385,Japan,107
475651,Japan,107
475731,Japan,107
475769,Japan,107
475780,Japan,107
475791,Japan,107
475792,Japan,107
475819,Japan,107
475829,Japan,107
475876,Japan,107
475902,Japan,107
475906,Japan,107
476054,Japan,107
476080,Japan,107
476191,Japan,107
476415,Japan,107
476482,Japan,107
476552,Japan,107
476594,Japan,107
476625,Japan,107
476626,Japan,107
476627,Japan,107
476628,Japan,107
476629,Japan,107
476630,Japan,107
476631,Japan,107
476668,Japan,107
477068,Japan,107
477086,Japan,107
477087,Japan,107
477088,Japan,107
477089,Japan,107
477090,Japan,107
477091,Japan,107
477092,Japan,107
477093,Japan,107
477094,Japan,107
477095,Japan,107
477186,Japan,107
477261,Japan,107
477321,Japan,107
477360,Japan,107
477364,Japan,107
477365,Japan,107
477436,Japan,107
477449,Japan,107
477450,Japan,107
477451,Japan,107
477452,Japan,107
477455,Japan,107
477456,Japan,107
477459,Japan,107
477479,Japan,107
477523,Japan,107
477528,Japan,107
477529,Japan,107
477725,Japan,107
477776,Japan,107
477777,Japan,107
477779,Japan,107
477780,Japan,107
477781,Japan,107
477782,Japan,107
477783,Japan,107
477784,Japan,107
477785,Japan,107
477786,Japan,107
477787,Japan,107
477788,Japan,107
477790,Japan,107
477791,Japan,107
477792,Japan,107
477793,Japan,107
477794,Japan,107
477795,Japan,107
477796,Japan,107
477797,Japan,107
477798,Japan,107
477799,Japan,107
477800,Japan,107
477801,Japan,107
477802,Japan,107
477803,Japan,107
477804,Japan,107
477805,Japan,107
477806,Japan,107
477807,Japan,107
477808,Japan,107
477809,Japan,107
477810,Japan,107
477811,Japan,107
477812,Japan,107
477813,Japan,107
477814,Japan,107
477815,Japan,107
477816,Japan,107
477817,Japan,107
477818,Japan,107
477819,Japan,107
477820,Japan,107
477821,Japan,107
477822,Japan,107
477823,Japan,107
477824,Japan,107
477825,Japan,107
477826,Japan,107
477947,Japan,107
477948,Japan,107
478294,Japan,107
478886,Japan,107
478887,Japan,107
478888,Japan,107
478889,Japan,107
478890,Japan,107
478891,Japan,107
478892,Japan,107
478893,Japan,107
478895,Japan,107
478897,Japan,107
478898,Japan,107
478899,Japan,107
478901,Japan,107
478902,Japan,107
478903,Japan,107
478904,Japan,107
478905,Japan,107
478906,Japan,107
478907,Japan,107
478908,Japan,107
478909,Japan,107
478910,Japan,107
478911,Japan,107
