<svg xmlns="http://www.w3.org/2000/svg" width="17.313" height="17.344" viewBox="0 0 17.313 17.344">
  <defs>
    <style>
      .cls-1 {
        fill: #b3b3b3;
        fill-rule: evenodd;
      }
    </style>
  </defs>
  <path id="Forma_1" data-name="Forma 1" class="cls-1" d="M55,517.944a1.673,1.673,0,0,0-1.559.52L46.3,525.612a1.842,1.842,0,0,0,0,2.6l6.491,6.491a1.842,1.842,0,0,0,2.6,0l7.148-7.148a1.67,1.67,0,0,0,.52-1.559l-1.166-6.884Zm6.23,8.31L54.088,533.4,47.6,526.91l7.148-7.147,5.52,0.971Z" transform="translate(-45.781 -517.906)"/>
</svg>
