<?xml version="1.0" standalone="no"?>
<!DOCTYPE svg PUBLIC "-//W3C//DTD SVG 20010904//EN"
 "http://www.w3.org/TR/2001/REC-SVG-20010904/DTD/svg10.dtd">
<svg version="1.0" xmlns="http://www.w3.org/2000/svg"
 width="288.000000pt" height="288.000000pt" viewBox="0 0 288.000000 288.000000"
 preserveAspectRatio="xMidYMid meet">
<metadata>
Created by potrace 1.15, written by Peter Selinger 2001-2017
</metadata>
<g transform="translate(0.000000,288.000000) scale(0.100000,-0.100000)"
fill="#000000" stroke="none">
<path d="M1225 2863 c-201 -42 -363 -132 -516 -283 -161 -160 -246 -315 -291
-530 -26 -127 -21 -355 11 -474 l21 -79 -222 -386 c-222 -384 -223 -386 -226
-452 -5 -83 10 -130 57 -182 80 -89 161 -97 384 -37 81 22 153 40 160 40 7 0
28 -61 51 -147 48 -184 69 -235 114 -274 50 -44 92 -59 164 -59 73 0 136 25
177 69 15 16 94 146 177 290 82 143 151 260 154 260 3 0 72 -117 154 -260 83
-144 162 -274 177 -290 41 -44 104 -69 177 -69 72 0 114 15 164 59 45 39 66
90 114 274 23 85 44 147 51 147 6 0 81 -19 165 -41 170 -46 234 -51 300 -21
52 23 111 86 128 137 7 20 10 67 8 104 -3 66 -4 68 -226 452 l-222 386 21 79
c32 119 37 347 11 474 -45 215 -130 370 -291 530 -155 153 -318 242 -523 284
-99 20 -326 20 -423 -1z m414 -174 c258 -59 477 -238 591 -481 97 -208 108
-454 29 -669 l-20 -56 235 -409 c130 -225 236 -419 236 -432 0 -35 -16 -59
-47 -69 -23 -8 -73 3 -258 53 -126 35 -237 63 -246 64 -13 0 -30 -51 -79 -240
-40 -151 -70 -247 -82 -260 -12 -12 -32 -20 -53 -20 -44 0 -45 1 -244 347
l-161 282 20 33 c11 18 20 38 20 43 0 11 -122 85 -140 85 -18 0 -140 -74 -140
-85 0 -5 9 -25 20 -43 l20 -33 -161 -282 c-199 -346 -200 -347 -244 -347 -21
0 -41 8 -53 20 -12 13 -42 109 -82 260 -41 157 -67 240 -76 240 -7 0 -113 -27
-236 -60 -122 -33 -235 -60 -250 -60 -36 0 -68 32 -68 67 0 18 85 175 236 437
l235 409 -20 56 c-37 100 -51 182 -51 301 0 344 191 644 501 789 184 86 370
106 568 60z"/>
<path d="M1392 2393 c-7 -2 -43 -57 -81 -121 l-69 -117 -118 -30 c-142 -36
-164 -51 -164 -108 0 -37 9 -53 81 -142 l80 -100 -6 -143 c-7 -140 -7 -144 16
-168 34 -36 78 -31 202 22 l107 47 108 -47 c123 -53 167 -58 201 -22 23 24 23
28 16 168 l-6 143 80 100 c72 89 81 105 81 142 0 57 -22 72 -164 108 l-118 30
-69 116 c-37 64 -76 119 -84 123 -19 7 -74 7 -93 -1z m92 -317 c39 -69 38 -69
173 -103 l33 -8 -55 -69 -55 -69 7 -83 c3 -46 3 -84 -1 -84 -4 0 -38 13 -77
30 l-69 29 -69 -29 c-39 -17 -73 -30 -77 -30 -4 0 -4 38 -1 84 l7 83 -55 69
-55 69 33 8 c135 34 134 34 173 103 20 35 39 64 44 64 5 0 24 -29 44 -64z"/>
<path d="M659 1285 c-35 -25 -65 -50 -67 -55 -2 -6 47 -61 110 -122 127 -127
222 -190 367 -244 118 -45 167 -52 174 -28 16 57 28 137 20 144 -4 4 -30 13
-58 19 -135 32 -338 163 -426 275 -24 30 -46 55 -50 55 -3 1 -34 -19 -70 -44z"/>
<path d="M2101 1274 c-89 -114 -293 -244 -430 -276 -29 -6 -55 -17 -57 -23 -5
-13 21 -143 30 -153 4 -3 36 1 72 11 181 47 344 146 483 293 50 53 91 100 91
103 0 8 -131 101 -140 100 -3 0 -25 -25 -49 -55z"/>
</g>
</svg>
