<?xml version="1.0" encoding="utf-8"?>
<!-- Generator: Adobe Illustrator 21.0.0, SVG Export Plug-In . SVG Version: 6.00 Build 0)  -->
<svg version="1.1" id="Layer_1" xmlns="http://www.w3.org/2000/svg" xmlns:xlink="http://www.w3.org/1999/xlink" x="0px" y="0px"
	 width="130px" height="100px" viewBox="0 0 130 100" style="enable-background:new 0 0 130 100;" xml:space="preserve">
<g transform="translate(0.000000,100.000000) scale(0.100000,-0.100000)">
	<path d="M265,746.2v-61.5h400h400v61.5v61.5H665H265V746.2z"/>
	<path d="M388.1,500v-61.5H665h276.9V500v61.5H665H388.1V500z"/>
	<path d="M511.2,253.8v-61.5H665h153.8v61.5v61.5H665H511.2V253.8z"/>
</g>
</svg>
