<?xml version="1.0" encoding="utf-8"?>
<!-- Generator: Adobe Illustrator 21.0.0, SVG Export Plug-In . SVG Version: 6.00 Build 0)  -->
<svg version="1.1" id="Layer_1" xmlns="http://www.w3.org/2000/svg" xmlns:xlink="http://www.w3.org/1999/xlink" x="0px" y="0px"
	 width="154px" height="154px" viewBox="0 0 154 154" style="enable-background:new 0 0 154 154;" xml:space="preserve">
<g transform="translate(0.000000,154.000000) scale(0.100000,-0.100000)">
	<path d="M191.7,1338.3c-10.8-10.1-12.4-40.2-12.4-208c0-217.3,0.8-220.4,48.7-220.4c51.8,0,59.5,20.1,59.5,148.4v102.1l164.7-163.9
		C597.6,852,620,832.7,641.7,832.7c31.7,0,55.7,24,55.7,55.7c0,21.6-19.3,44.1-163.9,189.4l-163.9,164.7h102.1
		c128.3,0,148.4,7.7,148.4,59.5c0,47.9-3.1,48.7-220.4,48.7C231.9,1350.7,201.7,1349.1,191.7,1338.3z"/>
	<path d="M941.7,1338.3c-12.4-12.4-16.2-54.9-6.2-69.6c13.9-20.9,43.3-26.3,142.3-26.3h102.1l-163.9-164.7
		C871.3,932.4,852,910,852,888.3c0-31.7,24-55.7,55.7-55.7c21.6,0,44.1,19.3,189.4,163.9l164.7,163.9v-102.1
		c0-128.3,7.7-148.4,59.5-148.4c47.9,0,48.7,3.1,48.7,220.4c0,167.8-1.5,197.9-12.4,208c-10.1,10.8-40.2,12.4-208,12.4
		S951.7,1349.1,941.7,1338.3z"/>
	<path d="M456.1,518L287.6,350.2v102.1c0,128.3-7.7,148.4-59.5,148.4c-47.9,0-48.7-3.1-48.7-220.4c0-167.8,1.5-197.9,12.4-208
		c10.1-10.8,40.2-12.4,208-12.4c217.3,0,220.4,0.8,220.4,48.7c0,51.8-20.1,59.5-148.4,59.5H369.5l167.8,168.6
		C692.7,593,705.1,607.7,705.1,632.4c0,34.8-19.3,53.3-54.1,53.3C627,685.8,609.2,670.3,456.1,518z"/>
	<path d="M857.4,671.8c-7.7-7.7-13.1-26.3-13.1-40.2c0-24,15.5-41.8,167.8-194.8l167.8-168.6h-102.1c-128.3,0-148.4-7.7-148.4-59.5
		c0-47.9,3.1-48.7,220.4-48.7c167.8,0,197.9,1.5,208,12.4c10.8,10.1,12.4,40.2,12.4,208c0,217.3-0.8,220.4-48.7,220.4
		c-51.8,0-59.5-20.1-59.5-148.4V350.2L1093.2,518C937,673.4,922.3,685.8,897.6,685.8C880.6,685.8,865.1,680.3,857.4,671.8z"/>
</g>
</svg>
