<?xml version="1.0" encoding="utf-8"?>
<!-- Generator: Adobe Illustrator 21.0.0, SVG Export Plug-In . SVG Version: 6.00 Build 0)  -->
<svg version="1.1" id="Layer_1" xmlns="http://www.w3.org/2000/svg" xmlns:xlink="http://www.w3.org/1999/xlink" x="0px" y="0px"
	 width="160px" height="170px" viewBox="0 0 160 170" style="enable-background:new 0 0 160 170;" xml:space="preserve">
<g transform="translate(0.000000,170.000000) scale(0.100000,-0.100000)">
	<path d="M104.1,1596.4L80.6,1572V850V128l23.6-24.5L128.6,80h676.7H1482l24.5,23.6L1530,128v722v722l-23.6,24.5L1482,1620H805.3
		H128.6L104.1,1596.4z M1258.2,985.9V623.5H805.3H352.4v362.4v362.4h452.9h452.9V985.9z M986.5,397.1v-45.3H669.4H352.4v45.3v45.3
		h317.1h317.1V397.1z"/>
</g>
</svg>
