<?xml version="1.0" standalone="no"?>
<!DOCTYPE svg PUBLIC "-//W3C//DTD SVG 20010904//EN"
 "http://www.w3.org/TR/2001/REC-SVG-20010904/DTD/svg10.dtd">
<svg version="1.0" xmlns="http://www.w3.org/2000/svg"
 width="273.000000pt" height="275.000000pt" viewBox="0 0 273.000000 275.000000"
 preserveAspectRatio="xMidYMid meet">
<metadata>
Created by potrace 1.15, written by Peter Selinger 2001-2017
</metadata>
<g transform="translate(0.000000,275.000000) scale(0.100000,-0.100000)"
fill="#000000" stroke="none">
<path d="M1026 2740 c-167 -21 -339 -82 -481 -171 -102 -63 -243 -192 -315
-287 -71 -93 -164 -286 -197 -407 -25 -93 -27 -113 -27 -300 0 -185 2 -207 27
-300 34 -126 118 -299 197 -403 374 -497 1068 -615 1585 -270 33 22 72 51 86
65 l26 24 324 -331 c178 -183 336 -338 351 -346 64 -33 128 3 128 72 0 35 -17
54 -340 380 l-340 343 54 72 c287 381 301 940 33 1341 -175 262 -448 446 -749
503 -101 19 -273 26 -362 15z m389 -199 c346 -94 618 -372 711 -726 23 -85 27
-121 27 -240 0 -119 -4 -155 -27 -240 -102 -389 -421 -683 -809 -745 -105 -17
-299 -8 -402 19 -102 27 -250 98 -334 161 -276 204 -425 519 -408 858 13 249
101 451 277 636 143 150 310 243 521 291 96 22 340 14 444 -14z"/>
</g>
</svg>
