<?xml version="1.0" standalone="no"?>
<!DOCTYPE svg PUBLIC "-//W3C//DTD SVG 20010904//EN"
 "http://www.w3.org/TR/2001/REC-SVG-20010904/DTD/svg10.dtd">
<svg version="1.0" xmlns="http://www.w3.org/2000/svg"
 width="289.000000pt" height="289.000000pt" viewBox="0 0 289.000000 289.000000"
 preserveAspectRatio="xMidYMid meet">
<metadata>
Created by potrace 1.15, written by Peter Selinger 2001-2017
</metadata>
<g transform="translate(0.000000,289.000000) scale(0.100000,-0.100000)"
fill="#000000" stroke="none">
<path d="M1225 2876 c-291 -49 -550 -174 -759 -367 -474 -439 -599 -1135 -308
-1714 203 -405 576 -683 1037 -772 122 -23 375 -23 505 1 336 61 656 249 865
509 386 479 432 1133 117 1662 -105 177 -284 359 -468 477 -122 78 -321 157
-484 193 -103 22 -398 29 -505 11z m454 -181 c254 -49 471 -165 661 -355 250
-250 375 -551 373 -900 -3 -616 -448 -1138 -1060 -1245 -110 -19 -306 -19
-416 0 -398 69 -748 329 -930 691 -141 279 -167 656 -67 956 63 187 168 357
310 498 151 151 321 255 520 318 83 26 134 37 275 56 55 8 251 -4 334 -19z"/>
<path d="M1405 2458 c-45 -27 -44 -19 -45 -548 l0 -505 243 -242 c227 -227
245 -243 278 -243 55 0 89 32 89 83 0 42 -3 46 -220 262 l-220 220 0 466 c0
430 -1 468 -17 488 -21 26 -80 36 -108 19z"/>
</g>
</svg>
