<?xml version="1.0" standalone="no"?>
<!DOCTYPE svg PUBLIC "-//W3C//DTD SVG 20010904//EN"
 "http://www.w3.org/TR/2001/REC-SVG-20010904/DTD/svg10.dtd">
<svg version="1.0" xmlns="http://www.w3.org/2000/svg"
 width="235.000000pt" height="282.000000pt" viewBox="0 0 235.000000 282.000000"
 preserveAspectRatio="xMidYMid meet">
<metadata>
Created by potrace 1.15, written by Peter Selinger 2001-2017
</metadata>
<g transform="translate(0.000000,282.000000) scale(0.100000,-0.100000)"
fill="#000000" stroke="none">
<path d="M1038 2810 c-259 -47 -475 -203 -597 -431 -63 -118 -83 -195 -88
-345 -4 -99 -1 -151 11 -215 50 -246 215 -521 460 -764 132 -131 235 -207 308
-225 95 -24 195 30 372 200 257 248 422 514 482 776 22 94 24 270 5 359 -66
303 -290 539 -594 626 -81 23 -281 34 -359 19z m277 -175 c135 -28 280 -117
373 -228 50 -61 114 -188 133 -267 22 -91 16 -240 -15 -343 -31 -106 -105
-254 -178 -359 -112 -162 -290 -345 -405 -419 -43 -26 -47 -27 -74 -14 -83 44
-271 227 -379 370 -169 225 -250 427 -250 619 0 195 70 351 215 483 153 141
374 201 580 158z"/>
<path d="M1090 2291 c-83 -26 -150 -82 -191 -161 -34 -65 -34 -205 -1 -268 31
-58 88 -113 147 -142 75 -36 190 -35 267 3 70 34 131 102 154 169 22 68 16
187 -14 244 -28 56 -112 129 -169 148 -48 17 -149 20 -193 7z m151 -176 c63
-33 88 -124 52 -186 -24 -40 -94 -73 -137 -65 -41 8 -81 38 -101 76 -58 113
71 234 186 175z"/>
<path d="M263 716 c-104 -34 -185 -106 -231 -205 -23 -47 -27 -70 -27 -146 1
-116 31 -190 111 -265 81 -77 128 -95 249 -95 87 0 107 3 156 26 76 36 129 86
170 161 33 60 34 68 34 168 0 93 -3 112 -27 162 -34 72 -98 137 -172 173 -70
34 -193 44 -263 21z m187 -178 c118 -61 148 -205 62 -300 -45 -50 -85 -68
-149 -68 -62 0 -118 32 -158 88 -26 38 -30 53 -30 107 0 54 4 69 30 106 59 83
159 110 245 67z"/>
<path d="M1066 714 c-99 -31 -178 -103 -224 -203 -23 -47 -27 -70 -27 -146 1
-116 31 -190 111 -265 81 -77 128 -95 249 -95 88 0 107 3 157 27 71 33 139
101 173 175 51 106 43 254 -19 352 -34 53 -110 119 -164 142 -63 28 -190 34
-256 13z m182 -169 c157 -66 163 -278 10 -356 -147 -75 -319 75 -267 232 37
110 154 167 257 124z"/>
<path d="M1894 721 c-99 -25 -195 -106 -242 -201 -24 -49 -27 -66 -27 -155 0
-87 3 -107 27 -157 34 -73 103 -142 176 -176 50 -24 70 -27 157 -27 89 0 106
3 157 28 74 36 139 102 173 173 51 107 43 255 -19 353 -34 53 -110 119 -164
142 -52 23 -185 34 -238 20z m164 -176 c100 -42 148 -155 107 -253 -35 -82
-107 -126 -197 -120 -197 14 -244 286 -63 369 49 23 104 24 153 4z"/>
</g>
</svg>
