<?xml version="1.0" encoding="utf-8"?>
<!-- Generator: Adobe Illustrator 21.0.0, SVG Export Plug-In . SVG Version: 6.00 Build 0)  -->
<svg version="1.1" id="Layer_1" xmlns="http://www.w3.org/2000/svg" xmlns:xlink="http://www.w3.org/1999/xlink" x="0px" y="0px"
	 width="189px" height="189px" viewBox="0 0 189 189" style="enable-background:new 0 0 189 189;" xml:space="preserve">
<g transform="translate(0.000000,189.000000) scale(0.100000,-0.100000)">
	<path d="M771.3,1789.1c-350-79.3-604.3-336.3-671.8-677.2c-14.6-78.4-16.4-248.8-2.7-326.3c61.1-347.3,334.5-624.4,680.9-692.7
		c86.6-16.4,254.3-16.4,340.9,0c315.4,62,563.3,288.9,660.8,604.3c22.8,74.7,24.6,92.1,24.6,244.3c0,153.1-1.8,169.5-25.5,246.1
		c-87.5,286.2-300.8,498.6-586.1,584.3c-68.4,21-101.2,24.6-221.5,27.3C870.6,1801.8,812.3,1798.2,771.3,1789.1z M1069.3,1069
		c131.3-74.7,237.9-138.5,237.9-141.3c0-2.7-104.8-64.7-234.3-139.5C944.5,714.4,816.9,641.5,791.3,626L743,597.8v329v329l43.8-24.6
		C811.4,1216.7,938.1,1144.7,1069.3,1069z"/>
</g>
</svg>
