<?xml version="1.0" encoding="utf-8"?>
<!-- Generator: Adobe Illustrator 21.0.0, SVG Export Plug-In . SVG Version: 6.00 Build 0)  -->
<svg version="1.1" id="Layer_1" xmlns="http://www.w3.org/2000/svg" xmlns:xlink="http://www.w3.org/1999/xlink" x="0px" y="0px"
	 width="236px" height="170px" viewBox="0 0 236 170" style="enable-background:new 0 0 236 170;" xml:space="preserve">
<g transform="translate(0.000000,170.000000) scale(0.100000,-0.100000)">
	<path d="M334,1455.3c-14.7-14.7-14.7-24.2-14.7-610.9c0-569.1,0.7-597.7,13.2-608.7c12.5-11.7,82.1-12.5,853.6-12.5
		c803.8,0,840.4,0.7,851.4,13.2c11.7,12.5,12.5,65.3,12.5,612.3v598.4l-16.1,11c-14.7,10.3-107.8,11.7-850.7,11.7
		C358.2,1470,348.6,1470,334,1455.3z M1954.7,843V311.3h-770h-770V843v531.7h770h770V843z"/>
	<path d="M972,843c0-274.3,0.7-291.1,13.2-286.7c15.4,6.6,508.9,275.7,516.3,282.3c4.4,3.7-492.1,281.6-522.9,292.6
		C974.9,1132.7,972,1015.3,972,843z M1227.2,887c49.9-27.1,89.5-49.9,88-51.3c-5.9-5.1-247.9-135.7-251.5-135.7
		c-2.2,0-3.7,63.1-3.7,140.1v140.1l38.9-22C1119.4,946.4,1177.3,914.9,1227.2,887z"/>
</g>
</svg>
