<?xml version="1.0" encoding="utf-8"?>
<!-- Generator: Adobe Illustrator 21.0.0, SVG Export Plug-In . SVG Version: 6.00 Build 0)  -->
<svg version="1.1" id="Layer_1" xmlns="http://www.w3.org/2000/svg" xmlns:xlink="http://www.w3.org/1999/xlink" x="0px" y="0px"
	 width="250px" height="193px" viewBox="0 0 250 193" style="enable-background:new 0 0 250 193;" xml:space="preserve">
<g transform="translate(0.000000,193.000000) scale(0.100000,-0.100000)">
	<path d="M452.6,1629.7v-90.3h-90.3H272V872.2V205h891h891v90.3v90.3h90.3h90.3v667.2V1720h-891h-891V1629.7z M2156,1052.8V464h-51
		h-51v537.7v537.7h-761.4H531.1v51v51h812.5H2156V1052.8z M1975.4,872.2V283.5H1163H350.5v588.7V1461H1163h812.5V872.2z"/>
	<path d="M1080.6,1001.7v-90.3h-90.3H900v-39.2V833h90.3h90.3v-94.2v-94.2h43.2h43.2v94.2V833h90.3h90.3v39.2v39.2h-90.3h-90.3v90.3
		v90.3h-43.2h-43.2V1001.7z"/>
</g>
</svg>
