<svg xmlns="http://www.w3.org/2000/svg" width="40" height="41">
    <defs>
        <linearGradient id="vv52e8069a" x1="70.711%" x2="0%" y1="70.711%" y2="0%">
            <stop offset="0%" stop-color="#FFF" stop-opacity="0"/>
            <stop offset="100%" stop-color="#FFF" stop-opacity=".27"/>
        </linearGradient>
    </defs>
    <path fill="#4080FF" fill-rule="evenodd" d="M20 .49c11.046 0 20 8.956 20 20.005C40 31.543 31.046 40.5 20 40.5S0 31.543 0 20.495C0 9.446 8.954.49 20 .49z"/>
    <path fill="url(#vv52e8069a)" d="M20 .49c11.046 0 20 8.956 20 20.005C40 31.543 31.046 40.5 20 40.5S0 31.543 0 20.495C0 9.446 8.954.49 20 .49z"/>
    <path fill="#FFF" fill-rule="evenodd" d="M30.242 12.44c-.337-.339-.743-.507-1.218-.507H11.78c-.474 0-.88.168-1.218.507-.338.337-.507.743-.507 1.217v11.726c0 .474.169.881.507 1.218.338.338.744.507 1.218.507h5.863c0 .273-.057.554-.172.84-.115.287-.23.54-.345.755-.115.215-.173.373-.173.474 0 .187.069.349.205.485.137.137.299.205.485.205h5.518c.187 0 .349-.068.486-.205.136-.136.205-.298.205-.485 0-.093-.058-.249-.173-.469-.115-.219-.23-.473-.345-.764-.115-.292-.173-.57-.173-.836h5.864c.474 0 .88-.169 1.217-.507.338-.337.507-.744.507-1.218V13.657c0-.474-.169-.88-.507-1.217zm-.872 10.184c0 .093-.035.174-.103.242-.068.069-.149.103-.243.103H11.78c-.094 0-.175-.034-.243-.103-.068-.068-.102-.149-.102-.242v-8.967c0-.094.034-.174.102-.242.068-.068.149-.103.243-.103h17.245c.093 0 .174.035.242.103.068.068.103.148.103.242v8.967z"/>
</svg>
