<svg 
 xmlns="http://www.w3.org/2000/svg"
 xmlns:xlink="http://www.w3.org/1999/xlink"
 width="35px" height="35px">
<defs>
<linearGradient id="PSgrad_0" x1="70.711%" x2="0%" y1="70.711%" y2="0%">
  <stop offset="0%" stop-color="rgb(255,255,255)" stop-opacity="0" />
  <stop offset="100%" stop-color="rgb(255,255,255)" stop-opacity="0.2" />
</linearGradient>
<filter filterUnits="userSpaceOnUse" id="Filter_0" x="10px" y="12px" width="15px" height="13px"  >
    <feOffset in="SourceAlpha" dx="0" dy="1" />
    <feGaussianBlur result="blurOut" stdDeviation="1.414" />
    <feFlood flood-color="rgb(0, 0, 0)" result="floodOut" />
    <feComposite operator="atop" in="floodOut" in2="blurOut" />
    <feComponentTransfer><feFuncA type="linear" slope="0.26"/></feComponentTransfer>
    <feMerge>
    <feMergeNode/>
    <feMergeNode in="SourceGraphic"/>
  </feMerge>
</filter>

</defs>
<path fill-rule="evenodd"  fill="rgb(43, 188, 122)"
 d="M17.198,5.700 C23.770,5.700 29.097,11.028 29.097,17.600 C29.097,24.172 23.770,29.500 17.198,29.500 C10.626,29.500 5.298,24.172 5.298,17.600 C5.298,11.028 10.626,5.700 17.198,5.700 Z"/>
<path stroke-width="2px" stroke="rgb(255, 255, 255)" fill="url(#PSgrad_0)"
 d="M17.198,5.700 C23.770,5.700 29.097,11.028 29.097,17.600 C29.097,24.172 23.770,29.500 17.198,29.500 C10.626,29.500 5.298,24.172 5.298,17.600 C5.298,11.028 10.626,5.700 17.198,5.700 Z"/>
<g filter="url(#Filter_0)">
<path fill-rule="evenodd"  fill="rgb(255, 255, 255)"
 d="M22.661,22.000 L21.117,22.000 C21.154,21.888 21.174,21.768 21.174,21.643 C21.175,20.257 20.422,19.016 19.259,18.429 L19.614,18.429 C19.650,18.429 19.687,18.435 19.721,18.447 L21.163,18.954 C22.260,19.339 23.001,20.422 23.000,21.643 C23.000,21.840 22.848,22.000 22.661,22.000 ZM18.259,17.714 C18.047,17.714 17.843,17.680 17.652,17.616 C18.154,17.095 18.465,16.370 18.466,15.571 L18.466,14.143 C18.466,13.343 18.155,12.619 17.653,12.097 C17.844,12.034 18.048,12.000 18.259,12.000 C19.381,12.000 20.291,12.959 20.291,14.143 L20.291,15.571 C20.290,16.754 19.381,17.713 18.259,17.714 ZM17.771,15.571 C17.770,16.754 16.861,17.713 15.740,17.714 C14.618,17.713 13.709,16.754 13.708,15.571 L13.708,14.143 C13.708,12.959 14.618,12.000 15.740,12.000 C16.862,12.000 17.771,12.959 17.771,14.143 L17.771,15.571 ZM14.385,18.429 L17.094,18.429 C17.130,18.429 17.167,18.435 17.201,18.447 L18.642,18.954 C19.741,19.339 20.481,20.422 20.480,21.643 C20.480,21.840 20.328,22.000 20.142,22.000 L11.338,22.000 C11.151,22.000 10.999,21.840 10.999,21.643 C10.998,20.422 11.739,19.339 12.837,18.954 L14.278,18.447 C14.312,18.435 14.349,18.429 14.385,18.429 Z"/>
</g>
</svg>