<?xml version="1.0" encoding="utf-8"?>
<!-- Generator: Adobe Illustrator 21.0.0, SVG Export Plug-In . SVG Version: 6.00 Build 0)  -->
<svg version="1.1" id="Layer_1" xmlns="http://www.w3.org/2000/svg" xmlns:xlink="http://www.w3.org/1999/xlink" x="0px" y="0px"
	 width="230px" height="220px" viewBox="0 0 230 220" style="enable-background:new 0 0 230 220;" xml:space="preserve">
<g transform="translate(0.000000,220.000000) scale(0.100000,-0.100000)">
	<path d="M256.1,1772.3v-182.7l22.7-36.1c14.9-23.5,34.5-40.8,57.3-52.5l34.5-16.5h786.6c862.7,0,803.9-3.1,853.3,48.6
		c45.5,47.1,49.4,65.9,49.4,253.3V1955h-78.4h-78.4v-152.9v-152.9h-745.1H413v152.9V1955h-78.4h-78.4V1772.3z"/>
	<path d="M311.8,1320.5c-17.3-17.3-27.5-87.8-18-122.3l6.3-23.5l859.6-2.4l858.8-1.6l21.2,16.5c38.4,29.8,18,111.4-34.5,138
		c-15.7,7.8-201.6,10.2-848.6,10.2C356.5,1335.4,325.9,1334.6,311.8,1320.5z"/>
	<path d="M309.5,1016.2c-24.3-6.3-26.7-80-4.7-137.3l7.8-22h532.5h532.5l16.5,32.9c18.8,36.9,23.5,102.7,8.6,117.6
		c-7.8,7.8-117.6,10.2-545.1,11C563.6,1019.3,317.3,1018.6,309.5,1016.2z"/>
	<path d="M420.8,702.5c-55.7-9.4-123.1-51-148.2-91.8c-15.7-24.3-16.5-37.6-16.5-203.9V229.6h78.4H413v156.9v156.9h745.1h745.1
		V386.4V229.6h78.4h78.4v182.7V595l-22.7,36.9c-14.9,22-36.1,43.1-57.3,54.1l-33.7,18l-752.9,0.8
		C779.3,705.6,431.8,704.8,420.8,702.5z"/>
</g>
</svg>
