<?xml version="1.0" standalone="no"?>
<!DOCTYPE svg PUBLIC "-//W3C//DTD SVG 20010904//EN"
 "http://www.w3.org/TR/2001/REC-SVG-20010904/DTD/svg10.dtd">
<svg version="1.0" xmlns="http://www.w3.org/2000/svg"
 width="291.000000pt" height="290.000000pt" viewBox="0 0 291.000000 290.000000"
 preserveAspectRatio="xMidYMid meet">
<metadata>
Created by potrace 1.15, written by Peter Selinger 2001-2017
</metadata>
<g transform="translate(0.000000,290.000000) scale(0.100000,-0.100000)"
fill="#000000" stroke="none">
<path d="M1365 2888 c-107 -7 -154 -18 -262 -56 -331 -117 -586 -418 -647
-764 -8 -46 -17 -183 -20 -308 -7 -250 -22 -349 -75 -486 -39 -102 -125 -232
-233 -352 -126 -142 -122 -136 -122 -195 0 -39 6 -61 23 -85 44 -63 38 -62
499 -62 l419 0 0 -82 c1 -143 51 -256 163 -362 189 -181 505 -180 694 1 105
101 159 223 159 366 l1 77 418 0 c291 0 426 3 441 11 41 21 67 53 78 92 19 72
7 98 -108 224 -110 122 -197 245 -233 329 -57 132 -75 256 -89 604 -8 197 -13
236 -36 315 -106 364 -388 631 -755 716 -71 17 -217 25 -315 17z m313 -178
c329 -93 569 -356 627 -685 9 -53 15 -148 15 -240 0 -445 79 -668 340 -964
l81 -91 -1286 0 -1286 0 66 73 c193 214 297 411 335 637 6 36 15 180 20 320 9
271 18 323 73 458 104 253 367 461 647 511 87 16 283 6 368 -19z m130 -2212
c-6 -106 -40 -179 -115 -248 -176 -161 -449 -108 -555 107 -32 65 -49 170 -34
208 5 13 51 15 357 15 l352 0 -5 -82z"/>
</g>
</svg>
