<?xml version="1.0" encoding="utf-8"?>
<!-- Generator: Adobe Illustrator 21.0.0, SVG Export Plug-In . SVG Version: 6.00 Build 0)  -->
<svg version="1.1" id="Layer_1" xmlns="http://www.w3.org/2000/svg" xmlns:xlink="http://www.w3.org/1999/xlink" x="0px" y="0px"
	 width="141px" height="177px" viewBox="0 0 141 177" style="enable-background:new 0 0 141 177;" xml:space="preserve">
<g transform="translate(0.000000,177.000000) scale(0.100000,-0.100000)">
	<path d="M295.3,1525.1c-14.9-14.9-14.9-24.6-14.9-565V410l-24.6-8.9c-60.4-21.6-89.4-89.4-56.6-131.2
		c52.2-66.3,207.2-66.3,258.7-0.7c33.5,42.5,13.4,97.6-44.7,125.2l-35,16.4l-0.7,257.9c0,215.4,1.5,259.4,10.4,262.4
		c29.1,11.2,139.4,21.6,204.2,18.6c82.7-3,119.3-18.6,135.7-58.1c10.4-26.1,58.9-71.6,88-83.5c11.2-4.5,45.5-8.2,76-7.5
		c83.5,0,179.6,36.5,292.9,111.1l49.9,33.5v232.6c0,223.6-0.7,234.1-14.9,252.7c-8.9,11.2-26.8,21.6-41,24.6
		c-20.9,3.7-34.3-1.5-87.2-33.5c-78.3-47.7-152.1-75.3-200.5-75.3c-40.3,0-52.2,8.2-84.2,59.6c-22.4,35-72.3,71.6-118.5,86.5
		c-50.7,15.7-181.1,21.6-251.2,11.9c-40.3-6-56.6-6-58.9,0c-6,17.1-31.3,35.8-49.2,35.8C318.4,1540,303.5,1533.3,295.3,1525.1z
		 M607.6,1405.8c64.8-11.2,101.4-31.3,119.3-65.6c54.4-107.3,180.4-124.5,341.4-47l61.9,29.8v-163.2V996.6l-51.4-30.6
		c-93.2-55.2-192.3-80.5-232.6-59.6c-7.5,4.5-20.9,20.1-28.3,35.8c-19.4,37.3-49.2,64.1-93.9,85c-33.5,15.7-48.5,17.1-145.4,17.1
		c-59.6,0-127.5-3-150.6-6l-41.7-6l-3,181.1c-1.5,99.9-2.2,181.9-2.2,182.6c0.7,3,116.3,14.9,149.1,16.4
		C546.5,1412.5,581.5,1409.6,607.6,1405.8z"/>
</g>
</svg>
