<?xml version="1.0" encoding="utf-8"?>
<!-- Generator: Adobe Illustrator 21.0.0, SVG Export Plug-In . SVG Version: 6.00 Build 0)  -->
<svg version="1.1" id="Layer_1" xmlns="http://www.w3.org/2000/svg" xmlns:xlink="http://www.w3.org/1999/xlink" x="0px" y="0px"
	 width="160px" height="180px" viewBox="0 0 160 180" style="enable-background:new 0 0 160 180;" xml:space="preserve">
<g transform="translate(0.000000,180.000000) scale(0.100000,-0.100000)">
	<path d="M103.4,1676.6L80,1652.3V890V127.7l23.4-24.3L127.7,80H800h672.3l24.3,23.4l23.4,24.3V890v762.3l-23.4,24.3l-24.3,23.4H800
		H127.7L103.4,1676.6z M1160,1250v-90H800H440v90v90h360h360V1250z M1160,890v-90H800H440v90v90h360h360V890z M800,530v-90H620H440
		v90v90h180h180V530z"/>
</g>
</svg>
