<svg xmlns="http://www.w3.org/2000/svg" width="54" height="65">
    <defs>
        <linearGradient id="ieqiy2mb6b" x1="70.711%" x2="0%" y1="70.711%" y2="0%">
            <stop offset="0%" stop-color="#FFF" stop-opacity="0"/>
            <stop offset="100%" stop-color="#FFF" stop-opacity=".64"/>
        </linearGradient>
        <linearGradient id="lkzbbn0e5c" x1="0%" x2="100%" y1="0%" y2="0%">
            <stop offset="0%" stop-color="#FFF" stop-opacity=".64"/>
            <stop offset="100%" stop-color="#FFF" stop-opacity="0"/>
        </linearGradient>
        <filter id="x381ij1jva" width="5326" height="3746" x="-3814" y="-559" filterUnits="userSpaceOnUse">
            <feOffset dy="1" in="SourceAlpha"/>
            <feGaussianBlur result="blurOut" stdDeviation="1.732"/>
            <feFlood flood-color="#000" result="floodOut"/>
            <feComposite in="floodOut" in2="blurOut" operator="atop"/>
            <feComponentTransfer>
                <feFuncA slope=".08" type="linear"/>
            </feComponentTransfer>
            <feMerge>
                <feMergeNode/>
                <feMergeNode in="SourceGraphic"/>
            </feMerge>
        </filter>
    </defs>
    <g filter="url(#x381ij1jva)">
        <path fill="#F4C8A1" fill-rule="evenodd" d="M36.994 34.803v.099c0 .101-.015.197-.03.294-.059.598-.207 1.467-.548 2.741-.864 3.227-1.284 1.734-1.284 1.734H22.163s-4.304-2.474-5.137-4.646c-.833-2.172-2.271-7.037-1.99-7.468 0 0 2.19-2.158 6.292 3.791v-16.39c0-1.081.877-1.958 1.958-1.958 1.082 0 1.959.877 1.959 1.958v7.532c0-1.082.876-1.958 1.958-1.958 1.081 0 1.958.876 1.958 1.958v.633c0-1.082.877-1.958 1.958-1.958 1.082 0 1.958.876 1.958 1.958v2.531c0-1.081.877-1.958 1.959-1.958 1.081 0 1.958.877 1.958 1.958v8.739c.006.107.007.244 0 .41z"/>
        <path fill="url(#ieqiy2mb6b)" d="M36.994 34.803v.099c0 .101-.015.197-.03.294-.059.598-.207 1.467-.548 2.741-.864 3.227-1.284 1.734-1.284 1.734H22.163s-4.304-2.474-5.137-4.646c-.833-2.172-2.271-7.037-1.99-7.468 0 0 2.19-2.158 6.292 3.791v-16.39c0-1.081.877-1.958 1.958-1.958 1.082 0 1.959.877 1.959 1.958v7.532c0-1.082.876-1.958 1.958-1.958 1.081 0 1.958.876 1.958 1.958v.633c0-1.082.877-1.958 1.958-1.958 1.082 0 1.958.876 1.958 1.958v2.531c0-1.081.877-1.958 1.959-1.958 1.081 0 1.958.877 1.958 1.958v8.739c.006.107.007.244 0 .41z"/>
        <path fill="#4080FF" fill-rule="evenodd" d="M34.406 46H22.437c-1.363 0-2.468-1.105-2.468-2.468v-.001c0-1.363 1.105-2.469 2.468-2.469h11.969c1.364 0 2.469 1.106 2.469 2.469v.001c0 1.363-1.105 2.468-2.469 2.468zM22.64 42.719c-.509 0-.921.405-.921.906 0 .5.412.906.921.906.51 0 .922-.406.922-.906 0-.501-.412-.906-.922-.906z"/>
        <path fill="url(#lkzbbn0e5c)" d="M34.406 46H22.437c-1.363 0-2.468-1.105-2.468-2.468v-.001c0-1.363 1.105-2.469 2.468-2.469h11.969c1.364 0 2.469 1.106 2.469 2.469v.001c0 1.363-1.105 2.468-2.469 2.468zM22.64 42.719c-.509 0-.921.405-.921.906 0 .5.412.906.921.906.51 0 .922-.406.922-.906 0-.501-.412-.906-.922-.906z"/>
    </g>
</svg>
