place_id,address,countries_id
4965126,"-208, R. João Rouver, 108 - Centro, PR, Brazil",285
3620626,"-25.277350, -57.635641, Asuncion 2000, Paraguay",285
4964509,"-4718, 4616 Pacheco Blvd, Martinez, CA 94553, United States",285
3621321,"-481485, -54.667740, Av 25 de Diciembre, Cd. Del Este, Paraguay",285
4965173,"05 y, Los Guayabos, Area 1, Los Lapachos, Cd. del Este, Paraguay",285
4964486,"1 Custom House Plaza, Monterey, CA 93940, USA",285
3619600,"1 de mayo, Cd. del Este, Paraguay",285
4964553,"1 Hospital Dr, Peterborough, ON K9J 7C6, Canada",285
4964953,"1 Kaya International, Kralendijk, Caribbean Netherlands",285
3620840,"10, Acaray Nte, Cd. Del Este, Paraguay",285
4965146,"100 East Highway 13, Burnsville, MN 55337, USA",285
4964443,"1001 Longwood Rd, Kennett Square, PA 19348, USA",285
4964956,"103100 Overseas Hwy, Key Largo, FL 33037, USA",285
3620026,"1051, Gaudioso Nuñez, Asuncion, Paraguay",285
3619707,"1052, Cnel. José María Aguiar, Asuncion, Paraguay",285
4965230,"1054 Beacon St, Brookline, MA 02446, USA",285
4964476,"107 Osage St, Sibley, MO 64088, USA",285
3622307,"11 de Septiembre, Cd. del Este, Paraguay",285
4964294,"11 de Septiembre, Cd. del Este, Paraguay",285
4964297,"11 de Septiembre, Cd. del Este, Paraguay",285
3619880,"11, Acaray Nte, Cd. Del Este, Paraguay",285
4965184,"1111, Av. Manuel Ortiz Guerrero, Cd. del Este, Paraguay",285
3621042,"1143, Cnel. Cabrera, Asuncion, Paraguay",285
3636581,"1173 ,, Antequera, Encarnacion, Paraguay",285
3622535,"12 de Junio, Cd. del Este, Paraguay",285
3622549,"12 de Junio, Cd. del Este, Paraguay",285
4965149,"12350 Main St, Maple Grove, MN 55369, USA",285
4964488,"1257 S 4th St, Hartsville, SC 29550, USA",285
4964527,"135 Adams St, Quincy, MA 02169, USA",285
3621618,"1393 ,, Mayor Martinez, Asuncion, Paraguay",285
4964489,"14432 E. U.S. Highway 24, 14432 US-24, Studley, KS 67740, United States",285
4965234,"1484 Petaluma Blvd N, Petaluma, CA 94952, USA",285
4965153,"14900 4th Ave SW, Burien, WA 98166, USA",285
3621004,"1521, Alberdi, Asuncion, Paraguay",285
5733349,"15300 ON-12, Port Perry, ON L9L 1B2, Canada",285
4965155,"1615 Weston Ct, Shakopee, MN 55379, USA",285
5185714,"165, Emiliano R. Fernandez, Cd. from the East",285
3621388,"17 km from, Sta Rita, Cd. Del Este, Paraguay",285
3620776,"1749, Asuncion 1749, Paraguay",285
4964635,"1812 W Benton St, Iowa City, IA 52246, USA",285
4964500,"18160 NM-4, Jemez Springs, NM 87025, USA",285
4964204,"18201 John Morris Rd, Fort Myers, FL 33908, USA",285
3622987,"1848, Cala A, Asuncion, Paraguay",285
3636852,"1848, Gral Aquino, Encarnacion, Paraguay",285
4964885,"186 W 2nd N St, Preston, ID 83263, USA",285
4964617,"1908 Reston Station Blvd, Reston, VA 20190, USA",285
5120950,"1909, Narciso R. Colmán, Asuncio&#39;n, Paraguay",285
4965130,"1966,, R. Mal. Floriano, PR, Brazil",285
4964958,"1993 S Kihei Rd, Kihei, HI 96753, USA",285
5120922,"1st Sgt. Gualberto Villamayor, Asuncion, Paraguay",285
4965065,"212 State St, St Joseph, MI 49085, USA",285
4965151,"2120 Chestnut Street North, Chaska, MN 55318, USA",285
4964667,"2142 N Genesee Rd, Burton, MI 48509, USA",285
4964150,"2200 Airport Blvd, Santa Rosa, CA 95403, USA",285
4964668,"230 W Renwick Rd, Plainfield, IL 60544, USA",285
4965156,"235 S Tremont St, Oceanside, CA 92054, USA",285
4964665,"24000 Valley Pkwy, North Olmsted, OH 44070, USA",285
4964496,"241 N Cedar St, Red Cloud, NE 68970, USA",285
4965165,"24533, 24589 Mall Entrance, Santa Clarita, CA 91355, United States",285
3620095,"25 de Agosto, Cd. del Este, Paraguay",285
5553698,"25 de Agosto, Cd. del Este, Paraguay",285
5120929,"25 de Mayo 640 A, Asuncion 1314, Paraguay",285
4965162,"250 W 8th St, Durango, CO 81301, USA",285
4964283,"2502 Harborside Dr, Galveston, TX 77550, USA",285
3620480,"26, 12 de Junio, Cd. del Este, Paraguay",285
4965005,"2600 Alpine Meadows Rd, Alpine Meadows, CA 96146, USA",285
4964781,"2751 Navistar Dr, Lisle, IL 60532, USA",285
4965232,"2807 Telegraph Ave, Berkeley, CA 94705, USA",285
4964957,"3128 N Roosevelt Blvd, Key West, FL 33040, USA",285
3619161,"3180, Eusebio Lillo Robles, Asuncion, Paraguay",285
4964526,"3182 Taylor Rd, Pensacola, FL 32508, USA",285
4964149,"33133 Vista Del Monte Rd, Temecula, CA 92591, USA",285
4964512,"345-399 Irwin Ave, Muskegon, MI 49442, USA",285
4965145,"3470 Pilot Knob Rd, Eagan, MN 55122, USA",285
3636569,"353 ,, Posadas, Encarnacion, Paraguay",285
3622930,"3671 ,, Avenida Juan Domingo Perón, Asuncion, Paraguay",285
4964478,"3701 W 119th St, Hawthorne, CA 90250, USA",285
5741759,"4 de Julio 978, Cd. del Este 7000, Paraguay",285
3621824,"4 de Mayo, Cd. del Este, Paraguay",285
4964493,"4370 Little Cottonwood Canyon Rd, Sandy, UT 84092, USA",285
4964550,"44045 Riverside Pkwy, Leesburg, VA 20176, USA",285
4964548,"4445 Magnolia Ave, Riverside, CA 92501, USA",285
5120954,"457, Marcelino Pérez Martínez, Asuncion, Paraguay",285
4964952,"4637 Scotts Valley Dr ste a, Scotts Valley, CA 95066, USA",285
4964623,"4704 Old Soper Rd, Suitland, MD 20746, USA",285
4964482,"5304 Oxbow Rd, Peterboro, NY 13134, USA",285
4964993,"56, Av Carlos Antonio Lopez, Paraguay",285
4964355,"56294 Wierschem, Germany",285
4964178,"565,, Avenida San Blás, Cd. del Este, Paraguay",285
3636025,"6, Encarnacion, Paraguay",285
4964441,"60, Calle Julio Cesar Rodriguez, Cd. Del Este, Paraguay",285
4965231,"64 Shattuck Square, Berkeley, CA 94704, USA",285
4965068,"6500 Red Hook Plaza #205, Red Hook, St Thomas 00802, USVI",285
3622546,"7, Cd. del Este 7000, Paraguay",285
3622552,"7, Cd. del Este 7000, Paraguay",285
3620376,"7, Cd. del Este, Paraguay",285
3620378,"7, Cd. del Este, Paraguay",285
3621383,"7, Cd. del Este, Paraguay",285
4964214,"7, Cd. Del Este, Paraguay",285
4964963,"7, Cd. del Este, Paraguay",285
4965164,"700 W Valley Pkwy, Escondido, CA 92025, USA",285
3620956,"7000, Av del Lago, Cd. Del Este, Paraguay",285
4964974,"7000, Hernandarias, Paraguay",285
4964962,"7000, Juan Martincich, Cd. del Este, Paraguay",285
4965196,"7000, Mariscal José F. Estigarribia, Cd. del Este, Paraguay",285
4964638,"7260 W 93rd St, Bridgeview, IL 60455, USA",285
4964619,"7450 Wisconsin, Bethesda, MD 20814, USA",285
3620997,"760, May 25, Asuncion, Paraguay",285
4964955,"77 Kaya Gob. N. Debrot, Kralendijk, Caribbean Netherlands",285
4965235,"8 Brookdale Rd, Asheville, NC 28804, USA",285
4964490,"800 Palm St, San Luis Obispo, CA 93401, USA",285
4964202,"880 S Benson Rd, Fairfield, CT 06824, USA",285
4964666,"901 31st St, Downers Grove, IL 60515, USA",285
4964286,"9245 Charles M Rowland Dr, Port Canaveral, FL 32920, USA",285
3621036,"938, Asuncion, Paraguay",285
4964479,"9565 Cave City Rd, Mountain Ranch, CA 95246, USA",285
4965233,"9750 NE 119th Way, Kirkland, WA 98034, USA",285
4964613,"A.v km 6., Calle 5, Cd. del Este, Paraguay",285
5733269,"Abay, Cd. del Este",285
3621699,"Abay, Cd. del Este, Paraguay",285
5741769,"Abay, Cd. del Este, Paraguay",285
3622935,"Abdon Palacios, Cd. del Este 7000, Paraguay",285
3620239,"Abdon Palacios, Cd. del Este, Paraguay",285
3621545,"Abdon Palacios, Cd. del Este, Paraguay",285
3622283,"Abdon Palacios, Cd. del Este, Paraguay",285
5121479,"Abraham, Encarnacion, Paraguay",285
3619159,"Aca Caraya 595, Asuncion 1581, Paraguay",285
3619964,"Acaray Nte, Cd. Del Este, Paraguay",285
3621690,"Acaray Nte, Cd. del Este, Paraguay",285
3622337,"Acaray Nte, Cd. Del Este, Paraguay",285
3622393,"Acaray Nte, Cd. del Este, Paraguay",285
4964674,"Acaray Sur, Pdte. Franco, Paraguay",285
4964780,"Acaray, Fernando De La Mora 2605, Paraguay",285
4964457,"Acceso Parque Moisés Bertoni, Pdte. Franco, Paraguay",285
3636597,"Acosta Ñu, Encarnacion, Paraguay",285
4965004,"AD100 Canillo, Andorra",285
3619914,"Agustin C Carrillo, Asuncion, Paraguay",285
3621839,"Aka Caraya, Cd. del Este, Paraguay",285
4964834,"Akividu, Andhra Pradesh 534235, India",285
3621232,"Alas Paraguayas 1380, Asuncion, Paraguay",285
3619386,"Alberdi 734, Asuncion 1220, Paraguay",285
3619174,"Alberdi, Asuncion, Paraguay",285
3622280,"Alberdi, Cd. del Este, Paraguay",285
4964625,"Alberdi, Cd. del Este, Paraguay",285
4964552,"Aldermaston Rd, Basingstoke RG24 9NA, UK",285
3620651,"almost, Ana Díaz &amp; Tte. Otazú, Asuncion, Paraguay",285
3619747,"almost, Los Lapachos &amp; Capitan Bado, Cd. del Este, Paraguay",285
3636410,"almost, Mcal. Estigarribia &amp; Cerro Corá, Encarnacion, Paraguay",285
3636194,"almost, Mcal. Estigarribia &amp; National Constitution, Encarnacion, Paraguay",285
4964371,"Alnwick NE66 1NQ, UK",285
5121113,"Altos, Asuncion, Paraguay",285
5733355,"Amambay, San Lorenzo",285
3619791,"Amba`y, Asuncion, Paraguay",285
5553786,"Amba´y & Yrupe, Cd. del Este, Paraguay",285
3619612,"Ana Diaz, Asuncion, Paraguay",285
3621100,"Ana Díaz, Asuncion, Paraguay",285
3620802,"and, Nurses from Chaco &amp; Capitan Solano Escobar, Cd. del Este, Paraguay",285
3636200,"Angel R. Samudio, Encarnacion, Paraguay",285
3619844,"Antequera, Asuncion, Paraguay",285
3636007,"Antequera, Encarnacion, Paraguay",285
5553360,"Antequere, Cd. del Este, Paraguay",285
4964653,"Antofagasta, Antofagasta Region, Chile",285
3620396,"Apa River, Asuncion, Paraguay",285
4965160,"Appleton, WI 54911, United States",285
3636835,"Aquidabán, Encarnacion, Paraguay",285
4964908,"Aquidabán, Hernandarias, Paraguay",285
3620938,"Area 1, Cd. Del Este, Paraguay",285
3621767,"Area 1, Cd. del Este, Paraguay",285
5553338,"Area 1, Cd. del Este, Paraguay",285
5554695,"Area 1, Cd. del Este, Paraguay",285
5733274,"area 5 bairro san sebastian rua aguaray, 000, Pdte. Franco",285
3621469,"Arguello, Asuncion, Paraguay",285
3621753,"Arroyo Mburicao, Asuncion, Paraguay",285
3621752,"Arroyo, Asuncion, Paraguay",285
3621623,"Arroyo, Cd. Del Este, Paraguay",285
3621624,"Arroyo, Cd. Del Este, Paraguay",285
4964318,"Arturo Gracete, Pdte. Franco, Paraguay",285
3620356,"Asuncion 595, Paraguay",285
3623014,"Asuncion Mustafa Abdala, Lambaré, Paraguay",285
5121135,"Asuncion, Fernando De La Mora, Paraguay",285
3619139,"Asuncion, Paraguay",285
3619156,"Asuncion, Paraguay",285
3619164,"Asuncion, Paraguay",285
3619168,"Asuncion, Paraguay",285
3619186,"Asuncion, Paraguay",285
3619187,"Asuncion, Paraguay",285
3619188,"Asuncion, Paraguay",285
3619192,"Asuncion, Paraguay",285
3619196,"Asuncion, Paraguay",285
3619202,"Asuncion, Paraguay",285
3619204,"Asuncion, Paraguay",285
3619209,"Asuncion, Paraguay",285
3619214,"Asuncion, Paraguay",285
3619216,"Asuncion, Paraguay",285
3619218,"Asuncion, Paraguay",285
3619219,"Asuncion, Paraguay",285
3619222,"Asuncion, Paraguay",285
3619226,"Asuncion, Paraguay",285
3619229,"Asuncion, Paraguay",285
3619233,"Asuncion, Paraguay",285
3619239,"Asuncion, Paraguay",285
3619241,"Asuncion, Paraguay",285
3619244,"Asuncion, Paraguay",285
3619245,"Asuncion, Paraguay",285
3619248,"Asuncion, Paraguay",285
3619249,"Asuncion, Paraguay",285
3619251,"Asuncion, Paraguay",285
3619252,"Asuncion, Paraguay",285
3619264,"Asuncion, Paraguay",285
3619273,"Asuncion, Paraguay",285
3619274,"Asuncion, Paraguay",285
3619275,"Asuncion, Paraguay",285
3619276,"Asuncion, Paraguay",285
3619282,"Asuncion, Paraguay",285
3619283,"Asuncion, Paraguay",285
3619284,"Asuncion, Paraguay",285
3619290,"Asuncion, Paraguay",285
3619291,"Asuncion, Paraguay",285
3619297,"Asuncion, Paraguay",285
3619298,"Asuncion, Paraguay",285
3619302,"Asuncion, Paraguay",285
3619306,"Asuncion, Paraguay",285
3619307,"Asuncion, Paraguay",285
3619311,"Asuncion, Paraguay",285
3619340,"Asuncion, Paraguay",285
3619342,"Asuncion, Paraguay",285
3619345,"Asuncion, Paraguay",285
3619351,"Asuncion, Paraguay",285
3619353,"Asuncion, Paraguay",285
3619358,"Asuncion, Paraguay",285
3619364,"Asuncion, Paraguay",285
3619368,"Asuncion, Paraguay",285
3619370,"Asuncion, Paraguay",285
3619382,"Asuncion, Paraguay",285
3619385,"Asuncion, Paraguay",285
3619399,"Asuncion, Paraguay",285
3619403,"Asuncion, Paraguay",285
3619406,"Asuncion, Paraguay",285
3619413,"Asuncion, Paraguay",285
3619414,"Asuncion, Paraguay",285
3619418,"Asuncion, Paraguay",285
3619450,"Asuncion, Paraguay",285
3619452,"Asuncion, Paraguay",285
3619453,"Asuncion, Paraguay",285
3619476,"Asuncion, Paraguay",285
3619513,"Asuncion, Paraguay",285
3619517,"Asuncion, Paraguay",285
3619518,"Asuncion, Paraguay",285
3619519,"Asuncion, Paraguay",285
3619520,"Asuncion, Paraguay",285
3619523,"Asuncion, Paraguay",285
3619540,"Asuncion, Paraguay",285
3619541,"Asuncion, Paraguay",285
3619544,"Asuncion, Paraguay",285
3619547,"Asuncion, Paraguay",285
3619548,"Asuncion, Paraguay",285
3619573,"Asuncion, Paraguay",285
3619577,"Asuncion, Paraguay",285
3619610,"Asuncion, Paraguay",285
3619611,"Asuncion, Paraguay",285
3619613,"Asuncion, Paraguay",285
3619628,"Asuncion, Paraguay",285
3619641,"Asuncion, Paraguay",285
3619643,"Asuncion, Paraguay",285
3619682,"Asuncion, Paraguay",285
3619686,"Asuncion, Paraguay",285
3619690,"Asuncion, Paraguay",285
3619692,"Asuncion, Paraguay",285
3619696,"Asuncion, Paraguay",285
3619697,"Asuncion, Paraguay",285
3619703,"Asuncion, Paraguay",285
3619708,"Asuncion, Paraguay",285
3619709,"Asuncion, Paraguay",285
3619712,"Asuncion, Paraguay",285
3619713,"Asuncion, Paraguay",285
3619714,"Asuncion, Paraguay",285
3619715,"Asuncion, Paraguay",285
3619716,"Asuncion, Paraguay",285
3619719,"Asuncion, Paraguay",285
3619720,"Asuncion, Paraguay",285
3619723,"Asuncion, Paraguay",285
3619726,"Asuncion, Paraguay",285
3619728,"Asuncion, Paraguay",285
3619729,"Asuncion, Paraguay",285
3619731,"Asuncion, Paraguay",285
3619737,"Asuncion, Paraguay",285
3619744,"Asuncion, Paraguay",285
3619774,"Asuncion, Paraguay",285
3619777,"Asuncion, Paraguay",285
3619783,"Asuncion, Paraguay",285
3619790,"Asuncion, Paraguay",285
3619794,"Asuncion, Paraguay",285
3619795,"Asuncion, Paraguay",285
3619797,"Asuncion, Paraguay",285
3619806,"Asuncion, Paraguay",285
3619813,"Asuncion, Paraguay",285
3619815,"Asuncion, Paraguay",285
3619819,"Asuncion, Paraguay",285
3619833,"Asuncion, Paraguay",285
3619838,"Asuncion, Paraguay",285
3619841,"Asuncion, Paraguay",285
3619842,"Asuncion, Paraguay",285
3619846,"Asuncion, Paraguay",285
3619848,"Asuncion, Paraguay",285
3619850,"Asuncion, Paraguay",285
3619854,"Asuncion, Paraguay",285
3619857,"Asuncion, Paraguay",285
3619860,"Asuncion, Paraguay",285
3619861,"Asuncion, Paraguay",285
3619862,"Asuncion, Paraguay",285
3619863,"Asuncion, Paraguay",285
3619864,"Asuncion, Paraguay",285
3619865,"Asuncion, Paraguay",285
3619902,"Asuncion, Paraguay",285
3619905,"Asuncion, Paraguay",285
3619907,"Asuncion, Paraguay",285
3619909,"Asuncion, Paraguay",285
3619910,"Asuncion, Paraguay",285
3619911,"Asuncion, Paraguay",285
3619915,"Asuncion, Paraguay",285
3619917,"Asuncion, Paraguay",285
3619920,"Asuncion, Paraguay",285
3619923,"Asuncion, Paraguay",285
3619925,"Asuncion, Paraguay",285
3619928,"Asuncion, Paraguay",285
3619969,"Asuncion, Paraguay",285
3619970,"Asuncion, Paraguay",285
3620005,"Asuncion, Paraguay",285
3620011,"Asuncion, Paraguay",285
3620019,"Asuncion, Paraguay",285
3620020,"Asuncion, Paraguay",285
3620022,"Asuncion, Paraguay",285
3620031,"Asuncion, Paraguay",285
3620039,"Asuncion, Paraguay",285
3620045,"Asuncion, Paraguay",285
3620132,"Asuncion, Paraguay",285
3620133,"Asuncion, Paraguay",285
3620135,"Asuncion, Paraguay",285
3620137,"Asuncion, Paraguay",285
3620138,"Asuncion, Paraguay",285
3620141,"Asuncion, Paraguay",285
3620143,"Asuncion, Paraguay",285
3620154,"Asuncion, Paraguay",285
3620160,"Asuncion, Paraguay",285
3620163,"Asuncion, Paraguay",285
3620164,"Asuncion, Paraguay",285
3620168,"Asuncion, Paraguay",285
3620177,"Asuncion, Paraguay",285
3620180,"Asuncion, Paraguay",285
3620185,"Asuncion, Paraguay",285
3620187,"Asuncion, Paraguay",285
3620188,"Asuncion, Paraguay",285
3620190,"Asuncion, Paraguay",285
3620196,"Asuncion, Paraguay",285
3620200,"Asuncion, Paraguay",285
3620268,"Asuncion, Paraguay",285
3620271,"Asuncion, Paraguay",285
3620276,"Asuncion, Paraguay",285
3620281,"Asuncion, Paraguay",285
3620287,"Asuncion, Paraguay",285
3620288,"Asuncion, Paraguay",285
3620289,"Asuncion, Paraguay",285
3620290,"Asuncion, Paraguay",285
3620326,"Asuncion, Paraguay",285
3620328,"Asuncion, Paraguay",285
3620330,"Asuncion, Paraguay",285
3620341,"Asuncion, Paraguay",285
3620342,"Asuncion, Paraguay",285
3620354,"Asuncion, Paraguay",285
3620359,"Asuncion, Paraguay",285
3620362,"Asuncion, Paraguay",285
3620363,"Asuncion, Paraguay",285
3620391,"Asuncion, Paraguay",285
3620419,"Asuncion, Paraguay",285
3620421,"Asuncion, Paraguay",285
3620423,"Asuncion, Paraguay",285
3620429,"Asuncion, Paraguay",285
3620430,"Asuncion, Paraguay",285
3620456,"Asuncion, Paraguay",285
3620461,"Asuncion, Paraguay",285
3620463,"Asuncion, Paraguay",285
3620465,"Asuncion, Paraguay",285
3620468,"Asuncion, Paraguay",285
3620469,"Asuncion, Paraguay",285
3620471,"Asuncion, Paraguay",285
3620481,"Asuncion, Paraguay",285
3620482,"Asuncion, Paraguay",285
3620598,"Asuncion, Paraguay",285
3620603,"Asuncion, Paraguay",285
3620607,"Asuncion, Paraguay",285
3620617,"Asuncion, Paraguay",285
3620619,"Asuncion, Paraguay",285
3620624,"Asuncion, Paraguay",285
3620627,"Asuncion, Paraguay",285
3620634,"Asuncion, Paraguay",285
3620640,"Asuncion, Paraguay",285
3620641,"Asuncion, Paraguay",285
3620643,"Asuncion, Paraguay",285
3620652,"Asuncion, Paraguay",285
3620653,"Asuncion, Paraguay",285
3620657,"Asuncion, Paraguay",285
3620661,"Asuncion, Paraguay",285
3620664,"Asuncion, Paraguay",285
3620669,"Asuncion, Paraguay",285
3620673,"Asuncion, Paraguay",285
3620675,"Asuncion, Paraguay",285
3620676,"Asuncion, Paraguay",285
3620677,"Asuncion, Paraguay",285
3620679,"Asuncion, Paraguay",285
3620682,"Asuncion, Paraguay",285
3620683,"Asuncion, Paraguay",285
3620684,"Asuncion, Paraguay",285
3620685,"Asuncion, Paraguay",285
3620690,"Asuncion, Paraguay",285
3620693,"Asuncion, Paraguay",285
3620734,"Asuncion, Paraguay",285
3620740,"Asuncion, Paraguay",285
3620750,"Asuncion, Paraguay",285
3620752,"Asuncion, Paraguay",285
3620761,"Asuncion, Paraguay",285
3620763,"Asuncion, Paraguay",285
3620764,"Asuncion, Paraguay",285
3620766,"Asuncion, Paraguay",285
3620770,"Asuncion, Paraguay",285
3620771,"Asuncion, Paraguay",285
3620774,"Asuncion, Paraguay",285
3620781,"Asuncion, Paraguay",285
3620786,"Asuncion, Paraguay",285
3620787,"Asuncion, Paraguay",285
3620788,"Asuncion, Paraguay",285
3620812,"Asuncion, Paraguay",285
3620863,"Asuncion, Paraguay",285
3620869,"Asuncion, Paraguay",285
3620871,"Asuncion, Paraguay",285
3620879,"Asuncion, Paraguay",285
3620880,"Asuncion, Paraguay",285
3620883,"Asuncion, Paraguay",285
3620886,"Asuncion, Paraguay",285
3620887,"Asuncion, Paraguay",285
3620893,"Asuncion, Paraguay",285
3620894,"Asuncion, Paraguay",285
3620897,"Asuncion, Paraguay",285
3620899,"Asuncion, Paraguay",285
3620999,"Asuncion, Paraguay",285
3621001,"Asuncion, Paraguay",285
3621008,"Asuncion, Paraguay",285
3621012,"Asuncion, Paraguay",285
3621018,"Asuncion, Paraguay",285
3621019,"Asuncion, Paraguay",285
3621027,"Asuncion, Paraguay",285
3621031,"Asuncion, Paraguay",285
3621033,"Asuncion, Paraguay",285
3621034,"Asuncion, Paraguay",285
3621035,"Asuncion, Paraguay",285
3621038,"Asuncion, Paraguay",285
3621044,"Asuncion, Paraguay",285
3621047,"Asuncion, Paraguay",285
3621051,"Asuncion, Paraguay",285
3621070,"Asuncion, Paraguay",285
3621073,"Asuncion, Paraguay",285
3621074,"Asuncion, Paraguay",285
3621081,"Asuncion, Paraguay",285
3621082,"Asuncion, Paraguay",285
3621084,"Asuncion, Paraguay",285
3621088,"Asuncion, Paraguay",285
3621089,"Asuncion, Paraguay",285
3621092,"Asuncion, Paraguay",285
3621093,"Asuncion, Paraguay",285
3621097,"Asuncion, Paraguay",285
3621099,"Asuncion, Paraguay",285
3621107,"Asuncion, Paraguay",285
3621109,"Asuncion, Paraguay",285
3621110,"Asuncion, Paraguay",285
3621111,"Asuncion, Paraguay",285
3621112,"Asuncion, Paraguay",285
3621113,"Asuncion, Paraguay",285
3621118,"Asuncion, Paraguay",285
3621119,"Asuncion, Paraguay",285
3621121,"Asuncion, Paraguay",285
3621123,"Asuncion, Paraguay",285
3621126,"Asuncion, Paraguay",285
3621127,"Asuncion, Paraguay",285
3621139,"Asuncion, Paraguay",285
3621141,"Asuncion, Paraguay",285
3621143,"Asuncion, Paraguay",285
3621148,"Asuncion, Paraguay",285
3621152,"Asuncion, Paraguay",285
3621159,"Asuncion, Paraguay",285
3621160,"Asuncion, Paraguay",285
3621162,"Asuncion, Paraguay",285
3621165,"Asuncion, Paraguay",285
3621166,"Asuncion, Paraguay",285
3621169,"Asuncion, Paraguay",285
3621216,"Asuncion, Paraguay",285
3621222,"Asuncion, Paraguay",285
3621223,"Asuncion, Paraguay",285
3621225,"Asuncion, Paraguay",285
3621226,"Asuncion, Paraguay",285
3621227,"Asuncion, Paraguay",285
3621228,"Asuncion, Paraguay",285
3621229,"Asuncion, Paraguay",285
3621234,"Asuncion, Paraguay",285
3621337,"Asuncion, Paraguay",285
3621338,"Asuncion, Paraguay",285
3621343,"Asuncion, Paraguay",285
3621345,"Asuncion, Paraguay",285
3621350,"Asuncion, Paraguay",285
3621358,"Asuncion, Paraguay",285
3621364,"Asuncion, Paraguay",285
3621366,"Asuncion, Paraguay",285
3621373,"Asuncion, Paraguay",285
3621379,"Asuncion, Paraguay",285
3621394,"Asuncion, Paraguay",285
3621396,"Asuncion, Paraguay",285
3621400,"Asuncion, Paraguay",285
3621406,"Asuncion, Paraguay",285
3621407,"Asuncion, Paraguay",285
3621409,"Asuncion, Paraguay",285
3621412,"Asuncion, Paraguay",285
3621416,"Asuncion, Paraguay",285
3621417,"Asuncion, Paraguay",285
3621419,"Asuncion, Paraguay",285
3621420,"Asuncion, Paraguay",285
3621422,"Asuncion, Paraguay",285
3621429,"Asuncion, Paraguay",285
3621431,"Asuncion, Paraguay",285
3621433,"Asuncion, Paraguay",285
3621435,"Asuncion, Paraguay",285
3621438,"Asuncion, Paraguay",285
3621441,"Asuncion, Paraguay",285
3621442,"Asuncion, Paraguay",285
3621445,"Asuncion, Paraguay",285
3621466,"Asuncion, Paraguay",285
3621468,"Asuncion, Paraguay",285
3621470,"Asuncion, Paraguay",285
3621471,"Asuncion, Paraguay",285
3621473,"Asuncion, Paraguay",285
3621474,"Asuncion, Paraguay",285
3621483,"Asuncion, Paraguay",285
3621487,"Asuncion, Paraguay",285
3621488,"Asuncion, Paraguay",285
3621489,"Asuncion, Paraguay",285
3621491,"Asuncion, Paraguay",285
3621494,"Asuncion, Paraguay",285
3621503,"Asuncion, Paraguay",285
3621508,"Asuncion, Paraguay",285
3621509,"Asuncion, Paraguay",285
3621558,"Asuncion, Paraguay",285
3621559,"Asuncion, Paraguay",285
3621562,"Asuncion, Paraguay",285
3621563,"Asuncion, Paraguay",285
3621564,"Asuncion, Paraguay",285
3621565,"Asuncion, Paraguay",285
3621566,"Asuncion, Paraguay",285
3621567,"Asuncion, Paraguay",285
3621569,"Asuncion, Paraguay",285
3621570,"Asuncion, Paraguay",285
3621572,"Asuncion, Paraguay",285
3621605,"Asuncion, Paraguay",285
3621608,"Asuncion, Paraguay",285
3621609,"Asuncion, Paraguay",285
3621611,"Asuncion, Paraguay",285
3621612,"Asuncion, Paraguay",285
3621615,"Asuncion, Paraguay",285
3621633,"Asuncion, Paraguay",285
3621635,"Asuncion, Paraguay",285
3621636,"Asuncion, Paraguay",285
3621643,"Asuncion, Paraguay",285
3621644,"Asuncion, Paraguay",285
3621645,"Asuncion, Paraguay",285
3621646,"Asuncion, Paraguay",285
3621647,"Asuncion, Paraguay",285
3621648,"Asuncion, Paraguay",285
3621649,"Asuncion, Paraguay",285
3621651,"Asuncion, Paraguay",285
3621652,"Asuncion, Paraguay",285
3621653,"Asuncion, Paraguay",285
3621655,"Asuncion, Paraguay",285
3621657,"Asuncion, Paraguay",285
3621662,"Asuncion, Paraguay",285
3621663,"Asuncion, Paraguay",285
3621665,"Asuncion, Paraguay",285
3621666,"Asuncion, Paraguay",285
3621668,"Asuncion, Paraguay",285
3621670,"Asuncion, Paraguay",285
3621673,"Asuncion, Paraguay",285
3621727,"Asuncion, Paraguay",285
3621729,"Asuncion, Paraguay",285
3621757,"Asuncion, Paraguay",285
3621790,"Asuncion, Paraguay",285
3621795,"Asuncion, Paraguay",285
3621856,"Asuncion, Paraguay",285
3621861,"Asuncion, Paraguay",285
3621862,"Asuncion, Paraguay",285
3621863,"Asuncion, Paraguay",285
3621867,"Asuncion, Paraguay",285
3621870,"Asuncion, Paraguay",285
3621883,"Asuncion, Paraguay",285
3621884,"Asuncion, Paraguay",285
3621889,"Asuncion, Paraguay",285
3621890,"Asuncion, Paraguay",285
3621902,"Asuncion, Paraguay",285
3621910,"Asuncion, Paraguay",285
3622013,"Asuncion, Paraguay",285
3622019,"Asuncion, Paraguay",285
3622020,"Asuncion, Paraguay",285
3622021,"Asuncion, Paraguay",285
3622022,"Asuncion, Paraguay",285
3622027,"Asuncion, Paraguay",285
3622028,"Asuncion, Paraguay",285
3622030,"Asuncion, Paraguay",285
3622032,"Asuncion, Paraguay",285
3622034,"Asuncion, Paraguay",285
3622042,"Asuncion, Paraguay",285
3622043,"Asuncion, Paraguay",285
3622044,"Asuncion, Paraguay",285
3622051,"Asuncion, Paraguay",285
3622052,"Asuncion, Paraguay",285
3622053,"Asuncion, Paraguay",285
3622054,"Asuncion, Paraguay",285
3622057,"Asuncion, Paraguay",285
3622062,"Asuncion, Paraguay",285
3622064,"Asuncion, Paraguay",285
3622065,"Asuncion, Paraguay",285
3622066,"Asuncion, Paraguay",285
3622067,"Asuncion, Paraguay",285
3622077,"Asuncion, Paraguay",285
3622078,"Asuncion, Paraguay",285
3622087,"Asuncion, Paraguay",285
3622089,"Asuncion, Paraguay",285
3622092,"Asuncion, Paraguay",285
3622139,"Asuncion, Paraguay",285
3622157,"Asuncion, Paraguay",285
3622158,"Asuncion, Paraguay",285
3622163,"Asuncion, Paraguay",285
3622173,"Asuncion, Paraguay",285
3622185,"Asuncion, Paraguay",285
3622186,"Asuncion, Paraguay",285
3622242,"Asuncion, Paraguay",285
3622249,"Asuncion, Paraguay",285
3622253,"Asuncion, Paraguay",285
3622274,"Asuncion, Paraguay",285
3622277,"Asuncion, Paraguay",285
3622341,"Asuncion, Paraguay",285
3622421,"Asuncion, Paraguay",285
3622424,"Asuncion, Paraguay",285
3622425,"Asuncion, Paraguay",285
3622426,"Asuncion, Paraguay",285
3622427,"Asuncion, Paraguay",285
3622428,"Asuncion, Paraguay",285
3622432,"Asuncion, Paraguay",285
3622433,"Asuncion, Paraguay",285
3622434,"Asuncion, Paraguay",285
3622437,"Asuncion, Paraguay",285
3622469,"Asuncion, Paraguay",285
3622474,"Asuncion, Paraguay",285
3622476,"Asuncion, Paraguay",285
3622479,"Asuncion, Paraguay",285
3622505,"Asuncion, Paraguay",285
3622506,"Asuncion, Paraguay",285
3622507,"Asuncion, Paraguay",285
3622514,"Asuncion, Paraguay",285
3622515,"Asuncion, Paraguay",285
3622517,"Asuncion, Paraguay",285
3622518,"Asuncion, Paraguay",285
3622578,"Asuncion, Paraguay",285
3622581,"Asuncion, Paraguay",285
3622583,"Asuncion, Paraguay",285
3622587,"Asuncion, Paraguay",285
3622590,"Asuncion, Paraguay",285
3622594,"Asuncion, Paraguay",285
3622597,"Asuncion, Paraguay",285
3622598,"Asuncion, Paraguay",285
3622600,"Asuncion, Paraguay",285
3622601,"Asuncion, Paraguay",285
3622606,"Asuncion, Paraguay",285
3622607,"Asuncion, Paraguay",285
3622611,"Asuncion, Paraguay",285
3622614,"Asuncion, Paraguay",285
3622683,"Asuncion, Paraguay",285
3622688,"Asuncion, Paraguay",285
3622690,"Asuncion, Paraguay",285
3622691,"Asuncion, Paraguay",285
3622692,"Asuncion, Paraguay",285
3622705,"Asuncion, Paraguay",285
3622707,"Asuncion, Paraguay",285
3622710,"Asuncion, Paraguay",285
3622723,"Asuncion, Paraguay",285
3622724,"Asuncion, Paraguay",285
3622725,"Asuncion, Paraguay",285
3622727,"Asuncion, Paraguay",285
3622739,"Asuncion, Paraguay",285
3622742,"Asuncion, Paraguay",285
3622752,"Asuncion, Paraguay",285
3622757,"Asuncion, Paraguay",285
3622763,"Asuncion, Paraguay",285
3622765,"Asuncion, Paraguay",285
3622766,"Asuncion, Paraguay",285
3622767,"Asuncion, Paraguay",285
3622769,"Asuncion, Paraguay",285
3622771,"Asuncion, Paraguay",285
3622772,"Asuncion, Paraguay",285
3622786,"Asuncion, Paraguay",285
3622787,"Asuncion, Paraguay",285
3622788,"Asuncion, Paraguay",285
3622789,"Asuncion, Paraguay",285
3622791,"Asuncion, Paraguay",285
3622792,"Asuncion, Paraguay",285
3622793,"Asuncion, Paraguay",285
3622796,"Asuncion, Paraguay",285
3622884,"Asuncion, Paraguay",285
3622893,"Asuncion, Paraguay",285
3622895,"Asuncion, Paraguay",285
3622902,"Asuncion, Paraguay",285
3622973,"Asuncion, Paraguay",285
3622975,"Asuncion, Paraguay",285
3622977,"Asuncion, Paraguay",285
3622978,"Asuncion, Paraguay",285
3622979,"Asuncion, Paraguay",285
3622981,"Asuncion, Paraguay",285
3622983,"Asuncion, Paraguay",285
3622986,"Asuncion, Paraguay",285
3622992,"Asuncion, Paraguay",285
3622993,"Asuncion, Paraguay",285
3623007,"Asuncion, Paraguay",285
3623009,"Asuncion, Paraguay",285
3623010,"Asuncion, Paraguay",285
3623011,"Asuncion, Paraguay",285
3623013,"Asuncion, Paraguay",285
3623015,"Asuncion, Paraguay",285
3623017,"Asuncion, Paraguay",285
3623018,"Asuncion, Paraguay",285
3623022,"Asuncion, Paraguay",285
3623033,"Asuncion, Paraguay",285
3623036,"Asuncion, Paraguay",285
3623038,"Asuncion, Paraguay",285
3623059,"Asuncion, Paraguay",285
3623086,"Asuncion, Paraguay",285
3623098,"Asuncion, Paraguay",285
3623100,"Asuncion, Paraguay",285
3623104,"Asuncion, Paraguay",285
3623115,"Asuncion, Paraguay",285
3623117,"Asuncion, Paraguay",285
3623125,"Asuncion, Paraguay",285
3623130,"Asuncion, Paraguay",285
3623134,"Asuncion, Paraguay",285
3623142,"Asuncion, Paraguay",285
3623144,"Asuncion, Paraguay",285
3623151,"Asuncion, Paraguay",285
3623152,"Asuncion, Paraguay",285
3623154,"Asuncion, Paraguay",285
3623170,"Asuncion, Paraguay",285
3623188,"Asuncion, Paraguay",285
3623193,"Asuncion, Paraguay",285
3623196,"Asuncion, Paraguay",285
3623197,"Asuncion, Paraguay",285
3623201,"Asuncion, Paraguay",285
3623203,"Asuncion, Paraguay",285
5120941,"Asuncion, Paraguay",285
5121015,"Asuncion, Paraguay",285
5121027,"Asuncion, Paraguay",285
5121039,"Asuncion, Paraguay",285
5121041,"Asuncion, Paraguay",285
5121102,"Asuncion, Paraguay",285
5121106,"Asuncion, Paraguay",285
5121107,"Asuncion, Paraguay",285
5121108,"Asuncion, Paraguay",285
5121110,"Asuncion, Paraguay",285
5121114,"Asuncion, Paraguay",285
5121134,"Asuncion, Paraguay",285
5121138,"Asuncion, Paraguay",285
5121141,"Asuncion, Paraguay",285
5121157,"Asuncion, Paraguay",285
5121162,"Asuncion, Paraguay",285
5121203,"Asuncion, Paraguay",285
5121205,"Asuncion, Paraguay",285
5121209,"Asuncion, Paraguay",285
5121255,"Asuncion, Paraguay",285
5121261,"Asuncion, Paraguay",285
5121263,"Asuncion, Paraguay",285
5121264,"Asuncion, Paraguay",285
5121265,"Asuncion, Paraguay",285
5121301,"Asuncion, Paraguay",285
5121306,"Asuncion, Paraguay",285
5121310,"Asuncion, Paraguay",285
5121311,"Asuncion, Paraguay",285
5121356,"Asuncion, Paraguay",285
5553098,"Asuncion, Paraguay",285
5553102,"Asuncion, Paraguay",285
5553106,"Asuncion, Paraguay",285
5553116,"Asuncion, Paraguay",285
5553117,"Asuncion, Paraguay",285
5553119,"Asuncion, Paraguay",285
5553126,"Asuncion, Paraguay",285
5553288,"Asuncion, Paraguay",285
5553289,"Asuncion, Paraguay",285
5553290,"Asuncion, Paraguay",285
5553291,"Asuncion, Paraguay",285
5553295,"Asuncion, Paraguay",285
5553296,"Asuncion, Paraguay",285
5553299,"Asuncion, Paraguay",285
5553313,"Asuncion, Paraguay",285
5553315,"Asuncion, Paraguay",285
5553317,"Asuncion, Paraguay",285
5553329,"Asuncion, Paraguay",285
5553331,"Asuncion, Paraguay",285
5553548,"Asuncion, Paraguay",285
5553552,"Asuncion, Paraguay",285
5553553,"Asuncion, Paraguay",285
5553555,"Asuncion, Paraguay",285
5553556,"Asuncion, Paraguay",285
5553568,"Asuncion, Paraguay",285
5553572,"Asuncion, Paraguay",285
5553574,"Asuncion, Paraguay",285
5553575,"Asuncion, Paraguay",285
5553577,"Asuncion, Paraguay",285
5553579,"Asuncion, Paraguay",285
5553649,"Asuncion, Paraguay",285
5553653,"Asuncion, Paraguay",285
5553660,"Asuncion, Paraguay",285
5553662,"Asuncion, Paraguay",285
5553676,"Asuncion, Paraguay",285
5553677,"Asuncion, Paraguay",285
5553680,"Asuncion, Paraguay",285
5553685,"Asuncion, Paraguay",285
5553687,"Asuncion, Paraguay",285
5553689,"Asuncion, Paraguay",285
5553767,"Asuncion, Paraguay",285
5553778,"Asuncion, Paraguay",285
5553782,"Asuncion, Paraguay",285
5553787,"Asuncion, Paraguay",285
5553935,"Asuncion, Paraguay",285
5553939,"Asuncion, Paraguay",285
5553940,"Asuncion, Paraguay",285
5553942,"Asuncion, Paraguay",285
5554030,"Asuncion, Paraguay",285
5554088,"Asuncion, Paraguay",285
5554093,"Asuncion, Paraguay",285
5554094,"Asuncion, Paraguay",285
5554191,"Asuncion, Paraguay",285
5554197,"Asuncion, Paraguay",285
5554202,"Asuncion, Paraguay",285
5554203,"Asuncion, Paraguay",285
5554211,"Asuncion, Paraguay",285
5554214,"Asuncion, Paraguay",285
5554217,"Asuncion, Paraguay",285
5554221,"Asuncion, Paraguay",285
5554224,"Asuncion, Paraguay",285
5554228,"Asuncion, Paraguay",285
5554327,"Asuncion, Paraguay",285
5554330,"Asuncion, Paraguay",285
5554334,"Asuncion, Paraguay",285
5554335,"Asuncion, Paraguay",285
5554339,"Asuncion, Paraguay",285
5554342,"Asuncion, Paraguay",285
5554344,"Asuncion, Paraguay",285
5554421,"Asuncion, Paraguay",285
5554424,"Asuncion, Paraguay",285
5554446,"Asuncion, Paraguay",285
5554452,"Asuncion, Paraguay",285
5554454,"Asuncion, Paraguay",285
5554456,"Asuncion, Paraguay",285
5554484,"Asuncion, Paraguay",285
5554485,"Asuncion, Paraguay",285
5554571,"Asuncion, Paraguay",285
5554573,"Asuncion, Paraguay",285
5554580,"Asuncion, Paraguay",285
5554786,"Asuncion, Paraguay",285
5554789,"Asuncion, Paraguay",285
5554791,"Asuncion, Paraguay",285
5554792,"Asuncion, Paraguay",285
5554793,"Asuncion, Paraguay",285
5554928,"Asuncion, Paraguay",285
5554929,"Asuncion, Paraguay",285
5554935,"Asuncion, Paraguay",285
5555013,"Asuncion, Paraguay",285
5555090,"Asuncion, Paraguay",285
5555091,"Asuncion, Paraguay",285
5555092,"Asuncion, Paraguay",285
5555093,"Asuncion, Paraguay",285
5555095,"Asuncion, Paraguay",285
5555096,"Asuncion, Paraguay",285
5555190,"Asuncion, Paraguay",285
5555191,"Asuncion, Paraguay",285
5555192,"Asuncion, Paraguay",285
5555195,"Asuncion, Paraguay",285
5555255,"Asuncion, Paraguay",285
5555286,"Asuncion, Paraguay",285
5555287,"Asuncion, Paraguay",285
5555292,"Asuncion, Paraguay",285
5555343,"Asuncion, Paraguay",285
5555350,"Asuncion, Paraguay",285
5555351,"Asuncion, Paraguay",285
5555376,"Asuncion, Paraguay",285
5555504,"Asuncion, Paraguay",285
5555505,"Asuncion, Paraguay",285
5555506,"Asuncion, Paraguay",285
5555510,"Asuncion, Paraguay",285
5555516,"Asuncion, Paraguay",285
5555518,"Asuncion, Paraguay",285
5555521,"Asuncion, Paraguay",285
5555524,"Asuncion, Paraguay",285
5555598,"Asuncion, Paraguay",285
5555599,"Asuncion, Paraguay",285
3636474,"Attorney Lucia de Cañellas, Encarnacion, Paraguay",285
5120937,"August 15, 1260, Asuncion 1260, Paraguay",285
3622974,"August 15, 1470, Asuncion 1260, Paraguay",285
3619395,"August 15, Asuncion, Paraguay",285
3620689,"August 15, Asuncion, Paraguay",285
3622257,"August 15, Asuncion, Paraguay",285
5121210,"August 15, Asuncion, Paraguay",285
5121215,"August 15, Asuncion, Paraguay",285
3621367,"August 15, Estrella, Asuncion 9999, Paraguay",285
3621090,"August 25, Asuncion, Paraguay",285
3620981,"August 25, Cd. Del Este, Paraguay",285
3621145,"Austria, Asuncion, Paraguay",285
3621522,"Av 2000, Cd. del Este, Paraguay",285
4965012,"Av 2000, Cd. del Este, Paraguay",285
3621285,"Av 25 de Diciembre, Cd. del Este, Paraguay",285
3621700,"Av 25 de Diciembre, Cd. del Este, Paraguay",285
3621837,"Av 25 de Diciembre, Cd. del Este, Paraguay",285
3622570,"Av 25 de Diciembre, Cd. del Este, Paraguay",285
3622572,"Av 25 de Diciembre, Cd. del Este, Paraguay",285
4964593,"Av 25 de Diciembre, Cd. del Este, Paraguay",285
4964595,"Av 25 de Diciembre, Cd. del Este, Paraguay",285
4964599,"Av 25 de Diciembre, Cd. del Este, Paraguay",285
4965037,"Av 25 de Diciembre, Cd. del Este, Paraguay",285
3620680,"Av Acosta Ñu, Asuncion, Paraguay",285
3619821,"Av Acuña de Figueroa, Asuncion, Paraguay",285
3620483,"Av Acuña de Figueroa, Asuncion, Paraguay",285
3622419,"Av Acuña de Figueroa, Asuncion, Paraguay",285
5185729,"Av Adrián Jara, Cd. Del Este",285
3621254,"Av Adrián Jara, Cd. del Este, Paraguay",285
3621957,"Av Adrián Jara, Cd. del Este, Paraguay",285
3622375,"Av Adrián Jara, Cd. del Este, Paraguay",285
4964171,"Av Adrián Jara, Cd. del Este, Paraguay",285
4964175,"Av Adrián Jara, Cd. del Este, Paraguay",285
4964186,"Av Adrián Jara, Cd. del Este, Paraguay",285
4964205,"Av Alejo García, Cd. Del Este 7000, Paraguay",285
3620070,"Av Alejo García, Cd. del Este, Paraguay",285
4964705,"Av Alejo García, Cd. del Este, Paraguay",285
5553362,"Av Alejo García, Cd. del Este, Paraguay",285
3619750,"Av Amado Benitez Gamarra, Cd. Del Este 7000, Paraguay",285
3620061,"Av Amado Benitez Gamarra, Cd. del Este, Paraguay",285
3620385,"Av Amado Benitez Gamarra, Cd. del Este, Paraguay",285
3620388,"Av Amado Benitez Gamarra, Cd. del Este, Paraguay",285
3620390,"Av Amado Benitez Gamarra, Cd. del Este, Paraguay",285
3621681,"Av Amado Benitez Gamarra, Cd. del Este, Paraguay",285
3622305,"Av Amado Benitez Gamarra, Cd. del Este, Paraguay",285
3622007,"Av América, Cd. del Este, Paraguay",285
3621153,"Av Brasilia &amp; Tte. 2nd. Benigno Villamayor, Asuncion, Paraguay",285
3620772,"Av Brasilia 1693, Asuncion, Paraguay",285
3619691,"Av Brasilia 601, Asuncion 1441, Paraguay",285
3621163,"Av Brasilia 690, Asuncion, Paraguay",285
3621025,"Av Brasilia 705, Asuncion, Paraguay",285
3620629,"Av Cacique Lambare, Asuncion, Paraguay",285
3622250,"Av Cacique Lambare, Asuncion, Paraguay",285
5185741,"Av Capitán del Puerto, Cd. del Este",285
4964771,"Av Capitán del Puerto, Cd. del Este, Paraguay",285
5553796,"Av Capitán del Puerto, Cd. del Este, Paraguay",285
4964673,"Av Capitán del Puerto, Pdte. Franco, Paraguay",285
3620077,"Av Carlos Antonio Lopez, Cd. del Este, Paraguay",285
3620245,"Av Carlos Antonio Lopez, Cd. del Este, Paraguay",285
5121030,"Av Choferes Del Chaco 1010, Asuncion, Paraguay",285
3621161,"Av Choferes Del Chaco, Asuncion, Paraguay",285
3621791,"Av Choferes Del Chaco, Asuncion, Paraguay",285
5121026,"Av Choferes Del Chaco, Asuncion, Paraguay",285
3621539,"Av Choferes del Chaco, Cd. Del Este, Paraguay",285
3621818,"Av Choferes del Chaco, Cd. del Este, Paraguay",285
4964676,"Av Choferes del Chaco, Pdte. Franco, Paraguay",285
5733234,"Av Choferes del ChacoChoferes del Chaco, Pdte. Franco",285
4964938,"Av Choferes del ChacoChoferes del Chaco, Pdte. Franco, Paraguay",285
3621467,"Av Costanera José Asuncion Flores, Asuncion, Paraguay",285
3621057,"Av del Lago, Cd. Del Este, Paraguay",285
3621777,"Av del Lago, Cd. del Este, Paraguay",285
3622781,"Av del Lago, Cd. Del Este, Paraguay",285
5553370,"Av del Lago, Cd. del Este, Paraguay",285
4964915,"Av Dr Eusebio Ayala, Cd. del Este, Paraguay",285
3621050,"Av Dr Guido Boggiani 7193, Asuncion, Paraguay",285
5733312,"Av Dr Ignacio Alberto Pane, Cd. del Este",285
3621959,"Av Dr Ignacio Alberto Pane, Cd. del Este, Paraguay",285
3622940,"Av Dr Ignacio Alberto Pane, Cd. del Este, Paraguay",285
5554351,"Av Dr Ignacio Alberto Pane, Cd. del Este, Paraguay",285
3636541,"Av Dr Jose Gaspar Rodriguez de Francia, Encarnacion, Paraguay",285
3620798,"Av España 352, Asuncion, Paraguay",285
3622261,"Av Eusebio Ayala 3457, Asuncion, Paraguay",285
3621105,"Av Eusebio Ayala 972, Asuncion, Paraguay",285
3619725,"Av Eusebio Ayala, Asuncion, Paraguay",285
3621327,"Av Eusebio Ayala, Asuncion, Paraguay",285
3622423,"Av Eusebio Ayala, Asuncion, Paraguay",285
3622435,"Av Eusebio Ayala, Asuncion, Paraguay",285
3619380,"Av Gral Máximo Santos, Asuncion, Paraguay",285
4964608,"Av Hernandarias, Cd. del Este, Paraguay",285
3636411,"Av Irrazábal, Encarnacion, Paraguay",285
3636449,"Av Irrazábal, Encarnacion, Paraguay",285
3636827,"Av Irrazábal, Encarnacion, Paraguay",285
3636834,"Av Irrazábal, Encarnacion, Paraguay",285
3636853,"Av Irrazábal, Encarnacion, Paraguay",285
3637034,"Av Irrazábal, Encarnacion, Paraguay",285
5121425,"Av Irrazábal, Encarnacion, Paraguay",285
3621095,"Av Ita Ybate, Asuncion, Paraguay",285
3621679,"Av Itaipu Oeste, Cd. del Este, Paraguay",285
5553340,"Av Itaipu Oeste, Cd. del Este, Paraguay",285
3636438,"Av Japan, Encarnacion, Paraguay",285
3620650,"Av José Gaspar Rodriguez De Francia, Asuncion, Paraguay",285
3636132,"Av Los Cedros, Encarnacion, Paraguay",285
5733357,"Av Los Comuneros, Cd. del Este",285
3620963,"Av Los Comuneros, Cd. Del Este, Paraguay",285
3622288,"Av Los Comuneros, Cd. del Este, Paraguay",285
3620412,"Av Los Yerbales, Cd. del Este, Paraguay",285
3621054,"Av Los Yerbales, Cd. Del Este, Paraguay",285
3622931,"Av Mariscal Lopez N° 135, Cd. del Este, Paraguay",285
3621116,"Av Mariscal López, Asuncion, Paraguay",285
5733353,"Av Mariscal Lopez, Cd. del Este",285
3620523,"Av Mariscal Lopez, Cd. Del Este, Paraguay",285
3620532,"Av Mariscal Lopez, Cd. Del Este, Paraguay",285
3620919,"Av Mariscal Lopez, Cd. Del Este, Paraguay",285
3621261,"Av Mariscal Lopez, Cd. del Este, Paraguay",285
3621544,"Av Mariscal Lopez, Cd. del Este, Paraguay",285
3622308,"Av Mariscal Lopez, Cd. del Este, Paraguay",285
3622319,"Av Mariscal Lopez, Cd. del Este, Paraguay",285
3622379,"Av Mariscal Lopez, Cd. del Este, Paraguay",285
4964166,"Av Mariscal Lopez, Cd. del Este, Paraguay",285
4964168,"Av Mariscal Lopez, Cd. del Este, Paraguay",285
4964215,"Av Mariscal Lopez, Cd. Del Este, Paraguay",285
4964615,"Av Mariscal Lopez, Cd. del Este, Paraguay",285
5553345,"Av Mariscal Lopez, Cd. del Este, Paraguay",285
5554232,"Av Mariscal Lopez, Cd. del Este, Paraguay",285
5733242,"Av Monday, Pdte. Franco",285
5733418,"Av Monday, Pdte. Franco",285
4965058,"Av Monday, Pdte. Franco 7000, Paraguay",285
4964145,"Av Monday, Pdte. Franco, Paraguay",285
4964212,"Av Monday, Pdte. Franco, Paraguay",285
4964387,"Av Monday, Pdte. Franco, Paraguay",285
4964452,"Av Monday, Pdte. Franco, Paraguay",285
4964544,"Av Monday, Pdte. Franco, Paraguay",285
4964710,"Av Monday, Pdte. Franco, Paraguay",285
4964797,"Av Monday, Pdte. Franco, Paraguay",285
4964798,"Av Monday, Pdte. Franco, Paraguay",285
4964824,"Av Monday, Pdte. Franco, Paraguay",285
4965122,"Av Monday, Pdte. Franco, Paraguay",285
4965195,"Av Monday, Pdte. Franco, Paraguay",285
3622925,"Av Nanawa, Cd. del Este, Paraguay",285
4964190,"Av Nanawa, Pdte. Franco, Paraguay",285
5733239,"Av Ñeembucu, Pdte. Franco",285
3620648,"Av Perú 1074, Asuncion, Paraguay",285
3620645,"Av Peru, Asuncion, Paraguay",285
3620663,"Av Peru, Asuncion, Paraguay",285
3620996,"Av Peru, Asuncion, Paraguay",285
3621075,"Av Peru, Asuncion, Paraguay",285
3622503,"Av Peru, Asuncion, Paraguay",285
3622971,"Av Peru, Asuncion, Paraguay",285
5121308,"Av Peru, Asuncion, Paraguay",285
3620898,"Av Primer Presidente, Asuncion, Paraguay",285
5121161,"Av Primer Presidente, Asuncion, Paraguay",285
3621301,"Av República de Colombia, Cd. Del Este, Paraguay",285
3621305,"Av República de Colombia, Cd. Del Este, Paraguay",285
3621829,"Av República de Colombia, Cd. del Este, Paraguay",285
5733352,"Av Republica de Cuba, Cd. del Este",285
3619962,"Av Republica de Cuba, Cd. Del Este 7000, Paraguay",285
3619963,"Av Republica de Cuba, Cd. Del Este 7000, Paraguay",285
3620251,"Av Republica de Cuba, Cd. del Este, Paraguay",285
3620490,"Av Republica de Cuba, Cd. del Este, Paraguay",285
3621320,"Av Republica de Cuba, Cd. Del Este, Paraguay",285
3621322,"Av Republica de Cuba, Cd. Del Este, Paraguay",285
3621385,"Av Republica de Cuba, Cd. del Este, Paraguay",285
4964776,"Av Republica de Cuba, Cd. del Este, Paraguay",285
5555531,"Av Republica de Cuba, Cd. del Este, Paraguay",285
3620384,"Av República del Perú, Cd. del Este 7000, Paraguay",285
3621386,"Av República del Perú, Cd. del Este 7000, Paraguay",285
3619594,"Av República del Perú, Cd. del Este, Paraguay",285
3619605,"Av República del Perú, Cd. del Este, Paraguay",285
3619811,"Av República del Perú, Cd. del Este, Paraguay",285
3620856,"Av República del Perú, Cd. Del Este, Paraguay",285
3620859,"Av República del Perú, Cd. Del Este, Paraguay",285
4964217,"Av República del Perú, Cd. Del Este, Paraguay",285
5555532,"Av República del Perú, Cd. del Este, Paraguay",285
3623012,"Av Republica, Asuncion, Paraguay",285
5185719,"Av San Blás, Cd. Del Este",285
5185759,"Av San Blás, Cd. del Este",285
3620099,"Av San Blás, Cd. del Este 7000, Paraguay",285
3622381,"Av San Blás, Cd. del Este 7000, Paraguay",285
3619992,"Av San Blás, Cd. del Este, Paraguay",285
3620081,"Av San Blás, Cd. del Este, Paraguay",285
3620406,"Av San Blás, Cd. del Este, Paraguay",285
3620548,"Av San Blás, Cd. Del Este, Paraguay",285
3620854,"Av San Blás, Cd. Del Este, Paraguay",285
3621308,"Av San Blás, Cd. Del Este, Paraguay",285
4964884,"Av San Blás, Km 9 Acaray, Cd. del Este, Paraguay",285
3621831,"Av San José y Julio César Riquelme, Cd. del Este 7000, Paraguay",285
3621015,"Av Sebastian Gaboto, Asuncion, Paraguay",285
4964326,"Av Van Aaken, Pdte. Franco, Paraguay",285
3621374,"Av Venezuela &amp; Miguel de Cervantes Saavedra, Asuncion, Paraguay",285
3620762,"Av Venezuela 1547, Asuncion, Paraguay",285
3620765,"Av Venezuela 593, Asuncion, Paraguay",285
5733268,"Av y, Luis Alberto del Paraná",285
5733368,"Av. Adrián Jara, Cd. del Este",285
3621932,"Av. Adrián Jara, Cd. Del Este 7000, Paraguay",285
3619868,"Av. Adrián Jara, Cd. Del Este, Paraguay",285
3619937,"Av. Adrian Jara, Cd. del Este, Paraguay",285
3620559,"Av. Adrián Jara, Cd. Del Este, Paraguay",285
3621937,"Av. Adrián Jara, Cd. Del Este, Paraguay",285
4964346,"Av. Adrián Jara, Cd. Del Este, Paraguay",285
4965000,"Av. Adrián Jara, Shopping Internacional, Primeira Loja na, Entrada, Cd. del Este, Paraguay",285
5733325,"Av. Aquidabán c/ Bolivia Nº 884, Hernandarias 7220",285
3621737,"Av. Aviadores del Chaco 2822, Asuncion 1726, Paraguay",285
4964530,"Av. Brasil, 2667 - Centro, Medianeira - PR, 85884-000, Brazil",285
4964585,"Av. Brasil, 4268 - Zona I, Umuarama - PR, 87501-000, Brazil",285
3620261,"Av. Campo Vía, Cd. del Este, Paraguay",285
3620961,"Av. Campo Vía, Cd. Del Este, Paraguay",285
3621248,"Av. Campo Vía, Cd. del Este, Paraguay",285
5553581,"Av. Campo Vía, Cd. del Este, Paraguay",285
4964134,"Av. Campo Vía, Pdte. Franco, Paraguay",285
4964434,"Av. Campo Vía, Pdte. Franco, Paraguay",285
4964971,"Av. Campo Vía, Pdte. Franco, Paraguay",285
4964975,"Av. Campo Vía, Pdte. Franco, Paraguay",285
3621451,"AV. Carlos antonio lópez, Cd. del Este 7000, Paraguay",285
5553343,"Av. Choferes del Chaco, Cd. del Este, Paraguay",285
3622316,"Av. Cnel Abdón Palacios e/ Cnel. Sanchez, Cd. del Este, Paraguay",285
4964244,"Av. Costa e Silva, 1601 - Parque Pres. 1, Foz do iguaçú - PR, 85863-000, Brazil",285
3636579,"Av. Costanera, Encarnacion, Paraguay",285
3636048,"Av. Dr. Jose Gaspar Rodriguez de Francia, Encarnacion, Paraguay",285
3636409,"Av. Dr. Jose Gaspar Rodriguez de Francia, Encarnacion, Paraguay",285
3636574,"Av. Dr. Jose Gaspar Rodriguez de Francia, Encarnacion, Paraguay",285
3636843,"Av. Dr. Jose Gaspar Rodriguez de Francia, Encarnacion, Paraguay",285
3637286,"Av. Dr. Jose Gaspar Rodriguez de Francia, Encarnacion, Paraguay",285
5121035,"Av. España 202, Asuncion 1401, Paraguay",285
4964590,"Av. Fernando Machado, 119D - Centro, Chapecó - SC, 89802-110, Brazil",285
3636085,"Av. Irrazabal corner Gral.Cabañas, Av. Irrazabal, Encarnacion 6000, Paraguay",285
3636020,"Av. Irrazabal, Encarnacion, Paraguay",285
3636087,"Av. Irrazabal, Encarnacion, Paraguay",285
4964310,"Av. Itelo Webber, S/N - Santos Dumont, Cascavel - PR, 85804-810, Brazil",285
4964538,"Av. José Calegari, 700 - Centro, Medianeira - PR, 85884-000, Brazil",285
3619604,"Av. Jose Marti, Julio Cesar Riquelme, Cd. del Este, Paraguay",285
3622413,"Av. Manuel Ortiz Guerrero, Cd. del Este, Paraguay",285
5554801,"Av. Manuel Ortiz Guerrero, Cd. del Este, Paraguay",285
4964313,"Av. Marcelino Píres, 3478 - Jardim Caramuru, Dourados - MS, 79830-000, Brazil",285
4964977,"Av. Mariscal Estigaribia, Pdte. Franco, Paraguay",285
3620799,"Av. Mariscal López 1776, Asuncion, Paraguay",285
3620688,"Av. Mariscal López 850, Asuncion, Paraguay",285
5120932,"Av. Mariscal López 957 c / United States, Asuncion 1314, Paraguay",285
5553356,"Av. Pampliega, Cd. del Este 7000, Paraguay",285
4964122,"Av. Pampliega, Cd. del Este, Paraguay",285
3622923,"Av. Pioneros del Este e/ Adrian Jara y Pa'i Perez Galeria J&D 1º Piso Ofic.12., Cd. del Este, Paraguay",285
3619936,"Av. rubio ñu c/ Adrian Jara - CDE -PY, Cd. del Este 7000, Paraguay",285
3620407,"Av. San José c/ calle Juan Martincich, Cd. del Este 7000, Paraguay",285
4964541,"Av. São João Batista, 200 - Trevo de Alto Lage, Cariacica - ES, 29151-920, Brazil",285
5121031,"Av. Sta. Teresa 2855, Asuncion, Paraguay",285
5120927,"Av. Sta. Teresa 3907, Asuncion, Paraguay",285
3621741,"Av. Sudamericana, 3104, Asuncion 0000, Paraguay",285
4964305,"Av. Tancredo Neves, 714 - Centro, Cascavel - PR, 85806-470, Brazil",285
3621775,"Av. Tte Rojas Silva, Cd. del Este, Paraguay",285
3622557,"Av. y Calle 2000, Julio Cesar Riquelme, Cd. del Este, Paraguay",285
3619993,"AV.ABAY, Cd. Del Este, Paraguay",285
3635912,"Avda Costanera, Avenida Ukraine, Encarnacion, Paraguay",285
3620079,"Avda Peru, Cd. del Este 7000, Paraguay",285
4964199,"Avda. Adrián Jara esq. Pioneros Del Este, Cd. Del Este, Paraguay",285
3621271,"Avda. Adrian Jara y Pionero del Este, Cd. del Este, Paraguay",285
4964110,"Avda. Alejo García esq. Democratic Center, Mailbox 46 - CDE - Alto Paraná, Cd. Del Este 7700, Paraguay",285
3622919,"Avda. América, Cd. del Este, Paraguay",285
5554349,"Avda. Carlos A. López, Cd. del Este, Paraguay",285
5185760,"Avda. Carlos Antonio Lopez c/ Cañada del Carmen, Cd. del Este 7000",285
4965214,"Avda. Cesar Gianotti N° 221, Hernandarias, Paraguay",285
3621171,"Avda. Dr. Eusebio Ayala esq. Pampliega, Cd. del Este, Paraguay",285
3621936,"Avda. Dr. Luis Maria Argaña, Cd. Del Este, Paraguay",285
4964997,"Avda. Dr. Luis Maria Argaña, Cd. del Este, Paraguay",285
3619908,"Avda. España 766 c / Gral. Garay., Asuncion 0766, Paraguay",285
3621530,"Avda. J. Cesar Riquelme c/ Batallon 40 – km 7, Cd. del Este, Paraguay",285
4965045,"Avda. Julio César Riquelme c/ Tuyuti, Julio Cesar Riquelme, Cd. del Este, Paraguay",285
3621684,"Avda. Los Yerbales - Local 6, Av del Lago, Cd. del Este, Paraguay",285
4964461,"Avda. Mariscal López, Pdte. Franco, Paraguay",285
4965207,"Avda. Mariscal López, Pdte. Franco, Paraguay",285
4964165,"Avda. Mcal Lopez, Cd. del Este, Paraguay",285
5121032,"Avda. Mcal. López 4971, Asuncion, Paraguay",285
3619411,"Avda. Mcal. López, Asuncion, Paraguay",285
3619412,"Avda. Mcal. López, Asuncion, Paraguay",285
4964779,"Avda. Monday c/ Tagua, Pdte. Franco, Paraguay",285
4965172,"Avda. Paraná, Paraná Country Club Edificio Via Bella, Salón Nro. 5 Hernandarias PY 7220, Paraguay",285
3619995,"Avda. Peru 750, Cd. Del Este 7000, Paraguay",285
4964773,"Avda. Republica del Perú KM 7, Cd. del Este, Paraguay",285
3622915,"Avda. Rogelio Benitez 284, Cd. del Este, Paraguay",285
3620973,"Avda. Rogelio Benitez 777, Cd. Del Este, Paraguay",285
3623176,"Avda. Rogelio Benitez 777, Cd. del Este, Paraguay",285
5733236,"Avda. Rogelio Benitez, Cd. del Este",285
5733273,"Avda. Rogelio Benitez, Cd. del Este",285
5553351,"Avda. Rogelio Benitez, Cd. del Este 7000, Paraguay",285
3620068,"Avda. Rogelio Benitez, Cd. del Este, Paraguay",285
3620573,"Avda. Rogelio Benitez, Cd. Del Este, Paraguay",285
3620800,"Avda. Rogelio Benitez, Cd. Del Este, Paraguay",285
3620977,"Avda. Rogelio Benitez, Cd. Del Este, Paraguay",285
3621687,"Avda. Rogelio Benitez, Cd. del Este, Paraguay",285
3621809,"Avda. Rogelio Benitez, Cd. del Este, Paraguay",285
4964627,"Avda. Rogelio Benitez, Cd. del Este, Paraguay",285
5553349,"Avda. Rogelio Benitez, Cd. del Este, Paraguay",285
5553354,"Avda. Rogelio Benitez, Cd. del Este, Paraguay",285
5553372,"Avda. Rogelio Benitez, Cd. del Este, Paraguay",285
5553790,"Avda. Rogelio Benitez, Cd. del Este, Paraguay",285
5554230,"Avda. Rogelio Benitez, Cd. del Este, Paraguay",285
3621268,"Avda. San José Km 5,5, Cd. del Este, Paraguay",285
3621238,"Avda. Supercarretera Km. 4, Cd. del Este, Paraguay",285
3620395,"Ave Fernando de la Mora, Asuncion, Paraguay",285
3622278,"Ave Fernando de la Mora, Asuncion, Paraguay",285
5121270,"Ave Fernando de la Mora, Asuncion, Paraguay",285
5121271,"Ave Fernando de la Mora, Asuncion, Paraguay",285
3635911,"Avenida 3, Encarnacion, Paraguay",285
3636008,"Avenida 3, Encarnacion, Paraguay",285
3636198,"Avenida 3, Encarnacion, Paraguay",285
3636534,"Avenida 3, Encarnacion, Paraguay",285
3636204,"Avenida 9, Encarnacion, Paraguay",285
3636636,"Avenida 9, Encarnacion, Paraguay",285
3622291,"Avenida Adrian jara c/ Ita Ybate Shopping Internacional Sala 7, 8 y 9, Cd. del Este 7000, Paraguay",285
3622292,"Avenida Adrian Jara com Peribebuy, Cd. del Este 7000, Paraguay",285
5185737,"Avenida Alejo Garcia 629, Avenida Teniente Manuel Cabello, Cd. del Este 7000",285
4964181,"Avenida Alejo García 655 casi, Eusebio Ayala, Cd. del Este, Paraguay",285
4965018,"Avenida Alto Paraná c/, José Martí, Cd. del Este, Paraguay",285
3619376,"Avenida Aviadores del Chaco 1761, Asuncion 1761, Paraguay",285
3621154,"Avenida Aviadores del Chaco 1998, Asuncion, Paraguay",285
3619391,"Avenida Aviadores del Chaco 2060, Asuncion 1771, Paraguay",285
3621738,"Avenida Aviadores del Chaco 2066, Asuncion 1761, Paraguay",285
5121024,"Avenida Aviadores del Chaco, 3198, Asuncion, Paraguay",285
3621603,"Avenida Botero Norte 69, Cd. Del Este 7001, Paraguay",285
3620229,"Avenida Capitan del Puerto 9014, Cd. del Este 7000, Paraguay",285
5553957,"Avenida Carlos Antonio López 70, Cd. del Este, Paraguay",285
4964628,"Avenida Carlos Antonio López, Cd. del Este, Paraguay",285
4964991,"Avenida Carlos Antonio López, Cd. del Este, Paraguay",285
5553691,"Avenida Carlos Antonio López, Cd. del Este, Paraguay",285
5554233,"Avenida Carlos Antonio López, Cd. del Este, Paraguay",285
3636815,"Avenida Costanera Pacu Cua, Encarnacion, Paraguay",285
5554346,"Avenida del Lago, Cd. del Este, Paraguay",285
3621235,"Avenida Doctor Esteban Semidei, Asuncion, Paraguay",285
3622306,"Avenida Doctor Luis Maria Argaña, Cd. del Este, Cd. del Este 7000, Paraguay",285
4964428,"Avenida el Mensú y Supercarretera, Hernandarias 7220, Paraguay",285
3620742,"Avenida España 1272, Asuncion, Paraguay",285
3621128,"Avenida España 1435, Asuncion, Paraguay",285
3620867,"Avenida España 217, Asuncion, Paraguay",285
3621167,"Avenida España 2210, Asuncion, Paraguay",285
3619717,"Avenida España 424, Asuncion 1209, Paraguay",285
3619721,"Avenida España 424, Asuncion 1209, Paraguay",285
5185762,"Avenida Gabriel Cassaccia, Cd. del Este",285
3636047,"Avenida Gaspar Rodriguez de Francia between Cerro Corá and, Antequera, Encarnacion 6000, Paraguay",285
3621634,"Avenida Juan Domingo Perón 3254, Asuncion, Paraguay",285
4964229,"Avenida Juscelino Kubitschek - Região Central, Foz do Iguaçú - PR, 85854-130, Brazil",285
3622350,"Avenida Mariscal Francisco Solano López 3001, Asuncion, Paraguay",285
3620736,"Avenida Mariscal Francisco Solano López 3794, Asuncion, Paraguay",285
3621676,"Avenida Mariscal Lopez 642 km 4 área 1, Cd. del Este 7000, Paraguay",285
4964570,"Avenida Mayor Rivas Ortellado, Cd. del Este, Paraguay",285
3619695,"Avenida Mcal Lopez, Asuncion, Paraguay",285
4965057,"Avenida Paraná, Paraguay",285
5185679,"Avenida Rogelio Benitez Apto 402, Cd. Del Este 7000",285
4964999,"Avenida san blas 811, Cd. del Este, Paraguay",285
4965174,"Avenida San Blás c/ Cnel.Alfredo Ramos Km. 3,5, Cd. del Este 7000, Paraguay",285
3622284,"Avenida San Blás, c/o Sax Department store, Cd. del Este 8586, Paraguay",285
3619990,"Avenida San Blás, Cd. del Este 7000, Paraguay",285
3620405,"Avenida San Blás, Cd. del Este 7000, Paraguay",285
4964264,"Avenida San Blás, Cd. del Este 85867-110, Paraguay",285
3620065,"Avenida San Blás, Cd. del Este, Paraguay",285
3622296,"Avenida San Blás, Cd. del Este, Paraguay",285
3622310,"Avenida San Blás, Cd. del Este, Paraguay",285
3622936,"Avenida San Blás, Cd. del Este, Paraguay",285
5553348,"Avenida San Blás, Cd. del Este, Paraguay",285
4965078,"Avenida San Blás, km 3,5, Cd. del Este 7000, Paraguay",285
3622294,"Avenida San Blás, Piso 13, Cd. del Este 7000, Paraguay",285
3619616,"Avenida San Martín 815 c / Austria, Asuncion 1145, Paraguay",285
3636445,"Avenida San Roque Gonzalez de Santa Cruz, Encarnacion, Paraguay",285
3636452,"Avenida San Roque Gonzalez de Santa Cruz, Encarnacion, Paraguay",285
3619752,"Avenue Itaipu Este, Cd. del Este, Paraguay",285
3620389,"Avenue. Rca. Del Peru, Cd. del Este, Paraguay",285
3622409,"Avenue. Rca. Del Peru, Cd. del Este, Paraguay",285
3619799,"Aviadores del Chaco, Avenida Aviadores del Chaco 3570, Asuncion, Paraguay",285
3621007,"Ayolas 1728, Asuncion, Paraguay",285
5121217,"Ayolas 520, Asuncion, Paraguay",285
3619835,"Ayolas esq Benjamin Constant, Asuncion, Paraguay",285
5121260,"Ayolas, Asuncion, Paraguay",285
5121307,"Azara 1209, Asuncion 1209, Paraguay",285
3619820,"Azara 1398, Asuncion, Paraguay",285
3619847,"Azara 495, Asuncion 1495, Paraguay",285
3620870,"Azara 845, Asuncion, Paraguay",285
5121042,"Azara, Asuncion, Paraguay",285
5185717,"B ° New City, Cd. Del Este",285
4964830,"Bagal Nagar, Kurduwadi, Maharashtra 413208, India",285
4964639,"Bagerhat - Khulna Rd, Bagerhat 9300, Bangladesh",285
3620232,"Barrio Boquerón, Cd. del Este, Paraguay",285
3620263,"Barrio Boquerón, Cd. del Este, Paraguay",285
3621808,"Barrio Boquerón, Cd. del Este, Paraguay",285
3622389,"Barrio Boquerón, Cd. del Este, Paraguay",285
3623082,"Barrio Boquerón, Cd. del Este, Paraguay",285
5553352,"Barrio Boquerón, Cd. del Este, Paraguay",285
5553355,"Barrio Boquerón, Cd. del Este, Paraguay",285
5553695,"Barrio Boquerón, Cd. del Este, Paraguay",285
3620414,"Barrio Catedral, Cd. del Este, Paraguay",285
3620486,"Barrio Centro, Cd. del Este, Paraguay",285
3621245,"Barrio Centro, Cd. del Este, Paraguay",285
3621276,"Barrio Centro, Cd. del Este, Paraguay",285
3621692,"Barrio Centro, Cd. del Este, Paraguay",285
3622924,"Barrio Centro, Cd. del Este, Paraguay",285
5553359,"barrio centro, Cd. del Este, Paraguay",285
5555365,"Barrio Centro, Cd. del Este, Paraguay",285
4964425,"Barrio Niño Jesus, Calle Mburucuya, Hernandarias, Paraguay",285
4965110,"barrio pablo rojas, Cd. del Este, Paraguay",285
4964572,"barrio remancito, Paraguay",285
3619938,"Barrio San Blas, Cd. del Este, Paraguay",285
3621835,"Barrio San Blas, Cd. del Este, Paraguay",285
3622300,"Barrio San Blas, Cd. del Este, Paraguay",285
5553956,"Barrio San Blas, Cd. del Este, Paraguay",285
5554723,"Barrio San Blas, Cd. del Este, Paraguay",285
4965025,"Barrrio Nueva Km 7, Ciudad, Cd. del Este, Paraguay",285
4964513,"Battle Acre Rd, Kure Beach, NC 28449, USA",285
3623173,"Bay of Asuncion, Asuncion, Paraguay",285
4965161,"Beaverton, OR 97225, United States",285
3619741,"Behind the Manuel Riveros hospital km 4., Paraguay",285
5120934,"Benjamin Constant esq. Colon, Colon I Building, Asuncion 1205, Paraguay",285
3619473,"Benjamin Constant, Asuncion, Paraguay",285
3620881,"Benjamin Constant, Asuncion, Paraguay",285
3636841,"between Mcal. Estigarrobia and CA Lopez ,, May 25, Encarnacion, Paraguay",285
4964965,"Blas Garay, Cd. del Este 7000, Paraguay",285
3620847,"Blas Garay, Cd. Del Este, Paraguay",285
3620980,"Blas Garay, Cd. Del Este, Paraguay",285
3621529,"Blas Garay, Cd. del Este, Paraguay",285
3621834,"Blas Garay, Cd. del Este, Paraguay",285
4964612,"Blas Garay, Cd. del Este, Paraguay",285
4964845,"Blas Garay, Cd. del Este, Paraguay",285
5554356,"Blas Garay, Cd. del Este, Paraguay",285
5554980,"Blas Garay, Cd. del Este, Paraguay",285
3619700,"Bonifacio Caballero, Asuncion, Paraguay",285
3621011,"Boquerón, Asuncion, Paraguay",285
5741773,"Boqueron, Cd. del Este, Paraguay",285
3621780,"Boungermini c/ Avda del Lago, Buongermini, Cd. del Este, Paraguay",285
4964491,"Broderick St, Oroville, CA 95965, USA",285
4964359,"Broughton Castle, Banbury OX15 5EB, UK",285
4964506,"Broughton Dr, Sheboygan, WI 53081, USA",285
3620258,"Buongermini, Cd. del Este 7000, Paraguay",285
5733367,Burger Grill Santa Rita,285
4964406,"c /, Av Nanawa, Pdte. Franco, Paraguay",285
4964501,"CA-88, Pioneer, CA 95666, USA",285
5121305,"Caballero 877, Asuncion, Paraguay",285
3636851,"Caballero Avenue 125, Encarnacion, Paraguay",285
3636387,"Caballero Avenue, Encarnacion, Paraguay",285
3622266,"Cacique Lambare, Asuncion, Paraguay",285
3619615,"Cacique Tabapy, Asuncion, Paraguay",285
5733419,"Cadete Pando, Cd. del Este",285
4964188,"Calle 1, Hernandarias, Paraguay",285
4964787,"Calle 16 Acaray, Minga Guazú, Paraguay",285
3619596,"Calle 2, Av Amado Benitez Gamarra, Cd. del Este, Paraguay",285
5733237,"Calle 29 de Septiembre, Cd. del Este",285
5554353,"Calle 4 de Julio casi, 1 de mayo, Cd. del Este 7000, Paraguay",285
4964399,"Calle 40, Limpio, Paraguay",285
5553371,"Calle Boqueron 148, Cd. del Este, Paraguay",285
5553509,"Calle Boqueron, Cd. del Este, Paraguay",285
4965027,"Calle de la Sabiduria, Cidade do Leste, Paraguay",285
5733299,calle eeuu c/ costa rica y panama 390,285
5120921,"Calle General Diaz and 14 De Mayo, Building Savings Paraguayos, Asuncion 1229, Paraguay",285
4965186,"Calle Herib Campos Cervera, Cd. del Este 0000, Paraguay",285
4964388,"Calle km 9 Lado Acaray, Cd. Del Este, Paraguay",285
4964603,"Calle km 9 Lado Acaray, Cd. del Este, Paraguay",285
4965056,"Calle km 9 Lado Acaray, Cd. del Este, Paraguay",285
5733311,"Calle Luis Bordon. Paraná Country Club, Hernandarias 7000",285
3620957,"Calle Mburucuya, Cd. Del Este 7000, Paraguay",285
5120935,"Calle oleary 693 Deline 2 Building, Asuncion 1234, Paraguay",285
3622926,"Calle Rubio Ñu C/ Adrián Jara, Cd. del Este 7000, Paraguay",285
3636448,"Calle San Cayetano next to the Municipal Market, Encarnacion, Paraguay",285
4964946,"Calle Universidad Nacional del Este y Rca. del Paraguay, Cd. del Este 7000, Paraguay",285
5185740,"Calle Uno y Pablo Sexto, Cd. del Este",285
5733262,"Calle, Cd. del Este",285
5121653,"Cambyreta Ruta6ta.km6 ,, Encarnacion, Paraguay",285
5185742,"Camilo Recalde, Cd. del Este",285
3620585,"Camilo Recalde, Cd. del Este, Paraguay",285
3620974,"Camilo Recalde, Cd. Del Este, Paraguay",285
3621696,"Camilo Recalde, Cd. del Este, Paraguay",285
3621931,"Camilo Recalde, Cd. Del Este, Paraguay",285
3621948,"Camilo Recalde, Cd. Del Este, Paraguay",285
3621951,"Camilo Recalde, Cd. Del Este, Paraguay",285
3620092,"Campo Vía y y Eugenio A Garay, Eugenio A Garay, Cd. del Este, Paraguay",285
3620784,"Campos Cervera 5030, Asuncion, Paraguay",285
3622263,"Campos Cervera 5425, Asuncion, Paraguay",285
5121028,"Campos Cervera, Asuncion, Paraguay",285
4964198,"Candelária - RS, Brazil",285
4964261,"Capanema - State of Paraná, 85760-000, Brazil",285
3620489,"Capellanes del Chaco 2425, Cd. del Este, Paraguay",285
4964853,"Capitan Bado, Cd. del Este, Paraguay",285
5121103,"Captain Blas Montiel, Asuncion, Paraguay",285
5120946,"Captain Elías Ayala, Asuncion, Paraguay",285
3620032,"Captain Emeterio Miranda, Asuncion, Paraguay",285
3620018,"Captain Figari, Asuncion, Paraguay",285
5121136,"Captain Figari, Asuncion, Paraguay",285
3619789,"Captain José Domingo Lombardo, Asuncion, Paraguay",285
3622255,"Captain Nudelman, Asuncion, Paraguay",285
3622342,"Captan. Roman Garcia, Asuncion, Paraguay",285
3619193,"Carlos A Lopez, Asuncion, Paraguay",285
3619378,"Carlos A Lopez, Asuncion, Paraguay",285
3621432,"Carlos A Lopez, Asuncion, Paraguay",285
3622486,"Carlos A Lopez, Asuncion, Paraguay",285
3636026,"Carlos A. López, Encarnacion, Paraguay",285
3636191,"Carlos A. López, Encarnacion, Paraguay",285
3636383,"Carlos A. López, Encarnacion, Paraguay",285
3636390,"Carlos A. López, Encarnacion, Paraguay",285
3636394,"Carlos A. López, Encarnacion, Paraguay",285
3636397,"Carlos A. López, Encarnacion, Paraguay",285
5121615,"Carlos A. López, Encarnacion, Paraguay",285
3619393,"Carlos Antonio López &amp; Colón Avenue, Carlos Antonio López Avenue, Asuncion, Paraguay",285
3621217,"Carlos Antonio López Avenue, Asuncion, Paraguay",285
3621631,"Carlos Antonio López Avenue, Asuncion, Paraguay",285
3622343,"Carlos Antonio López, Asuncion, Paraguay",285
3622344,"Carlos Antonio López, Asuncion, Paraguay",285
5121606,"Carmen Castro 422 between Yegros and Molas, Carmen de Lara Castro, Encarnacion 6000, Paraguay",285
4965236,"Carretera que une Ciudad Presidente Franco y Saltos del Guairá, Hernandarias, Paraguay",285
4964353,"Castle Dr, Falmouth TR11 4LP, UK",285
4964360,"Castle Dyke, Launceston PL15 7DR, United Kingdom",285
4964350,"Castle Esplanade, Stirling FK8 1EJ, UK",285
4964354,"Castle Green, Kenilworth CV8 1NG, UK",285
4964361,"Castle Hill, Kippen, Stirling FK8 1EJ, UK",285
4964368,"Castle Park, Lancaster LA1 1YJ, UK",285
4964365,"Castle Rd, Scarborough YO11 1HY, UK",285
4964358,"Castle Sq, Ludlow SY8 1AY, UK",285
4964367,"Castle St, Castletown IM9 1LD, United Kingdom",285
4964362,"Castle Way, Carlisle CA3 8UR, UK",285
5733347,Cayman Islands,285
5733316,"cazaapá, Pdte. Franco 7700",285
3619746,"Cd. Del Este emiliano r Fernández fortuna Cambio, Paraguay",285
5733297,"Cdad., Cd. del Este",285
5733360,"Cdad., Cd. del Este",285
5733406,"Cdad., Cd. del Este",285
3619607,"Cdad., Cd. del Este, Paraguay",285
3619889,"Cdad., Cd. Del Este, Paraguay",285
3620098,"Cdad., Cd. del Este, Paraguay",285
4964130,"Cdad., Cd. del Este, Paraguay",285
4964133,"Cdad., Cd. del Este, Paraguay",285
4964180,"Cdad., Cd. del Este, Paraguay",285
5554358,"Cdad., Cd. del Este, Paraguay",285
3621811,"Cdad., Luis Alberto del Paraná, Cd. del Este, Paraguay",285
4964813,"Centro, Av. Mato Grosso, 1215 - Área Industrial, Naviraí - MS, 79950-000, Brazil",285
3621452,"Centro, Cd. del Este, Paraguay",285
3621377,"Centurion Miranda esq. San Martin, Roque Centurion Vantage point, Asuncio&#39;n, Paraguay",285
3620665,"Cerro Corá 1024, Asuncion, Paraguay",285
3620674,"Cerro Corá 2374, Asuncion, Paraguay",285
5120930,"Cerro Cora 247 10th floor Building Alfar 1, Asuncion 1209, Paraguay",285
3620666,"Cerro Corá 818, Asuncion, Paraguay",285
3620872,"Cerro Corá 829, Asuncion, Paraguay",285
3621087,"Cerro Corá 851, Asuncion, Paraguay",285
3621094,"Cerro Corá 904, Asuncion, Paraguay",285
3621793,"Cerro Corá, Asuncion, Paraguay",285
3636422,"Cerro Corá, Encarnacion, Paraguay",285
3619742,"Cesar Lopez Moreira, Asuncion, Paraguay",285
3620751,"Cesar Lopez Moreira, Asuncion, Paraguay",285
3620758,"Cesar López Moreira, Aviadores del Chaco Avenue, Asuncion, Paraguay",285
3620035,"Chaco Airmen, Asuncion, Paraguay",285
3622251,"Chaco Airmen, Asuncion, Paraguay",285
3620733,"Chaco Aviators Avenue, Asuncion, Paraguay",285
3621740,"Chaco Aviators Avenue, Asuncion, Paraguay",285
3622252,"Chaco Aviators Avenue, Asuncion, Paraguay",285
4965157,"Chanhassen, MN 55317, United States",285
3620691,"chap. Braulio Lezcano, Asuncion, Paraguay",285
5121013,"chap. Domingo Antonio Ortiz 1231, Asuncion, Paraguay",285
5121607,"Chaplain Molas, Encarnacion, Paraguay",285
3619154,"Charles De Gaulle Castillo, Asuncion, Paraguay",285
3619374,"Charles De Gaulle, Asuncion, Paraguay",285
3620767,"Charles De Gaulle, Asuncion, Paraguay",285
3622264,"Charles De Gaulle, Asuncion, Paraguay",285
3620392,"Chile, Asuncion, Paraguay",285
3620797,"Chile, Asuncion, Paraguay",285
4965017,"ciudad nueva km7, Paraguay",285
3619289,"Ciudad Nueva, Asuncion, Paraguay",285
3620348,"Ciudad Nueva, Asuncion, Paraguay",285
3620364,"Ciudad Nueva, Asuncion, Paraguay",285
3622144,"Ciudad Nueva, Asuncion, Paraguay",285
3623110,"Ciudad Nueva, Asuncion, Paraguay",285
3623114,"Ciudad Nueva, Asuncion, Paraguay",285
5553779,"Ciudad Nueva, Asuncion, Paraguay",285
5555520,"Ciudad Nueva, Asuncion, Paraguay",285
5121140,"Clementino Ocampos, Asuncion, Paraguay",285
3621017,"Cnel. Abdon Palacios, Asuncion, Paraguay",285
4964800,"Cnel. Alfredo Ramos, Cd. del Este, Paraguay",285
3619852,"Cnel. Dionisio Lirio 2341, Asuncion, Paraguay",285
5733267,"Cnel. José J. Sanchez, Cd. del Este",285
3622327,"Cnel. José J. Sanchez, Cd. del Este, Paraguay",285
5553344,"Cnel. José J. Sanchez, Cd. del Este, Paraguay",285
3622982,"Cnel. Ramón Diaz, Asuncion, Paraguay",285
4964504,"Co Rd 28, Julesburg, CO 80737, USA",285
3636596,"Colectora Sur, Encarnacion, Paraguay",285
5122391,"Colectora Sur, Encarnacion, Paraguay",285
4964438,"Colombia, Hernandarias, Paraguay",285
4964440,"Colombia, Hernandarias, Paraguay",285
5121258,"Colón 1130, Asuncion 1130, Paraguay",285
3621009,"Colón 2309, Asuncion, Paraguay",285
3621014,"Colón 469, Asuncion, Paraguay",285
5121262,"Colón 469, Asuncion, Paraguay",285
3619176,"Colon, Asuncion, Paraguay",285
3622081,"Colonel Juan Antonio Escurra, Asuncion, Paraguay",285
3636193,"Colonel Rafael Franco, Encarnacion, Paraguay",285
3636461,"Commercial Circuit of, Encarnacion, Paraguay",285
4964708,"Conavi, Hernandarias, Paraguay",285
3620240,"Constitucion Nacional, Cd. del Este, Paraguay",285
4964650,"Coquimbo Region, Chile",285
3621683,"Coronel Enrique Giménez, Cd. del Este, Paraguay",285
3621776,"Coronel Enrique Giménez, Cd. del Este, Paraguay",285
3622006,"Coronel Enrique Giménez, Cd. del Este, Paraguay",285
3621778,"Coronel Rafael Franco, Cd. del Este, Paraguay",285
3636002,"Costanera Avenue, Encarnacion, Paraguay",285
3636359,"Costanera Avenue, Encarnacion, Paraguay",285
3636586,"Costanera Avenue, Encarnacion, Paraguay",285
3637321,"Costanera Avenue, Encarnacion, Paraguay",285
3637323,"Costanera Avenue, Encarnacion, Paraguay",285
3621218,"Costanera Avenue, Rio Ypane, Asuncion, Paraguay",285
4964498,"County Rd 7.25, Pleasant View, CO 81331, USA",285
3619408,"Cruz Del Chaco, Asuncion, Paraguay",285
3619805,"Cruz Del Chaco, Asuncion, Paraguay",285
3619152,"Cruz del Defensor 241 almost Quesada, Asuncion 1892, Paraguay",285
3620008,"Cruz Del Defensor Esq. Dugraty, Asuncion, Paraguay",285
5733266,"Curupayry c, PY, 7000, Av. Adrián Jara, Cd. del Este",285
4964569,"Curupayty &, Pa'i Perez, Cd. del Este, Paraguay",285
3623084,"CURUPAYTY ESQ.PA´I PEREZ - EDIFICIO ADELA II, Curupayty, Cd. del Este, Paraguay",285
3623006,"Curupayty, Asuncion, Paraguay",285
3621064,"Curupayty, Cd. del Este, Paraguay",285
4964394,"Curupayty, Cd. Del Este, Paraguay",285
3636425,"Curupayty, Encarnacion, Paraguay",285
3636588,"Curupayty, Encarnacion, Paraguay",285
3636822,"Curupayty, Encarnacion, Paraguay",285
5121618,"Curupayty, Encarnacion, Paraguay",285
3619903,"Dad, Asuncion, Paraguay",285
4964632,"Damascus, Syria",285
3636464,"De Los Obreros, Encarnacion, Paraguay",285
5120947,"Del Maestro 1416, Asuncion, Paraguay",285
3621135,"Del Maestro, Asuncion, Paraguay",285
3621156,"Del Maestro, Asuncion, Paraguay",285
3621743,"Del Maestro, Asuncion, Paraguay",285
3620646,"Delfin Chamorro, Asuncion, Paraguay",285
4964633,"Djenne, Mali",285
5733356,"Don Bosco, Minga Guazú",285
5121269,"Don Osvaldo Kallsen 2221, Asuncion, Paraguay",285
3636489,"Doña Juana Maria de Lara, Encarnacion, Paraguay",285
3636493,"Doña Juana Maria de Lara, Encarnacion, Paraguay",285
3621086,"Gral Aquino, Asuncion, Paraguay",285
3636530,"Gral Artigas &amp; Cerro Corá, Encarnacion, Paraguay",285
3636177,"Gral Artigas, Encarnacion, Paraguay",285
3636404,"Gral Artigas, Encarnacion, Paraguay",285
3636590,"Gral Artigas, Encarnacion, Paraguay",285
5121484,"Gral Artigas, Encarnacion, Paraguay",285
4964356,"Green Street, Cardigan SA43 1JA, United Kingdom",285
3620404,"Guido Spano, Cd. del Este, Paraguay",285
3620769,"Guillermo Saraví, Asuncion, Paraguay",285
4964891,"Guyra Campana, Cd. del Este, Paraguay",285
4964634,"GX11 1AA, Gibraltar, GX11 1AA, Gibraltar",285
4964375,"Hailsham BN27 1RN, UK",285
4964961,"Hamlet Oasis, Kralendijk, Caribbean Netherlands",285
5121034,"Hector Vera, Asuncion, Paraguay",285
5121119,"Hector Vera, Asuncion, Paraguay",285
3621751,"Herminio Giménez, Asuncion, Paraguay",285
5733301,Hernandarias,285
5733318,Hernandarias,285
5733370,Hernandarias,285
5733382,Hernandarias,285
5733429,Hernandarias,285
4964532,"Hernandarias 7220, Paraguay",285
5121316,"Hernandarias, Asuncion, Paraguay",285
4964427,"Hernandarias, Mariano Roque Alonso, Paraguay",285
4964135,"Hernandarias, Paraguay",285
4964136,"Hernandarias, Paraguay",285
4964141,"Hernandarias, Paraguay",285
4964148,"Hernandarias, Paraguay",285
4964319,"Hernandarias, Paraguay",285
4964390,"Hernandarias, Paraguay",285
4964409,"Hernandarias, Paraguay",285
4964419,"Hernandarias, Paraguay",285
4964432,"Hernandarias, Paraguay",285
4964439,"Hernandarias, Paraguay",285
4964514,"Hernandarias, Paraguay",285
4964518,"Hernandarias, Paraguay",285
4964536,"Hernandarias, Paraguay",285
4964549,"Hernandarias, Paraguay",285
4964556,"Hernandarias, Paraguay",285
4964580,"Hernandarias, Paraguay",285
4964581,"Hernandarias, Paraguay",285
4964642,"Hernandarias, Paraguay",285
4964681,"Hernandarias, Paraguay",285
4964682,"Hernandarias, Paraguay",285
4964691,"Hernandarias, Paraguay",285
4964713,"Hernandarias, Paraguay",285
4964715,"Hernandarias, Paraguay",285
4964879,"Hernandarias, Paraguay",285
4964907,"Hernandarias, Paraguay",285
4964939,"Hernandarias, Paraguay",285
4964981,"Hernandarias, Paraguay",285
4965089,"Hernandarias, Paraguay",285
4965118,"Hernandarias, Paraguay",285
4965125,"Hernandarias, Paraguay",285
4965131,"Hernandarias, Paraguay",285
4965138,"Hernandarias, Paraguay",285
4965144,"Hernandarias, Paraguay",285
3619463,"Herrera 142, Asuncion, Paraguay",285
3619849,"herrera, Mayor Fleitas, Asuncion, Paraguay",285
3622161,"Hipodromo, Asuncion, Paraguay",285
3621016,"Holland, Asuncion, Paraguay",285
3620408,"Hospital Regional, Cd. del Este, Paraguay",285
4964497,"Hours subject to change., Visits by guided tour only., Call for tour schedule., 328 Martin Luther King Jr. Blvd., Camden, NJ 08103, United States",285
4965199,"Humaita, Pdte. Franco, Paraguay",285
5185724,"In front of APAMAP, Super Carretera, Cd. Del Este",285
3619826,"Indias, Asuncion, Paraguay",285
4964664,"Industrial, Canoas - RS, 92010-011, Brazil",285
4964396,"Inside the Mirage shopping mall, Cd. Del Este, Paraguay",285
3621176,"International Bridge of Friendship, Cd. Del Este, Paraguay",285
5121655,"Irrazábal Avenue, May 25, Encarnacion, Paraguay",285
3636009,"Ita Cua, Encarnacion, Paraguay",285
3619449,"Ita Enramada, Asuncion, Paraguay",285
3620010,"Ita Enramada, Asuncion, Paraguay",285
3621279,"Ita ybate n 772, Cd. del Este 7000, Paraguay",285
3619942,"Itá Ybaté, Cd. del Este, Paraguay",285
3620571,"Itá Ybaté, Cd. Del Este, Paraguay",285
4964720,"Itaipu Oeste e/ Los Lapachos, Itaipu Oeste, Cd. del Este 7000, Paraguay",285
5553332,"Itaipu Oeste, Cadete Pando, Cd. del Este 7000, Paraguay",285
3619877,"Itaipú Oeste, Cd. Del Este, Paraguay",285
3622373,"Itaipú Oeste, Cd. del Este, Paraguay",285
3619172,"Iturbe 1002, Asuncion, Paraguay",285
3621101,"Iturbe 1065, Asuncion, Paraguay",285
3619389,"Iturbe 1156, Asuncion 1158, Paraguay",285
3621002,"Iturbe 1334, Asuncion, Paraguay",285
3620642,"Iturbe 1582, Asuncion, Paraguay",285
3620804,"Iturbe 1659, Asuncion, Paraguay",285
3621682,"Jacaranda, Cd. del Este, Paraguay",285
3637287,"Japan Avenue corner Sgto Revechon, Encarnacion 6000, Paraguay",285
3636014,"Japan Avenue, Encarnacion, Paraguay",285
3636479,"Japan Avenue, Encarnacion, Paraguay",285
3636594,"Japan Avenue, Encarnacion, Paraguay",285
5121608,"Japan Avenue, Encarnacion, Paraguay",285
5121609,"Japan Avenue, Encarnacion, Paraguay",285
3620701,"Jardín del Este, Cd. del Este, Paraguay",285
3622338,"Jebai Center, 3° Piso salas 1005 e 1010, Cd. del Este, Paraguay",285
5121358,"Jejuí, Asuncion, Paraguay",285
5121361,"Jejuí, Asuncion, Paraguay",285
4964494,"Jolon Rd, King City, CA 93930, USA",285
3636871,"Jorge Memmel, between Mcal. Estigarribia and Carlos Antonio Lopez ,, Monarilla Shopping Center, Jorge Memmel Jorge Memmel, between Mcal. Estigarribia and Carlos Antonio Lopez, Encarnacion, Paraguay",285
3636118,"Jorge Memmel, Encarnacion, Paraguay",285
3636125,"Jorge Memmel, Encarnacion, Paraguay",285
3620667,"José Asuncion Flores, Asuncion, Paraguay",285
3637032,"Jose Asuncion Flores, Encarnacion, Paraguay",285
3622995,"José Berges, Asuncion, Paraguay",285
5121249,"Jose Maria Morelos, Asuncion, Paraguay",285
5553363,"José Martí, Cd. del Este, Paraguay",285
5553699,"José Martí, Cd. del Este, Paraguay",285
3620628,"Jose Ocampos Lanzoni, Asuncion, Paraguay",285
3619834,"Juan A. Gelly, Asuncion, Paraguay",285
3619818,"Juan Domingo Perón Avenue, Asuncion, Paraguay",285
3619171,"Juan E. O&#39;Leary, Asuncion, Paraguay",285
3620394,"Juan E. O&#39;Leary, Asuncion, Paraguay",285
3636573,"Juan L. Mallorquín 1220, Encarnacion, Paraguay",285
3636635,"Juan L. Mallorquín 1220, Encarnacion, Paraguay",285
3636041,"Juan L. Mallorquín, Encarnacion, Paraguay",285
3636128,"Juan L. Mallorquín, Encarnacion, Paraguay",285
3636388,"Juan L. Mallorquín, Encarnacion, Paraguay",285
3636408,"Juan L. Mallorquín, Encarnacion, Paraguay",285
3636570,"Juan L. Mallorquín, Encarnacion, Paraguay",285
4964119,"Juan Martinich, Cd. del Este, Paraguay",285
5554984,"Juan Martinich, Cd. del Este, Paraguay",285
3620021,"Juan Z De San Martin 2145, Asuncion 1615, Paraguay",285
3619688,"Juan Zorrilla De San Martin, Asuncion, Paraguay",285
4964407,"Juana de Lara, Minga Guazú, Paraguay",285
4965129,"Juana de Lara, Minga Guazú, Paraguay",285
3622556,"Julio Cesar Riquelme Avenue almost December 25, Julio Cesar Riquelme, Cd. del Este, Paraguay",285
3621290,"Julio Cesar Riquelme Avenue, Cd. del Este, Paraguay",285
3621531,"Julio Cesar Riquelme casi Pampa, Cd. del Este, Paraguay",285
5733259,"Julio Cesar Riquelme, Cd. del Este",285
3620075,"Julio Cesar Riquelme, Cd. del Este 7000, Paraguay",285
3622377,"Julio Cesar Riquelme, Cd. del Este 7000, Paraguay",285
4964156,"Julio Cesar Riquelme, Cd. del Este 7000, Paraguay",285
5554350,"Julio Cesar Riquelme, Cd. del Este 7000, Paraguay",285
3619592,"Julio Cesar Riquelme, Cd. del Este, Paraguay",285
3620375,"Julio Cesar Riquelme, Cd. del Este, Paraguay",285
3621287,"Julio Cesar Riquelme, Cd. del Este, Paraguay",285
3621708,"Julio Cesar Riquelme, Cd. del Este, Paraguay",285
3621709,"Julio Cesar Riquelme, Cd. del Este, Paraguay",285
3621786,"Julio Cesar Riquelme, Cd. del Este, Paraguay",285
3621810,"Julio Cesar Riquelme, Cd. del Este, Paraguay",285
3622384,"Julio Cesar Riquelme, Cd. del Este, Paraguay",285
3622563,"Julio Cesar Riquelme, Cd. del Este, Paraguay",285
3622571,"Julio Cesar Riquelme, Cd. del Este, Paraguay",285
4964116,"Julio Cesar Riquelme, Cd. del Este, Paraguay",285
4964153,"Julio Cesar Riquelme, Cd. del Este, Paraguay",285
4964155,"Julio Cesar Riquelme, Cd. del Este, Paraguay",285
4964558,"Julio Cesar Riquelme, Cd. del Este, Paraguay",285
4964601,"Julio Cesar Riquelme, Cd. del Este, Paraguay",285
4964842,"Julio Cesar Riquelme, Cd. del Este, Paraguay",285
4964919,"Julio Cesar Riquelme, Cd. del Este, Paraguay",285
4965032,"Julio Cesar Riquelme, Cd. del Este, Paraguay",285
4965036,"Julio Cesar Riquelme, Cd. del Este, Paraguay",285
5553368,"Julio Cesar Riquelme, Cd. del Este, Paraguay",285
5554979,"Julio Cesar Riquelme, Cd. del Este, Paraguay",285
5121116,"July 14, Asuncion, Paraguay",285
3620793,"Justice Square, Asuncion, Paraguay",285
3620034,"Kabichu&#39;i Recorders 2873, Asuncion, Paraguay",285
4964378,"Kasteelstraat 40, 1750 Lennik, Belgium",285
4964777,"Kilómetro 6 Monday, Pdte. Franco, Paraguay",285
3622561,"km 11 acaray a 3 cuadras de la ruta N°7, Cd. del Este, Paraguay",285
3622543,"Km 11 Monday, Cd. del Este, Paraguay",285
4964774,"km 11, Monday, Cd. del Este, Paraguay",285
3620991,"Km 12 Monday, Cd. Del Este 7000, Paraguay",285
5733350,"Km 13.5 Acaray Barrio Santa Mónica, Minga Guazú 0000",285
5733424,"Km 16 - Centro Urbano, Minga Guazu 7420",285
3619991,"km 2,5, Avenida San Blás, Cd. del Este, Paraguay",285
3620059,"km 4, Mcal. Francisco Solano Lopez, Cd. del Este, Paraguay",285
4964158,"Km 7, José Martí, Cd. del Este, Paraguay",285
5733263,"km 8 1, 2 monday, Pdte. Franco",285
3619959,"km 8 1/2, Acaray Nte, Cd. del Este, Paraguay",285
5757496,"KM 8 Monday, Ruta 7 - Plaza Jesuitica, Cd. del Este 7000, Paraguay",285
4964391,"KM 8.5 FRANCO, Paraguay",285
3622530,"km 9 a 1300 mtrs de la ruta internacional a una cuadras del mini mercado gustavito*, Monday, Cd. del Este, Paraguay",285
3619807,"km 9 Monday, Cd. del Este, Paraguay",285
3622533,"km 9 Monday, Cd. del Este, Paraguay",285
4964560,"km, 7, Ciudad Nueva, Paraguay",285
4964458,"km4, Paraguay",285
3621310,"km7 monday, Cd. del Este, Paraguay",285
4964341,"Km8 sobre la, Avenida Monday, Cedrales, Pdte. Franco, Paraguay",285
4964372,"Kronborg 2 C, 3000 Helsingør, Denmark",285
3619373,"La Costanera Beach, Asuncion, Paraguay",285
4964703,"Lago de la Republica, Paraguay",285
3620494,"Laguna Principal, Asuncion, Paraguay",285
3620492,"Laguna, Asuncion, Paraguay",285
3620493,"Laguna, Asuncion, Paraguay",285
3620417,"Lake of the Republic, Cd. Del Este, Paraguay",285
3621838,"Las Hortencias, Cd. del Este, Paraguay",285
4964890,"Las Hortencias, Cd. del Este, Paraguay",285
3619586,"Las Margaritas, Cd. del Este, Paraguay",285
4964405,"Las Mingueras, Minga Guazú, Paraguay",285
5185721,"Las Orquideas A16, Cd. Del Este 7000",285
3620934,"Las Orquideas, Cd. Del Este, Paraguay",285
5733315,"Las Orquideas, Pdte. Franco",285
4964913,"Las Ortencias e/ Ernesto Baez, Las Hortencias, Cd. del Este 7000, Paraguay",285
4964618,"Leesburg Pike, McLean, VA 22102, USA",285
3619856,"Libertad, Asuncion, Paraguay",285
4964836,"Llanberis, Caernarfon LL55 4TY, UK",285
3636688,"Los Cedros, Encarnacion, Paraguay",285
3619875,"Los Lapachos, Cd. Del Este 700, Paraguay",285
3620578,"Los Lapachos, Cd. del Este, Paraguay",285
3621542,"Los Lapachos, Cd. del Este, Paraguay",285
3622297,"Los Lapachos, Cd. del Este, Paraguay",285
4964164,"Los Lapachos, Mcal. Francisco Solano Lopez, Cd. del Este 7000, Paraguay",285
3620219,"Los Lapachos., Calle sin salida, Cd. del Este, Paraguay",285
3619989,"Los Sauces, Cd. Del Este, Paraguay",285
3621538,"Los Sauces, Cd. Del Este, Paraguay",285
3621262,"Los Troperos, Cd. del Este, Paraguay",285
4964505,"Lovell, WY 82431, USA",285
5554333,"Luis Alberto de Herrera, Asuncion, Paraguay",285
5733359,Luis Alberto del Paraná Paraná Country Club Hernandarias,285
3621170,"Mac Mahon, Asuncion, Paraguay",285
3621237,"Madame Lynch, Asuncion, Paraguay",285
4965220,"Main Road, Ballaugh IM7 5EA, Isle of Man",285
3621049,"Major Emilio Pastore, Asuncion, Paraguay",285
3620637,"Manduvira ,, Chile, Asuncion, Paraguay",285
3619384,"Manduvira esq c / Chile 980, Chile, Asuncion 1, Paraguay",285
3619390,"Manduvira, Asuncion, Paraguay",285
3621794,"Manduvira, Asuncion, Paraguay",285
5733253,"Manduvira, Pdte. Franco",285
3622410,"Manoel Ortiz Guerrero, Cd. del Este, Paraguay",285
3619469,"Manuel Dominguez 489 Corner Mexico, Asuncion 1208, Paraguay",285
3619817,"Manuel Gamarra, Asuncion, Paraguay",285
5121362,"Manuel Gondra &amp; Fernando Mompox, Asuncion, Paraguay",285
3621117,"Manuel Gondra, Asuncion 2300, Paraguay",285
5121315,"Manuel Gondra, Asuncion, Paraguay",285
3621078,"Manuel Ortiz Guerrero 704 esq. Antequera, Manuel Ortíz Guerrero 704, Asuncion, Paraguay",285
3622989,"Manuel Talavera, Asuncion, Paraguay",285
5121018,"Marcileno Martinez 555, Asuncion, Paraguay",285
4965208,"Mariscal Francisco Solano López, Minga Guazú 7420, Paraguay",285
3620966,"Mariscal José F. Estigarribia, Cd. Del Este, Paraguay",285
3622941,"Mariscal José F. Estigarribia, Cd. del Este, Paraguay",285
5741768,"Mariscal José F. Estigarribia, Cd. del Este, Paraguay",285
5553350,"Mariscal José Felix Estigarribia y Buongermini, Cd. del Este 7000, Paraguay",285
4964683,"Mariscal José Félix Estigarribia, Minga Guazú, Paraguay",285
5121314,"Mariscal López 992, Asuncion 1315, Paraguay",285
3619859,"Mariscal Lopez, Asuncion 2351, Paraguay",285
3619205,"Mariscal Lopez, Asuncion, Paraguay",285
3621221,"Mariscal Lopez, Asuncion, Paraguay",285
3623141,"Mariscal Lopez, Asuncion, Paraguay",285
5553111,"Mariscal Lopez, Asuncion, Paraguay",285
5553300,"Mariscal Lopez, Asuncion, Paraguay",285
3636848,"May 14, 44, Encarnacion, Paraguay",285
3619739,"May 14, 822 almost Humaita, Asuncion 1209, Paraguay",285
3619173,"May 14, Asuncion, Paraguay",285
3619824,"May 14, Asuncion, Paraguay",285
3636040,"May 14, Encarnacion, Paraguay",285
3636117,"May 14, Encarnacion, Paraguay",285
3636123,"May 14, Encarnacion, Paraguay",285
3636403,"May 14, Encarnacion, Paraguay",285
3636405,"May 14, Encarnacion, Paraguay",285
3636407,"May 14, Encarnacion, Paraguay",285
5121253,"May 25 and Mexico, Mexico, Asuncion 1000, Paraguay",285
5120928,"May 25, 3961, Asuncion 1409, Paraguay",285
5120925,"May 25, 3961, Asuncion, Paraguay",285
3620990,"May 25, 993, Asuncion, Paraguay",285
3619802,"May 25, Asuncion, Paraguay",285
3620671,"May 25, Asuncion, Paraguay",285
3620678,"May 25, Asuncion, Paraguay",285
3621005,"May 25, Asuncion, Paraguay",285
3621096,"May 25, Asuncion, Paraguay",285
3621106,"May 25, Asuncion, Paraguay",285
3621108,"May 25, Asuncion, Paraguay",285
3621220,"May 25, Asuncion, Paraguay",285
5121257,"May 25, Asuncion, Paraguay",285
3636389,"May 25, Encarnacion, Paraguay",285
3636845,"May 25, Encarnacion, Paraguay",285
3623177,"Mayor Alfredo Placita, Cd. del Este, Paraguay",285
4964936,"Mayor Alfredo Placita, Cd. del Este, Paraguay",285
3622240,"Mayor Fleitas, Asuncion, Paraguay",285
3636003,"Mboi Ka&#39;ê Beach, Encarnacion, Paraguay",285
3619221,"Mcal Estigarribia, Asuncion, Paraguay",285
5553139,"Mcal Estigarribia, Asuncion, Paraguay",285
5555511,"Mcal Estigarribia, Asuncion, Paraguay",285
4964161,"Mcal Francisco Solano Lopez e/ Las Tortolas, Mcal. Francisco Solano Lopez, Cd. del Este 7000, Paraguay",285
5121477,"Mcal. Estigarribia 1414, Encarnacion 6000, Paraguay",285
5121309,"Mcal. Estigarribia 892, Asuncion, Paraguay",285
5121360,"Mcal. Estigarribia 982, Asuncion, Paraguay",285
3621104,"Mcal. Estigarribia 991, Asuncion, Paraguay",285
3619166,"Mcal. Estigarribia, Asuncion, Paraguay",285
3636124,"Mcal. Estigarribia, Encarnacion, Paraguay",285
3636384,"Mcal. Estigarribia, Encarnacion, Paraguay",285
3636419,"Mcal. Estigarribia, Encarnacion, Paraguay",285
3636426,"Mcal. Estigarribia, Encarnacion, Paraguay",285
3636566,"Mcal. Estigarribia, Encarnacion, Paraguay",285
3636697,"Mcal. Estigarribia, Encarnacion, Paraguay",285
3636842,"Mcal. Estigarribia, Encarnacion, Paraguay",285
3637044,"Mcal. Estigarribia, Encarnacion, Paraguay",285
3621534,"Mcal. Francisco Solano Lopez, Cd. del Este 7000, Paraguay",285
4964162,"Mcal. Francisco Solano Lopez, Cd. del Este 7000, Paraguay",285
3620058,"Mcal. Francisco Solano Lopez, Cd. del Este, Paraguay",285
3621247,"Mcal. Francisco Solano Lopez, Cd. del Este, Paraguay",285
4964197,"Mcal. Francisco Solano Lopez, Cd. Del Este, Paraguay",285
5553333,"Mcal. Francisco Solano Lopez, Cd. del Este, Paraguay",285
4964699,"Mcal. José F. Estigarribia, Cd. del Este, Paraguay",285
3621272,"Mcal. López casi Trebol Km 4 - Supercarretera 155, Cd. del Este, Paraguay",285
3620745,"Melvin Jones, Asuncion, Paraguay",285
3619224,"Mercedes, Asuncion, Paraguay",285
4964621,"Metro Station, Lake Arbor, MD 20774, USA",285
3619462,"Mexico 554, Dowtown, Asuncion, Paraguay, Asuncion, Paraguay",285
3620789,"Mexico, Asuncion, Paraguay",285
3620876,"Mexico, Asuncion, Paraguay",285
5733244,Minga Guazú,285
5733313,Minga Guazú,285
5733324,Minga Guazú,285
4964109,"Minga Guazú, Paraguay",285
4964147,"Minga Guazú, Paraguay",285
4964232,"Minga Guazú, Paraguay",285
4964413,"Minga Guazú, Paraguay",285
4964418,"Minga Guazú, Paraguay",285
4964455,"Minga Guazú, Paraguay",285
4964521,"Minga Guazú, Paraguay",285
4964644,"Minga Guazú, Paraguay",285
4964712,"Minga Guazú, Paraguay",285
4964714,"Minga Guazú, Paraguay",285
4964802,"Minga Guazú, Paraguay",285
4964837,"Minga Guazú, Paraguay",285
4964854,"Minga Guazú, Paraguay",285
4964876,"Minga Guazú, Paraguay",285
4964878,"Minga Guazú, Paraguay",285
4964940,"Minga Guazú, Paraguay",285
4965062,"Minga Guazú, Paraguay",285
4965071,"Minga Guazú, Paraguay",285
4965080,"Minga Guazú, Paraguay",285
4965100,"Minga Guazú, Paraguay",285
4965108,"Minga Guazú, Paraguay",285
4965212,"Minga Guazú, Paraguay",285
5733362,"Monday 2, Pdte. Franco",285
3621817,"Monday Norte, Cd. del Este, Paraguay",285
4964467,"Monday Norte, Cd. del Este, Paraguay",285
3619810,"Monday, Cd. del Este, Paraguay",285
5554699,"Monday, Cd. del Este, Paraguay",285
4964487,"Morgan Hill, CA 95037, USA",285
5121611,"Nameless Street, Encarnacion, Paraguay",285
3636565,"National Constitution, Encarnacion, Paraguay",285
3636638,"National Constitution, Encarnacion, Paraguay",285
4964221,"NE Healy Rd &amp; NE Belvins Rd, Amboy, WA 98601, USA",285
4964503,"Needles, CA 92363, USA",285
4964377,"Newport Street, Clun Castle, Clun SY7 8JT, United Kingdom",285
3621380,"Nicanor Torales, Asuncion, Paraguay",285
3621604,"No. 231, Constitution, Asuncion, Paraguay",285
4964622,"North Bethesda, MD 20852, United States",285
4965069,"North Malecon Beachfront Road, Canoa, Ecuador",285
3621365,"Nro 432, Ayolas, Asuncion, Paraguay",285
3619770,"Nurses from Chaco, Cd. Del Este, Paraguay",285
3620123,"Obrero, Asuncion, Paraguay",285
3622885,"Obrero, Asuncion, Paraguay",285
5553688,"Obrero, Asuncion, Paraguay",285
5555288,"Obrero, Asuncion, Paraguay",285
4964208,"Odone Sarubbi, Pdte. Franco, Paraguay",285
3619175,"Oliva, Asuncion, Paraguay",285
3620692,"Oliva, Asuncion, Paraguay",285
3622976,"Oliva, Asuncion, Paraguay",285
3619632,"Pa&#39;i Perez, Cd. Del Este, Paraguay",285
3621066,"Pa'i Perez, Cd. del Este, Paraguay",285
4964184,"Pa'i Perez, Cd. del Este, Paraguay",285
3619590,"Pablo Neruda, Cd. del Este, Paraguay",285
3622401,"Pablo Neruda, Cd. del Este, Paraguay",285
5553702,"Padre Guillermo Balman, Cd. del Este, Paraguay",285
4964559,"Padre Guillermo Bouttman, Cd. del Este, Paraguay",285
5121266,"Pai Perez 637 Between Herrera and Azara, Pai Perez 637, Asuncion 0000, Paraguay",285
3620638,"Palma 562, Asuncion 1230, Paraguay",285
3619394,"Palma, Asuncion, Paraguay",285
3619396,"Palma, Asuncion, Paraguay",285
3620656,"Palma, Asuncion, Paraguay",285
3620884,"Palma, Asuncion, Paraguay",285
3622265,"Palma, Asuncion, Paraguay",285
3619735,"Pampa Grande, Cd. Del Este, Paraguay",285
3621998,"Pampa Grande, Cd. del Este, Paraguay",285
3622952,"Pampa Grande, Cd. del Este, Paraguay",285
4964609,"Pampa Grande, Cd. del Este, Paraguay",285
4964384,"PAMPA GRANDE, Lot, 18, Cd. Del Este, Paraguay",285
4965169,"Pampliega c/ Adrian Jara y Pa´i Pérez, Cd. del Este, Paraguay",285
3622521,"Pampliega, Cd. del Este, Paraguay",285
3622918,"Pampliega, Cd. del Este, Paraguay",285
5553358,"Pampliega, Cd. del Este, Paraguay",285
5185732,"Pampliega, Cd. from the East",285
4965182,"Pampliega, Pa'i Perez, Cd. del Este, Paraguay",285
4964832,"Panchashil Nagar, Jafrabad, Akola, Maharashtra 444001, India",285
5733254,"Panchito López 407, Ciudad presidente franco 7000",285
5733291,"Paraguarí c/ 1° de marzo, Hernandarias",285
4964113,Paraguay,285
4964144,Paraguay,285
4964154,Paraguay,285
4964169,Paraguay,285
4964410,Paraguay,285
4964459,Paraguay,285
4964464,Paraguay,285
4964468,Paraguay,285
4964520,Paraguay,285
4964554,Paraguay,285
4964695,Paraguay,285
4964785,Paraguay,285
4964858,Paraguay,285
4964859,Paraguay,285
4964862,Paraguay,285
4964864,Paraguay,285
4964870,Paraguay,285
4964880,Paraguay,285
4964964,Paraguay,285
4964966,Paraguay,285
4964976,Paraguay,285
3619432,"Paraguay River, Asuncion, Paraguay",285
3619888,"Paraguay Street, Cd. Del Este, Paraguay",285
5553353,"Paraguay, Avda. Rogelio Benitez, Cd. del Este, Paraguay",285
4964727,"Paraguay, Cd. del Este, Paraguay",285
3636872,"Paraguay, Gral Cabañas, Encarnacion, Paraguay",285
4964417,"Paraná Country Club, Paraguay",285
4965185,"Paraná Country Club, Paraguay",285
4964218,"Paraná River, Cd. Del Este, Paraguay",285
4964389,"Paranagua Nº 908, Hernandarias, Paraguay",285
3621650,"Parapiti 1641 e / 4th. and 5th. Asuncion ,, Parapití 1641, Asuncion, Paraguay",285
5185718,"Parapití Porâ, Cd. Del Este",285
3621702,"Parapití Porâ, Cd. del Este, Paraguay",285
3621765,"Parapití Porâ, Cd. del Este, Paraguay",285
3621942,"Parapití Porâ, Cd. Del Este, Paraguay",285
3619142,"Parirí, Asuncion, Paraguay",285
3621759,"Parque Jose Asuncion Flores, Los Lapachos, Cd. del Este, Paraguay",285
3619179,"Pasaje Molas, Asuncion, Paraguay",285
3620647,"Pasaje Porvenir 1082, Asuncion, Paraguay",285
3621124,"Paseo Carmelitas, Asuncion, Paraguay",285
4965166,"Pawtucket, RI 02860, United States",285
3623083,"Pa´i Pérez c/, Pioneros del Este, Cd. del Este, Paraguay",285
3619167,"Pdte Franco, Asuncion, Paraguay",285
3620393,"Pdte Franco, Asuncion, Paraguay",285
3621735,"Pdte Franco, Asuncion, Paraguay",285
3622994,"Pdte Franco, Asuncion, Paraguay",285
4964516,"Penumaka - Vijayawada Rd, Near Prakasam Barrage, Guntur, Andhra Pradesh 522501, India",285
4964651,Peru,285
4964656,Peru,285
3619165,"Pettirossi, Asuncion, Paraguay",285
3619182,"Pettirossi, Asuncion, Paraguay",285
3619185,"Pettirossi, Asuncion, Paraguay",285
3619210,"Pettirossi, Asuncion, Paraguay",285
3619215,"Pettirossi, Asuncion, Paraguay",285
3620136,"Pettirossi, Asuncion, Paraguay",285
3622014,"Pettirossi, Asuncion, Paraguay",285
3622256,"Pettirossi, Asuncion, Paraguay",285
3622509,"Pettirossi, Asuncion, Paraguay",285
5553138,"Pettirossi, Asuncion, Paraguay",285
5555503,"Pettirossi, Asuncion, Paraguay",285
3621722,"Pinozá, Asuncion, Paraguay",285
3622147,"Pinozá, Asuncion, Paraguay",285
5553683,"Pinozá, Asuncion, Paraguay",285
3620704,"Piribebury Regiment, Cd. Del Este, Paraguay",285
3621929,"Piribebury Regiment, Cd. Del Este, Paraguay",285
5121143,"Piribebuy, Asuncion, Paraguay",285
5121212,"Piribebuy, Asuncion, Paraguay",285
5121359,"Piribebuy, Asuncion, Paraguay",285
3622003,"Piribebuy, Cd. Del Este, Paraguay",285
3619388,"Piribebuy, Chile, Asuncion, Paraguay",285
