place_id,address,countries_id
4923509,"&, Av 40 Calle Alborada, San José, Costa Rica",51
4926029,"0, San José, Sabanilla, Costa Rica",51
4927588,"01 ,, Av del Libertador Juan Rafael Mora Porras, San José, Costa Rica",51
4927299,"1 Km al Oeste de Casa Presidencial, San José, 10105, Costa Rica",51
4923739,"1, Heredia Province, San José, Costa Rica",51
5730089,"1, San José Province, San José",51
4923134,"1, San José Province, San José, Costa Rica",51
4923537,"1, San José Province, San José, Costa Rica",51
4923672,"1, San José Province, San José, Costa Rica",51
4926692,"1, San José Province, San José, Costa Rica",51
4926881,"1, San José Province, San José, Costa Rica",51
4926888,"1, San José Province, San José, Costa Rica",51
4927083,"1, San José Province, San José, Costa Rica",51
4927217,"1, San José Province, San José, Costa Rica",51
4927218,"1, San José Province, San José, Costa Rica",51
4927220,"1, San José Province, San José, Costa Rica",51
4927223,"1, San José Province, San José, Costa Rica",51
4927323,"1, San José Province, San José, Costa Rica",51
4923396,"1, San José, Costa Rica",51
4924364,"1.2 Km al Este de Acueductos de Mata de Platano, 205, San José, Goicoechea, Costa Rica",51
5729877,"100 m este agencia Datsun, San José",51
4924383,"100 m este del Edificio del Grupo Nación en Tibás., 101, San José, Costa Rica",51
5729818,"100 m norte catedral La, Av. Central, San José",51
5747659,"100 m Oeste Iglesia Catolica, Provincia de Guanacaste, Sámara, 50205, Costa Rica",51
4924744,"100 meters East from the National Museum, Edificio Esquinero, Avenida Segunda 1908, San José, Costa Rica",51
433732,"100 meters from Intercultura, Playa Samara, 0000, Costa Rica",51
4926816,"100 meters west and 25 south of the Guadalupe Red Cross., San José, Guadalupe, Costa Rica",51
4925916,"100 metros al oeste y 100 Sur de la Municipalidad de Moravia, Edificio, esquinero 3 plantas, primer piso, San José, San Vicente, Costa Rica",51
4923197,"100 METROS AL SUR DE LA ROTONDA DE LAS GARANTIAS SOCIALES, SHOPPERS ZAPOTE, San José Province, Costa Rica",51
4927321,"100 metros este del Parque Morazán, Avenida, Calle 11, San José, Costa Rica",51
4923575,"100 METROS OESTE DE LA MAC DONALDS BOULEVAR ROHRMOSER, FRESH MARKET ROHRMOSER, San José Province, Costa Rica",51
4927616,"100 sur restaurante Plaza España, de, Calle Hoja Blanca, San José Province, Escazu, Costa Rica",51
4926635,"100, San José Province, Calle Blancos, Costa Rica",51
4926684,"100, San José Province, Calle Blancos, Costa Rica",51
4923223,"100, San José Province, San José, Costa Rica",51
4924263,"100, San José Province, San José, Costa Rica",51
4924389,"100, San José Province, San José, Costa Rica",51
4926124,"100, San José Province, San José, Costa Rica",51
4924778,"1000, Calle Costa Rica, San José, Costa Rica",51
4927367,"1001, San José, Patarrá, Costa Rica",51
4924172,"100m norte del Mas x Menos, San José, Tibás, Costa Rica",51
5111687,"100m north of Sol i mar, Samara, 95555, Costa Rica",51
4924351,"100m Sur de la Iglecia del, Calle Central Alfredo Volio, San José, Costa Rica",51
4925931,"101, San José Province, Tibas, Costa Rica",51
4927165,"101, San José Province, Tibas, Costa Rica",51
5730032,"10101, San José",51
4923325,"10108 San José, general cañas, agencia Datsun, San José, Costa Rica",51
4925799,"10110 San José San José CR, San José, Costa Rica",51
4923136,"102, San José Province, Tibas, Costa Rica",51
4924471,"102, San José, Moravia, Costa Rica",51
4923279,"10201, San José, Escazú, Costa Rica",51
5184646,"104 avenue 106 street, 2 blocks west of the United States Embassy, San José",51
5730277,"104, San José",51
4924076,"104, San José, Costa Rica",51
4924249,"104, San José, Costa Rica",51
4925483,"104, San José, Costa Rica",51
4925684,"104, San José, Costa Rica",51
4926731,"104, San José, Costa Rica",51
4926869,"104, San José, Costa Rica",51
4927060,"104, San José, Costa Rica",51
4927556,"104, San José, Costa Rica",51
4927564,"104, San José, Costa Rica",51
4927566,"104, San José, Costa Rica",51
4927571,"104, San José, Costa Rica",51
4927579,"104, San José, Costa Rica",51
4927620,"104, San José, Costa Rica",51
4927624,"104, San José, Costa Rica",51
4924382,"105, San José Province, Alajuelita, Costa Rica",51
5729932,"105, San José Province, Escazu",51
5730065,"105, San José Province, Escazu",51
4925706,"105, San José Province, Escazu, Costa Rica",51
4926408,"105, San José Province, Escazu, Costa Rica",51
4927116,"105, San José Province, Escazu, Costa Rica",51
5729842,"105, San José, Escazú",51
4924090,"105, San José, Escazú, Costa Rica",51
4924132,"105, San José, Escazú, Costa Rica",51
4927559,"105, San José, Escazú, Costa Rica",51
4927563,"105, San José, Escazú, Costa Rica",51
5729953,"108, San José Province, San José",51
4927255,"108, San José Province, San José, Costa Rica",51
4923334,"108, San José, Costa Rica",51
4924259,"108, San José, Costa Rica",51
4924777,"109, San José Province, San José, Costa Rica",51
4923336,"109, San José Province, San Vicente, Costa Rica",51
4926717,"109, San José, Guadalupe, Costa Rica",51
4926120,"11, Calle 20, San José, Costa Rica",51
4923327,"110, San José Province, San José, Costa Rica",51
4924251,"110, San José Province, San José, Costa Rica",51
4924773,"110, San José Province, San José, Costa Rica",51
4926855,"110, San José Province, San José, Costa Rica",51
4927161,"110, San José Province, San José, Costa Rica",51
4926474,"1100, Calle 164, San José, Costa Rica",51
4923282,"11403, San José Province, Moravia, 11403, Costa Rica",51
5729905,"11501, Av 2, San José, 11501",51
4926066,"11801, San José, Zapote, Frente a Casa Blanca, Plaza del Castillo, 11801, Costa Rica",51
4926064,"11803, A066, San José, Curridabat, 11803, Costa Rica",51
5730062,"121, San José, Piedades",51
4923458,"125 M. Oeste De La Municipalidad, San José Province, Escazu, Costa Rica",51
4923047,"132, Av. 13, San José, Costa Rica",51
4925225,"134th Street, San José, Escazú, Costa Rica",51
5730279,"147, San José",51
4923700,"147, San José, Pozos, Costa Rica",51
4924441,"147, San José, Pozos, Costa Rica",51
5184579,"14th Street, San José",51
4923190,"150 Este del Club Union, Av. 1, San José, Costa Rica",51
4923245,"150 m norte de la Catedral Metropolitana, Calle Central Alfredo Volio, San José, Costa Rica",51
5104233,"150 meters east of KFC, Jacó, 61101, Costa Rica",51
4927491,"150 meters north of Rostipollos Restaurant, San José, Costa Rica",51
434453,"150 meters west of the National Bank of Costa Rica on the way to Cangrejal beach, Sámara, 50205, Costa Rica",51
4923067,"150 metros al Este del Concejo Municipal de, Paseo de los Estudiantes, San José, 5694, Costa Rica",51
4924102,"150 mts norte de la estación al Pacífico, calle 2, avenidas 16 y 18, San José, Costa Rica",51
4923014,"150 mts. Este de la Antigua Aduana, Avenida 7, Calles 29 y 31, San José, Costa Rica",51
434444,"150, Guanacaste Province, Sámara, Costa Rica",51
4924297,"150m este del cruce de la Paco, Calle Real, San José, Escazú, Costa Rica",51
4926426,"150mts Oeste de sala Garbo,, Av 2, San José, Costa Rica",51
5184569,"15th Street 11th Avenue, San José",51
5738215,"160 State street, Provincia de Guanacaste, Sámara, 50205, Costa Rica",51
433800,"160, Guanacaste Province, Sámara, Costa Rica",51
433804,"160, Guanacaste Province, Sámara, Costa Rica",51
434057,"160, Guanacaste Province, Sámara, Costa Rica",51
434142,"160, Guanacaste Province, Sámara, Costa Rica",51
434195,"160, Guanacaste Province, Sámara, Costa Rica",51
434300,"160, Guanacaste Province, Sámara, Costa Rica",51
434451,"160, Guanacaste Province, Sámara, Costa Rica",51
4926952,"166, Provincia de San José, San José, Costa Rica, San José, Costa Rica",51
4924126,"166, San José Province, San José, Costa Rica",51
5730072,"167, San José",51
5730273,"167, San José",51
4923740,"167, San José, Costa Rica",51
4924164,"167, San José, Costa Rica",51
4926714,"167, San José, Costa Rica",51
4926969,"167, San José, Costa Rica",51
4927330,"167, San José, Costa Rica",51
4927406,"167, San José, Costa Rica",51
4927583,"167, San José, Costa Rica",51
4927618,"167, San José, Costa Rica",51
4924273,"167, San José, Escazú, Costa Rica",51
4925252,"2, 11,, Av. Central, San José Province, San José, Costa Rica",51
4925795,"2, San José, Costa Rica",51
5730088,"2, San José, Curridabat",51
5729916,"2, San José, Curridabat, 11801",51
5730196,"2, San José, Curridabat, 11801",51
5008096,"2.5 km north Green Iguana, Guanacaste Province, Sámara, Costa Rica",51
5111690,"2.5 km north green iguana, Samara, 50205, Costa Rica",51
4923554,"20, San José Province, San José, Costa Rica",51
4926330,"200 este Universidad Veritas y 15 sur frente Tupperware, San José, Zapote, Costa Rica",51
4923392,"200 este y 200 norte Hotel Irazu, San José, La Uruca, 10107, Costa Rica",51
4924363,"200 m Este de Bomba La Cosecha, San José, Sabanilla, Costa Rica",51
5104232,"200 m from Tucan Calvo, Vallecito Escondido Casa 1 y 2, Jacó, 61101, Costa Rica",51
433258,"200 M Oeste Banco Nacional, Sámara, 50205, Costa Rica",51
4923230,"200 M. Este De Plaza González Víquez, Sobre Radial A Zapote, San José Province, San José, Costa Rica",51
5738220,"200 Meter westlich und 150 Meter südlich von der katholischen Kirche, Provincia de Guanacaste, Sámara, Costa Rica",51
434054,"200 meters North from the Local Police Station (Next to Coco's Mexican Restaurant), Samara Beach, 50205, Costa Rica",51
5111689,"200 meters West from Lodge Las Ranas, Samara, 20504, Costa Rica",51
4924522,"200 metros al Este del ICE, San José, Tibás, Costa Rica",51
4925957,"200 metros este de wallmart guadalupe, San José, Guadalupe, Costa Rica",51
4923827,"200 metros norte del ICE, Sabana Norte, San José, Costa Rica",51
4923051,"200 mts sur del Banco Costa Rica, Guadalupe, San José Goicoechea, San José, Guadalupe, Costa Rica",51
4927594,"200 mts sur del pequeño mundo de los Yoses, San José Province, San José, Costa Rica",51
4925509,"200, San José Province, Moravia, Costa Rica",51
4927665,"200m este y 200m Norte de Plaza Mayor, San José, Costa Rica",51
4927234,"200m Norte del ICE Sabana, frente al Hotel Palma Real, San José, Costa Rica",51
4923870,"200mts sur 75 este de Matute Gómez, Av 12A, San José, Costa Rica",51
4926062,"201, San José Province, Guadalupe, Costa Rica",51
4926168,"201, San José Province, Guadalupe, Costa Rica",51
4926059,"202, San José Province, Costa Rica",51
4923176,"202, San José Province, Sabanilla, Costa Rica",51
4923905,"202, San José Province, Sabanilla, Costa Rica",51
4927538,"202, San José Province, Sabanilla, Costa Rica",51
5730219,"202, San José, Sabanilla",51
4925107,"203, San José Province, Sabanilla, Costa Rica",51
5730022,"204, San José Province, San José",51
4923884,"204, San José Province, San José, Costa Rica",51
4925357,"204, San José Province, San José, Costa Rica",51
4927206,"204, San José Province, San José, Costa Rica",51
5729987,"205, San José Province, Guadalupe",51
4923994,"205, San José Province, Guadalupe, Costa Rica",51
4925482,"205, San José Province, Guadalupe, Costa Rica",51
4923787,"207, San José Province, San José, Costa Rica",51
4923019,"209, San José, Costa Rica",51
4923291,"209, San José, Costa Rica",51
4923638,"209, San José, Costa Rica",51
4924233,"209, San José, Costa Rica",51
4924246,"209, San José, Costa Rica",51
4924767,"209, San José, Costa Rica",51
4925499,"209, San José, Costa Rica",51
4925500,"209, San José, Costa Rica",51
4926873,"209, San José, Costa Rica",51
4927203,"209, San José, Costa Rica",51
4927205,"209, San José, Costa Rica",51
4927211,"209, San José, Costa Rica",51
4925201,"20A Ave, San José Province, San José, Costa Rica",51
4923085,"211, San José Province, San José, Costa Rica",51
4923889,"211, San José Province, Zapote, Costa Rica",51
4924231,"211, San José Province, Zapote, Costa Rica",51
4924240,"211, San José Province, Zapote, Costa Rica",51
4924491,"211, San José Province, Zapote, Costa Rica",51
4925341,"211, San José Province, Zapote, Costa Rica",51
4926700,"211, San José Province, Zapote, Costa Rica",51
4923270,"211, San José, Costa Rica",51
5184659,"214, San José Province",51
4923150,"214, San José Province, Costa Rica",51
4924242,"214, San José Province, San José, Costa Rica",51
4924284,"214, San José Province, San José, Costa Rica",51
4924365,"214, San José Province, San Sebastian, Costa Rica",51
5729951,"215, San José Province, Curridabat",51
4923172,"215, San José Province, Curridabat, Costa Rica",51
4927226,"215, San José Province, Curridabat, Costa Rica",51
4925316,"215, San José Province, San José, Costa Rica",51
4927214,"215, San José Province, San José, Costa Rica",51
4923124,"215, San José Province, Zapote, 11801, Costa Rica",51
4926452,"216, San José Province, Vásquez de Coronado, Costa Rica",51
4927465,"218, Calle Rancho Redondo, San José, Costa Rica",51
4923098,"218, San José Province, Guadalupe, Costa Rica",51
4923790,"218, San José Province, Guadalupe, Costa Rica",51
4923883,"218, San José Province, Guadalupe, Costa Rica",51
4927245,"218, San José Province, Guadalupe, Costa Rica",51
4927449,"218, San José, Costa Rica",51
4923090,"218, San José, Guadalupe, Costa Rica",51
4924069,"22, Av. 1, San José, Costa Rica",51
4923913,"22, San José Province, San José, Costa Rica",51
4924331,"221, San José Province, Curridabat, Costa Rica",51
5729898,"221, San José Province, Granadilla",51
5184625,"22nd street, 5 avenue, next to transnica 22nd street, 5 avenue, next to transnica, San José",51
5184644,"22nd Street, San José",51
4923949,"239, San José Province, Costa Rica",51
4923352,"239, San José Province, Pozos, Costa Rica",51
4926788,"239, San José Province, Pozos, Costa Rica",51
5730015,"239, San José, Pozos",51
5730220,"239, San José, Pozos",51
5184595,"24th Street, San José",51
4924720,"25 norte y 25 oeste del Pali Novacentro, San José, Guadalupe, Costa Rica",51
4924684,"250 metros al Sur del KFC del Paseo Colón Calle 32 San Bosco Sabana Sur San José San José CR, San José, Costa Rica",51
5184588,"25th Street, San José",51
5730124,"27, San José",51
5729975,"27, San José Province",51
4926605,"27, San José Province, Río Oro, Costa Rica",51
4923665,"27, San José, Costa Rica",51
418195,"2km East Herradura Crossing 1 km North, Jacó, 10000, Costa Rica",51
4923006,"2km oeste del Hospital México, Av 59, San José, Costa Rica",51
4926698,"3, Av. Central, San José Province, San José, Costa Rica",51
4927599,"3, San José Province, Heredia, Costa Rica",51
5730158,"3, San José Province, San José",51
4927585,"3, San José Province, San José, Costa Rica",51
4927591,"3, San José Province, San José, Costa Rica",51
4927617,"3, San José Province, San José, Costa Rica",51
4927628,"3, San José Province, San José, Costa Rica",51
5739629,"3-Ya Proseka, 134А, Samara, Samarskaya oblast', Russia, 443011",51
415961,"300 meters South of the Cheese Factory, Monte Verde, Costa Rica",51
4924346,"300 metros norte de la estación de servicio La Galera, en Curridabat., San José, Curridabat, Costa Rica",51
4923487,"300 O del Cruce de 2piso contiguo a EPA, 11303 Calle Llorente, San José, Tibás, Costa Rica",51
4924324,"300 oeste y 10 Norte del Parque La Amistad, Rohrmoser, Boulevard de Rohrmoser, San José, Costa Rica",51
4927614,"300m al norte del parque de la Amistad, Calle Alexander Humboldt, San José, Costa Rica",51
5184576,"300m North, 100m West, 100m North of Torre Mercedes, San José, 10102",51
5184594,"31-33 1st Ave #2983, San José Province, San José",51
4925708,"310, San José, Pozos, Costa Rica",51
4923630,"325 Meters Oeste Spoon Los Yoses, San José Province, San José, 2050, Costa Rica",51
4927629,"350 este del hotel Irazu,, San José, 10001, Costa Rica",51
416097,"350 mt South, 80 mt. East of the Conservation Association, PU, Monte Verde, Costa Rica",51
4924651,"350 norte Hotel palacio, San José, Costa Rica",51
5184643,"350m north of the National Children&#39;s Hospital, Avenues 3 and 5, Calle 20, San José",51
4924397,"37J, Condominios Dona Rosa, San José, Costa Rica",51
4927495,"3rd Av, 38th And 40th Street, San José Province, Paseo Colon, 01000, Costa Rica",51
4927381,"3rd Avenue 9 & 11 st San José San José CR, San José Province, Costa Rica",51
415040,"400 M East of the Costanera, Jacó, 61101, Costa Rica",51
4926293,"400 mts Sur de Plaza Cristal, C077, San José, Curridabat, 11801, Costa Rica",51
4924608,"400 Oeste Del Antigua AID - Rohrmoser, San José, Costa Rica",51
4927441,"400m Oeste de la Heladería POPS, Carretera Vieja a Escazú, San José, 10108, Costa Rica",51
4925219,"420 friendly, San José, Costa Rica",51
5184562,"42nd Street, San José",51
4926050,"450 metros al Este de los Tribunales de Justicia, San José, Guadalupe, Costa Rica",51
5184611,"4th Avenue, San José",51
4927443,"4to Piso Edificio 3 UCIMED, Carretera Vieja a Escazú, San José, Costa Rica",51
4924100,"5, San José, Tibás, Costa Rica",51
5184631,"50 meters east and 50 south of Co, San José",51
4924116,"50 meters east of Los Arcos, Ciudad Cariari, San José Province, San José, Costa Rica",51
434351,"50 meters East of Pulpería Stephannie, Sámara, Guanacaste Province, Sámara, 50205, Costa Rica",51
434261,"50 meters east of the public school, Playa Samara, Costa Rica",51
418002,"50 meters south of Banco Nacional Costa Rica, Monte Verde, 60901, Costa Rica",51
420469,"50 meters South of Salsa Brava, Puerto Viejo, Limon, Costa Rica",51
4927413,"50 metros este de la Contraloría, 10108, San José, Costa Rica",51
4924109,"50 Metros Norte De La Iglesia Perpetuo Socorro, C.C. Sabana Local #12, Avenida 16 22200443 / 22915020, San José, Costa Rica",51
4924334,"50 mts oeste Alianza Francesa., San José, Costa Rica",51
4925330,"50 mts Oeste del Banco Nacional, Av 1,, San José, Costa Rica",51
421657,"50 north of Shawanda Lodge, Limon, Puerto Viejo, 50101, Costa Rica",51
4924518,"500 metros este de Plaza Viquez, Av 26, San José, Costa Rica",51
4924105,"500 mts oeste de la clinica Clorito Picado, San José, Costa Rica",51
4923962,"500m East from the Best Western Irazú Hotel, Calle 56, Av. 31, San José Province, La Uruca, 10107, Costa Rica",51
4924338,"500mts este Cementerio de Guadalupe, Avenida 2, San José, Guadalupe, Costa Rica",51
5111701,"50205, Playa Sámara, Guanacaste, 50205, Costa Rica",51
4923288,"5Th Avenue 5th Street, San José, 01000, Costa Rica",51
434055,"60 meters north of the cross for Carrillo, Playa Samara, Guanacaste, Costa Rica, 5235, Costa Rica",51
4927033,"600 meters west Walmart, San José, Costa Rica",51
4923453,"600 METROS NORTE DE LA EMBAJA DE ESTADOS UNIDOS, FRESH MARKET ROHRMOSER, San José Province, Costa Rica",51
5747663,"600 mts oeste de PALI, sobre calle a, Provincia de Guanacaste, Sámara, 50205, Costa Rica",51
418591,"606, Monte Verde, Costa Rica",51
419884,"619, Monte Verde, Costa Rica",51
4924975,"6345, Calle Pipianes, San José, Costa Rica",51
433801,"65 meters west of Banco Nacional, Province of Guanacaste, Samara, Costa Rica",51
4924470,"66, Calle Lang, San José Province, San José, Costa Rica",51
4926305,"68 2400, Transversal 11, San José, Costa Rica",51
5184583,"6th Avenue, San José",51
417835,"700mtr southwest hotel Fonda Vela, Trocha San Luis 700mtr southwest hotel fonda vela, Trocha San Luis, Monte Verde, 60109, Costa Rica",51
434059,"75 Meters North from the Post Office, Guanacaste Province, Samara, 50205, Costa Rica",51
5184592,"75 meters northeast of the Doctors Echandi clinic, Calle 13, San José",51
434173,"75 meters south of Banco Nacional, Guanacaste Province, Sámara, Costa Rica",51
4927360,"75 metros al oeste del Registro Nacional, 215, San José, Costa Rica",51
5729845,"75 metros oeste de Plaza de la Democracia. Frente Caja de Ande., Sobre Avenida Segunda, San José",51
4927489,"7th Avenue Between Calles 3 and 5 From INS Building 250 meters West, San José, 10101, Costa Rica",51
4924979,"7th Street and 11th Avenue, San José, Costa Rica",51
433257,"80 meters after the National Bank, Samara, 50205, Costa Rica",51
434073,"800 meters west of the Cangrejal Crossing, Guanacaste Province, Samara, Costa Rica",51
4926072,"800 Mts Oeste y 250 mts Sur, carretera vieja Tres Rios, San José, Curridabat, Costa Rica",51
4927166,"86A Street, San José, Costa Rica",51
433255,"9 ° 52&#39;58.02 &quot;N 85 ° 31&#39;55.98&quot; W, 200m west of Banco Nacional, Guanacaste, Sámara, 50205, Costa Rica",51
4925624,"9 ° 57&#39;15. 84 ° 09&#39;06., Av. 9, San José Province, Costa Rica",51
4925408,"9.960619, -84.069891, Avenida 3, San José, Costa Rica",51
4926237,"A016, San José, Curridabat, Costa Rica",51
4927534,"A016, San José, Curridabat, Costa Rica",51
4926748,"A022, San José, Curridabat, 11801, Costa Rica",51
4926159,"A026, San José, Curridabat, 11801, Costa Rica",51
4923154,"A026, San José, Curridabat, Costa Rica",51
4923166,"A026, San José, Curridabat, Costa Rica",51
4924978,"A030, San José, Curridabat, Costa Rica",51
4925884,"A040, San José, Curridabat, 11801, San José, Curridabat, Costa Rica",51
4926032,"A064, San José Province, Curridabat, 11801, Costa Rica",51
4925202,"A070, San José Province, Curridabat, Costa Rica",51
4926039,"A078A, San José Province, Curridabat, Costa Rica",51
4925325,"Across this Ministry of Health, San José, Costa Rica",51
4923718,"Aeropuerto Internacional Juan Santamaría, San José Province, Alajuela, 20109, Costa Rica",51
4927609,"Aeropuerto Tobias Bolaños Airport, San José, Costa Rica",51
4923435,"Aeropuerto Tobias Bolaños San José, Hangar #33, 33, San José, Costa Rica",51
4926242,"Alejandro Monestel, San José, Costa Rica",51
4927300,"Alejandro Monestel, San José, Costa Rica",51
5184604,"Alexander Humboldt Street, San José",51
4926266,"Alexander Humboldt Street, San José Province, San José, Costa Rica",51
5730226,"Amalia Jiménez Volio, San José",51
4926133,"Américas,San José, Del ICE Sabana Norte 100 Norte y 200 Oeste, San José, Sabana Norte, Costa Rica",51
4925532,"Antigua botica Solera 150 sur, San José, Costa Rica",51
4927621,"Apartado Postal 33-1225, San José, Pavas, 10109, Costa Rica",51
4926255,"Apdo 621-2070, Sabanilla de Montes de Oca, San José, 2070, Costa Rica",51
4927526,"Aranjuez. Calle 21, Ave 9 y 11. 100 m oeste y 75 m norte de la iglesia Santa Teresita., Calle 21, San José, 10101, Costa Rica",51
5184561,"Arbórea Flats, 121, Río Oro, San José Province, San José, 00011",51
434570,"Arriba Pathway, Guanacaste Province, Sámara, Costa Rica",51
5111704,"Arriba Pathway, Guanacaste Province, Sámara, Costa Rica",51
4923438,"Av 1, San José, Costa Rica",51
4923544,"Av 1, San José, Costa Rica",51
4923664,"Av 1, San José, Costa Rica",51
4923671,"Av 1, San José, Costa Rica",51
4925279,"Av 1, San José, Costa Rica",51
4925342,"Av 1, San José, Costa Rica",51
4925784,"Av 1, San José, Costa Rica",51
4923812,"Av 10 frente a Bar Chavelona, Calle 10, San José, Costa Rica",51
5184582,"Av 10, San José",51
4924056,"Av 10, San José, Costa Rica",51
4924147,"Av 10, San José, Costa Rica",51
4924162,"Av 10, San José, Costa Rica",51
4924250,"Av 10, San José, Costa Rica",51
4924962,"Av 11, San José, Costa Rica",51
4925315,"Av 11, San José, Costa Rica",51
4927130,"Av 13 3348, San José, Costa Rica",51
4924226,"Av 13, San José, Costa Rica",51
4925452,"Av 13, San José, Costa Rica",51
4925333,"Av 13A, San José, Costa Rica",51
4925642,"Av 14, San José, Costa Rica",51
4926109,"Av 15, San José, Costa Rica",51
4927582,"Av 15, San José, Costa Rica",51
4925104,"Av 15A, San José, Costa Rica",51
4924004,"Av 16, San José, 10103, Costa Rica",51
4926851,"Av 16A, San José, Costa Rica",51
4923193,"Av 18, San José, Costa Rica",51
4924748,"Av 19, San José, Costa Rica",51
4925095,"Av 1A, San José, Costa Rica",51
4923408,"Av 2 2259, San José, Costa Rica",51
4924063,"Av 2 2259, San José, Costa Rica",51
5184629,"Av 2, San José",51
5729912,"Av 2, San José",51
4923663,"Av 2, San José, Costa Rica",51
4927230,"Av 2, San José, Costa Rica",51
4923231,"Av 20, San José, Costa Rica",51
4925259,"Av 20, San José, Costa Rica",51
5729849,"Av 22 Calle 5, San José",51
5730224,"Av 24, San José",51
4925089,"Av 24, San José, Costa Rica",51
4924395,"Av 25, San José, Costa Rica",51
4924496,"Av 25, San José, Costa Rica",51
4927661,"Av 25, San José, Costa Rica",51
5184556,"Av 25A, San José",51
4926718,"Av 26, San José, Costa Rica",51
5730161,"Av 26, San José, Escazú",51
5730256,"Av 26, San José, Escazú",51
4927532,"Av 26, San José, Escazú, Costa Rica",51
4923405,"Av 28, San José, Costa Rica",51
4924044,"Av 28, San José, Costa Rica",51
4925195,"Av 28, San José, Costa Rica",51
4927267,"Av 29A, San José, Costa Rica",51
4927272,"Av 2A, San José, Costa Rica",51
5184602,"Av 3, San José",51
4927250,"Av 3, San José, Costa Rica",51
4927215,"Av 32, San José, Costa Rica",51
4924073,"Av 32, San José, Escazú, Costa Rica",51
4926473,"Av 32B, San José, Costa Rica",51
4925698,"Av 34 105, San José, Escazú, Costa Rica",51
4926976,"Av 34, San José, Costa Rica",51
4927067,"Av 35, San José, Costa Rica",51
4923576,"Av 35A, San José, Costa Rica",51
5729805,"Av 36, San José",51
5730025,"Av 36, San José",51
4925443,"Av 36, San José, Costa Rica",51
4925952,"Av 36, San José, Costa Rica",51
4927261,"Av 36, San José, Costa Rica",51
4926212,"Av 36, San José, Escazú, Costa Rica",51
4924564,"Av 37, San José, Costa Rica",51
4924158,"Av 38, San José, Costa Rica",51
4925640,"Av 39, San José, Costa Rica",51
5184655,"Av 3A, San José",51
4924057,"Av 3A, San José, Costa Rica",51
4925471,"Av 3A, San José, Costa Rica",51
4927576,"Av 4, San José, Alajuelita, Costa Rica",51
4926534,"Av 4, San José, Costa Rica",51
4925779,"Av 40, San José, Costa Rica",51
4926671,"Av 40, San José, Zapote, Costa Rica",51
4925515,"Av 42, San José, Costa Rica",51
4925692,"Av 42, San José, Costa Rica",51
4926982,"Av 42, San José, Costa Rica",51
4923034,"Av 43, San José, Costa Rica",51
4924369,"Av 44, San José, Costa Rica",51
4925394,"Av 46, San José, Costa Rica",51
4924990,"Av 47A, San José, Costa Rica",51
4926734,"Av 48, San José, Costa Rica",51
4923517,"Av 5 Entre Calle 22 y 20, San José, Costa Rica",51
5184623,"Av 5, San José",51
5730064,"Av 5, San José",51
4923032,"Av 5, San José, Costa Rica",51
4927276,"Av 5, San José, Costa Rica",51
4926891,"Av 50A, San José, Costa Rica",51
4927141,"Av 51A, San José, Costa Rica",51
4927173,"Av 51B, Heredia, San José, Costa Rica",51
4927637,"Av 53, San José, Costa Rica",51
4925549,"Av 55, San José, Costa Rica",51
4926051,"Av 56, San José, Costa Rica",51
4925791,"Av 59A, Heredia, San José, Costa Rica",51
5729833,"Av 6, San José",51
5730033,"Av 6, San José",51
4924760,"Av 6, San José, Cd Colón, Costa Rica",51
4923533,"Av 6, San José, Costa Rica",51
4923546,"Av 6, San José, Costa Rica",51
4923548,"Av 6, San José, Costa Rica",51
4923549,"Av 6, San José, Costa Rica",51
4923791,"Av 6, San José, Costa Rica",51
4925251,"Av 6, San José, Costa Rica",51
4926262,"Av 6, San José, Costa Rica",51
4926647,"Av 6, San José, Costa Rica",51
4927155,"Av 6, San José, Costa Rica",51
4927338,"Av 6, San José, Costa Rica",51
4927340,"Av 6, San José, Costa Rica",51
4927389,"Av 6, San José, Costa Rica",51
5729982,"Av 60, San José",51
4923750,"Av 60A, San José, Costa Rica",51
4923807,"Av 60A, San José, Costa Rica",51
4925991,"Av 61, Heredia, San José, Costa Rica",51
4923101,"Av 63, San José, San Vicente, Costa Rica",51
4925789,"Av 63A, Heredia, San José, Costa Rica",51
4925922,"Av 66, San José, Costa Rica",51
4924280,"Av 68, San José, Costa Rica",51
5730260,"Av 7 Calle 35, San José",51
5729813,"Av 7, San José",51
5184617,"Av 8 Calle 41, San José",51
5184621,"Av 8 de la cruz roja 400 meters west, on the left, with large pines in front, San José",51
5729836,"Av 8, San José, 11501",51
4924114,"Av 8A, San José, Costa Rica",51
4925143,"Av 9 23, San José, 1000, Costa Rica",51
5184567,"Av 9, San José",51
4923881,"Av 9, San José, Costa Rica",51
4924006,"Av 9, San José, Costa Rica",51
4924393,"Av 9, San José, Costa Rica",51
4925281,"Av 9, San José, Costa Rica",51
4926249,"Av 9, San José, Costa Rica",51
4927496,"Av 9, San José, Costa Rica",51
4926041,"Av 93, San José, San Isidro, Costa Rica",51
4923841,"Av Central, San José, Costa Rica",51
4923915,"Av Central, San José, Costa Rica",51
4925153,"Av del Libertador Juan Rafael Mora Porras, San José, Costa Rica",51
415321,"Av Pastor Diaz 25, Jacó, Costa Rica",51
416139,"Av Pastor Diaz, Across from KFC, Jacó, 61101, Costa Rica",51
415439,"Av Pastor Diaz, Jacó, Costa Rica",51
4923519,"Av Segunda, San José, Costa Rica",51
4927257,"Av Segunda, San José, Costa Rica",51
4927317,"Av Segunda, San José, Costa Rica",51
5729787,"Av. 1, San José",51
5729810,"Av. 1, San José",51
4923416,"Av. 1, San José, Costa Rica",51
4923828,"Av. 1, San José, Costa Rica",51
5729790,"Av. 10, San José",51
4924005,"Av. 10, San José, Costa Rica",51
4924016,"Av. 10, San José, Costa Rica",51
4924018,"Av. 10, San José, Costa Rica",51
4924801,"Av. 10, San José, Costa Rica",51
4926666,"Av. 10, San José, Costa Rica",51
5729985,"Av. 10A, San José",51
4924957,"Av. 12, San José, Costa Rica",51
4925093,"Av. 12, San José, Costa Rica",51
4925173,"Av. 12, San José, Costa Rica",51
4926186,"Av. 12, San José, Costa Rica",51
4926192,"Av. 12, San José, Costa Rica",51
4923068,"Av. 14, San José, 10111, Costa Rica",51
4924512,"Av. 14, San José, Costa Rica",51
4926861,"Av. 14, San José, Costa Rica",51
4923888,"Av. 17, San José, Costa Rica",51
4924125,"Av. 18, San José, Costa Rica",51
4927091,"Av. 18, San José, Costa Rica",51
5730243,"Av. 2 C-19, San José",51
4923890,"Av. 2 C-19, San José, Costa Rica",51
4924973,"Av. 2 C-19, San José, Costa Rica",51
4923551,"Av. 2 C-19., San José, Costa Rica",51
4926292,"Av. 2 C-19., San José, Costa Rica",51
4927332,"Av. 2 C-19., San José, Costa Rica",51
5730169,"Av. 2, San José",51
4923201,"Av. 2, San José, Costa Rica",51
4923600,"Av. 2, San José, Costa Rica",51
4924466,"Av. 2, San José, Costa Rica",51
4925139,"Av. 2, San José, Costa Rica",51
4926436,"Av. 2, San José, Costa Rica",51
4924341,"Av. 20, San José, Costa Rica",51
4926763,"Av. 20, San José, Costa Rica",51
4925701,"Av. 23, San José, Costa Rica",51
5730044,"Av. 27, San José",51
5730262,"Av. 27, San José",51
4925566,"Av. 29, San José, Guadalupe, Costa Rica",51
4925951,"Av. 29, San José, Guadalupe, Costa Rica",51
4927035,"Av. 29, San José, Guadalupe, Costa Rica",51
4926877,"Av. 3, San José, Costa Rica",51
4927018,"Av. 3, San José, Costa Rica",51
4927029,"Av. 3, San José, Costa Rica",51
4927152,"Av. 3, San José, Costa Rica",51
4926872,"Av. 30, San José, Costa Rica",51
4927448,"Av. 31, San José, Costa Rica",51
4925226,"Av. 31, San José, Guadalupe, Costa Rica",51
4923187,"Av. 33 888, San José, Costa Rica",51
4925605,"Av. 33, San José, Costa Rica",51
4925116,"Av. 34, San José, Costa Rica",51
4923465,"Av. 37, San José, Costa Rica",51
5730068,"Av. 39, San José",51
4924257,"Av. 39, San José, Costa Rica",51
4927593,"Av. 39, San José, Costa Rica",51
5730222,"Av. 4, San José",51
5730270,"Av. 4, San José",51
4927322,"Av. 4, San José, Costa Rica",51
4923542,"Av. 5, San José, Costa Rica",51
4923543,"Av. 5, San José, Costa Rica",51
4923673,"Av. 5, San José, Costa Rica",51
4925254,"Av. 5, San José, Costa Rica",51
4926883,"Av. 5, San José, Costa Rica",51
4927549,"Av. 53, San José, San Vicente, Costa Rica",51
4925053,"Av. 59, San José, Tibás, Costa Rica",51
4925472,"Av. 60, San José, Costa Rica",51
4927278,"Av. 63, San José, Costa Rica",51
5730147,"Av. 67, San José, San Vicente",51
4923525,"Av. 7 10, San José, Costa Rica",51
4923030,"Av. 7, San José, Costa Rica",51
4925260,"Av. 7, San José, Costa Rica",51
4924598,"Av. 70A, San José, Costa Rica",51
5730253,"Av. 7B, San José",51
4925655,"Av. 8 Calle 14, San José, Costa Rica",51
4923793,"Av. 8 De La Cruz Roja 400 Metros Al Oeste, Mano Izquierda, Con Pinos Grandes En Frente, San José, Costa Rica",51
5729857,"Av. 8, San José",51
4924148,"Av. 8, San José, Costa Rica",51
4924487,"Av. 8, San José, Costa Rica",51
4924515,"Av. 8, San José, Costa Rica",51
4924557,"Av. 8, San José, Costa Rica",51
4925125,"Av. 8, San José, Costa Rica",51
4925299,"Av. 8, San José, Costa Rica",51
4925927,"Av. 8, San José, Costa Rica",51
4926245,"Av. 8, San José, Costa Rica",51
4926766,"Av. 8, San José, Costa Rica",51
4927076,"Av. 8, San José, Costa Rica",51
4927237,"Av. 8, San José, Costa Rica",51
4927260,"Av. 8, San José, Costa Rica",51
4927358,"Av. Central 50m E, 25m N de Librería Universal. SJ, CR., Calle 1, San José, 10104, Costa Rica",51
5729913,"Av. Central, San José",51
5729914,"Av. Central, San José",51
5730107,"Av. Central, San José",51
4924141,"Av. Central, San José, Costa Rica",51
4925284,"Av. de Las Américas, San José Province, San José, Costa Rica",51
4923680,"Av. de Las Américas, San José, Costa Rica",51
5729800,"Av. Estado de Israel, San José",51
4927212,"Av. Estado de Israel, San José, Costa Rica",51
5729900,"Av. Segunda frente al costado sur del Teatro Nacional, San José, 10104",51
4924458,"Av.de Las Américas, San José, Costa Rica",51
4924988,"Av.de Las Américas, San José, Costa Rica",51
4926161,"Av026 zapote, San José, Costa Rica",51
4925256,"Av6, San José, Costa Rica",51
4925328,"Ave 14, San José, Costa Rica",51
4923289,"Ave 6, Street 28, CR-P, San José, 00494, Costa Rica",51
4923199,"Ave. 1, Calles 7 - 9, San José Province, San José, Costa Rica",51
5729846,"Ave. 11 Calle 3A - 955, Barrio Amón, San José Province, San José, 10101",51
5184634,"Ave. Escazú Complex Prospero Fernandez Hwy, Pavas District, San José, 1250",51
5111692,"Avenida 1 Samara Costa Rica Calle3, Sámara, 50205, Costa Rica",51
4923209,"Avenida 10, La Corte, Avenue 10, San José, Costa Rica",51
4926410,"Avenida 10, San José Province, Escazu, Costa Rica",51
4927374,"Avenida 11 Calle 3A, San José, 10101, Costa Rica",51
4925133,"Avenida 11 y, Calle 3, San José, Costa Rica",51
4923821,"Avenida 11, San José Province, San José, 10101, Costa Rica",51
4925644,"Avenida 11, San José Province, San José, Costa Rica",51
4925801,"Avenida 11, San José Province, San José, Costa Rica",51
4925853,"Avenida 11, San José Province, San José, Costa Rica",51
4925857,"Avenida 11, San José Province, San José, Costa Rica",51
4927243,"Avenida 11, San José Province, San José, Costa Rica",51
4927219,"Avenida 12, entre calle 5 y calle 7, Av 12, San José, Costa Rica",51
4925367,"Avenida 13, San José Province, San José, Costa Rica",51
4923404,"Avenida 13, San José, Costa Rica",51
4927208,"Avenida 16 B, San José, Costa Rica",51
4925457,"Avenida 16, San José Province, San José, Costa Rica",51
5729791,"Avenida 2, Calle 19, San José",51
4924841,"Avenida 2, calle1, San José, Costa Rica",51
4926942,"Avenida 2, San José Province, Escazu, Costa Rica",51
4924166,"Avenida 2, San José, Guadalupe, Costa Rica",51
4923018,"Avenida 26, San José Province, San José, Costa Rica",51
4923690,"Avenida 26, San José Province, San José, Costa Rica",51
4924055,"Avenida 26, San José Province, San José, Costa Rica",51
4926762,"Avenida 28, San José Province, San José, Costa Rica",51
4927344,"Avenida 28, San José Province, San José, Costa Rica",51
5730092,"Avenida 3, San José",51
4923539,"Avenida 3, San José, Costa Rica",51
4925426,"Avenida 3, San José, Costa Rica",51
4925485,"Avenida 3, San José, Costa Rica",51
4926705,"Avenida 3, San José, Costa Rica",51
4923083,"Avenida 36, San José Province, San José, Costa Rica",51
4927385,"Avenida 36, San José Province, San José, Costa Rica",51
4925543,"Avenida 37, San José, Costa Rica",51
4924859,"Avenida 5 San José San José CR 10101, Av. 5, San José, Costa Rica",51
4923550,"Avenida 5, San José Province, San José, Costa Rica",51
4927286,"Avenida 5, San José Province, San José, Costa Rica",51
4926750,"Avenida 50A, San José Province, San José, Costa Rica",51
5184656,"Avenida 6, Calle 21 y 25, San José Province, San José, 1000",51
5729995,"Avenida 7 Ave 7 between Calle 3 y 5, San José",51
4927258,"Avenida 7 Calle 9, San José, Costa Rica",51
4923999,"Avenida 7, San José, Costa Rica",51
4926991,"Avenida 7, San José, Costa Rica",51
4926779,"Avenida 8, Calle 7, San José, Costa Rica",51
5730180,"Avenida 9 , Calle 35, San José, 10101",51
4926785,"Avenida 9 Calle 12, San José Province, San José, Costa Rica",51
4926695,"Avenida 9, Calle 33, Calle 33 33, San José, Costa Rica",51
4924956,"Avenida 9, Calle 4, San José, Costa Rica",51
4924509,"Avenida 9. Calle 17 y 19, San José, Costa Rica",51
5184642,"Avenida Central Calles 35 y 37, San José Province, San José",51
4923322,"Avenida Central Manuel Avaleta, San José, Escazú, Costa Rica",51
4923246,"Avenida Central y Primera, Calles 2 y 4 San José, Costa Rica, Av. 1, San José, Costa Rica",51
4923028,"Avenida Central, Calle 11, San José, 10101, Costa Rica",51
4925145,"Avenida Central, entre calles 5 y 7, Edificio Primavera, segundo piso, San José, 10104, Costa Rica",51
4923532,"Avenida Central, San José Province, San José, Costa Rica",51
4923536,"Avenida Central, San José Province, San José, Costa Rica",51
4924169,"Avenida Central, San José Province, San José, Costa Rica",51
4925334,"Avenida Central, San José, Costa Rica",51
4927176,"Avenida Central, San José, Costa Rica",51
4927178,"Avenida Central, San José, Costa Rica",51
5730285,"Avenida Escazú, Foodcourt, contíguo Mc Donald's, 200 metros este del hospital Cima, San José",51
4925508,"Avenida Espana, San José Province, San José, Costa Rica",51
4923012,"Avenida Las Americas, San José, Costa Rica",51
4927622,"Avenida Las Americas, San José, Costa Rica",51
4927626,"Avenida Las Americas, San José, Costa Rica",51
4927630,"Avenida Las Americas, San José, Costa Rica",51
4927314,"Avenida primera, entre calles 5 y 7, San José, Costa Rica., San José, Costa Rica",51
4927315,"Avenida San Martín, San José, Costa Rica",51
4924254,"Avenida Segunda y, Calle 14, San José, Costa Rica",51
4925748,"Avenida Segunda, San José Province, San José, Costa Rica",51
4924149,"Avenida Segunda, San José, Costa Rica",51
4926874,"Avenida Segunda, San José, Costa Rica",51
4927228,"Avenida Segunda, San José, Costa Rica",51
4923512,"Avenida10, San José Province, San José, 10000, Costa Rica",51
4926737,"Avenida10, San José, Costa Rica",51
5729868,"Avenidas 5y7, La Luz 33, San José",51
4923271,"Avenue 1, San José Province, San José, Costa Rica",51
4924503,"Avenue 10, San José Province, San José, Costa Rica",51
4927263,"Avenue 10, San José Province, San José, Costa Rica",51
4923687,"Avenue 18, San José Province, San José, Costa Rica",51
4926977,"Avenue 2, Calle 28, San José Province, San José, Costa Rica",51
5184600,"Avenue 2. Close to National Museum., Calle 17, San José",51
5730040,"Avenue 3, San José Province, San José",51
4927411,"Avenue 3, San José Province, San José, Costa Rica",51
4923894,"Avenue 4, San José Province, San José, Costa Rica",51
4924787,"Avenue 4, San José Province, San José, Costa Rica",51
4925473,"Avenue 4, San José Province, San José, Costa Rica",51
4924409,"Avenue 7, Heredia Province, San José, Costa Rica",51
4924146,"Avenue 8 11, San José, Costa Rica",51
4923872,"Avenue 8, San José Province, San José, Costa Rica",51
4926730,"Avenue 8, San José Province, San José, Costa Rica",51
4927216,"Avenue 8, San José Province, San José, Costa Rica",51
5184622,"Avenue 9, San José Province, San José",51
4924195,"B ° Francisco Peralta, diagonal to the KFC, San José, Costa Rica",51
4923397,"BARRIO DON BOSCO, 25 METROS NORTE DE LA FUNERARIA JARDINES DEL RECUERDO, AM PM DON BOSCO, San José Province, Costa Rica",51
5729827,"Barrio Naciones Unidas, Calle 15 Avenida 38, San José",51
434178,"Beachfront, 100M West of Post Office, 50205, Guanacaste Province, Sámara, Costa Rica",51
4923976,"Bello Horizonte, San José Province, Escazu, San José, Escazú, 10203, Costa Rica",51
4925318,"Beneméritos Park, Calle 36, San José, Costa Rica",51
4923069,"Betania Mercedes, San José Province, Costa Rica",51
422388,"Black Beach, Puerto Viejo, Limón, Costa Rica",51
413249,"Bohio Street Jacó 0 ,, Costa Rica",51
4924358,"Boulevard de Rohrmoser 125, San José, Costa Rica",51
4923540,"Boulevard Los Yoses, San José, Costa Rica",51
433985,"Bue Esterones samara beach, Samara Costa Rica, Costa Rica",51
4923310,"Building #2845, Av 1 28-30, San José, 12468-1000, Costa Rica",51
4926472,"Bv Ernesto Rohrmoser, Nunciatura, Mata Redonda,, San José, Pavas, 10109, Costa Rica",51
4925352,"Bv. de Rohrmoser, San José, Costa Rica",51
4926086,"Bv. de Rohrmoser, San José, Costa Rica",51
4926753,"Bv. de Rohrmoser, San José, Costa Rica",51
5729802,"Bv. Dent, San José",51
4923131,"Bv. Dent, San José, Costa Rica",51
5729828,"Bv. Ernesto Rohrmoser, San José",51
5729929,"Bv. Ernesto Rohrmoser, San José",51
5730210,"Bv. Ernesto Rohrmoser, San José",51
5730284,"Bv. Ernesto Rohrmoser, San José",51
5730288,"Bv. Ernesto Rohrmoser, San José",51
4923160,"Bv. Ernesto Rohrmoser, San José, Costa Rica",51
4924188,"Bv. Ernesto Rohrmoser, San José, Costa Rica",51
4924605,"Bv. Ernesto Rohrmoser, San José, Costa Rica",51
4925307,"Bv. Ernesto Rohrmoser, San José, Costa Rica",51
4925866,"Bv. Ernesto Rohrmoser, San José, Costa Rica",51
4926468,"Bv. Ernesto Rohrmoser, San José, Costa Rica",51
4926600,"Bv. Ernesto Rohrmoser, San José, Costa Rica",51
5730230,"C067B, San José Province, San José",51
4925919,"C077, San José, Curridabat, 11801, Costa Rica",51
4924361,"C077, San José, Curridabat, Costa Rica",51
4925921,"C077, San José, Curridabat, Costa Rica",51
4923045,"C079A, San José, Curridabat, Costa Rica",51
4926827,"C085, San José, Curridabat, Costa Rica",51
4927159,"C087, San José, Curridabat, Costa Rica",51
4923829,"C113, San José, Curridabat, Costa Rica",51
4926896,"C121, San José, Curridabat, Costa Rica",51
4925150,"Call3, Between Ave 7 &amp; 9, Calle 3, San José, Costa Rica",51
5730059,"Calle 1, San José",51
4924058,"Calle 1, San José, Costa Rica",51
4925129,"Calle 1, San José, Costa Rica",51
4925224,"Calle 1, San José, Costa Rica",51
4925248,"Calle 1, San José, Costa Rica",51
4925258,"Calle 1, San José, Costa Rica",51
4924204,"Calle 10, San José, Costa Rica",51
4924286,"Calle 10, San José, Costa Rica",51
4925469,"Calle 10, San José, Costa Rica",51
4923666,"Calle 10A, San José, Costa Rica",51
5184585,"Calle 11, Avenidas 2 y 6 San José San José CR, San José",51
5729865,"Calle 11, San José",51
4923820,"Calle 11, San José, Costa Rica",51
4924000,"Calle 11, San José, Costa Rica",51
4924012,"Calle 11, San José, Costa Rica",51
4924270,"Calle 11, San José, Costa Rica",51
4925309,"Calle 11, San José, Costa Rica",51
4925415,"Calle 11, San José, Costa Rica",51
4925424,"Calle 11, San José, Costa Rica",51
4925873,"Calle 11, San José, Costa Rica",51
4925907,"Calle 11, San José, Costa Rica",51
4926697,"Calle 11, San José, Costa Rica",51
4927025,"Calle 11, San José, Costa Rica",51
4927213,"Calle 11, San José, Costa Rica",51
4924093,"Calle 114, San José, Costa Rica",51
4924374,"Calle 114, San José, Costa Rica",51
4926448,"Calle 118, San José, Costa Rica",51
4923505,"Calle 12, San José, Costa Rica",51
4925096,"Calle 12, San José, Costa Rica",51
4926931,"Calle 122, San José, Costa Rica",51
4924216,"Calle 128, San José, Escazú, Costa Rica",51
4924915,"Calle 128, San José, Escazú, Costa Rica",51
4927561,"Calle 128, San José, Escazú, Costa Rica",51
5184651,"Calle 13 Avenida 2 y 6, San José Province, San José, 10303",51
4924920,"Calle 13 between Avenidas 2 and 6, San José Province, San José, 10736, Costa Rica",51
4924952,"Calle 13 y 13 bis, Provincia de, Av Central, San José Province, San José, Costa Rica",51
5184615,"Calle 13, San José",51
5730017,"Calle 13, San José",51
4926027,"Calle 13, San José Province, San José, Costa Rica",51
4927023,"Calle 13, San José Province, San José, Costa Rica",51
4927139,"Calle 13, San José Province, San José, Costa Rica",51
4923502,"Calle 13, San José, Costa Rica",51
4926357,"Calle 130, San José, Costa Rica",51
4927184,"Calle 130, San José, Costa Rica",51
4926218,"Calle 130, San José, Escazú, Costa Rica",51
5730257,"Calle 136, San José Province, Escazu",51
4926246,"Calle 136, San José Province, Escazu, Costa Rica",51
4927578,"Calle 136, San José Province, Escazu, Costa Rica",51
4925425,"Calle 14 avenidas 1-3, San José, Costa Rica",51
4925278,"Calle 14, San José Province, San José, Costa Rica",51
4926867,"Calle 14, San José Province, San José, Costa Rica",51
4924531,"Calle 14, San José, Costa Rica",51
4924689,"Calle 14, San José, Costa Rica",51
4925174,"Calle 14, San José, Costa Rica",51
4926196,"Calle 14, San José, Costa Rica",51
4926042,"Calle 140, San José, Escazú, Costa Rica",51
4925672,"Calle 15, San José Province, San José, Costa Rica",51
4923120,"Calle 15, San José, Costa Rica",51
4925050,"Calle 15, San José, Costa Rica",51
4927034,"Calle 15, San José, Costa Rica",51
4927522,"Calle 15. Av. 7 y 7B De la casa amarilla 100 E, 50 N (calle 15, av. 7 y 7b), casa graffiti de, San José, Costa Rica",51
5730164,"Calle 151, San José, Guadalupe",51
4923545,"calle 16, Av. 12, San José, Costa Rica",51
4923660,"Calle 16, San José Province, San José, Costa Rica",51
4923243,"Calle 16, San José, Costa Rica",51
4923528,"Calle 16, San José, Costa Rica",51
4927336,"Calle 16, San José, Costa Rica",51
5730227,"Calle 17 270, San José",51
5730075,"Calle 17, San José",51
4927442,"Calle 17, San José Province, San José, Costa Rica",51
4924774,"Calle 17, San José, Costa Rica",51
4925356,"Calle 17, San José, Costa Rica",51
4926241,"Calle 17, San José, Costa Rica",51
4927080,"Calle 17, San José, Costa Rica",51
4925008,"Calle 176, Heredia, San José, Costa Rica",51
4923202,"Calle 17A, San José, Costa Rica",51
4926754,"Calle 17A, San José, Costa Rica",51
4925755,"Calle 182, San José, Costa Rica",51
4923670,"Calle 18A, San José, Costa Rica",51
5729965,"Calle 18B, San José",51
5730127,"Calle 19 Ave 3 Casa 172 San José San José Province CR, San José",51
4923527,"Calle 19, San José Province, San José, Costa Rica",51
4924011,"Calle 19, San José Province, San José, Costa Rica",51
4925203,"Calle 19, San José Province, San José, Costa Rica",51
4925249,"Calle 19, San José Province, San José, Costa Rica",51
4926699,"Calle 19, San José Province, San José, Costa Rica",51
4924337,"Calle 19, San José, Costa Rica",51
5184658,"Calle 2, San José",51
5729825,"Calle 2, San José",51
4923735,"Calle 2, San José Province, Escazu, Costa Rica",51
4923613,"Calle 2, San José Province, San José, 01000, Costa Rica",51
4923511,"Calle 2, San José Province, San José, Costa Rica",51
4923538,"Calle 2, San José Province, San José, Costa Rica",51
4924464,"Calle 2, San José Province, San José, Costa Rica",51
4925149,"Calle 2, San José Province, San José, Costa Rica",51
4925290,"Calle 2, San José Province, San José, Costa Rica",51
4925421,"Calle 2, San José Province, San José, Costa Rica",51
4925965,"Calle 2, San José Province, San José, Costa Rica",51
4926289,"Calle 2, San José Province, San José, Costa Rica",51
4926724,"Calle 2, San José Province, San José, Costa Rica",51
4926780,"Calle 2, San José Province, San José, Costa Rica",51
4927666,"Calle 2, San José Province, San José, Costa Rica",51
5729988,"Calle 2, San José, Alajuelita",51
4925518,"Calle 2, San José, Alajuelita, Costa Rica",51
4925826,"Calle 2, San José, Cd Colón, Costa Rica",51
4927038,"Calle 2, San José, Cd Colón, Costa Rica",51
4924092,"Calle 2, San José, Costa Rica",51
4925525,"Calle 2, San José, Escazú, Costa Rica",51
4927553,"Calle 2, San José, Tibás, Costa Rica",51
4924514,"Calle 20, Avenida 0, Paseo Colón, San José, Costa Rica",51
5184603,"Calle 20, San José, 10102",51
4923667,"Calle 20, San José, Costa Rica",51
4924269,"Calle 20, San José, Costa Rica",51
4925287,"Calle 20, San José, Costa Rica",51
5730031,"Calle 21, San José",51
4923769,"Calle 21, San José, Costa Rica",51
4924376,"Calle 21, San José, Costa Rica",51
4925086,"Calle 21, San José, Costa Rica",51
4925092,"Calle 21, San José, Costa Rica",51
4925124,"Calle 21, San José, Costa Rica",51
4925938,"Calle 21, San José, Costa Rica",51
4926273,"Calle 21, San José, Costa Rica",51
4927253,"Calle 21, San José, Costa Rica",51
4923778,"Calle 21, San José, San Sebastian, Costa Rica",51
4925718,"Calle 21A, San José, Costa Rica",51
5184660,"Calle 22, Av. 5, in front of Bar Pecos Bill, Barrio Mexico, 15 meters west of Transnica., San José, 10002",51
4924111,"Calle 22, Avenidas 13 y 15, Barrio México, del Castros Bar 50 mts Norte, San José, Costa Rica",51
4926205,"Calle 22, San José, Costa Rica",51
4927397,"Calle 22, San José, Costa Rica",51
4926744,"Calle 23, San José, 10105, Costa Rica",51
4925665,"Calle 23B, San José, Costa Rica",51
5730036,"Calle 24, San José, 6174-1000",51
4927396,"Calle 24, San José, Costa Rica",51
4927409,"Calle 24, San José, Costa Rica",51
4923208,"Calle 25, Av 9, San José, Costa Rica",51
4924513,"Calle 25, San José, Costa Rica",51
4925519,"Calle 25, San José, Costa Rica",51
4927026,"Calle 25, San José, Costa Rica",51
4927030,"Calle 25, San José, Costa Rica",51
4923869,"Calle 26, San José, Calle Blancos, Costa Rica",51
4923813,"Calle 26, San José, Costa Rica",51
4924846,"Calle 26, San José, Costa Rica",51
4927333,"Calle 27, San José, Costa Rica",51
4923906,"calle 28, avenida 4, San José, Costa Rica",51
4923763,"Calle 28, San José Province, San José, Costa Rica",51
4923958,"Calle 28, San José, Costa Rica",51
4925914,"Calle 28, San José, Costa Rica",51
4927238,"Calle 29, San José, Costa Rica",51
4926693,"Calle 3 Avenida, San José, 10011-1000, Costa Rica",51
4923530,"Calle 3, San José Province, San José, Costa Rica",51
4923531,"Calle 3, San José Province, San José, Costa Rica",51
4923534,"Calle 3, San José Province, San José, Costa Rica",51
4924869,"Calle 3, San José Province, San José, Costa Rica",51
4926355,"Calle 3, San José Province, San José, Costa Rica",51
4923553,"Calle 3, San José, Costa Rica",51
4923922,"Calle 3, San José, Costa Rica",51
4925085,"Calle 3, San José, Costa Rica",51
4926662,"Calle 3, San José, Costa Rica",51
4923617,"Calle 30, Av 2, San José Province, San José, Costa Rica",51
4923411,"Calle 30, San José, Costa Rica",51
4926728,"Calle 30, San José, Costa Rica",51
4924070,"Calle 30A, San José, Costa Rica",51
4925636,"Calle 31, San José, Costa Rica",51
4926026,"Calle 31, San José, Costa Rica",51
4927309,"Calle 31, San José, Costa Rica",51
4923903,"Calle 31B, San José, Costa Rica",51
4925859,"Calle 33 between avenues 1 and 5, San José, 10101, Costa Rica",51
5729859,"Calle 33, San José",51
4923056,"Calle 33, San José, Costa Rica",51
5730202,"Calle 34, Paseo Colón, San José",51
4927403,"Calle 34, San José Province, San José, Costa Rica",51
4927268,"Calle 34, San José, Costa Rica",51
4923917,"Calle 34A, San José, Costa Rica",51
5730135,"Calle 35, San José",51
5730254,"Calle 35, San José",51
4927301,"Calle 35, San José, 10101, Costa Rica",51
4923040,"Calle 35, San José, Costa Rica",51
4925678,"Calle 35, San José, Costa Rica",51
4926173,"Calle 36, San José, Costa Rica",51
4927467,"Calle 37, San José, Costa Rica",51
5729831,"Calle 38, San José",51
4926710,"Calle 38, San José, Costa Rica",51
4927269,"Calle 38, San José, Costa Rica",51
4927657,"Calle 38, San José, Costa Rica",51
4923908,"Calle 39A, San José, Costa Rica",51
4925855,"Calle 3A (bis) and Av 9, San José, 10101, Costa Rica",51
4923247,"Calle 4 1, San José, Costa Rica",51
4925360,"CALLE 4 AVENIDAS 3 Y 5. FRENTE A ÓPTICAS VISIÓN, San José, Costa Rica",51
5729794,"Calle 4, San José",51
5730099,"Calle 4, San José",51
5730122,"Calle 4, San José",51
4923053,"Calle 4, San José, Costa Rica",51
4923556,"Calle 4, San José, Costa Rica",51
4924022,"Calle 4, San José, Costa Rica",51
4924972,"Calle 4, San José, Costa Rica",51
4925231,"Calle 4, San José, Costa Rica",51
4925262,"Calle 4, San José, Costa Rica",51
4925654,"Calle 4, San José, Costa Rica",51
4925780,"Calle 4, San José, Costa Rica",51
4926521,"Calle 4, San José, Costa Rica",51
5184671,"Calle 40 Av 5, San José",51
4927399,"Calle 40 Ave. 2 y 4 (150metros Sur del BCR de Paseo Colón), Calle 40, San José, Costa Rica",51
4924168,"Calle 40, San José, Costa Rica",51
4925261,"Calle 40, San José, Costa Rica",51
4926702,"Calle 40, San José, Costa Rica",51
4923716,"Calle 41, San José Province, San José, Costa Rica",51
4927297,"calle 41, San José, Curridabat, Costa Rica",51
5184649,"Calle 41, Urbanizacion Lo Yoses, San José Province, San José, 11111",51
4923167,"Calle 42, San José, Costa Rica",51
4926185,"Calle 42, San José, Costa Rica",51
4923308,"Calle 43, San José, Guadalupe, Costa Rica",51
4924121,"Calle 43A, San José, Guadalupe, Costa Rica",51
4924112,"Calle 46, San José Province, San José, Costa Rica",51
4924484,"Calle 46, San José, Costa Rica",51
4926257,"Calle 46, San José, Costa Rica",51
4923088,"Calle 46A, San José, Costa Rica",51
5184618,"Calle 47. Between avenues 10 &amp; 10A, San José",51
4925516,"Calle 49 49, San José, Costa Rica",51
4926761,"Calle 49, San José, Costa Rica",51
4925848,"Calle 5, Avenida 5, San José, 10101, Costa Rica",51
5730024,"Calle 5, San José",51
4923033,"Calle 5, San José Province, San José, Costa Rica",51
4923121,"Calle 5, San José Province, San José, Costa Rica",51
4923499,"Calle 5, San José Province, San José, Costa Rica",51
4924502,"Calle 5, San José Province, San José, Costa Rica",51
4926277,"Calle 5, San José Province, San José, Costa Rica",51
4926655,"Calle 5, San José Province, San José, Costa Rica",51
4927028,"Calle 5, San José Province, San José, Costa Rica",51
4927186,"Calle 5, San José Province, San José, Costa Rica",51
4927227,"Calle 5, San José Province, San José, Costa Rica",51
4925788,"Calle 50, San José, Costa Rica",51
4924062,"Calle 50A, San José, Costa Rica",51
4926127,"Calle 50A, San José, Costa Rica",51
4926040,"Calle 51, San José, Costa Rica",51
4927348,"Calle 53, San José, Costa Rica",51
5729890,"Calle 54, San José",51
4925217,"Calle 54, San José, Costa Rica",51
4926817,"Calle 54, San José, Costa Rica",51
4925455,"Calle 55, San José, Costa Rica",51
4926944,"Calle 55, San José, San Vicente, Costa Rica",51
5730274,"Calle 56, San José",51
4923178,"Calle 56, San José, Costa Rica",51
4923867,"Calle 56, San José, Costa Rica",51
5184608,"Calle 56, San José, San José, 10108",51
4925055,"Calle 57 Guadalupe San José CR 10801, Calle 57, San José, Guadalupe, Costa Rica",51
4924802,"Calle 57, San José, Costa Rica",51
4925105,"Calle 57A, San José, Guadalupe, Costa Rica",51
5729886,"Calle 58, San José",51
4924499,"Calle 58, San José, Costa Rica",51
4927542,"Calle 59, San José, San Vicente, Costa Rica",51
4926743,"Calle 6, Av. 1, San José, Costa Rica",51
4923668,"Calle 6, San José, Costa Rica",51
4925479,"Calle 6, San José, Costa Rica",51
4925948,"Calle 60A, San José, Costa Rica",51
4924201,"Calle 61, San José, Guadalupe, Costa Rica",51
4926115,"Calle 62, San José, Costa Rica",51
5730138,"Calle 63, San José, San Vicente",51
4925054,"Calle 65, San José, San Vicente, Costa Rica",51
4924500,"Calle 66, San José, Costa Rica",51
5730195,"Calle 68, San José",51
4923320,"Calle 68A, San José, Costa Rica",51
4926857,"Calle 68A, San José, Costa Rica",51
4924046,"Calle 7, avenidas 16-18, local 1656, San José, Costa Rica",51
5729819,"Calle 7, San José",51
4923526,"Calle 7, San José Province, San José, Costa Rica",51
4923843,"Calle 7, San José Province, San José, Costa Rica",51
4924844,"Calle 7, San José Province, San José, Costa Rica",51
4925288,"Calle 7, San José Province, San José, Costa Rica",51
4925311,"Calle 7, San José Province, San José, Costa Rica",51
4925332,"Calle 7, San José Province, San José, Costa Rica",51
4927221,"Calle 7, San José Province, San José, Costa Rica",51
4925961,"Calle 7, San José, Costa Rica",51
5729889,"Calle 70, San José",51
4926268,"Calle 70, San José Province, San José, Costa Rica",51
4923385,"Calle 70, San José, Costa Rica",51
4927587,"Calle 70, San José, Costa Rica",51
4923873,"Calle 71, San José, San Vicente, Costa Rica",51
4925461,"Calle 72, San José, Costa Rica",51
4925913,"Calle 72A, San José, Costa Rica",51
4923955,"Calle 78, Avenida 1, 100 metros al Norte de Antojitos, Rhormoser, San José, 10109, Costa Rica",51
4924197,"Calle 79, San José, Sabanilla, Costa Rica",51
4924368,"Calle 8, entre Ave. Central y Ave. 2, Calle 8, San José, Costa Rica",51
5729895,"Calle 8, San José",51
5729959,"Calle 8, San José",51
4923498,"Calle 8, San José Province, San José, Costa Rica",51
4923504,"Calle 8, San José Province, San José, Costa Rica",51
4923661,"Calle 8, San José Province, San José, Costa Rica",51
4924866,"Calle 8, San José Province, San José, Costa Rica",51
4925423,"Calle 8, San José Province, San José, Costa Rica",51
4926752,"Calle 8, San José Province, San José, Costa Rica",51
4927047,"Calle 8, San José Province, San José, Costa Rica",51
4923567,"Calle 80A, San José, Costa Rica",51
4924895,"Calle 80A, San José, Costa Rica",51
4926085,"Calle 84, San José, Costa Rica",51
4926342,"Calle 86, San José, Costa Rica",51
5729808,"Calle 9, San José",51
5729878,"Calle 9, San José",51
4924333,"Calle 9, San José Province, San José, Costa Rica",51
4924919,"Calle 9, San José Province, San José, Costa Rica",51
4925265,"Calle 9, San José Province, San José, Costa Rica",51
4925851,"Calle 9, San José Province, San José, Costa Rica",51
4926202,"Calle 9, San José Province, San José, Costa Rica",51
4926701,"Calle 9, San José Province, San José, Costa Rica",51
4927242,"Calle 9, San José Province, San José, Costa Rica",51
4927529,"Calle 9, San José Province, San José, Costa Rica",51
4925083,"Calle 9, San José, Costa Rica",51
4924532,"Calle 92, San José, Costa Rica",51
4926011,"Calle 92, San José, Costa Rica",51
4926009,"Calle 94A, San José, Costa Rica",51
4926023,"Calle Alemanes, San José, Escazú, Costa Rica",51
5184632,"Calle Alexander Humboldt 18, San José",51
4925688,"Calle Alexander Humboldt, San José Province, San José, Costa Rica",51
4925703,"Calle Alexander Humboldt, San José Province, San José, Costa Rica",51
5261543,"Calle Belvedere, Provincia de Guanacaste, Sámara, 50205, Costa Rica",51
4927095,"Calle Blancos, San José, 150 meters west of Guadalupano, Costa Rica",51
4926215,"Calle Brasil, San José, Costa Rica",51
4926088,"Calle Carso, San José, Costa Rica",51
5730043,"Calle Central Alfredo Volio, San José",51
4927181,"Calle Central Alfredo Volio, San José Province, Goicoechea, Costa Rica",51
4923228,"Calle Central Alfredo Volio, San José Province, San José, Costa Rica",51
4923508,"Calle Central Alfredo Volio, San José Province, San José, Costa Rica",51
4923879,"Calle Central Alfredo Volio, San José Province, San José, Costa Rica",51
4924014,"Calle Central Alfredo Volio, San José Province, San José, Costa Rica",51
4924843,"Calle Central Alfredo Volio, San José Province, San José, Costa Rica",51
4925210,"Calle Central Alfredo Volio, San José Province, San José, Costa Rica",51
4925253,"Calle Central Alfredo Volio, San José Province, San José, Costa Rica",51
4925602,"Calle Central Alfredo Volio, San José Province, San José, Costa Rica",51
4927004,"Calle Central Alfredo Volio, San José Province, San José, Costa Rica",51
4927097,"Calle Central Alfredo Volio, San José Province, San José, Costa Rica",51
4927157,"Calle Central Alfredo Volio, San José Province, San José, Costa Rica",51
4927183,"Calle Central Alfredo Volio, San José Province, San José, Costa Rica",51
4923286,"Calle Central y Tercera Av. 15, San José, Costa Rica",51
4923850,"Calle Central, Avenida Segunda, Av. 2, San José, Costa Rica",51
4924253,"Calle Central, San José Province, San José, Costa Rica",51
4927598,"Calle central, San José, Cd Colón, Costa Rica",51
5729860,"Calle Central, San José, Tibás",51
4927262,"Calle Central, San José, Tibás, Costa Rica",51
5747666,"Calle Colochos, Vía Samara Vet, Provincia de Guanacaste, Sámara, Costa Rica",51
5729822,"Calle Costa Rica, San José",51
5730034,"Calle Costa Rica, San José",51
4926047,"Calle Costa Rica, San José, Aserri, Costa Rica",51
4925327,"Calle de la Sabana, San José, Costa Rica",51
4924862,"Calle Del Golf, San José Province, San José, Costa Rica",51
4923669,"Calle Del Golf, San José, Costa Rica",51
4926211,"Calle Finca Caballo Loco, San José Province, Costa Rica",51
4926230,"Calle Finca Caballo Loco, San José Province, Costa Rica",51
4926299,"Calle Finca Caballo Loco, San José Province, Costa Rica",51
4926302,"Calle Finca Caballo Loco, San José Province, Finca La Ponderosa, Costa Rica",51
4925544,"Calle Florentino Castro, San José Province, San José, Costa Rica",51
4927270,"Calle Hoja Blanca, San José, Escazú, Costa Rica",51
4927308,"Calle José Martí (19) avenidas 10 y 12, San José, 431-2300, Costa Rica",51
4923603,"Calle Juan Martínez Sanabria, San José, Granadilla, Costa Rica",51
4924747,"Calle la Cruz 26, San José Province, Mercedes, Costa Rica",51
4924829,"Calle la Cruz 26, San José Province, Mercedes, Costa Rica",51
4925016,"Calle la Cruz 36, San José Province, Mercedes, Costa Rica",51
4927117,"Calle Lajas, San José, Escazú, Costa Rica",51
5729812,"Calle Lang, San José",51
4927438,"Calle Lang, San José, Costa Rica",51
4927498,"Calle Lang, San José, Costa Rica",51
415032,"Calle Lapa Verde, 500 east of Pops ice cream parlor, Jacó, 00011, Costa Rica",51
5729926,"Calle Las Americas, San José Province, San José",51
4926843,"Calle Las Américas, San José, Costa Rica",51
4924212,"Calle Las Rusias, San José, Granadilla, Costa Rica",51
4923017,"Calle Lindora, San José, Pozos, Costa Rica",51
4924596,"Calle Lindora, San José, Pozos, Costa Rica",51
5730212,"Calle Los Mora, San José, Brasil",51
4924529,"Calle Los Varela, San José Province, San José, Costa Rica",51
4926440,"Calle Margarita Este, San José, Costa Rica",51
4927353,"Calle Masis, San José Province, Mercedes, Costa Rica",51
5111685,"Calle Matilori, Province of Guanacaste, Sámara, 00506, Costa Rica",51
4925568,"Calle Montoya 150, San José Province, Zapote, Costa Rica",51
5104222,"Calle Morales Bahia Azul, 6A, Jacó, 61101, Costa Rica",51
5730013,"Calle Multiplaza, San José, Escazú",51
4923240,"Calle Negritos, San José Province, Mercedes, Costa Rica",51
5729941,"Calle Negritos, San José, Mercedes",51
4924755,"Calle Pacifica, San José Province, Zapote, Costa Rica",51
5730132,"Calle Paralela, San José",51
413094,"calle pastor diaz At the Morgans Cove Resort &amp; Casino, Jacó, Costa Rica",51
4926220,"Calle Real, San José, Costa Rica",51
4925433,"Calle San Miguel, San José Province, Escazu, Costa Rica",51
4926801,"Calle Santa Lucía, Province of Alajuela, San José, Costa Rica",51
4925775,"Calle Solís, San José, Río Oro, Costa Rica",51
4925362,"Calle Surroca, San José, Sabanilla, 11502, Costa Rica",51
4923263,"Carr a Puriscal, San José, Costa Rica",51
5730083,"Carr John F Kennedy, San José, Escazú",51
5730111,"Carr. a Granadilla, San José, Granadilla",51
5730217,"Carr. a Granadilla, San José, Granadilla",51
4923968,"Carr. Vieja a Escazú, San José, Costa Rica",51
4925000,"Carr. Vieja a Escazú, San José, Escazú, Costa Rica",51
4923678,"Carretera 1 Inside Crowne Plaza Hotel San José San José CR, San José, 10102, Costa Rica",51
4924159,"Carretera a Curridabat, 125 metros sur del Indoor Club., D022, San José, Curridabat, Costa Rica",51
4924702,"Carretera a Sabanilla, Frente a instalaciones deportivas UCR, San José, Sabanilla, Costa Rica",51
4923694,"Carretera Interamericana, Frente al BAC San José, San José Province, Curridabat, 11801, Costa Rica",51
4924911,"Carretera Jhon F. Kennedy, Plaza Natura, Local 4., Escazú, San José, 10203, Costa Rica",51
4923468,"Carretera John F Kennedy, San José Province, Escazu, Costa Rica",51
4926446,"Carretera John F Kennedy, San José Province, Escazu, Costa Rica",51
4926967,"Carretera Principal de Pavas, San José, 10109, Costa Rica",51
4925039,"Cartago Province, San José, Costa Rica",51
4925120,"Casa Matute, Calle 21 Ave 10, San José, Costa Rica",51
4926815,"Casa W18, Urb. José Maria Zeledón, Del Bar Kbaña Classic 400 meters South, San José, Curridabat, 11801, Costa Rica",51
5730185,"Cascajal de Coronado, diagonal al Ebais (7Km NE del centro de Coronado) 216, San José, Vázquez de Coronado",51
4923303,"Cemetery of Sabanilla, San José Province, Sabanilla, Costa Rica",51
4924854,"center ave 2 in front of the bcr condominio las Américas floor mezanine local m 13, San José, Costa Rica",51
433862,"Center of Samara, of the Rural Guard 200 m East, Sámara, Costa Rica",51
4925126,"Central and First Avenues, Calle 1, San José, Costa Rica",51
4927100,"Central Ave 13, San José Province, Calle Blancos, Costa Rica",51
4923441,"Central Ave Blvd, 7th Street, San José, 1000, Costa Rica",51
5184598,"Central Avenue Calles 7 and 9, San José, 10303",51
4924999,"Central Street, San José, Uruca, Costa Rica",51
4926514,"Centro Colon Building Paseo Colón 38, Av. 0, San José, Costa Rica",51
4926430,"Centro Colon, Paseo Colon., Apartado 33-1007, San José, 10102, Costa Rica",51
422204,"Chiquita Beach, Puerto Viejo, Limón, Costa Rica",51
4924813,"Circunvalación, San José, Mercedes, Costa Rica",51
4923324,"Coca Cola, San José Province, San José, Costa Rica",51
4923135,"Coca, San José, Costa Rica",51
420653,"Cocles, Puerto Viejo, Limón, Costa Rica",51
4925317,"Cola,, San José, Costa Rica",51
4925451,"Cola,, San José, Costa Rica",51
4926070,"Cola,, San José, Costa Rica",51
4926704,"Condominio 6-30, Local #4, Av 10, San José, Costa Rica",51
4927393,"Condominio Inmobiliaria del Este, San José Province, San José, Costa Rica",51
4923682,"Contiguo a Claro, Paseo Colón, Paseo Colón, San José, Costa Rica",51
4926298,"Coronado, El De the last stop 100m west., El Rodeo, San José, San Marcos, Costa Rica",51
4924084,"Costa Rica 500 oeste de la panaderia la predilecta, San José Province, San José, Costa Rica",51
4925674,"Costa Rica Street, San José, Costa Rica",51
5184570,"Costa Rica Street, San José, Guadalupe",51
4924803,"Costa Rica, Bv. from Rohrmoser, San José, Costa Rica",51
4924580,"Costa Rica, entre calles 36-38., Av 2, San José, Costa Rica",51
5729841,"Costa Rica, San José",51
4926267,"Costa Rica, San José Province, San José, Costa Rica",51
4925354,"Costa Rica, San José, Costa Rica",51
4925905,"Costa Rica, San José, Costa Rica",51
4926311,"Costa Rica, San José, Costa Rica",51
5729821,"Costado este del Parque Nacional, San José",51
4923207,"COSTADO NORTE DE LA IGLESIA CATEDRAL EN AVENIDA SEGUNDA, DIAGONAL AL PARQUE CENT, SUCURSAL METROPOLITANO 6, San José Province, Costa Rica",51
4923507,"Costado norte parque La Merced, San José, Costa Rica",51
4923128,"Costado sur Banco Central, Av. Central, San José, Costa Rica",51
4923414,"Costado sur del Club Unión, Av. 1, San José, Costa Rica",51
415703,"Costanera Sur Hwy, Jacó, 61101, Costa Rica",51
4926626,"Country Plaza, Escazú, Segundo Piso, AntiAging Institute of the Americas, San José, Costa Rica",51
5184572,"Cristal building, main avenue, streets 1 and 3, San José",51
415316,"Croc&#39;s Casino Resort, 9913, Jacó, 61101, Costa Rica",51
5104211,"Croc's Hotel and Casino Penthouse, Jacó, 61101, Costa Rica",51
415179,"Crocodile Man Tour Office, Jacó, Costa Rica",51
4924483,"Cuesta de Moras, San José, Costa Rica",51
4924235,"Curridabat, 215, San José, Curridabat, Costa Rica",51
4924281,"Curridabat, D048, San José, Curridabat, Costa Rica",51
4927636,"De Euromobilia 50N. Edif Nagel 2do piso Rohrmoser San José CR, San José, Costa Rica",51
5729966,"De la entrada a Paseo Colón 500 metros oeste, San José",51
4926162,"De la Municipalidad de Goicoechea 80 metros al Este, edificifio esquinero, 2da Planta, Av. 33, San José, Guadalupe, Costa Rica",51
4923926,"De la universidad Fidelitas 500 este, carretera hacia Granadilla., 306, San José, Granadilla, Costa Rica",51
4927364,"De Servicentro la Galera, 700 Metros Norte, Curridabat, D032A, San José, Costa Rica",51
4924215,"de Tres Rios, San José, Costa Rica",51
4926582,"de, Av. 57, San José Province, San Vicente, Costa Rica",51
4925012,"Decoplaza, San José Province, Escazu, Costa Rica",51
4925950,"Del Banco Nacional 400m al sur, C097, San José, Tirrases, Costa Rica",51
4923050,"Del Bar Rockolas 200 Norte Contiguo A Ofihotel ( Budget), Calle Dorado, San José, Curridabat, 11801, Costa Rica",51
4923297,"Del Centro Empresarial Forum Dos,150 Metros Sur Y 50 Metros Oeste, San José, 10903, Costa Rica",51
4926035,"Del ICE de TIBAS, 100 m norte, 50 m este y 200 m norte, 102, San José, Tibas, Costa Rica",51
4925816,"Del Palacio Municipal, 500 metros al Este., 209, San José, Acosta, 11201, Costa Rica",51
4923179,"DENTRO DEL WALMART EN LA ROTONDA DE SAN SEBASTIAN. WALMART SAN SEBASTIAN 1, San José Province, Costa Rica",51
4927233,"Dentro Hotel Trianon, Avenidas 2 y 6. Calle 13, San José, Costa Rica",51
4923686,"Diagonal 16, San José, Costa Rica",51
4923772,"Diagonal 16, San José, Costa Rica",51
5184558,"Diagonal 18, San José, Escazú, 10201",51
4923961,"Diagonal 25A, San José, Costa Rica",51
4926853,"Diagonal 26A, San José, Costa Rica",51
4926016,"Diagonal 34, San José, Costa Rica",51
4923510,"Diagonal 36, San José, Costa Rica",51
5184587,"Diagonal 39A, San José, Guadalupe",51
4926339,"Diagonal 45, San José, Costa Rica",51
4926055,"Diagonal 5, San José, Sabanilla, Costa Rica",51
4924330,"Diagonal 66, San José, Costa Rica",51
5730101,"Diagonal al Cine Variedades, San José, 10101",51
5730103,"Diagonal al Cine Variedades, San José, 10101",51
434067,"diagonal Casa Esmeralda, Guanacaste Province, Sámara, 50205, Costa Rica",51
4924211,"Granadilla, San José, Curridabat, Costa Rica",51
4927337,"Guachipelín de Edificio VMG, Piso 1,, San José Province, Escazu, Costa Rica",51
5730190,"Guachipelín, San José, Escazú",51
4926823,"Guachipelín, San José, Escazú, Costa Rica",51
5153793,"Guanacaste Province, Costa Rica",51
434452,"Guanacaste Province, Sámara, 50205, Costa Rica",51
433259,"Guanacaste Province, Sámara, Costa Rica",51
433799,"Guanacaste Province, Sámara, Costa Rica",51
434063,"Guanacaste Province, Sámara, Costa Rica",51
434117,"Guanacaste Province, Sámara, Costa Rica",51
434174,"Guanacaste Province, Sámara, Costa Rica",51
434193,"Guanacaste Province, Sámara, Costa Rica",51
434447,"Guanacaste Province, Sámara, Costa Rica",51
434448,"Guanacaste Province, Sámara, Costa Rica",51
434485,"Guanacaste Province, Sámara, Costa Rica",51
434486,"Guanacaste Province, Sámara, Costa Rica",51
434487,"Guanacaste Province, Sámara, Costa Rica",51
434544,"Guanacaste Province, Sámara, Costa Rica",51
434571,"Guanacaste Province, Sámara, Costa Rica",51
434654,"Guanacaste Province, Sámara, Costa Rica",51
434655,"Guanacaste Province, Sámara, Costa Rica",51
5008097,"Guanacaste Province, Sámara, Costa Rica",51
5111691,"Guanacaste Province, Sámara, Costa Rica",51
5111700,"Guanacaste Province, Sámara, Costa Rica",51
5111703,"Guanacaste Province, Sámara, Costa Rica",51
5111706,"Guanacaste Province, Sámara, Costa Rica",51
5111707,"Guanacaste Province, Sámara, Costa Rica",51
5111781,"Guanacaste Province, Sámara, Costa Rica",51
5747665,"Guanacaste Province, Sámara, Costa Rica",51
5747668,"Guanacaste Province, Sámara, Costa Rica",51
4924170,"Guaria Norte, San José, San Vicente, Costa Rica",51
4925062,"Hatillo # 3, 75 meters north of the Taqueria de Costa Rica, Calle Costa Rica, San José, Costa Rica",51
4923557,"Hatillo 8, Avenida Tiribi, San José, Costa Rica",51
4923520,"Heredia Province, San José, Costa Rica",51
4923729,"Heredia Province, San José, Costa Rica",51
4925759,"Heredia Province, San José, Costa Rica",51
4925773,"Heredia Province, San José, Costa Rica",51
4925997,"Heredia Province, San José, Costa Rica",51
4927053,"Heredia Province, San José, Costa Rica",51
4927071,"Heredia Province, San José, Costa Rica",51
4927562,"Heredia Province, San José, Costa Rica",51
4925380,"Hot Balmoral, El, San José, Costa Rica",51
4926259,"Hotel Best Western Irazu, San José, Costa Rica",51
4926076,"House 22 Avenida 48 Bosques de Doña Claudia, Ciudad Cariari, Heredia, San José, 40703, Costa Rica",51
4923089,"Iglesia Santa Cecilia, Av 40, San José, Costa Rica",51
433254,"In front of the beach, Calle Intercultura, Sámara, 50205, Costa Rica",51
4926632,"In front of the west side of the National Stadium, San José, Costa Rica",51
4923704,"Interplaza Local #18, San José, Goicoechea, 10801, Costa Rica",51
4925662,"intersection of with, Av. 12 Calle 16, San José, Costa Rica",51
418738,"intersection y, Av Pastor Diaz Calle Lapa Verde, Jacó, Costa Rica",51
4924241,"Ismael Murillo, San José, Costa Rica",51
4925660,"Ismael Murillo, San José, Costa Rica",51
5261428,"Jacó, Costa Rica",51
4925786,"Joaquín García Monge, San José, Costa Rica",51
4926239,"Joaquín Vargas Coto, San José, Costa Rica",51
4926732,"José Cecilio del Valle, San José, Costa Rica",51
4927236,"José Joaquín Vargas Calvo, San José, Costa Rica",51
4924739,"Jose Martin Street, San José, Costa Rica",51
4926677,"Juan Pablo Segundo Bridge, San José, Costa Rica",51
4923420,"Juan Rafael Chacón, San José, Costa Rica",51
4925430,"Juan Rafael Mora, San José, Costa Rica",51
4926868,"Juan Ramón Bonilla, San José, Costa Rica",51
4924391,"Juan Santamaría, San José, Costa Rica",51
4923952,"Km 3 General Canas Highway Hotel Best Western Irazú, 200 Meters East Of Juan Pab, San José Province, San José, Costa Rica",51
4925295,"La Salle, San José, Costa Rica",51
4925657,"La Uruca, 300 mts este de la Plaza de Deportes, Calle 32 108, San José, 1388 1000, Costa Rica",51
4927350,"Laguito, la, San José, Costa Rica",51
5184574,"Lang Street, San José",51
5184668,"Las Americas Street, San José",51
5730289,"Libreria Universal, San José, 4to Piso, Foodcourt, Avenida Central, San José",51
5730172,"Lindora. Junto a Banco Davivienda, San José Province, San José",51
4927105,"Located from the Jockey Factory 200 Oeste and 600 southeast highway to Aserri., San José, Aserri, Costa Rica",51
4923406,"Los Ángeles, San José Province, San José, Costa Rica",51
4927017,"Los Negritos, San José, Costa Rica",51
434065,"Main street 75 meters north of the beach, GU, Sámara, Costa Rica",51
433803,"Main street towards Playa Carrillo, Guanacaste Province, Sámara, Costa Rica",51
4923175,"Mall El Dorado, San José, Calle Blancos, Costa Rica",51
4926951,"Mall Multiplaza Escazú, Nivel 1, 5ta etapa, Local 453., San José, Costa Rica",51
5184552,"Manuel E. Vasquez Building, Av 1, San José, Manuel Antonio, 60601",51
4927271,"Mario Sancho, San José, Costa Rica",51
5729956,"Mercado central de San José, Av. Central, San José",51
5730198,"Mercedes Montes de Oca, San José Province",51
4925450,"Miguel Obregón Lizano, San José, Costa Rica",51
4925915,"Moisés Vincenzi, San José, Costa Rica",51
418501,"Monte Verde Highway, Monte Verde, Costa Rica",51
415708,"Monte Verde, Costa Rica",51
417836,"Monte Verde, Costa Rica",51
418466,"Monte Verde, Costa Rica",51
418594,"Monte Verde, Costa Rica",51
419635,"Monte Verde, Costa Rica",51
420953,"Monte Verde, Costa Rica",51
5261095,"Monte Verde, Costa Rica",51
4926649,"Moravia, San José Province, Moravia, Costa Rica",51
5730209,"Moravia, San José Province, San José, 00000",51
4926636,"Multiplaza Curridabat Local # 15-A, San José, Curridabat, 11801, Costa Rica",51
4926279,"Multiplaza de Curridabat, 2da etapa, local 322, San José, Curridabat, Costa Rica",51
4926972,"Multiplaza del Este Shopping Center, San José, Zapote, Costa Rica",51
4926772,"Multiplaza del Este, San José, Curridabat, Costa Rica",51
4925686,"Multiplaza Escazu a la par de Tienda Bijoux., San José, Escazú, 10201, Costa Rica",51
4926606,"Multiplaza Frente al Hotel Intercontinental, San José Province, Escazu, 10203, Costa Rica",51
4924965,"National Heritage Building, Avenida Central, San José Province, San José, Costa Rica",51
4926240,"National Registry, 215, 11801 ,, San José, Curridabat, Costa Rica",51
5261453,"Natural Center, Costado este de la Escuela de Samana,, Guanacaste Province, Sámara, Costa Rica",51
4927136,"neighborhood, Province of Alajuela, San José, Costa Rica",51
4923705,"Next To Supermarket Am Pm, San José Province, San José, Costa Rica",51
4926509,"North side TUASA station, Av. Central 12 &amp; 14, San José, Costa Rica",51
4927156,"Of. 1A, San José, Costa Rica",51
5184606,"Of. 2 C-19, San José",51
5184590,"Of. 8, San José",51
4927501,"Oficentro Torres del Campo Torre 2, Piso 2, San José Province, San José, Costa Rica",51
4927392,"Old Street, San José, Costa Rica",51
5752694,"Otoya, San José Province, San José, Costa Rica",51
4924984,"P.O. Box 8536-1000, San José, Costa Rica",51
418187,"Pacific Center # 30, Jacó, Costa Rica",51
4926347,"Palace, 2nd Avenue, San José, Costa Rica",51
4924386,"Pan American Highway, San José Province, San José, Costa Rica",51
4926213,"Pan American Hwy, San José Province, Curridabat, Costa Rica",51
4925140,"Parallel Street, San José, Costa Rica",51
4924757,"Parking, San José, Costa Rica",51
4925785,"Parque Beneméritos, Calle 36, San José, Costa Rica",51
4923921,"Paseo Calderón Muñoz, San José, Costa Rica",51
5729879,"Paseo Colón 50, San José",51
4926917,"Paseo Colón Towers, Paseo Colón, San José, Costa Rica",51
5729906,"Paseo Colón, San José",51
4923618,"Paseo colon, San José, 10101, Costa Rica",51
4927365,"Paseo Colón, San José, 10236-1000, Costa Rica",51
4923241,"Paseo Colón, San José, Costa Rica",51
4923689,"Paseo Colón, San José, Costa Rica",51
4923691,"Paseo Colón, San José, Costa Rica",51
4923692,"Paseo Colón, San José, Costa Rica",51
4923714,"Paseo Colón, San José, Costa Rica",51
4924232,"Paseo Colón, San José, Costa Rica",51
4924519,"Paseo Colón, San José, Costa Rica",51
4926614,"Paseo Colón, San José, Costa Rica",51
4926621,"Paseo Colon, San José, Costa Rica",51
4926696,"Paseo Colón, San José, Costa Rica",51
4926706,"Paseo Colon, San José, Costa Rica",51
4927319,"Paseo Colón, San José, Costa Rica",51
4927320,"Paseo Colón, San José, Costa Rica",51
4927328,"Paseo Colón, San José, Costa Rica",51
4927439,"Paseo Colón, San José, Costa Rica",51
4923399,"PASEO COLON, SUPERMERCADO AM PM PASEO COLON, San José Province, Costa Rica",51
4923379,"Paseo de la Segunda República, San José, Costa Rica",51
4927447,"Paseo de la Segunda República, San José, Costa Rica",51
4923125,"Paseo de La Unión Europea, San José, Costa Rica",51
4924819,"Paseo de La Unión Europea, San José, Costa Rica",51
4927096,"Paseo de La Unión Europea, San José, Costa Rica",51
4924734,"Paseo de Los Damas, San José, Costa Rica",51
5729942,"Paseo de los Estudiantes, San José",51
5730186,"Paseo de los Estudiantes, San José",51
4923211,"Paseo de los Estudiantes, San José, Costa Rica",51
4924002,"Paseo de los Estudiantes, San José, Costa Rica",51
4924279,"Paseo de los Estudiantes, San José, Costa Rica",51
4925366,"Paseo de los Estudiantes, San José, Costa Rica",51
4925792,"Paseo de los Estudiantes, San José, Costa Rica",51
4924736,"Paseo Rubén Darío, San José, Costa Rica",51
4927359,"Paseo Rubén Darío, San José, Costa Rica",51
5730079,"Patalillo,San José, Vázquez de, San José, Vázquez de Coronado",51
4923010,"Patarrá, San José, Patarrá, Costa Rica",51
434449,"Patio Colonial, 160, Sámara, Guanacaste, Costa Rica",51
4924096,"Pavas, San José Province, San José, Costa Rica",51
4923579,"Pavas, San José, 10109, Costa Rica",51
4923105,"Pavas, San José, Costa Rica",51
4925606,"Pavas, San José, Costa Rica",51
4926356,"Pavas, San José, Costa Rica",51
4926219,"Peace Park ,, San José, Costa Rica",51
4927404,"Pío Víquez, San José, 10103, Costa Rica",51
4926235,"Pio Viquez, San José, Mata Redonda, 10108, Costa Rica",51
4926830,"Subestación Curridabat, C097, San José Province, Curridabat, 11801, Costa Rica",51
