place_id,address,countries_id
4681826,"6000 Kecskemét, Belsőnyír tanya 97 ., 6000 Hungary",96
4681808,"6000 Kecskemét, Daimler út 2. Magyarország, Hungary",96
5617710,"6000 Kecskemét, Dózsa Gy. út 13, 6000",96
4677067,"6000 Kecskemét, Kőrösi hegy 93 ., 6000 Hungary",96
4681718,"6000 Kecskemét, Széchenyi sétány 5, 6000 Hungary",96
1563493,"7666 Pagan, Airport, Hungary",96
4784234,"8200 Veszprém, Lahner Gy. utca 11 ., 8200 Hungary",96
4784235,"8200 Veszprém, Lahner Gy. utca 9, 8200 Hungary",96
4784035,"8200 Veszprém, Rákóczi Ferenc utca 8, 8558 Hungary",96
4783987,"8200 Veszprém, Szeglethy utca 1. Belváros City Department Store II.Em., Hungary",96
5177661,"Beech, Poppy row 3, 9740",96
5177711,"Beech, Walnut row 5, 9740",96
4664330,"Györ, Budaj Út. 1, 9021 Hungary",96
4664247,"Gyor, GYOR SC GYOR ARKAD, Budai ut 1., 9027 Hungary",96
5177822,"Gyor, Kossuth Lajos u. 20, 9025",96
1556894,"Heviz, Honvéd u. 7., 8380 Hungary",96
1558161,"Heviz, Rákóczi u. 11, 8380 Hungary",96
1549417,"If, Almagyar u. 1, 3300 Hungary",96
1549757,"If, Almagyar u. 1, 3300 Hungary",96
1554823,"If, Almagyar u. 12, 3300 Hungary",96
1549598,"If, Almagyar u. 20, 3300 Hungary",96
1551715,"If, Almagyar u. 23, 3300 Hungary",96
1549442,"If, Almagyar u. 3, 3300 Hungary",96
1553327,"If, Almagyar u. 9, 3300 Hungary",96
1549774,"If, Fazola Henrik u. 1, 3300 Hungary",96
1549337,"If, Fazola Henrik u., 3300 Hungary",96
5617715,"Kecskemét, 1, Lestár tér, 6000",96
4681578,"Kecskemét, 1, Rezgő u., 6000 Hungary",96
4681595,"Kecskemét, 1, Rezgő u., 6000 Hungary",96
4677278,"Kecskemét, 1/1, Izsáki út 2, 6000 Hungary",96
4682106,"Kecskemét, 2, Lestár tér, 6000 Hungary",96
4681782,"Kecskemét, 2., Tóth László stny., 6000 Hungary",96
4681553,"Kecskemét, 236, Úrrét, 6000 Hungary",96
4673411,"Kecskemét, 236., Úrrét, 6000 Hungary",96
4682190,"Kecskemét, 26, Bethlen krt., 6000 Hungary",96
4681630,"Kecskemét, 2750 Hungary",96
4681766,"Kecskemét, 3 5., Homokszem utca, 6000 Hungary",96
4682295,"Kecskemét, 306. (Hrsz.:0367/18). talfája 306. (hrsz.:0367/18)., 6000 Hungary",96
4681506,"Kecskemét, 339, Szarkás tanya, Hungary",96
4682266,"Kecskemét, 36,, Borbás tanya, 6000 Hungary",96
4681531,"Kecskemét, 36., Felsőszéktó tanya, 6000 Hungary",96
4677421,"Kecskemét, 445, 6000 Hungary",96
5177885,"Kecskemét, 46 ° 50&#39;48. 19 ° 34&#39;18., Akácvirág u. 0, 6000",96
5617717,"Kecskemét, 5, Felsőcsalános tanya, 6000",96
4681897,"Kecskemét, 53101 405, 6000 Hungary",96
5177879,"Kecskemét, 6000",96
5618009,"Kecskemét, 6000",96
4676845,"Kecskemét, 6000 Hungary",96
4676846,"Kecskemét, 6000 Hungary",96
4676847,"Kecskemét, 6000 Hungary",96
4676848,"Kecskemét, 6000 Hungary",96
4676849,"Kecskemét, 6000 Hungary",96
4676850,"Kecskemét, 6000 Hungary",96
4676851,"Kecskemét, 6000 Hungary",96
4676852,"Kecskemét, 6000 Hungary",96
4676853,"Kecskemét, 6000 Hungary",96
4676854,"Kecskemét, 6000 Hungary",96
4676855,"Kecskemét, 6000 Hungary",96
4676856,"Kecskemét, 6000 Hungary",96
4676857,"Kecskemét, 6000 Hungary",96
4676858,"Kecskemét, 6000 Hungary",96
4676859,"Kecskemét, 6000 Hungary",96
4676860,"Kecskemét, 6000 Hungary",96
4676861,"Kecskemét, 6000 Hungary",96
4676862,"Kecskemét, 6000 Hungary",96
4676863,"Kecskemét, 6000 Hungary",96
4676864,"Kecskemét, 6000 Hungary",96
4676865,"Kecskemét, 6000 Hungary",96
4676866,"Kecskemét, 6000 Hungary",96
4676867,"Kecskemét, 6000 Hungary",96
4676868,"Kecskemét, 6000 Hungary",96
4676869,"Kecskemét, 6000 Hungary",96
4676870,"Kecskemét, 6000 Hungary",96
4676871,"Kecskemét, 6000 Hungary",96
4676872,"Kecskemét, 6000 Hungary",96
4676873,"Kecskemét, 6000 Hungary",96
4676874,"Kecskemét, 6000 Hungary",96
4676875,"Kecskemét, 6000 Hungary",96
4676876,"Kecskemét, 6000 Hungary",96
4676877,"Kecskemét, 6000 Hungary",96
4676878,"Kecskemét, 6000 Hungary",96
4676879,"Kecskemét, 6000 Hungary",96
4676880,"Kecskemét, 6000 Hungary",96
4676882,"Kecskemét, 6000 Hungary",96
4676883,"Kecskemét, 6000 Hungary",96
4676884,"Kecskemét, 6000 Hungary",96
4676885,"Kecskemét, 6000 Hungary",96
4676886,"Kecskemét, 6000 Hungary",96
4676888,"Kecskemét, 6000 Hungary",96
4676889,"Kecskemét, 6000 Hungary",96
4677012,"Kecskemét, 6000 Hungary",96
4677282,"Kecskemét, 6000 Hungary",96
4677417,"Kecskemét, 6000 Hungary",96
4677419,"Kecskemét, 6000 Hungary",96
4677423,"Kecskemét, 6000 Hungary",96
4677424,"Kecskemét, 6000 Hungary",96
4677425,"Kecskemét, 6000 Hungary",96
4677426,"Kecskemét, 6000 Hungary",96
4677427,"Kecskemét, 6000 Hungary",96
4677428,"Kecskemét, 6000 Hungary",96
4677429,"Kecskemét, 6000 Hungary",96
4677431,"Kecskemét, 6000 Hungary",96
4677432,"Kecskemét, 6000 Hungary",96
4681430,"Kecskemét, 6000 Hungary",96
4681431,"Kecskemét, 6000 Hungary",96
4681433,"Kecskemét, 6000 Hungary",96
4681434,"Kecskemét, 6000 Hungary",96
4681435,"Kecskemét, 6000 Hungary",96
4681436,"Kecskemét, 6000 Hungary",96
4681439,"Kecskemét, 6000 Hungary",96
4681440,"Kecskemét, 6000 Hungary",96
4681442,"Kecskemét, 6000 Hungary",96
4681443,"Kecskemét, 6000 Hungary",96
4681444,"Kecskemét, 6000 Hungary",96
4681446,"Kecskemét, 6000 Hungary",96
4681447,"Kecskemét, 6000 Hungary",96
4681448,"Kecskemét, 6000 Hungary",96
4681449,"Kecskemét, 6000 Hungary",96
4681450,"Kecskemét, 6000 Hungary",96
4681451,"Kecskemét, 6000 Hungary",96
4681452,"Kecskemét, 6000 Hungary",96
4681453,"Kecskemét, 6000 Hungary",96
4681454,"Kecskemét, 6000 Hungary",96
4681455,"Kecskemét, 6000 Hungary",96
4681456,"Kecskemét, 6000 Hungary",96
4681457,"Kecskemét, 6000 Hungary",96
4681458,"Kecskemét, 6000 Hungary",96
4681459,"Kecskemét, 6000 Hungary",96
4681460,"Kecskemét, 6000 Hungary",96
4681461,"Kecskemét, 6000 Hungary",96
4681462,"Kecskemét, 6000 Hungary",96
4681464,"Kecskemét, 6000 Hungary",96
4681465,"Kecskemét, 6000 Hungary",96
4681466,"Kecskemét, 6000 Hungary",96
4681467,"Kecskemét, 6000 Hungary",96
4681468,"Kecskemét, 6000 Hungary",96
4681471,"Kecskemét, 6000 Hungary",96
4681472,"Kecskemét, 6000 Hungary",96
4681473,"Kecskemét, 6000 Hungary",96
4681474,"Kecskemét, 6000 Hungary",96
4681475,"Kecskemét, 6000 Hungary",96
4681477,"Kecskemét, 6000 Hungary",96
4681478,"Kecskemét, 6000 Hungary",96
4681479,"Kecskemét, 6000 Hungary",96
4681480,"Kecskemét, 6000 Hungary",96
4681481,"Kecskemét, 6000 Hungary",96
4681482,"Kecskemét, 6000 Hungary",96
4681483,"Kecskemét, 6000 Hungary",96
4681484,"Kecskemét, 6000 Hungary",96
4681485,"Kecskemét, 6000 Hungary",96
4681486,"Kecskemét, 6000 Hungary",96
4681487,"Kecskemét, 6000 Hungary",96
4681504,"Kecskemét, 6000 Hungary",96
4681509,"Kecskemét, 6000 Hungary",96
4681520,"Kecskemét, 6000 Hungary",96
4681521,"Kecskemét, 6000 Hungary",96
4681528,"Kecskemét, 6000 Hungary",96
4681539,"Kecskemét, 6000 Hungary",96
4681541,"Kecskemét, 6000 Hungary",96
4681542,"Kecskemét, 6000 Hungary",96
4681551,"Kecskemét, 6000 Hungary",96
4681554,"Kecskemét, 6000 Hungary",96
4681617,"Kecskemét, 6000 Hungary",96
4681619,"Kecskemét, 6000 Hungary",96
4681620,"Kecskemét, 6000 Hungary",96
4681625,"Kecskemét, 6000 Hungary",96
4681626,"Kecskemét, 6000 Hungary",96
4681661,"Kecskemét, 6000 Hungary",96
4681663,"Kecskemét, 6000 Hungary",96
4681672,"Kecskemét, 6000 Hungary",96
4681673,"Kecskemét, 6000 Hungary",96
4681677,"Kecskemét, 6000 Hungary",96
4681681,"Kecskemét, 6000 Hungary",96
4681686,"Kecskemét, 6000 Hungary",96
4681691,"Kecskemét, 6000 Hungary",96
4681697,"Kecskemét, 6000 Hungary",96
4681723,"Kecskemét, 6000 Hungary",96
4681724,"Kecskemét, 6000 Hungary",96
4681726,"Kecskemét, 6000 Hungary",96
4681810,"Kecskemét, 6000 Hungary",96
4681819,"Kecskemét, 6000 Hungary",96
4681839,"Kecskemét, 6000 Hungary",96
4681882,"Kecskemét, 6000 Hungary",96
4681902,"Kecskemét, 6000 Hungary",96
4681951,"Kecskemét, 6000 Hungary",96
4681953,"Kecskemét, 6000 Hungary",96
4681954,"Kecskemét, 6000 Hungary",96
4681956,"Kecskemét, 6000 Hungary",96
4681957,"Kecskemét, 6000 Hungary",96
4681958,"Kecskemét, 6000 Hungary",96
4681970,"Kecskemét, 6000 Hungary",96
4681971,"Kecskemét, 6000 Hungary",96
4681977,"Kecskemét, 6000 Hungary",96
4681978,"Kecskemét, 6000 Hungary",96
4681979,"Kecskemét, 6000 Hungary",96
4681980,"Kecskemét, 6000 Hungary",96
4681981,"Kecskemét, 6000 Hungary",96
4681982,"Kecskemét, 6000 Hungary",96
4681983,"Kecskemét, 6000 Hungary",96
4681984,"Kecskemét, 6000 Hungary",96
4681985,"Kecskemét, 6000 Hungary",96
4681986,"Kecskemét, 6000 Hungary",96
4681987,"Kecskemét, 6000 Hungary",96
4681988,"Kecskemét, 6000 Hungary",96
4681989,"Kecskemét, 6000 Hungary",96
4681990,"Kecskemét, 6000 Hungary",96
4681991,"Kecskemét, 6000 Hungary",96
4681992,"Kecskemét, 6000 Hungary",96
4681993,"Kecskemét, 6000 Hungary",96
4681994,"Kecskemét, 6000 Hungary",96
4681995,"Kecskemét, 6000 Hungary",96
4681996,"Kecskemét, 6000 Hungary",96
4681997,"Kecskemét, 6000 Hungary",96
4681998,"Kecskemét, 6000 Hungary",96
4681999,"Kecskemét, 6000 Hungary",96
4682000,"Kecskemét, 6000 Hungary",96
4682001,"Kecskemét, 6000 Hungary",96
4682002,"Kecskemét, 6000 Hungary",96
4682003,"Kecskemét, 6000 Hungary",96
4682004,"Kecskemét, 6000 Hungary",96
4682005,"Kecskemét, 6000 Hungary",96
4682006,"Kecskemét, 6000 Hungary",96
4682007,"Kecskemét, 6000 Hungary",96
4682008,"Kecskemét, 6000 Hungary",96
4682009,"Kecskemét, 6000 Hungary",96
4682010,"Kecskemét, 6000 Hungary",96
4682011,"Kecskemét, 6000 Hungary",96
4682013,"Kecskemét, 6000 Hungary",96
4682014,"Kecskemét, 6000 Hungary",96
4682015,"Kecskemét, 6000 Hungary",96
4682016,"Kecskemét, 6000 Hungary",96
4682017,"Kecskemét, 6000 Hungary",96
4682018,"Kecskemét, 6000 Hungary",96
4682019,"Kecskemét, 6000 Hungary",96
4682020,"Kecskemét, 6000 Hungary",96
4682021,"Kecskemét, 6000 Hungary",96
4682022,"Kecskemét, 6000 Hungary",96
4682023,"Kecskemét, 6000 Hungary",96
4682024,"Kecskemét, 6000 Hungary",96
4682025,"Kecskemét, 6000 Hungary",96
4682026,"Kecskemét, 6000 Hungary",96
4682027,"Kecskemét, 6000 Hungary",96
4682028,"Kecskemét, 6000 Hungary",96
4682219,"Kecskemét, 6000 Hungary",96
4702244,"Kecskemét, 6000 Hungary",96
4702245,"Kecskemét, 6000 Hungary",96
4702246,"Kecskemét, 6000 Hungary",96
4702247,"Kecskemét, 6000 Hungary",96
4702248,"Kecskemét, 6000 Hungary",96
4702250,"Kecskemét, 6000 Hungary",96
5742305,"Kecskemét, 6000 Hungary",96
5745096,"Kecskemét, 6000 Hungary",96
4681874,"Kecskemét, 6000 Kecskemét, Hitel utca--kis posta mellett -volt aranyszarvas étterem helyén, 6000 Hungary",96
4681685,"Kecskemét, 6000, Csókás József u. 16-18, 6000 Hungary",96
4681772,"Kecskemét, 6000, Dózsa György út 22, Hungary",96
4681915,"Kecskemét, 6000, Izsáki út 12, 6000 Hungary",96
4682136,"Kecskemét, 6000, Klapka u. 30, 6000 Hungary",96
4682200,"Kecskemét, 6000, Rózsavölgyi tér 20, 6000 Hungary",96
4681524,"Kecskemét, 6000, Széchenyi krt. 1, 6000 Hungary",96
4681892,"Kecskemét, 6000, Vörösmarty u. 1-3, 6000 Hungary",96
4681789,"Kecskemét, 6000, Wesselényi u. 4-6, 6000 Hungary",96
4677430,"Kecskemét, 6008 Hungary",96
4681438,"Kecskemét, 6008 Hungary",96
4681441,"Kecskemét, 6008 Hungary",96
4681445,"Kecskemét, 6008 Hungary",96
4681955,"Kecskemét, 6008 Hungary",96
4676887,"Kecskemét, 6033 Hungary",96
4681476,"Kecskemét, 6034 Hungary",96
5177884,"Kecskemét, 6044",96
4673412,"Kecskemét, 6044 Hungary",96
4681429,"Kecskemét, 6044 Hungary",96
4681432,"Kecskemét, 6044 Hungary",96
4681437,"Kecskemét, 6044 Hungary",96
4681671,"Kecskemét, 6044 Hungary",96
4681952,"Kecskemét, 6044 Hungary",96
4682278,"Kecskemét, 8, Nyomda utca, 6000 Hungary",96
4681821,"Kecskemét, 83,, Kossuth Lajos u. 81, 6044 Hungary",96
4681919,"Kecskemét, a,, Korházközi útca 10, 6000 Hungary",96
4673416,"Kecskemét, Akadémia krt. 1, 6000 Hungary",96
4681579,"Kecskemét, Akadémia krt. 2, 6000 Hungary",96
4681581,"Kecskemét, Akadémia krt. 2, 6000 Hungary",96
4681876,"Kecskemét, Akadémia krt. 2, 6000 Hungary",96
4681873,"Kecskemét, Akadémia krt. 26, 6000 Hungary",96
4676992,"Kecskemét, Akadémia krt. 28, 6000 Hungary",96
4681746,"Kecskemét, Akadémia krt. 48, 6000 Hungary",96
4681861,"Kecskemét, Akadémia krt. 51, 6000 Hungary",96
4681732,"Kecskemét, Akadémia krt. 53, 6000 Hungary",96
5617726,"Kecskemét, Akadémia krt. 69, 6000",96
4681748,"Kecskemét, Alkony u. 11, 6000 Hungary",96
5617708,"Kecskemét, Alsócsalános 3., 6000",96
4681523,"Kecskemét, Alsószéktó tanya 272, 6000 Hungary",96
4682222,"Kecskemét, Arany János u. 10-12, 6000 Hungary",96
4677284,"Kecskemét, Arany János u. 12, 6000 Hungary",96
5177868,"Kecskemét, Arany János u. 3, 6000",96
4681968,"Kecskemét, Arany János u. 3, 6000 Hungary",96
5745092,"Kecskemét, Arany János u. 3, 6000 Hungary",96
4677410,"Kecskemét, Arany János u. 4, 6000 Hungary",96
4682227,"Kecskemét, Arany János u. 6, 6000 Hungary",96
4682223,"Kecskemét, Arany János u. 8., 6000 Hungary",96
4677047,"Kecskemét, Arany János utca 1., 6000 Hungary",96
4682029,"Kecskemét, Árnyas u. 4, 6000 Hungary",96
4677267,"Kecskemét, Árpád körút 4., 6000 Hungary",96
4702757,"Kecskemét, Árpádváros, 6000 Hungary",96
4682105,"Kecskemét, B, Ady Endre u. 12, 6000 Hungary",96
4681510,"Kecskemét, Bagi László u. 4, 6000 Hungary",96
4681703,"Kecskemét, Bagoly u. 1, 6000 Hungary",96
4673419,"Kecskemét, Balaton u. 17, 6000 Hungary",96
4681621,"Kecskemét, Balaton u. 17, 6000 Hungary",96
4681907,"Kecskemét, Ballószög tanya 339/a, 6000 Hungary",96
4681905,"Kecskemét, Ballószög tanya 378/C, 6000 Hungary",96
4681973,"Kecskemét, Bánk bán u. 3-9, 6000 Hungary",96
5617381,"Kecskemét, Bánk bán u. 9, 6000",96
4681563,"Kecskemét, Barátság u. 2, 6044 Hungary",96
4681530,"Kecskemét, Barátság u. 20, 6044 Hungary",96
5177877,"Kecskemét, Batthyány u. 1, 6000",96
4677414,"Kecskemét, Batthyány u. 1, 6000 Hungary",96
4681511,"Kecskemét, Batthyány u. 1-7, 6000 Hungary",96
5617922,"Kecskemét, Batthyány u. 10-12, 6000",96
4681722,"Kecskemét, Batthyány u. 14, 6000 Hungary",96
4681713,"Kecskemét, Batthyány u. 16, 6000 Hungary",96
4681796,"Kecskemét, Batthyány u. 16, 6000 Hungary",96
4681712,"Kecskemét, Batthyány u. 37, 6000 Hungary",96
4681790,"Kecskemét, Batthyány u. 8, 6000 Hungary",96
4682279,"Kecskemét, Békéscsabai út 2, 6000 Hungary",96
4682280,"Kecskemét, Békéscsabai út 2, 6000 Hungary",96
4682281,"Kecskemét, Békéscsabai út 260, 6000 Hungary",96
4681550,"Kecskemét, Békéscsabai út, 6000 Hungary",96
4677166,"Kecskemét, Belsőnyír 145, 6000 Hungary",96
4681513,"Kecskemét, Belsőnyír 150, 6000 Hungary",96
5177886,"Kecskemét, Belsőnyír 202, 6044",96
4677395,"Kecskemét, Belsőnyír 241, 6000 Hungary",96
4681827,"Kecskemét, Belsőnyír 91/D, 6000 Hungary",96
4681836,"Kecskemét, Belsőnyír tanya 310, 6044 Hungary",96
4682305,"Kecskemét, Bem u. 10, 6000 Hungary",96
4681841,"Kecskemét, Benedek Elek u. 4, 6000 Hungary",96
5177871,"Kecskemét, Beniczky Ferenc u. 4, 6000",96
5177883,"Kecskemét, Beniczky Ferenc u., 6000",96
4673420,"Kecskemét, Bercsényi u. 7, 6000 Hungary",96
5617582,"Kecskemét, Beretvás köz 15, 6000",96
5617581,"Kecskemét, Beretvás köz, 6000",96
4682195,"Kecskemét, Besenyő u. 16., 6000 Hungary",96
4681636,"Kecskemét, Bethlen körút 16., 6000 Hungary",96
4681641,"Kecskemét, Bethlen krt. 1, 6000 Hungary",96
4682194,"Kecskemét, Bethlen krt. 12, 6000 Hungary",96
4681548,"Kecskemét, Bethlen krt. 57-61, 6000 Hungary",96
4681762,"Kecskemét, Bethlen krt. 63, 6000 Hungary",96
4677436,"Kecskemét, Bibó István u. 1, 6000 Hungary",96
4681763,"Kecskemét, Bibó István u. 1, 6000 Hungary",96
4681750,"Kecskemét, Bíbor u. 1, 6000 Hungary",96
4681805,"Kecskemét, Bihar u. 6, 6000 Hungary",96
4682289,"Kecskemét, Bika u., 6000 Hungary",96
4681778,"Kecskemét, Bíró Lajos u. 17, 6000 Hungary",96
5617526,"Kecskemét, Bíró Lajos u. 3, 6000",96
4681424,"Kecskemét, Bocskai u. 1, 6000 Hungary",96
4682129,"Kecskemét, Bocskai u. 19, 6000 Hungary",96
5617933,"Kecskemét, Bocskai u. 2, 6000",96
5617725,"Kecskemét, Bocskai u. 5, 6000",96
4681733,"Kecskemét, Bogovics köz 2, 6000 Hungary",96
4682107,"Kecskemét, Bogovics köz 2, 6000 Hungary",96
5177878,"Kecskemét, Bokréta u. 2, 6000",96
5617736,"Kecskemét, Borbás 50, 6000",96
4681759,"Kecskemét, Boróka u. 4, 6000 Hungary",96
4681918,"Kecskemét, Boróka u. 43, 6000 Hungary",96
4681664,"Kecskemét, Boróka u. 51, 6000 Hungary",96
4677056,"Kecskemét, Brassói u. 22, 6000 Hungary",96
4681834,"Kecskemét, Budai hegy 72, 6000 Hungary",96
4681711,"Kecskemét, Budai u. 1, 6000 Hungary",96
4681815,"Kecskemét, Budai u. 1, 6000 Hungary",96
4681742,"Kecskemét, Budai u. 159, 6000 Hungary",96
4681845,"Kecskemét, Budai u. 159, 6000 Hungary",96
5177864,"Kecskemét, Budai u. 160, 6000",96
4681544,"Kecskemét, Budai u., 6000 Hungary",96
4681556,"Kecskemét, Budai u., 6000 Hungary",96
4681857,"Kecskemét, Budai u., 6000 Hungary",96
4677015,"Kecskemét, Budai út 136, 6000 Hungary",96
4677078,"Kecskemét, Budai út, 6000 Hungary",96
4677201,"Kecskemét, Budaihegy farm 121, 6000 Hungary",96
4681835,"Kecskemét, Budaihegy tanya 70, 6000 Hungary",96
4677266,"Kecskemét, Building 6, Izsáki út 10, 6000 Hungary",96
5177882,"Kecskemét, Búzakalász u. 20, 6000",96
4673407,"Kecskemét, Ceglédi út 11, 6000 Hungary",96
4682301,"Kecskemét, Ceglédi út 114, 6000 Hungary",96
4682178,"Kecskemét, Ceglédi út 22, 6000 Hungary",96
4682179,"Kecskemét, Ceglédi út 38, 6000 Hungary",96
4682181,"Kecskemét, Ceglédi út 62, 6000 Hungary",96
4677064,"Kecskemét, Ceglédi út 86, 6000 Hungary",96
4682184,"Kecskemét, Ceglédi út 86, 6000 Hungary",96
5617538,"Kecskemét, Ceglédi út, 6000",96
4682032,"Kecskemét, Ceglédi út, 6000 Hungary",96
4682216,"Kecskemét, Ceglédi út, 6000 Hungary",96
4682199,"Kecskemét, Cimbalmos u. 22, 6000 Hungary",96
4681616,"Kecskemét, Csabay Géza körút 21., 6000 Hungary",96
4681676,"Kecskemét, Csabay Géza krt. 1 / a, 6000 Hungary",96
5617711,"Kecskemét, Csabay Géza krt. 5, 6000",96
4681515,"Kecskemét, Csabay Géza krt. 5, 6000 Hungary",96
4681593,"Kecskemét, Csabay Géza krt. 5, 6000 Hungary",96
4681731,"Kecskemét, Csabay Géza krt. 5, 6000 Hungary",96
4676752,"Kecskemét, Csabay Géza krt. 7, 6000 Hungary",96
4681947,"Kecskemét, Csabay Géza krt. 7, 6000 Hungary",96
4682299,"Kecskemét, Csáktornyai u. 4, 6000 Hungary",96
4676996,"Kecskemét, Csáktornyai u. 4-6, 6000 Hungary",96
4682203,"Kecskemét, Csáky u. 18, 6000 Hungary",96
5177863,"Kecskemét, Csalogány u. 4, 6000",96
4681668,"Kecskemét, Csányi János krt. 6, 6000 Hungary",96
4681949,"Kecskemét, Csányi János krt. 8, 6000 Hungary",96
4682143,"Kecskemét, Csányi János krt., 6000 Hungary",96
4681415,"Kecskemét, Csányi St 1, 6000 Hungary",96
5177866,"Kecskemét, Csányi u. 1, 6000",96
4673391,"Kecskemét, Csányi u. 1, 6000 Hungary",96
4681799,"Kecskemét, Csányi u. 1-3, 6000 Hungary",96
5742301,"Kecskemét, Csányi u. 1-3, 6000 Hungary",96
5742313,"Kecskemét, Csányi u. 3, 6000 Hungary",96
4681802,"Kecskemét, Cserhát u. 1, 6000 Hungary",96
4681715,"Kecskemét, Csongrádi utca 1, 6000 Hungary",96
4682232,"Kecskemét, Csongrádi utca 4, 6000 Hungary",96
4677401,"Kecskemét, Csongrádi utca 43, 6000 Hungary",96
4702756,"Kecskemét, Csongrádi utca 5, 6000 Hungary",96
4681916,"Kecskemét, Csukáséri u., 6000 Hungary",96
4673408,"Kecskemét, Czollner köz 38, 6000 Hungary",96
4682185,"Kecskemét, Czollner köz 44, 6000 Hungary",96
4681812,"Kecskemét, Czollner tér 1, 6000 Hungary",96
4677063,"Kecskemét, Czollner tér 2, 6000 Hungary",96
4681690,"Kecskemét, Czollner tér 2, 6000 Hungary",96
4681811,"Kecskemét, Czollner tér 3-5, 6000 Hungary",96
4681813,"Kecskemét, Czollner tér 5, 6000 Hungary",96
4702690,"Kecskemét, Czollner tér 5, 6000 Hungary",96
4677041,"Kecskemét, Czollner tér 5., 6000 Hungary",96
4677279,"Kecskemét, Czuczor Gergely u. 8, 6000 Hungary",96
4681793,"Kecskemét, Daróczi köz 14, 6000 Hungary",96
5617713,"Kecskemét, Deák Ferenc tér 6, 6000",96
4677280,"Kecskemét, Deák Ferenc tér 6, 6000 Hungary",96
4677415,"Kecskemét, Deák Ferenc tér 6, 6000 Hungary",96
4681694,"Kecskemét, Deák Ferenc tér 6, 6000 Hungary",96
4681710,"Kecskemét, Deák Ferenc tér 6, 6000 Hungary",96
5177857,"Kecskemét, Dobó István körút 7 7 em, 24, 6000",96
5617959,"Kecskemét, Dobó István krt. 1, 6000",96
4673390,"Kecskemét, Dobó István krt. 1, 6000 Hungary",96
5617531,"Kecskemét, Dobó István krt. 1., 6000",96
4681422,"Kecskemét, Dobó István krt. 15, 6000 Hungary",96
4673387,"Kecskemét, Dobó István krt. 7, 6000 Hungary",96
4673388,"Kecskemét, Dobó István krt. 9, 6000 Hungary",96
4681843,"Kecskemét, Domby Lajos u. 20, 6000 Hungary",96
4681941,"Kecskemét, Dózsa György út 12, 6000 Hungary",96
4681942,"Kecskemét, Dózsa György út 12, 6000 Hungary",96
4681939,"Kecskemét, Dózsa György út 16, 6000 Hungary",96
5617529,"Kecskemét, Dózsa György út 2, 6000",96
4681937,"Kecskemét, Dózsa György út 20, 6000 Hungary",96
4681943,"Kecskemét, Dózsa György út 7, 6000 Hungary",96
4681775,"Kecskemét, Dózsa György út, 6000 Hungary",96
4681545,"Kecskemét, Dunaföldvári u 2, 6000 Hungary",96
4681852,"Kecskemét, Dunaföldvári út 1, 6000 Hungary",96
5617798,"Kecskemét, Dunaföldvári út 2, 6000",96
5617799,"Kecskemét, Dunaföldvári út 2, 6000",96
4681719,"Kecskemét, Dunaföldvári út 2, 6000 Hungary",96
4681864,"Kecskemét, Dunaföldvári út 2, 6000 Hungary",96
4681409,"Kecskemét, Dunaföldvári út 2. (Auchan Kecskemét), 6000 Hungary",96
4681706,"Kecskemét, Dunaföldvári út 2., 6000 Hungary",96
4677260,"Kecskemét, Dunaföldvári út 2., Auchan Kecskemét, 6000 Hungary",96
4677396,"Kecskemét, Dunaföldvári út, 6000 Hungary",96
4681858,"Kecskemét, Dunaföldvári út, 6000 Hungary",96
4681906,"Kecskemét, Egyetértés u. 9, 6000 Hungary",96
4681765,"Kecskemét, Erdei Ferenc tér 1-3, 6000 Hungary",96
4681969,"Kecskemét, Erdei Ferenc tér 1-3, 6000 Hungary",96
5617579,"Kecskemét, Erdősi Imre u. 6, 6000",96
4681669,"Kecskemét, Erkel u. 1, 6000 Hungary",96
4682253,"Kecskemét, Erkel u. 17., 6000 Hungary",96
4677069,"Kecskemét, Erzsébet krt. 10, 6000 Hungary",96
4682138,"Kecskemét, Erzsébet krt. 73, 6000 Hungary",96
4681853,"Kecskemét, Fazekas Mihály utca 12. fsz.15, 6000 Hungary",96
4677283,"Kecskemét, Fecske utca 36, 6000 Hungary",96
4681854,"Kecskemét, Felsőcsalános 109/a, 6000 Hungary",96
4676995,"Kecskemét, Felsőcsalános 112/b, 6000 Hungary",96
4681900,"Kecskemét, Felsőcsalános 65., 6000 Hungary",96
4681488,"Kecskemét, Felsőcsalános tanya, 6000 Hungary",96
4681557,"Kecskemét, Felsőcsalános tanya, 6000 Hungary",96
4681842,"Kecskemét, Felsőcsalános tanya, 6000 Hungary",96
4681844,"Kecskemét, Felsőcsalános tanya, 6000 Hungary",96
4677070,"Kecskemét, Felsőszéktó tanya 52/b, 6000 Hungary",96
4682198,"Kecskemét, Ferencsik János u. 10, 6000 Hungary",96
4681747,"Kecskemét, Forradalom u. 1, 6000 Hungary",96
4681745,"Kecskemét, Forradalom u. 3, 6000 Hungary",96
4682103,"Kecskemét, Frangepán sétány 1/a, 6000 Hungary",96
4677406,"Kecskemét, Frangepán sétány 1/B, 6000 Hungary",96
5177860,"Kecskemét, Fráter György u. 3, 6000",96
4681702,"Kecskemét, Fülemüle utca 3, 6000 Hungary",96
4681795,"Kecskemét, Füzes u. 11, 6000 Hungary",96
4681592,"Kecskemét, Füzes u. 3, 6000 Hungary",96
4677062,"Kecskemét, Füzes u. 6, 6000 Hungary",96
4681635,"Kecskemét, Gáspár András krt., 6000 Hungary",96
4681633,"Kecskemét, Gáspár András utca 11, 6000 Hungary",96
4682204,"Kecskemét, Géza fejedelem krt. 1, 6000 Hungary",96
4682207,"Kecskemét, Géza fejedelem krt. 1, 6000 Hungary",96
4677014,"Kecskemét, Géza fejedelem krt. 18, 6000 Hungary",96
4677072,"Kecskemét, Géza fejedelem krt. 40, 6000 Hungary",96
4682274,"Kecskemét, Géza fejedelem krt. 57, 6000 Hungary",96
4682272,"Kecskemét, Géza fejedelem krt. 58, 6000 Hungary",96
4682285,"Kecskemét, Gizella tér 7, 6000 Hungary",96
5177874,"Kecskemét, Gyenes Mihály tér 18, 6000",96
4682040,"Kecskemét, Gyenes Mihály tér 2, 6000 Hungary",96
4681526,"Kecskemét, Gyenes Mihály tér 7, 6000 Hungary",96
4702691,"Kecskemét, Győzelem u. 9, 6000 Hungary",96
4677411,"Kecskemét, Hajdú u. 1, 6000 Hungary",96
5617536,"Kecskemét, Hajdú u. 2, 6000",96
4681934,"Kecskemét, Halasi út 16/D, 6000 Hungary",96
4681930,"Kecskemét, Halasi út 25-27, 6000 Hungary",96
4681926,"Kecskemét, Halasi út 29, 6000 Hungary",96
4676988,"Kecskemét, Halasi út 32, 6000 Hungary",96
4681564,"Kecskemét, Halasi út 34, 6000 Hungary",96
4681917,"Kecskemét, Halom u. 36, 6000 Hungary",96
4681838,"Kecskemét, Hanusz István utca 11, 6000 Hungary",96
5617704,"Kecskemét, Harmónia utca 12., 6000",96
4676808,"Kecskemét, Harmónia utca 12., 6000 Hungary",96
4681871,"Kecskemét, Hegedüs köz 19, 6000 Hungary",96
4677394,"Kecskemét, Hegedűs köz, 6000 Hungary",96
4677273,"Kecskemét, Hernád u. 5, 6000 Hungary",96
4677274,"Kecskemét, Hernád u. 5, 6000 Hungary",96
4681914,"Kecskemét, Hernád u. 5, 6000 Hungary",96
4681913,"Kecskemét, Hernád u. 7, 6000 Hungary",96
4681704,"Kecskemét, Hernád u. 9, 6000 Hungary",96
4681910,"Kecskemét, Hernád u. 9, 6000 Hungary",96
4681507,"Kecskemét, Hetényegyházi út, 6044 Hungary",96
4681692,"Kecskemét, Hetényi pihenő, 6000 Hungary",96
5617533,"Kecskemét, Hoffman János u. 15, 6000",96
4681585,"Kecskemét, Hoffman János u. 4, 6000 Hungary",96
5617578,"Kecskemét, Hoffman János u. 6, 6000",96
4681774,"Kecskemét, Hoffman János u. 6, 6000 Hungary",96
4681773,"Kecskemét, Hoffman János u. 8, 6000 Hungary",96
4681514,"Kecskemét, Holló u. 2, 6000 Hungary",96
4677393,"Kecskemét, Homokbánya, 6000 Hungary",96
4681670,"Kecskemét, Homokbánya, 6000 Hungary",96
4681767,"Kecskemét, Homokszem utca, 6000 Hungary",96
4682220,"Kecskemét, Hornyik János körút 3., 6000 Hungary",96
4681798,"Kecskemét, Hornyik János krt. 2, 6000 Hungary",96
4682230,"Kecskemét, Hornyik János krt. 2, 6000 Hungary",96
5617722,"Kecskemét, Hornyik János krt. 4, 6000",96
4677438,"Kecskemét, Hornyik János krt. 4, 6000 Hungary",96
4682218,"Kecskemét, Hornyik János krt. 4, 6000 Hungary",96
4677398,"Kecskemét, Horog u. 4, 6000 Hungary",96
5617712,"Kecskemét, Horog u. 5, 6000",96
5617934,"Kecskemét, Horog u. 9, 6000",96
5620379,"Kecskemét, Horváth Cirill tér 2/b, 6000",96
5617535,"Kecskemét, Horváth Cirill tér, 6000",96
4673397,"Kecskemét, Horváth Cirill tér, 6000 Hungary",96
4677399,"Kecskemét, Horváth Döme krt. 14, 6000 Hungary",96
4681566,"Kecskemét, Hungary",96
4681833,"Kecskemét, Hungary",96
4682126,"Kecskemét, Hunyadi János tér 2, 6000 Hungary",96
4681624,"Kecskemét, I, Dobó István krt. 9-11, emelet Hungary",96
4682128,"Kecskemét, Ifjúság útja 1, 6000 Hungary",96
4682197,"Kecskemét, Ifjúság útja 20, 6000 Hungary",96
4681935,"Kecskemét, Ipoly u. 1, 6000 Hungary",96
4681803,"Kecskemét, Ipoly u., 6000 Hungary",96
4702758,"Kecskemét, Ipoly u., 6000 Hungary",96
4682036,"Kecskemét, Irányi István u. 5, 6000 Hungary",96
4681701,"Kecskemét, Irinyi u. 22, 6000 Hungary",96
4681536,"Kecskemét, Irinyi u. 23, 6000 Hungary",96
4681869,"Kecskemét, Irinyi u. 38, 6000 Hungary",96
4681741,"Kecskemét, Irinyi u. 49, 6000 Hungary",96
4677051,"Kecskemét, Irinyi u. 62, 6000 Hungary",96
4681735,"Kecskemét, Iskola u. 1., 6044 Hungary",96
4681824,"Kecskemét, Iskola u. 10, 6044 Hungary",96
4681576,"Kecskemét, Iskola u., 6044 Hungary",96
5617527,"Kecskemét, Izsáki út 10, 6000",96
5617706,"Kecskemét, Izsáki út 10, 6000",96
4673386,"Kecskemét, Izsáki út 10, 6000 Hungary",96
4677434,"Kecskemét, Izsáki út 10, 6000 Hungary",96
4677435,"Kecskemét, Izsáki út 10, 6000 Hungary",96
4673383,"Kecskemét, Izsáki út 12, 6000 Hungary",96
4681398,"Kecskemét, Izsáki út 12, 6000 Hungary",96
4681547,"Kecskemét, Izsáki út 12/A, 6000 Hungary",96
5617925,"Kecskemét, Izsáki út 12/b, 6000",96
4681884,"Kecskemét, Izsáki út 12/b, 6000 Hungary",96
4681911,"Kecskemét, Izsáki út 12/b, 6000 Hungary",96
4681912,"Kecskemét, Izsáki út 12/b, 6000 Hungary",96
4677010,"Kecskemét, Izsáki út 14, 6000 Hungary",96
5177865,"Kecskemét, Izsáki út 15, 6000",96
4673384,"Kecskemét, Izsáki út 2, 6000 Hungary",96
4677011,"Kecskemét, Izsáki út 2, 6000 Hungary",96
4677275,"Kecskemét, Izsáki út 2, 6000 Hungary",96
4677276,"Kecskemét, Izsáki út 2, 6000 Hungary",96
4677277,"Kecskemét, Izsáki út 2, 6000 Hungary",96
4681408,"Kecskemét, Izsáki út 2, 6000 Hungary",96
4681583,"Kecskemét, Izsáki út 2, 6000 Hungary",96
4681584,"Kecskemét, Izsáki út 2, 6000 Hungary",96
4681730,"Kecskemét, Izsáki út 2, 6000 Hungary",96
4681771,"Kecskemét, Izsáki út 2, 6000 Hungary",96
4681868,"Kecskemét, Izsáki út 2, 6000 Hungary",96
4681923,"Kecskemét, Izsáki út 2, 6000 Hungary",96
4681925,"Kecskemét, Izsáki út 2, 6000 Hungary",96
4681928,"Kecskemét, Izsáki út 2, 6000 Hungary",96
4681929,"Kecskemét, Izsáki út 2, 6000 Hungary",96
4681960,"Kecskemét, Izsáki út 2, 6000 Hungary",96
4682035,"Kecskemét, Izsáki út 2, 6000 Hungary",96
4677412,"Kecskemét, Izsáki út 2/b, 6000 Hungary",96
4673385,"Kecskemét, Izsáki út 25, 6000 Hungary",96
5617528,"Kecskemét, Izsáki út 3, 6000",96
4681921,"Kecskemét, Izsáki út 3, 6000 Hungary",96
4681922,"Kecskemét, Izsáki út 3, 6000 Hungary",96
4681543,"Kecskemét, Izsáki út 4, 6000 Hungary",96
4681565,"Kecskemét, Izsáki út 4, 6000 Hungary",96
5620378,"Kecskemét, Izsáki út 5, 6000",96
4676751,"Kecskemét, Izsáki út 6, 6000 Hungary",96
5742300,"Kecskemét, Izsáki út 6, 6000 Hungary",96
4681558,"Kecskemét, Izsáki út 67, 6000 Hungary",96
5617705,"Kecskemét, Izsáki út 68, 6000",96
4681881,"Kecskemét, Izsáki út 69, 6000 Hungary",96
4681412,"Kecskemét, Izsáki út 70, 6000 Hungary",96
4681760,"Kecskemét, Izsáki út 8, 6000 Hungary",96
4681901,"Kecskemét, Izsáki út 82, 6000 Hungary",96
4681899,"Kecskemét, Izsáki út 96, 6000 Hungary",96
4681898,"Kecskemét, Izsáki út, 6000 Hungary",96
4681927,"Kecskemét, Izsáki utca 2, 6000 Hungary",96
5177873,"Kecskemét, Izsáki utca 70, 6000",96
4681883,"Kecskemét, Jász u. 26, 6000 Hungary",96
4677049,"Kecskemét, Jókai u. 1, 6000 Hungary",96
5177861,"Kecskemét, Jókai u. 14, 6000",96
5617727,"Kecskemét, Jókai u. 15, 6000",96
4681707,"Kecskemét, Jókai u. 27, 6000 Hungary",96
4681800,"Kecskemét, Jókai u. 30, 6000 Hungary",96
4682202,"Kecskemét, Jókai u. 35, 6000 Hungary",96
4681517,"Kecskemét, Jókai u. 44, 6000 Hungary",96
4681555,"Kecskemét, Jókai u. 44, 6000 Hungary",96
4682205,"Kecskemét, Jókai u. 44, 6000 Hungary",96
4681529,"Kecskemét, József Attila u. 2, 6000 Hungary",96
4681751,"Kecskemét, Juhar u. 11, 6000 Hungary",96
4682276,"Kecskemét, Kaffka Margit u. 10, 6000 Hungary",96
4682283,"Kecskemét, Kaffka Margit u. 3, 6000 Hungary",96
4681639,"Kecskemét, Kálvin tér 1, 6000 Hungary",96
4681590,"Kecskemét, Kálvin tér 10-12, 6000 Hungary",96
4681605,"Kecskemét, Kálvin tér 4, 6000 Hungary",96
4682231,"Kecskemét, Kálvin tér, 6000 Hungary",96
5617932,"Kecskemét, Kandó Kálmán útca 1, 6000",96
4682286,"Kecskemét, Kandó Kálmán útca 8, 6000 Hungary",96
5617926,"Kecskemét, Kápolna u. 10, 6000",96
5745094,"Kecskemét, Kápolna u. 10, 6000 Hungary",96
5745093,"Kecskemét, Kápolna u. 14, 6000 Hungary",96
4682034,"Kecskemét, Kápolna u. 15, 6000 Hungary",96
4682226,"Kecskemét, Kápolna u. 18, 6000 Hungary",96
5177867,"Kecskemét, Kápolna u. 2, 6000",96
4681502,"Kecskemét, Kápolna u. 2, 6000 Hungary",96
4682228,"Kecskemét, Kápolna u. 2, 6000 Hungary",96
4681508,"Kecskemét, Kápolna u. 3, 6000 Hungary",96
4681666,"Kecskemét, Kápolna u. 8, 6000 Hungary",96
4682225,"Kecskemét, Kápolna u. 9, 6000 Hungary",96
5617723,"Kecskemét, Kápolna u., 6000",96
4681632,"Kecskemét, Kápolna utca 11., 6000 Hungary",96
4681705,"Kecskemét, Kápolna utca 15., 6000 Hungary",96
4682180,"Kecskemét, Kard u. 30, 6000 Hungary",96
4682130,"Kecskemét, Károlyi u. 3-5, 6000 Hungary",96
4681938,"Kecskemét, Kassai u. 2, 6000 Hungary",96
4682127,"Kecskemét, Kasza u., 6000 Hungary",96
5617729,"Kecskemét, Kaszap u. 4, 6000",96
4677440,"Kecskemét, Kaszap u. 6-14, 6000 Hungary",96
4681780,"Kecskemét, Kaszap u. 6-14, 6000 Hungary",96
4676994,"Kecskemét, Kavics u. 16, 6044 Hungary",96
5745097,"Kecskemét, Kazinczy u. 16, 6000 Hungary",96
4677272,"Kecskemét, Kecskemét ,, 6000 Hungary",96
4682292,"Kecskemét, Kecskemét Talfája 308/B (Ceglédi út), 6000 Hungary",96
5177858,"Kecskemét, Kecskemét Vörösmarty utca 5. 2. Floor 5. Door, 6000",96
4677075,"Kecskemét, Kecskeméti u., 6000 Hungary",96
4681903,"Kecskemét, Kecskeméti út 2, 6000 Hungary",96
4681737,"Kecskemét, Kecskeméti út 41, 6000 Hungary",96
4677055,"Kecskemét, Kecskeméti utca, 6008 Hungary",96
4681909,"Kecskemét, Kelemen László u. 2, 6000 Hungary",96
5617935,"Kecskemét, Kerkápoly u. 1, 6000",96
4681788,"Kecskemét, Kéttemplom köz 1, 6001 Hungary",96
5617924,"Kecskemét, Kéttemplom köz 14, 6000",96
5617923,"Kecskemét, Kéttemplom köz 2, 6000",96
4681667,"Kecskemét, Kéttemplom köz 7, 6000 Hungary",96
4677077,"Kecskemét, Kisfái tanya, 6000 Hungary",96
4681573,"Kecskemét, Kisfái tanya, 6000 Hungary",96
5745091,"Kecskemét, Kisfaludy u. 10, 6000 Hungary",96
4681783,"Kecskemét, Kisfaludy u. 3. II/6., 6000 Hungary",96
4673417,"Kecskemét, Kisfaludy u. 5, 6000 Hungary",96
4681417,"Kecskemét, Kisfaludy u. 5, 6000 Hungary",96
4681423,"Kecskemét, Kisfaludy u. 5, 6000 Hungary",96
4673389,"Kecskemét, Kisfaludy u. 8, 6000 Hungary",96
4681420,"Kecskemét, Kisfaludy u. 8, 6000 Hungary",96
4681421,"Kecskemét, Kisfaludy u. 8, 6000 Hungary",96
4681427,"Kecskemét, Kisfaludy út 5., Kizárólag Erste World ügyfeleknek, 6000 Hungary",96
4677040,"Kecskemét, Kiskőrösi út 5, 6000 Hungary",96
4681679,"Kecskemét, Kiskőrösi út 8, 6000 Hungary",96
4681781,"Kecskemét, Kiskőrösi út 8, 6000 Hungary",96
4681924,"Kecskemét, Kiskőrösi út 8, 6000 Hungary",96
4681568,"Kecskemét, Kiskunfélegyházai út 50, 6000 Hungary",96
4682134,"Kecskemét, Klapka u. 10/B, 6000 Hungary",96
4682135,"Kecskemét, Klapka u. 14, 6000 Hungary",96
4681562,"Kecskemét, Klapka u. 23, 6000 Hungary",96
4681643,"Kecskemét, Klapka u. 34, 6000 Hungary",96
4677048,"Kecskemét, Klapka u. 9, 11 Hungary",96
4673406,"Kecskemét, Klauzál Gábor tér 7, 6000 Hungary",96
4673401,"Kecskemét, Kodály Zoltán I. tér 7, 6000 Hungary",96
4682189,"Kecskemét, Kodály Zoltán I. tér 7, 6000 Hungary",96
5177869,"Kecskemét, Kodály Zoltán I. tér 9, 6000",96
4682188,"Kecskemét, Kodály Zoltán tér 8., 6000 Hungary",96
4682033,"Kecskemét, Kodály Zoltán tér, 6000 Hungary",96
4681683,"Kecskemét, Koháry István krt., 6000 Hungary",96
5177880,"Kecskemét, Kőhid u. 13, 6000",96
4681962,"Kecskemét, Kőhid u. 13, 6000 Hungary",96
5617930,"Kecskemét, Kőhid u. 23, 6000",96
4681414,"Kecskemét, Kőhid u. 6, 6000 Hungary",96
4681622,"Kecskemét, Kölcsey u. 17, 6000 Hungary",96
5617716,"Kecskemét, Kölcsey u. 7, 6000",96
4681634,"Kecskemét, Kölcsey utca 3., 6000 Hungary",96
5177856,"Kecskemét, Kolozsvári u. 17, 6000",96
5617703,"Kecskemét, Könyves Kálmán krt. 109, 6000",96
4681570,"Kecskemét, Könyves Kálmán krt. 24, 6000 Hungary",96
5617534,"Kecskemét, Korona u. 2, 6000",96
4673393,"Kecskemét, Korona u. 2, 6000 Hungary",96
4673414,"Kecskemét, Korona u. 2, 6000 Hungary",96
4677281,"Kecskemét, Korona u. 2, 6000 Hungary",96
4677286,"Kecskemét, Korona u. 2, 6000 Hungary",96
4677403,"Kecskemét, Korona u. 2, 6000 Hungary",96
4681413,"Kecskemét, Korona u. 2, 6000 Hungary",96
4681535,"Kecskemét, Korona u. 2, 6000 Hungary",96
4681946,"Kecskemét, Korona u. 2, 6000 Hungary",96
4681965,"Kecskemét, Korona u. 2, 6000 Hungary",96
4681976,"Kecskemét, Korona u. 2, 6000 Hungary",96
4682157,"Kecskemét, Korona u. 2, 6000 Hungary",96
4682158,"Kecskemét, Korona u. 2, 6000 Hungary",96
4682159,"Kecskemét, Korona u. 2, 6000 Hungary",96
4681797,"Kecskemét, Korona u. 2., 6000 Hungary",96
4677263,"Kecskemét, Korona utca 2 Emelet -1, 6000 Hungary",96
4681522,"Kecskemét, Kossuth krt. 3, 6000 Hungary",96
4681890,"Kecskemét, Kossuth krt. 60, 6000 Hungary",96
4681505,"Kecskemét, Kossuth Lajos u. 148, 6044 Hungary",96
4681823,"Kecskemét, Kossuth Lajos u. 36, 6044 Hungary",96
5617931,"Kecskemét, Kossuth Lajos u. 57, 6044",96
4677052,"Kecskemét, Kossuth Lajos u. 81, 6044 Hungary",96
4681696,"Kecskemét, Kossuth Lajos u. 81, 6044 Hungary",96
4681822,"Kecskemét, Kossuth Lajos u. 99, 6044 Hungary",96
4677053,"Kecskemét, Kossuth street, 6044 Hungary",96
4677043,"Kecskemét, Kossuth tér 2, 6000 Hungary",96
5177876,"Kecskemét, Kossuth tér 3, 6000",96
4681588,"Kecskemét, Kossuth tér 3, 6000 Hungary",96
4677042,"Kecskemét, Kossuth tér 5, 6000 Hungary",96
4677402,"Kecskemét, Kossuth tér 5, 6000 Hungary",96
5617719,"Kecskemét, Kossuth tér 6, 6000",96
4673392,"Kecskemét, Kossuth tér 6-7, 6000 Hungary",96
4681416,"Kecskemét, Kossuth tér 6-7, 6000 Hungary",96
4681589,"Kecskemét, Kossuth tér 6-7, 6000 Hungary",96
4677404,"Kecskemét, Kossuth tér, 5. 1. em. 3, 6000 Hungary",96
4681887,"Kecskemét, Kossuth tér, 6000 Hungary",96
4681728,"Kecskemét, Kristály tér 12, 6000 Hungary",96
4673394,"Kecskemét, Kuruc krt. 16, 6000 Hungary",96
4682294,"Kecskemét, Kuruc krt. 19, 6000 Hungary",96
4682290,"Kecskemét, Kuruc krt. 28, 6000 Hungary",96
4682293,"Kecskemét, Kuruc krt. 33, 6000 Hungary",96
4682298,"Kecskemét, Kuruc krt. 8, 6000 Hungary",96
4681549,"Kecskemét, Kurucz tér 2, 6000 Hungary",96
4682300,"Kecskemét, Kurucz tér 4, 6000 Hungary",96
4681752,"Kecskemét, Kvarc u. 2., 6000 Hungary",96
4681828,"Kecskemét, Ladánybenei út 1, 6000 Hungary",96
4681829,"Kecskemét, Ladánybenei út 1, 6000 Hungary",96
4681744,"Kecskemét, Lánchid utca 18, 6000 Hungary",96
4681743,"Kecskemét, Lánchid utca, 6000 Hungary",96
4681512,"Kecskemét, László Károly u. 16, 6000 Hungary",96
4681814,"Kecskemét, László Károly u. 17, 6000 Hungary",96
4681786,"Kecskemét, Lestár tér, 6000 Hungary",96
4681807,"Kecskemét, Lestár tér, 6000 Hungary",96
4681963,"Kecskemét, Lórántffy Zsuzsanna u. 2, 6000 Hungary",96
4681755,"Kecskemét, Losonczy u. 11, 6000 Hungary",96
4681770,"Kecskemét, Losonczy u. 11, 6000 Hungary",96
4681849,"Kecskemét, Lóverseny u. 45, 6000 Hungary",96
5617927,"Kecskemét, Lóverseny u. 47, 6000",96
4682303,"Kecskemét, Lugas sor 52, 6000 Hungary",96
4681749,"Kecskemét, Lunkányi János u., 6000 Hungary",96
4681967,"Kecskemét, Luther köz, 6000 Hungary",96
4682088,"Kecskemét, Luther köz, 6000 Hungary",96
4681552,"Kecskemét, M5 autópálya jobb, 6000 Hungary",96
5177881,"Kecskemét, Magyar u. 20, 6000",96
4682206,"Kecskemét, Magyarország 6000 Kecskemét Jókai utca 25., Jókai u. 25, 6000 Hungary",96
5619539,"Kecskemét, Mályva u. 24, 6000",96
4682246,"Kecskemét, Mályva u. 37, 6000 Hungary",96
5177888,"Kecskemét, March 15. u. 12, 6000",96
4681499,"Kecskemét, March 15. u. 29, 6000 Hungary",96
4681863,"Kecskemét, Március 15. u. 2, 6000 Hungary",96
4681850,"Kecskemét, Március 15. u. 3, 6000 Hungary",96
4681848,"Kecskemét, Március 15. u. 5, 6000 Hungary",96
4681880,"Kecskemét, Március 15. u. 5, 6000 Hungary",96
4681851,"Kecskemét, Március 15. u. 7, 6000 Hungary",96
4681534,"Kecskemét, Március 15. u. 9, 6000 Hungary",96
4673404,"Kecskemét, Március 15. u., 6000 Hungary",96
4681837,"Kecskemét, Margaréta u. 19, 6000 Hungary",96
4681596,"Kecskemét, Margit u. 3, 6000 Hungary",96
5617530,"Kecskemét, Mária krt. 4, 6000",96
5617718,"Kecskemét, Mária u. 1, 6000",96
5177859,"Kecskemét, Mária u. 8, 6000",96
4681855,"Kecskemét, Máriahegy tanya 173, 6000 Hungary",96
5617963,"Kecskemét, Máriahegy tanya 262, 6000",96
4676993,"Kecskemét, Máriahegy tanya 410, 6000 Hungary",96
4681840,"Kecskemét, Máriahegy tanya 419, 6000 Hungary",96
4681518,"Kecskemét, Máriaváros, 6000 Hungary",96
4677262,"Kecskemét, Mártírok útja 1, 6000 Hungary",96
4677413,"Kecskemét, Mártírok útja 24, 6000 Hungary",96
4682251,"Kecskemét, Mártírok útja 29, 6000 Hungary",96
4682275,"Kecskemét, Mártírok útja 66, 6000 Hungary",96
5177872,"Kecskemét, Martyrs&#39; Road 88, 6000",96
4681784,"Kecskemét, Mátis Kálmán u. 4, 6000 Hungary",96
4681792,"Kecskemét, Mátis Kálmán u. 8, 6000 Hungary",96
4682125,"Kecskemét, Mátyás király krt. 46, 6000 Hungary",96
5617735,"Kecskemét, Mátyás király krt. 72, 6000",96
4682182,"Kecskemét, Mátyás király krt. 77, 6000 Hungary",96
4677076,"Kecskemét, Mécses u., 6000 Hungary",96
4682254,"Kecskemét, Mercedes út 1, 6000 Hungary",96
4676982,"Kecskemét, Mester u., 6000 Hungary",96
4682193,"Kecskemét, Mikszáth Kálmán krt. 42, 6000 Hungary",96
4681754,"Kecskemét, Mikszáth Kálmán krt. 86, 6000 Hungary",96
4681516,"Kecskemét, Mindszenti krt. 29, 6000 Hungary",96
4682304,"Kecskemét, Mindszenti krt. 32, 6000 Hungary",96
4681525,"Kecskemét, Mindszenti krt. 33, 6000 Hungary",96
5617928,"Kecskemét, Moha u. 2, 6000",96
4681569,"Kecskemét, mol benzinkút, M5, 6000 Hungary",96
4681974,"Kecskemét, Műkerti stny. 1, 6000 Hungary",96
5617724,"Kecskemét, Munkácsy Mihály utca 10, 6000",96
4682191,"Kecskemét, Nagy Lajos király krt. 18, 6000 Hungary",96
4681847,"Kecskemét, Nagy László u. 2, 6000 Hungary",96
4682210,"Kecskemét, Nagykőrösi u. 17, 6000 Hungary",96
5617721,"Kecskemét, Nagykőrösi u. 2, 6000",96
4681418,"Kecskemét, Nagykőrösi u. 2, 6000 Hungary",96
4681889,"Kecskemét, Nagykőrösi u. 2, 6000 Hungary",96
4677439,"Kecskemét, Nagykőrösi u. 24, 6000 Hungary",96
4673395,"Kecskemét, Nagykőrösi u. 3, 6000 Hungary",96
4682196,"Kecskemét, Nagykőrösi u. 42, 6000 Hungary",96
4682215,"Kecskemét, Nagykőrösi u. 5, 6000 Hungary",96
4673396,"Kecskemét, Nagykőrösi u. 9, 6000 Hungary",96
4677265,"Kecskemét, Nagykőrösi utca 2., (Centrum Kecskemét áruház), 6000 Hungary",96
4682296,"Kecskemét, Nap u. 1, 6000 Hungary",96
4682131,"Kecskemét, Napsugár u. 2, 6000 Hungary",96
4682133,"Kecskemét, Napsugár u. 3, 6000 Hungary",96
4677433,"Kecskemét, Neumann János épület, Izsáki út 10, 6000 Hungary",96
4681695,"Kecskemét, Noszlopy Gáspár park 1., 6000 Hungary",96
4681426,"Kecskemét, Noszlopy Gáspár park, 6000 Hungary",96
4677407,"Kecskemét, Nyíl u. 5, 6000 Hungary",96
4681594,"Kecskemét, Nyíri út 11, 6000 Hungary",96
4682137,"Kecskemét, Nyíri út 11, 6000 Hungary",96
4677437,"Kecskemét, Nyíri út 28, 6000 Hungary",96
4681753,"Kecskemét, Nyíri út 32, 6000 Hungary",96
4673418,"Kecskemét, Nyíri út 38, 6000 Hungary",96
4677264,"Kecskemét, Nyíri út 38, 6000 Hungary",96
4681615,"Kecskemét, Nyíri út 38, 6000 Hungary",96
4681618,"Kecskemét, Nyíri út 38, 6000 Hungary",96
4681700,"Kecskemét, Nyíri út 38, 6000 Hungary",96
4681875,"Kecskemét, Nyíri út 38, 6000 Hungary",96
4681877,"Kecskemét, Nyíri út 38, 6000 Hungary",96
4681498,"Kecskemét, Nyíri út 40, 6000 Hungary",96
4681688,"Kecskemét, Nyíri út 40, 6000 Hungary",96
4681577,"Kecskemét, Nyíri út 41, 6000 Hungary",96
4681674,"Kecskemét, Nyíri út 61, 6000 Hungary",96
4665344,"Kecskemét, Nyíri út 63, 6000 Hungary",96
4681740,"Kecskemét, Nyíri út 73, 6000 Hungary",96
4676753,"Kecskemét, Nyíri út, 6000 Hungary",96
4681769,"Kecskemét, Nyitra u. 4, 6000 Hungary",96
4677068,"Kecskemét, Nyugati körút, 6000 Hungary",96
4681582,"Kecskemét, Olimpia u. 1, 6000 Hungary",96
4681519,"Kecskemét, Olimpia u. 3, 6000 Hungary",96
4682221,"Kecskemét, Pacsirta u. 8/b, 6000 Hungary",96
4681865,"Kecskemét, Páfrány u. 52, 6000 Hungary",96
4681736,"Kecskemét, Pajtás u. 2, 6044 Hungary",96
5617732,"Kecskemét, Pákozdi Csata u. 12, 6000",96
4681872,"Kecskemét, Pákozdi Csata u. 9, 6000 Hungary",96
5617532,"Kecskemét, Petőfi Sándor u. 1, 6000",96
4673415,"Kecskemét, Petőfi Sándor u. 1, 6000 Hungary",96
4677400,"Kecskemét, Petőfi Sándor u. 1, 6000 Hungary",96
4681586,"Kecskemét, Petőfi Sándor u. 1, 6000 Hungary",96
4681885,"Kecskemét, Petőfi Sándor u. 1, 6000 Hungary",96
4681886,"Kecskemét, Petőfi Sándor u. 1, 6000 Hungary",96
4681587,"Kecskemét, Petőfi Sándor u. 1/A, 6000 Hungary",96
4677261,"Kecskemét, Petőfi Sándor u. 12, 6000 Hungary",96
4681533,"Kecskemét, Petőfi Sándor u. 2, 6000 Hungary",96
4681678,"Kecskemét, Piaristák tere 4, 6000 Hungary",96
4681776,"Kecskemét, Piaristák tere 5, 6000 Hungary",96
4681503,"Kecskemét, Piaristák tere 7, 6000 Hungary",96
4681623,"Kecskemét, Piaristák tere 7, 6000 Hungary",96
4681948,"Kecskemét, Piaristák tere 7, 6000 Hungary",96
4702692,"Kecskemét, Piaristák tere 7, 6000 Hungary",96
4677268,"Kecskemét, Piaristák tere 8, 6000 Hungary",96
4681532,"Kecskemét, Platán u. 57, 6000 Hungary",96
4677044,"Kecskemét, Plébánia köz 1., 6000 Hungary",96
4681638,"Kecskemét, Rákóczi út 1, 6000 Hungary",96
4682214,"Kecskemét, Rákóczi út 10, 6000 Hungary",96
4681891,"Kecskemét, Rákóczi út 13/A, 6000 Hungary",96
4682209,"Kecskemét, Rákóczi út 20, 6000 Hungary",96
4682102,"Kecskemét, Rákóczi út 24, 6000 Hungary",96
4682208,"Kecskemét, Rákóczi út 26, 6000 Hungary",96
5617728,"Kecskemét, Rákóczi út 28, 6000",96
5618008,"Kecskemét, Rákóczi út 3., 6000",96
5617284,"Kecskemét, Rákóczi út 5, 6000",96
4682217,"Kecskemét, Rákóczi út 6, 6000 Hungary",96
4681537,"Kecskemét, Rákóczi út 8, 6000 Hungary",96
4681714,"Kecskemét, Rákóczi út 8, 6000 Hungary",96
5617958,"Kecskemét, Rákóczi út 9, 6000",96
4702924,"Kecskemét, Rákóczi út 9, 6000 Hungary",96
4676809,"Kecskemét, Rávágy tér 3, 6000 Hungary",96
4673409,"Kecskemét, Reptéri út 1, 6000 Hungary",96
4681662,"Kecskemét, Reptéri út 1, 6000 Hungary",96
5745095,"Kecskemét, Rigó u. 5, 6000 Hungary",96
4677285,"Kecskemét, Rózsavölgyi tér 24, 6000 Hungary",96
5177862,"Kecskemét, Semmelweis u. 15, 6000",96
4681631,"Kecskemét, Serfőző u. 19, 6000 Hungary",96
4677013,"Kecskemét, Sutus sor 26, 6000 Hungary",96
4681832,"Kecskemét, Sutus sor 42, 6000 Hungary",96
4681717,"Kecskemét, Szabadság tér 1, 6000 Hungary",96
5617828,"Kecskemét, Szabadság tér 3, 6000",96
4677405,"Kecskemét, Szabadság tér 3, 6000 Hungary",96
4681428,"Kecskemét, Szabadság tér 3, 6000 Hungary",96
4681419,"Kecskemét, Szabadság tér 5, 6000 Hungary",96
4681975,"Kecskemét, Szabadság tér 5, 6000 Hungary",96
4681959,"Kecskemét, Szabadság tér 5/A, 6000 Hungary",96
4677045,"Kecskemét, Szabadság tér 7, 6000 Hungary",96
4681500,"Kecskemét, Szabadság tér 7, 6000 Hungary",96
4681682,"Kecskemét, Szabadság tér 7, 6000 Hungary",96
4681787,"Kecskemét, Szabadság tér 7, 6000 Hungary",96
4677418,"Kecskemét, Szabadság tér, 6000 Hungary",96
4681761,"Kecskemét, Szalag I. u. 9, 6000 Hungary",96
5177887,"Kecskemét, Számadó utca 37, 6000",96
4681904,"Kecskemét, Szárcsa u. 18, 6000 Hungary",96
4681738,"Kecskemét, Szarkás tanya 102, 6000 Hungary",96
4677073,"Kecskemét, Szarkás tanya 14/a, 6000 Hungary",96
4681580,"Kecskemét, Széchenyi István stny. 3, 6000 Hungary",96
4677269,"Kecskemét, Széchenyi István stny. 6, 6000 Hungary",96
4681720,"Kecskemét, Széchenyi István stny. 7, 6000 Hungary",96
4681572,"Kecskemét, Széchenyi krt. 1, 6000 Hungary",96
4681708,"Kecskemét, Széchenyi krt. 1/a, 6000 Hungary",96
4677409,"Kecskemét, Széchenyi krt. 14, 6000 Hungary",96
4682224,"Kecskemét, Széchenyi krt. 29, 6000 Hungary",96
4681411,"Kecskemét, Széchenyi krt. 5/a, 6000 Hungary",96
4681966,"Kecskemét, Széchenyi tér 12, 6000 Hungary",96
4682229,"Kecskemét, Széchenyi tér 14, 6000 Hungary",96
4681964,"Kecskemét, Széchenyi tér 14., 6000 Hungary",96
5617720,"Kecskemét, Széchenyi tér 9, 6000",96
4677029,"Kecskemét, Széchenyi tér 9, 6000 Hungary",96
4681637,"Kecskemét, Széchenyi tér 9., 6000 Hungary",96
4681933,"Kecskemét, Szélmalom u. 40, 6000 Hungary",96
4681757,"Kecskemét, Szent Imre u. 9, 6000 Hungary",96
4681758,"Kecskemét, Szent Imre u. 9, 6000 Hungary",96
4681806,"Kecskemét, Szent Imre u. 9, 6000 Hungary",96
4681756,"Kecskemét, Szent Imre u., 6000 Hungary",96
5617929,"Kecskemét, Szent István krt. 23, 6000",96
4682139,"Kecskemét, Szent István krt. 23, 6000 Hungary",96
4673399,"Kecskemét, Szent István krt. 24, 6000 Hungary",96
4682282,"Kecskemét, Szent István krt. 24/a, 6000 Hungary",96
4681894,"Kecskemét, Szent István krt. 30, 6000 Hungary",96
4676987,"Kecskemét, Szent László krt. 1, 6000 Hungary",96
5617701,"Kecskemét, Szent László krt. 19, 6000",96
4677200,"Kecskemét, Szent László krt. 64, 6000 Hungary",96
4681574,"Kecskemét, Szent László krt. 64, 6000 Hungary",96
4681575,"Kecskemét, Szent László krt. 64, 6000 Hungary",96
5617961,"Kecskemét, Szent László krt., 6000",96
4677271,"Kecskemét, Szent László krt., 6000 Hungary",96
4681768,"Kecskemét, Szent Miklós u. 16, 6000 Hungary",96
4681940,"Kecskemét, Szent Miklós u. 19, 6000 Hungary",96
4681936,"Kecskemét, Szent Miklós u. 27, 6000 Hungary",96
4677050,"Kecskemét, Szentgyörgyi Albert utca, 6000 Hungary",96
4681867,"Kecskemét, Szép u. 9, 6000 Hungary",96
4681597,"Kecskemét, Szil-Coop vasút felöli parkoló, Izsáki út 2, 6000 Hungary",96
4681856,"Kecskemét, Szimferopol tér 9, 6000 Hungary",96
4677071,"Kecskemét, Szivárvány u. 20, 6000 Hungary",96
4682270,"Kecskemét, Szolnoki hegy 41, 6000 Hungary",96
4682288,"Kecskemét, Szolnoki út 1, 6000 Hungary",96
4681591,"Kecskemét, Szolnoki út 10, 6000 Hungary",96
4682201,"Kecskemét, Szolnoki út 10, 6000 Hungary",96
4673405,"Kecskemét, Szolnoki út 16, 6000 Hungary",96
4681893,"Kecskemét, Szolnoki út 18, 6000 Hungary",96
4682212,"Kecskemét, Szolnoki út 23, 6000 Hungary",96
4682132,"Kecskemét, Szolnoki út 31, 6000 Hungary",96
4673403,"Kecskemét, Szolnoki út 35, 6000 Hungary",96
4682284,"Kecskemét, Szolnoki út 35, 6000 Hungary",96
4682287,"Kecskemét, Szolnoki út 9, 6000 Hungary",96
4682269,"Kecskemét, Szolnokihegy 79/b, 6000 Hungary",96
4682273,"Kecskemét, Szolnokihegy tanya 181, 6000 Hungary",96
4681665,"Kecskemét, Szövetség tér 4, 6000 Hungary",96
4681972,"Kecskemét, Szövetség tér 4, 6000 Hungary",96
4681699,"Kecskemét, Szüret u. 1, 6000 Hungary",96
4673353,"Kecskemét, Talfája 1. (Tesco Store Line), 6000 Hungary",96
4676991,"Kecskemét, Talfája 306/a, 6000 Hungary",96
4681540,"Kecskemét, Talfája köz 1, 6000 Hungary",96
4681830,"Kecskemét, Talfája köz 1, 6000 Hungary",96
4681831,"Kecskemét, Talfája köz 1, 6000 Hungary",96
4682186,"Kecskemét, Talfája köz 10, 6000 Hungary",96
4677422,"Kecskemét, Talfája köz 139, 6000 Hungary",96
5617580,"Kecskemét, Talfája tanya 1, 6000",96
4681820,"Kecskemét, Tamási Áron u. 2, 6044 Hungary",96
5617702,"Kecskemét, tanya 167, Városföld, 6000",96
4681932,"Kecskemét, Tatár sor 2, 6000 Hungary",96
5742298,"Kecskemét, Tatár sor 2, 6000 Hungary",96
5177870,"Kecskemét, Tatay András u. 1, 6000",96
5745098,"Kecskemét, Tatay András u. 1/a, 6000 Hungary",96
4681944,"Kecskemét, Tél u. 13, 6000 Hungary",96
4673398,"Kecskemét, Teleki László u. 1, 6000 Hungary",96
4681764,"Kecskemét, Teleki László u. 1, 6000 Hungary",96
4682183,"Kecskemét, Tinódi u. 14, 6000 Hungary",96
4681859,"Kecskemét, Tordai u. 2, 6000 Hungary",96
5617700,"Kecskemét, Törökfái 138, 6000",96
4681680,"Kecskemét, Tóth László stny., 6000 Hungary",96
4681785,"Kecskemét, Tóth László stny., 6000 Hungary",96
5617707,"Kecskemét, Újerdő u. 27, 6000",96
4681693,"Kecskemét, Unnamed Road, 6000 Hungary",96
4677079,"Kecskemét, Úrihegy farm 193 / B, 6044 Hungary",96
5617731,"Kecskemét, Úrihegy tanya 51/2., 6000",96
4682297,"Kecskemét, Vacsi hegy 1, 6000 Hungary",96
5617734,"Kecskemét, Vacsi köz 21, 6000",96
5617733,"Kecskemét, Vacsi köz, Futár utca 1., 6000",96
4681660,"Kecskemét, Vághegy 10, 6000 Hungary",96
4681709,"Kecskemét, Vágó u. 2, 6000 Hungary",96
4677408,"Kecskemét, Vágó u., 6000 Hungary",96
4676990,"Kecskemét, Vértes utca 2-4, (ceglédi út mellett a csokigyárral szemben, várjuk régi és új ügyfeleinket), 6000 Hungary",96
4681501,"Kecskemét, Vízmű u. 22, 6000 Hungary",96
4681908,"Kecskemét, Vízmű u. 46, 6000 Hungary",96
4676989,"Kecskemét, Vízmű u. 9, 6000 Hungary",96
4677397,"Kecskemét, Vízöntő u. 10, 6000 Hungary",96
4681729,"Kecskemét, Vízöntő u. 33, 6000 Hungary",96
4681794,"Kecskemét, Vízöntő u. 33, 6000 Hungary",96
4681816,"Kecskemét, Vörösmarty u. 12, 6000 Hungary",96
4681931,"Kecskemét, Wéber Ede u. 10, 6000 Hungary",96
4682213,"Kecskemét, Wesselényi u. 5, 6000 Hungary",96
4682104,"Kecskemét, Wesselényi u., 6000 Hungary",96
4681866,"Kecskemét, Zápor u. 2, 6000 Hungary",96
4681961,"Kecskemét, Zimay László u. 16, 6000 Hungary",96
4677046,"Kecskemét, Zimay László u. 4, 6000 Hungary",96
4682302,"Kecskemét, Zöldfa u. 104, 6000 Hungary",96
4722586,"Nyiregyhaza, NYIREGYHAZA CC""Korzo"", Dozsa Gyorgy ut 4-6, 4400 Hungary",96
1565757,"Pecs, Ángyán János u. 2, 7625 Hungary",96
1568619,"Pecs, Bajcsy-Zsilinszky utca 11, Arcad Pecs, 7622 Hungary",96
1564227,"Pecs, Kálvária utca 58, 7625 Hungary",96
