Country,City
Dummy Country,Dummy City
Albania,Tirana
Albania,Durrës
Albania,Sarandë
Austria,Vienna
Austria,Schladming
Austria,Seefeld
Austria,Mayrhofen
Austria,Salzburg
Austria,Klagenfurt
Austria,Graz
Austria,Linz
Austria,Innsbruck
Austria,Bad Gastein
Austria,Bad Hofgastein
Austria,Bad Kleinkirchheim
Austria,Baden bei Wien
Austria,Bregenz
Austria,Dornbirn
Austria,Flachau
Austria,Ischgl
Austria,Kaprun
Austria,Kitzbühel
Austria,Lech
Austria,Neustift im Stubaital
Austria,Ramsau am Dachstein
Austria,Saalbach-Hinterglemm
Austria,St. Anton am Arlberg
Austria,St. Polten
Austria,Villach
Austria,Wels
Austria,Zell am See
Bangladesh,Chittagong
Bangladesh,Dhaka
Bangladesh,Cox's Bazar
Bangladesh,Sylhet
Belgium,Brussels
Belgium,Antwerp
Belgium,Bruges
Belgium,Ghent
Belgium,Leuven
Belgium,Aalst
Belgium,Blankenberge
Belgium,Charleroi
Belgium,De Haan
Belgium,De Panne
Belgium,Genk
Belgium,Hasselt
Belgium,Ieper
Belgium,Ixelles
Belgium,Knokke-Heist
Belgium,Kortrijk
Belgium,Liège
Belgium,Mechelen
Belgium,Mons
Belgium,Namur
Belgium,Nieuwpoort
Belgium,Ostend
Belgium,Tournai
Belgium,Waterloo
Bosnia and Herzegovina,Banja Luka
Bosnia and Herzegovina,Sarajevo
Bosnia and Herzegovina,Bihac
Bosnia and Herzegovina,Medjugorje
Bosnia and Herzegovina,Mostar
Bosnia and Herzegovina,Trebinje
Bulgaria,Sofia
Bulgaria,Bansko
Bulgaria,Sunny Beach
Bulgaria,Varna
Bulgaria,Burgas
Bulgaria,Nessebar
Bulgaria,Plovdiv
Bulgaria,Ruse
Bulgaria,Shumen
Bulgaria,Sozopol
Bulgaria,Veliko Tarnovo
Cambodia,Kampot (Province)
Cambodia,Phnom Penh
Cambodia,Siem Reap
Cambodia,Sihanoukville
Canada,Calgary
Canada,Montreal
Canada,Ottawa
Canada,Toronto
Canada,Vancouver
Canada,Victoria
Canada,Whistler
Canada,Kelowna
Canada,Niagara Falls
Canada,Stratford
Canada,Banff
Canada,Jasper
Canada,Canmore
Canada,Edmonton
Canada,Québec City
Canada,St. John's
Canada,Churchill
Canada,Halifax
Canada,Cape Breton Island
Canada,Brampton
Canada,Gatineau
Canada,Hamilton
Canada,Laval
Canada,London
Canada,Mississauga
Canada,Richmond
Canada,Saskatoon
Canada,Surrey
Canada,Windsor
Canada,Winnipeg
China,Beijing
China,Guangzhou
China,Shanghai
China,Shenzhen
China,Lhasa
China,Xi’an
China,Chengdu
China,Shangri-La County
China,Hangzhou
China,Qufu
China,Quanzhou
China,Dongguan
China,Tianjin
China,Wuhan
China,Changsha
China,Chongqing
China,Guilin
China,Harbin
China,Huangshan
China,Kunming
China,Lijiang
China,Nanjing
China,Qingdao
China,Sanya
China,Suzhou
China,Xiamen
China,Zhangjiajie
Colombia,Bogotá
Colombia,Cali
Colombia,Cartagena
Colombia,Medellín
Colombia,Barichara
Colombia,Pereira
Colombia,Manizales
Colombia,Santa Marta
Colombia,San Andrés
Costa Rica,San Jose
Costa Rica,Nosara
Costa Rica,Tamarindo
Costa Rica,Sámara (Costa Rica)
Costa Rica,La Fortuna
Costa Rica,Dominical
Costa Rica,Quepos
Costa Rica,Jaco
Costa Rica,Monteverde
Costa Rica,Puerto Viejo de Talamanca
Croatia,Zagreb
Croatia,Dubrovnik
Croatia,Hvar
Croatia,Pula
Croatia,Split
Croatia,Zadar
Croatia,Osijek
Croatia,Porec
Croatia,Rijeka
Croatia,Rovinj
Cuba,Havana
Cuba,Cienfuegos
Cuba,Santa Clara
Cuba,Santiago de Cuba
Cuba,Trinidad
Cuba,Varadero
Cuba,Viñales
Cyprus,Ayia Napa
Cyprus,Larnaca
Cyprus,Limassol
Cyprus,Nicosia
Cyprus,Paphos
Cyprus,Protaras
Czech Republic,Prague
Czech Republic,Ceský Krumlov
Czech Republic,Karlovy Vary
Czech Republic,Kutná Hora
Czech Republic,Karlštejn
Czech Republic,Telc
Czech Republic,Brno
Czech Republic,Ceské Budejovice
Czech Republic,Mariánské Lázne
Czech Republic,Mikulov
Czech Republic,Olomouc
Czech Republic,Pilsen
Denmark,Copenhagen
Denmark,Aalborg
Denmark,Aarhus
Denmark,Frederiksberg
Denmark,Odense
Denmark,Roskilde
Denmark,Svendborg
Finland,Helsinki
Finland,Espoo
Finland,Jyväskylä
Finland,Oulu
Finland,Rovaniemi
Finland,Tampere
Finland,Turku
France,Lyon
France,Marseille
France,Nice
France,Paris
France,Versailles
France,Corsica
France,Chamonix
France,Saint Tropez
France,Cannes
France,Aix-en-Provence
France,Bordeaux
France,Strasbourg
France,Beaune
France,Annecy
France,Antibes
France,Avignon
France,Biarritz
France,Carcassonne
France,Clermont-Ferrand
France,Dijon
France,Grenoble
France,La Rochelle
France,Lille
France,Montpellier
France,Nantes
France,Nimes
France,Perpignan
France,Rennes
France,Rouen
France,Saint-Malo
France,Toulon
France,Toulouse
France,Tours
Germany,Berlin
Germany,Cologne
Germany,Frankfurt
Germany,Hamburg
Germany,Munich
Germany,Dresden
Germany,Potsdam
Germany,Sylt
Germany,Rothenburg ob der Tauber
Germany,Berchtesgaden
Germany,Schwangau
Germany,Bamberg
Germany,Garmisch-Partenkirchen
Germany,Oberstdorf
Germany,Aachen
Germany,Augsburg
Germany,Bonn
Germany,Bremen
Germany,Dortmund
Germany,Duisburg
Germany,Düsseldorf
Germany,Essen
Germany,Freiburg im Breisgau
Germany,Hannover
Germany,Heidelberg
Germany,Karlsruhe
Germany,Leipzig
Germany,Mainz
Germany,Mannheim
Germany,Münster
Germany,Nuremberg
Germany,Stuttgart
Germany,Wiesbaden
Greece,Athens
Greece,Crete
Greece,Santorini
Greece,Rhodes
Greece,Corfu
Greece,Mykonos
Greece,Kalabaka
Greece,Milos
Greece,Patras
Greece,Thessaloniki
Greece,Acharnes
Greece,Kalamaria
Greece,Kalamata
Greece,Kallithea
Greece,Kephalonia (Island)
Greece,Larissa
Greece,Nafplio
Greece,Naousa
Greece,Naxos (Island)
Greece,Parikia
Greece,Peristeri
Greece,Piraeus
Greenland,Ilulissat
Greenland,Nuuk
Greenland,Sisimiut
Hong Kong,Hong Kong (All Cities)
Hungary,Budapest
Hungary,Eger
Hungary,Sopron
Hungary,Pécs
Hungary,Hévíz
Hungary,Debrecen
Hungary,Siófok
Hungary,Szeged
Hungary,Balatonfüred
Hungary,Bük
Hungary,Esztergom
Hungary,Gyor
Hungary,Gyula
Hungary,Hajdúszoboszló
Hungary,Kecskemet
Hungary,Keszthely
Hungary,Miskolc
Hungary,Nyíregyháza
Hungary,Sárvár
Hungary,Székesfehérvár
Hungary,Szentendre
Hungary,Szombathely
Hungary,Tihany
Hungary,Veszprem
Hungary,Zalaegerszeg
Hungary,Zalakaros
Iceland,Reykjavík
Iceland,Akranes
Iceland,Akureyri
Iceland,Garðabaer
Iceland,Hafnarfjörður
Iceland,Keflavík (Reykjanesbær)
Iceland,Kópavogur
Iceland,Mosfellsbær
Iceland,Selfoss
India,Chennai
India,New Delhi
India,Kolkata
India,Mumbai
India,Goa (State)
India,Agra
India,Jaipur
India,Jaisalmer
India,Andaman and Nicobar Islands
India,Rishikesh
India,Udaipur
India,Amritsar
India,Varanasi
India,Hyderabad
India,Ahmedabad
India,Bangalore
India,Bodh Gaya
India,Jodhpur
India,Kanpur
India,Khajuraho
India,Kochi (Cochin)
India,Kumbakonam
India,Leh
India,Manali
India,Pune
India,Surat
India,Tiruchirappalli
India,Ujjain
Indonesia,Jakarta
Indonesia,Bali
Indonesia,Banda Aceh
Indonesia,Batam
Indonesia,Bintan Island
Indonesia,Flores (East Nusa Tenggara)
Indonesia,Lombok
Indonesia,Magelang
Indonesia,Yogyakarta
Indonesia,Bandung
Indonesia,Bekasi
Indonesia,Gili Islands
Indonesia,Makassar
Indonesia,Malang
Indonesia,Medan
Indonesia,Palembang
Indonesia,Semarang
Indonesia,South Tangerang
Indonesia,Surabaya
Indonesia,Tangerang
Ireland,Cork
Ireland,Dublin
Ireland,Killarney
Ireland,Westport
Ireland,Galway
Ireland,Kilkenny
Ireland,Waterford
Ireland,Carrick-On-Shannon
Ireland,Limerick
Ireland,Athlone
Ireland,Bray
Ireland,Clifden
Ireland,Dingle
Ireland,Donegal Town
Ireland,Doolin
Ireland,Drogheda
Ireland,Dundalk
Ireland,Ennis
Ireland,Gorey
Ireland,Kenmare
Ireland,Kinsale
Ireland,Letterkenny
Ireland,Mullingar
Ireland,Navan
Ireland,Sligo
Ireland,Swords
Ireland,Tralee
Ireland,Wexford
Italy,Florence
Italy,Milan
Italy,Naples
Italy,Rome
Italy,Venice
Italy,Sorrento
Italy,Pompei
Italy,Pisa
Italy,Amalfi
Italy,Positano
Italy,Sëlva
Italy,Castelnuovo Berardenga
Italy,Ischia
Italy,Alghero
Italy,Bari
Italy,Bergamo
Italy,Bologna
Italy,Cagliari
Italy,Catania
Italy,Genoa
Italy,Lecce
Italy,Lucca
Italy,Padua
Italy,Palermo
Italy,Perugia
Italy,Rimini
Italy,Salerno
Italy,Siena
Italy,Syracuse
Italy,Trapani
Italy,Trieste
Italy,Turin
Italy,Verona
Jamaica,Kingston
Jamaica,Ocho Rios
Jamaica,Montego Bay
Jamaica,Falmouth
Jamaica,Oracabessa
Jamaica,Port Royal
Jamaica,Negril
Jamaica,Nine Mile
Japan,Osaka
Japan,Tokyo
Japan,Yokohama
Japan,Kyoto
Japan,Kutchan
Japan,Nara
Japan,Hatsukaichi
Japan,Yakushima Island
Japan,Hakuba
Japan,Fujikawaguchiko
Japan,Takayama
Japan,Fukuoka
Japan,Hiroshima
Japan,Kawasaki
Japan,Kitakyushu
Japan,Kobe
Japan,Nagoya
Japan,Niigata
Japan,Saitama
Japan,Sapporo
Japan,Sendai
Japan,Taketomi (Town)
Japan,Ishigaki (Island)
Japan,Kanazawa
Japan,Nagasaki
Jordan,Amman
Jordan,Aqaba
Jordan,Irbid
Jordan,Madaba
Jordan,Petra (Wadi Musa)
Kazakhstan,Astana
Kazakhstan,Almaty
Kazakhstan,Atyrau
Kazakhstan,Karaganda (Karagandy)
Kazakhstan,Oskemen (Ust-Kamenogorsk)
Kazakhstan,Pavlodar
Kuwait,Kuwait City
Kuwait,Hawalli
Kuwait,Salmiya
Latvia,Jurmala
Latvia,Liepaja
Latvia,Riga
Latvia,Sigulda
Lebanon,Beirut
Lebanon,Batroun
Lebanon,Byblos
Lebanon,Jounieh
Lebanon,Tripoli (Lebanon)
Macedonia,Bitola
Macedonia,Ohrid
Macedonia,Prilep
Macedonia,Skopje
Macedonia,Struga
Malaysia,Kota Bharu
Malaysia,Kuala Lumpur
Malaysia,Kota Kinabalu
Malaysia,Langkawi
Malaysia,Penang Island
Malaysia,Petaling Jaya
Malaysia,Tioman Island
Malaysia,Sandakan
Malaysia,Alor Setar
Malaysia,Ipoh
Malaysia,Johor Bahru
Malaysia,Klang
Malaysia,Kuala Terengganu
Malaysia,Kuantan
Malaysia,Kuching
Malaysia,Malacca City
Malaysia,Miri
Malaysia,Port Dickson
Malaysia,Puchong
Malaysia,Seremban
Malaysia,Shah Alam
Malaysia,Subang Jaya
Malaysia,Sungai Petani
Malaysia,Putrajaya
Mexico,Cancún
Mexico,Guadalajara
Mexico,Mexico City
Mexico,Chichén Itzá
Mexico,Isla Mujeres
Mexico,Tulum
Mexico,Akumal
Mexico,Playa Del Carmen
Mexico,Cabo San Lucas
Mexico,San José del Cabo
Mexico,Guanajuato
Mexico,Oaxaca City
Mexico,Puerto Vallarta
Mexico,Chihuahua City
Mexico,Cozumel
Mexico,Acapulco
Mexico,Ciudad Juárez
Mexico,Mazatlán
Mexico,Merida (Mexico)
Mexico,Monterrey
Mexico,Puebla City
Mexico,Santiago de Querétaro
Mexico,San Cristóbal de las Casas
Mexico,Santa María Huatulco
Mexico,Tijuana
Nepal,Kathmandu
Nepal,Bhaktapur
Nepal,Patan
Nepal,Pokhara
Netherlands,Amsterdam
Netherlands,Rotterdam
Netherlands,The Hague
Netherlands,Maastricht
Netherlands,Texel
Netherlands,Utrecht
Netherlands,Arnhem
Netherlands,Nijmegen
Netherlands,Groningen
Netherlands,Delft
Netherlands,Lisse
Netherlands,Alkmaar
Netherlands,Almere
Netherlands,Amersfoort
Netherlands,Apeldoorn
Netherlands,Breda
Netherlands,Den Bosch
Netherlands,Deventer
Netherlands,Dordrecht
Netherlands,Eindhoven
Netherlands,Enschede
Netherlands,Haarlem
Netherlands,Leeuwarden
Netherlands,Leiden
Netherlands,Noordwijk
Netherlands,Roermond
Netherlands,Tilburg
Netherlands,Valkenburg
Netherlands,Zaandam
Netherlands,Zandvoort
Netherlands,Zwolle
North Korea,Pyongyang
North Korea,Kaesong
North Korea,Sinuiju
North Korea,Wonsan
North Korea,Chongjin
North Korea,Hamhung
North Korea,Nampo
Norway,Oslo
Norway,Ålesund
Norway,Bergen
Norway,Kristiansand
Norway,Stavanger
Norway,Tromsø
Norway,Trondheim
Oman,Muscat
Oman,Khasab
Oman,Salalah
Oman,Nizwa
Oman,Seeb
Oman,Sohar
Pakistan,Faisalabad
Pakistan,Islamabad
Pakistan,Karachi
Pakistan,Lahore
Pakistan,Peshawar
Pakistan,Murree
Pakistan,Rawalpindi
Panama,Panama City
Panama,Bocas Town
Panama,Boquete
Panama,David
Panama,Pedasí
Philippines,Manila
Philippines,Banaue
Philippines,Boracay
Philippines,Palawan (Province)
Philippines,Iloilo City
Philippines,Vigan City
Philippines,Puerto Galera
Philippines,Cebu City
Philippines,Bohol (Province)
Poland,Kraków
Poland,Łódź
Poland,Warsaw
Poland,Wroclaw
Poland,Gdansk
Poland,Bydgoszcz
Poland,Poznan
Poland,Bialystok
Poland,Bielsko-Biala
Poland,Czestochowa
Poland,Gdynia
Poland,Karpacz
Poland,Katowice
Poland,Kielce
Poland,Kolobrzeg
Poland,Krynica-Zdrój
Poland,Leba
Poland,Olsztyn
Poland,Lublin
Poland,Rzeszów
Poland,Swinoujscie
Poland,Szczecin
Poland,Szklarska Poreba
Poland,Torun
Poland,Wisla
Poland,Wladyslawowo
Portugal,Lisbon
Portugal,Madeira (Region)
Portugal,Portimão
Portugal,Porto
Portugal,São Miguel Island
Portugal,Braga
Portugal,Cascais
Portugal,Coimbra
Portugal,Évora
Portugal,Faro
Portugal,Lagos (Portugal)
Portugal,Sintra
Puerto Rico,Aguadilla
Puerto Rico,Cabo Rojo
Puerto Rico,Carolina
Puerto Rico,Fajardo
Puerto Rico,Vieques
Puerto Rico,Rincón
Puerto Rico,San Juan
Qatar,Doha
Qatar,Al Rayyan
Romania,Bucharest
Romania,Brasov
Romania,Iași
Romania,Oradea
Romania,Suceava
Romania,Alba Iulia
Romania,Arad
Romania,Bacau
Romania,Braila
Romania,Bran
Romania,Bușteni
Romania,Eforie
Romania,Galați
Romania,Cluj-Napoca
Romania,Ploiesti
Romania,Predeal
Romania,Constanța
Romania,Sibiu
Romania,Sinaia
Romania,Costinești
Romania,Timișoara
Romania,Sighișoara
Romania,Craiova
Romania,Târgu Mureș
Russia,Moscow
Russia,Novosibirsk
Russia,Kazan
Russia,Krasnodar
Russia,Sochi
Russia,St. Petersburg
Russia,Volgograd
Russia,Yaroslavl
Russia,Chelyabinsk
Russia,Krasnoyarsk
Russia,Nizhny Novgorod
Russia,Omsk
Russia,Rostov-on-Don
Russia,Samara (Russia)
Russia,Suzdal
Russia,Voronezh
Russia,Yekaterinburg
Russia,Irkutsk
Russia,Kaliningrad
Russia,Ulan-Ude
Russia,Vladivostok
Saudi Arabia,Jeddah
Saudi Arabia,Medina
Saudi Arabia,Mecca
Saudi Arabia,Riyadh
Saudi Arabia,Al Khobar
Saudi Arabia,Dammam
Singapore,Singapore (All Cities)
Sri Lanka,Colombo
Sri Lanka,Galle
Sri Lanka,Hikkaduwa
Sri Lanka,Kandy
Sri Lanka,Mirissa
Sri Lanka,Negombo
Sri Lanka,Nuwara Eliya
Sri Lanka,Sri Jayawardenepura Kotte
Sweden,Stockholm
Sweden,Gothenburg
Sweden,Jukkasjärvi
Sweden,Malmö
Sweden,Mariefred
Sweden,Norrköping (Municipality)
Switzerland,Bern
Switzerland,Geneva
Switzerland,Zürich
Switzerland,Zermatt
Switzerland,Verbier
Switzerland,Interlaken
Switzerland,Grindelwald
Switzerland,Saas-Fee
Switzerland,St. Moritz
Switzerland,Engelberg
Switzerland,Lucerne
Switzerland,Davos
Switzerland,Ascona
Switzerland,Basel
Switzerland,Biel (Bienne)
Switzerland,Carouge
Switzerland,Chur
Switzerland,Crans-Montana
Switzerland,Fribourg
Switzerland,Grimentz
Switzerland,Lausanne
Switzerland,Locarno
Switzerland,Lugano
Switzerland,Montreux
Switzerland,Nendaz
Switzerland,Neuchâtel
Switzerland,Sion
Switzerland,St. Gallen
Switzerland,Thun
Switzerland,Winterthur
Switzerland,Zug
Taiwan,Kaohsiung City
Taiwan,Taipei
Taiwan,Taichung City
Taiwan,Hualien County
Taiwan,Nantou County
Taiwan,Chiayi
Taiwan,Lukang (Township)
Taiwan,Magong
Taiwan,Tainan
Thailand,Bangkok
Thailand,Phuket City
Thailand,Ko Samui
Thailand,Chiang Mai
Thailand,Ko Tao
Thailand,Krabi (Province)
Thailand,Ko Pha Ngan
Thailand,Ayutthaya City
Thailand,Kanchanaburi City
Thailand,Chiang Rai City
Thailand,Mueang Chonburi (District)
Thailand,Hat Yai City
Thailand,Hua Hin (District)
Thailand,Khon Kaen City
Thailand,Ko Chang (Island)
Thailand,Lampang City
Thailand,Mueang Samut Prakan (District)
Thailand,Nakhon Ratchasima City
Thailand,Nakhon Si Thammarat City
Thailand,Nonthaburi City
Thailand,Pak Kret City
Thailand,Pattaya City
Thailand,Si Racha City
Thailand,Sukhothai Thani
Thailand,Surat Thani City
Thailand,Ubon Ratchathani City
Thailand,Udon Thani City
Thailand,Chanthaburi
Tunisia,Tunis
Tunisia,Djerba Island
Tunisia,Hammamet
Tunisia,Sousse
Turkey,Ankara
Turkey,Antalya
Turkey,Istanbul
Turkey,Izmir
Turkey,Göreme
Turkey,Içmeler
Turkey,Ürgüp
Turkey,Dalyan
Turkey,Kalkan
Turkey,Kusadasi
Turkey,Adana
Turkey,Bursa
Turkey,Fethiye
Turkey,Gaziantep
Turkey,Kemer
Turkey,Konya
Turkey,Manavgat
Turkey,Ölüdeniz
Ukraine,Kiev
Ukraine,Kharkiv
Ukraine,Lviv
Ukraine,Odessa
United Arab Emirates,Abu Dhabi
United Arab Emirates,Dubai
United Arab Emirates,Sharjah
United Arab Emirates,Ras Al Khaimah
United Arab Emirates,Al Ain
United Arab Emirates,Ajman
United States,"Birmingham, AL",
United States,"Montgomery, AL",
United States,"Mobile, AL",
United States,"Huntsville, AL",
United States,"Tuscaloosa, AL",
United States,"Hoover, AL",
United States,"Anchorage, AK",
United States,"Juneau, AK",
United States,"Fairbanks, AK",
United States,"Phoenix, AZ",
United States,"Tucson, AZ",
United States,"Mesa, AZ",
United States,"Chandler, AZ",
United States,"Gilbert, AZ",
United States,"Glendale, AZ",
United States,"Scottsdale, AZ",
United States,"Tempe, AZ",
United States,"Little Rock, AR",
United States,"Fort Smith, AR",
United States,"Fayetteville, AR",
United States,"Los Angeles, CA",
United States,"San Diego, CA",
United States,"San Jose, CA",
United States,"San Francisco, CA",
United States,"Fresno, CA",
United States,"Sacramento, CA",
United States,"Long Beach, CA",
United States,"Oakland, CA",
United States,"Bakersfield, CA",
United States,"Anaheim, CA",
United States,"Denver, CO",
United States,"Colorado Springs, CO",
United States,"Aurora, CO",
United States,"Fort Collins, CO",
United States,"Lakewood, CO",
United States,"Thornton, CO",
United States,"Bridgeport, CT",
United States,"New Haven, CT",
United States,"Stamford, CT",
United States,"Hartford, CT",
United States,"Waterbury, CT",
United States,"Wilmington, DE",
United States,"Dover, DE",
United States,"Newark, DE",
United States,"Middletown, DE",
United States,"Jacksonville, FL",
United States,"Miami, FL",
United States,"Tampa, FL",
United States,"Orlando, FL",
United States,"St. Petersburg, FL",
United States,"Hialeah, FL",
United States,"Tallahassee, FL",
United States,"Fort Lauderdale, FL",
United States,"Cape Coral, FL",
United States,"Atlanta, GA",
United States,"Columbus, GA",
United States,"Savannah, GA",
United States,"Athens, GA",
United States,"Sandy Springs, GA",
United States,"Honolulu, HI",
United States,"Pearl City, HI",
United States,"Hilo, HI",
United States,"Kailua, HI",
United States,"Waipahu, HI",
United States,"Kaneohe, HI",
United States,"Mililani, HI",
United States,"Boise, ID",
United States,"Meridian, ID",
United States,"Nampa, ID",
United States,"Chicago, IL",
United States,"Aurora, IL",
United States,"Rockford, IL",
United States,"Joliet, IL",
United States,"Naperville, IL",
United States,"Springfield, IL",
United States,"Indianapolis, IN",
United States,"Fort Wayne, IN",
United States,"Evansville, IN",
United States,"South Bend, IN",
United States,"Des Moines, IA",
United States,"Cedar Rapids, IA",
United States,"Davenport, IA",
United States,"Wichita, KS",
United States,"Overland Park, KS",
United States,"Kansas City, KS",
United States,"Olathe, KS",
United States,"Topeka, KS",
United States,"Lexington, KY",
United States,"Boyd County, KY",
United States,"Louisville, KY",
United States,"New Orleans, LA",
United States,"Baton Rouge, LA",
United States,"Shreveport, LA",
United States,"Metairie, LA",
United States,"Lafayette, LA",
United States,"Portland, ME",
United States,"Lewiston, ME",
United States,"Bangor, ME",
United States,"Baltimore, MD",
United States,"Columbia, MD",
United States,"Germantown, MD",
United States,"Boston, MA",
United States,"Worcester, MA",
United States,"Springfield, MA",
United States,"Lowell, MA",
United States,"Cambridge, MA",
United States,"Detroit, MI",
United States,"Grand Rapids, MI",
United States,"Warren, MI",
United States,"Sterling Heights, MI",
United States,"Ann Arbor, MI",
United States,"Minneapolis, MN",
United States,"Saint Paul, MN",
United States,"Rochester, MN",
United States,"Bloomington, MN",
United States,"Jackson, MS",
United States,"Gulfport, MS",
United States,"Kansas City, MO",
United States,"St. Louis, MO",
United States,"Springfield, MO",
United States,"Columbia, MO",
United States,"Independence, MO",
United States,"Billings, MT",
United States,"Missoula, MT",
United States,"Great Falls, MT",
United States,"Omaha, NE",
United States,"Lincoln, NE",
United States,"Bellevue, NE",
United States,"Las Vegas, NV",
United States,"Henderson, NV",
United States,"Reno, NV",
United States,"North Las Vegas, NV",
United States,"Manchester, NH",
United States,"Nashua, NH",
United States,"Concord, NH",
United States,"Newark, NJ",
United States,"Jersey City, NJ",
United States,"Paterson, NJ",
United States,"Elizabeth, NJ",
United States,"Edison, NJ",
United States,"Toms River, NJ",
United States,"Albuquerque, NM",
United States,"Las Cruces, NM",
United States,"Rio Rancho, NM",
United States,"New York, NY",
United States,"Buffalo, NY",
United States,"Rochester, NY",
United States,"Yonkers, NY",
United States,"Charlotte, NC",
United States,"Raleigh, NC",
United States,"Greensboro, NC",
United States,"Durham, NC",
United States,"Winston-Salem, NC",
United States,"Fayetteville, NC",
United States,"Cary, NC",
United States,"Fargo, ND",
United States,"Bismarck, ND",
United States,"Grand Forks, ND",
United States,"Columbus, OH",
United States,"Cleveland, OH",
United States,"Cincinnati, OH",
United States,"Toledo, OH",
United States,"Akron, OH",
United States,"Dayton, OH",
United States,"Tulsa, OK",
United States,"Norman, OK",
United States,"Broken Arrow, OK",
United States,"Portland, OR",
United States,"Salem, OR",
United States,"Eugene, OR",
United States,"Gresham, OR",
United States,"Philadelphia, PA",
United States,"Pittsburgh, PA",
United States,"Allentown, PA",
United States,"Providence, RI",
United States,"Warwick, RI",
United States,"Cranston, RI",
United States,"Columbia, SC",
United States,"Charleston, SC",
United States,"North Charleston, SC",
United States,"Mount Pleasant, SC",
United States,"Sioux Falls, SD",
United States,"Rapid City, SD",
United States,"Memphis, TN",
United States,"Nashville, TN",
United States,"Knoxville, TN",
United States,"Chattanooga, TN",
United States,"Clarksville, TN",
United States,"Murfreesboro, TN",
United States,"Houston, TX",
United States,"San Antonio, TX",
United States,"Dallas, TX",
United States,"Austin, TX",
United States,"Fort Worth, TX",
United States,"El Paso, TX",
United States,"Arlington, TX",
United States,"Corpus Christi, TX",
United States,"Plano, TX",
United States,"Laredo, TX",
United States,"Salt Lake City, UT",
United States,"Provo, UT",
United States,"West Jordan, UT",
United States,"Burlington, VT",
United States,"South Burlington, VT",
United States,"Virginia Beach, VA",
United States,"Norfolk, VA",
United States,"Chesapeake, VA",
United States,"Richmond, VA",
United States,"Arlington, VA",
United States,"Newport News, VA",
United States,"Alexandria, VA",
United States,"Hampton, VA",
United States,"Seattle, WA",
United States,"Spokane, WA",
United States,"Tacoma, WA",
United States,"Vancouver, WA",
United States,"Bellevue, WA",
United States,"Kent, WA",
United States,"Everett, WA",
United States,"Charleston, WV",
United States,"Huntington, WV",
United States,"Milwaukee, WI",
United States,"Madison, WI",
United States,"Green Bay, WI",
United States,"Cheyenne, WY",
United States,"Casper, WY",
United States,"Gillette, WY",
United States,"Washington, D.C.",
United States,"Oklahoma City, OK",
United States,"West Valley City, UT",
United States,"Albany, NY",
United States,"Annapolis, MD",
United States,"Augusta, ME",
United States,"Carson City, NV",
United States,"Frankfort, KY",
United States,"Harrisburg, PA",
United States,"Helena, MT",
United States,"Jefferson City, MO",
United States,"Lansing, MI",
United States,"Montpelier, VT",
United States,"Olympia, WA",
United States,"Pierre, SD",
United States,"Santa Fe, NM",
United States,"Trenton, NJ",
Spain,Barcelona
Spain,Madrid
Spain,Valencia (Spain)
Spain,Majorca
Spain,Ibiza
Spain,Tenerife
Spain,Fuerteventura
Spain,Lanzarote
Spain,Gran Canaria
Spain,Seville
Spain,Granada (Spain)
Spain,Córdoba (Spain)
Spain,Bilbao
Spain,Alicante
Spain,Avilés
Spain,Benalmádena
Spain,Benidorm
Spain,Calp
Spain,Dénia
Spain,Estepona
Spain,Fuengirola
Spain,Gijón
Spain,Xàbia
Spain,Malaga
Spain,Marbella
Spain,Menorca (Island)
Spain,Murcia
Spain,Nerja
Spain,Oviedo
Spain,San Sebastián
Spain,Torremolinos
Spain,Zaragoza
Argentina,Bariloche
Argentina,Buenos Aires
Argentina,Córdoba (Argentina)
Argentina,Mar Del Plata
Argentina,Mendoza
Argentina,Ushuaia
Argentina,El Calafate
Argentina,El Chaltén
Argentina,La Plata
Argentina,Merlo
Argentina,Pinamar
Argentina,Puerto Iguazú
Argentina,Puerto Madryn
Argentina,Quilmes
Argentina,Rosario
Argentina,Salta
Argentina,San Martin de los Andes
Argentina,San Miguel de Tucumán
Argentina,San Rafael
Argentina,Santa Fe
Argentina,Tandil
Argentina,Tigre
Argentina,Villa Carlos Paz
Argentina,Villa Gesell
Argentina,Villa La Angostura
Australia,Adelaide
Australia,Brisbane
Australia,Canberra
Australia,Gold Coast
Australia,Lord Howe Island
Australia,Magnetic Island
Australia,Margaret River
Australia,Melbourne
Australia,Noosa
Australia,Perth
Australia,Port Douglas
Australia,Sydney
Australia,Newcastle
Australia,Bedarra Island
Australia,Bruny Island
Australia,Byron Bay
Australia,Cairns
Australia,Christmas Island
Australia,Cocos (Keeling) Islands
Australia,Darwin
Australia,Dunk Island
Australia,Fitzroy Island
Australia,Flinders Island
Australia,Fraser Island
Australia,Geelong
Australia,Green Island
Australia,Heron Island
Australia,Hobart
Australia,Kangaroo Island
Australia,King Island
Australia,The Keppels (Island)
Australia,Lady Elliot Island
Australia,Lady Musgrave Island
Australia,Launceston
Australia,Lizard Island
Australia,Maria Island
Australia,Moreton Island
Australia,Nelson Bay (Suburb)
Australia,Norfolk Island
Australia,North Stradbroke Island
Australia,Phillip Island
Australia,Rottnest Island
Australia,Sunshine Coast
Australia,Townsville
Australia,Whitsunday Islands
Australia,Fremantle
Brazil,Foz do Iguaçu
Brazil,Ipojuca
Brazil,Jijoca De Jericoacoara
Brazil,Paraty
Brazil,Porto Seguro
Brazil,Rio De Janeiro
Brazil,São Paulo
Brazil,Belém
Brazil,Belo Horizonte
Brazil,Brasília
Brazil,Curitiba
Brazil,Florianópolis
Brazil,Fortaleza
Brazil,Manaus
Brazil,Recife
Brazil,Salvador
Dominican Republic,Jarabacoa
Dominican Republic,La Romana
Dominican Republic,Pedernales
Dominican Republic,Puerto Plata
Dominican Republic,Punta Cana
Dominican Republic,Samaná
Dominican Republic,Santo Domingo
Israel,Eilat
Israel,Haifa
Israel,Jerusalem
Israel,Nazareth
Israel,Tel Aviv
Israel,Tiberias
Morocco,Casablanca
Morocco,Chefchaouen
Morocco,Essaouira
Morocco,Fes
Morocco,Marrakesh
Morocco,Merzouga
Morocco,Rabat
New Zealand,Blenheim
New Zealand,Christchurch
New Zealand,Auckland
New Zealand,Queenstown
New Zealand,Tauranga
New Zealand,Wanaka
New Zealand,Wellington
New Zealand,Whitianga
New Zealand,Hamilton
New Zealand,Dunedin
New Zealand,Hastings
New Zealand,Invercargill
New Zealand,Kaikoura
New Zealand,Kerikeri
New Zealand,Napier
New Zealand,Nelson
New Zealand,New Plymouth
New Zealand,Oamaru
New Zealand,Paihia
New Zealand,Palmerston North
New Zealand,Picton
New Zealand,Rotorua
New Zealand,Taupo
New Zealand,Te Anau
New Zealand,Whakatane
New Zealand,Whanganui
New Zealand,Whangarei
Peru,Arequipa
Peru,Cusco
Peru,Huaraz
Peru,Lima
Peru,Mancora
Peru,Paracas
Peru,Urubamba (Province)
South Africa,Bloemfontein
South Africa,Cape Town
South Africa,Durban
South Africa,Johannesburg
South Africa,Nelspruit
South Africa,Port Elizabeth
South Africa,Pretoria
South Korea,Busan
South Korea,Daegu
South Korea,Daejeon
South Korea,Incheon
South Korea,Seoul
South Korea,Ulsan
South Korea,Changwon
South Korea,Cheonan
South Korea,Cheongju
South Korea,Goyang
South Korea,Gwangju
South Korea,Jeju (Island)
South Korea,Jeonju
South Korea,Pyeongchang
South Korea,Seongnam
South Korea,Suwon
South Korea,Andong
South Korea,Gyeongju
United Kingdom,Amesbury
United Kingdom,Bath
United Kingdom,Birmingham
United Kingdom,Bristol
United Kingdom,Cambridge
United Kingdom,Edinburgh
United Kingdom,Glasgow
United Kingdom,Liverpool
United Kingdom,London
United Kingdom,Manchester
United Kingdom,Oxford
United Kingdom,Aberdeen
United Kingdom,Belfast
United Kingdom,Blackpool
United Kingdom,Bournemouth
United Kingdom,Brighton
United Kingdom,Cardiff
United Kingdom,Isle of Wight (Island)
United Kingdom,Jersey (Island)
United Kingdom,Keswick
United Kingdom,Leeds
United Kingdom,Leicester
United Kingdom,Newcastle upon Tyne
United Kingdom,Newquay
United Kingdom,Norwich
United Kingdom,Nottingham
United Kingdom,Plymouth
United Kingdom,Portsmouth
United Kingdom,Reading
United Kingdom,Sheffield
United Kingdom,Southampton
United Kingdom,York
Vietnam,Dong Hoi
Vietnam,Hạ Long (City)
Vietnam,Hanoi
Vietnam,Ho Chi Minh City
Vietnam,Hội An
Vietnam,Huế
Azerbaijan,Baku
Azerbaijan,Ganja
Azerbaijan,Stepanakert
Azerbaijan,Sheki
Egypt,Alexandria
Egypt,Cairo
Egypt,Giza
Egypt,Hurghada
Egypt,Luxor
Egypt,Sharm El Sheikh
Egypt,Faiyum
Egypt,Al Mansurah
Egypt,Asyut
Egypt,Aswan
Egypt,El Gouna
Egypt,El Mahalla El Kubra
Egypt,Ismailia
Egypt,Marsa Alam
Egypt,Mersa Matruh
Egypt,Port Said
Egypt,Safaga
Egypt,Suez
Egypt,Tanta
Kenya,Diani Beach
Kenya,Kisumu
Kenya,Malindi
Kenya,Mombasa
Kenya,Nairobi
Kenya,Watamu
Macau,Macau (All Cities)
Venezuela,Barquisimeto
Venezuela,Caracas
Venezuela,Maracaibo
Venezuela,Maracay
Venezuela,Mérida (Venezuela)
Venezuela,Porlamar
Venezuela,Valencia (Venezuela)
Belarus,Brest
Belarus,Gomel
Belarus,Grodno
Belarus,Minsk
Belarus,Mogilev
Belarus,Vitebsk
Chile,Chiloé Island
Chile,Easter Island
Chile,Pucón
Chile,Puerto Natales
Chile,Puerto Varas
Chile,San Pedro de Atacama
Chile,Santiago
Chile,Valparaíso
Paraguay,Asunción
Paraguay,Ciudad Del Este
Paraguay,Encarnación
Paraguay,Luque
Serbia,Niš
Serbia,Belgrade
Serbia,Zlatibor
Serbia,Novi Sad
Uruguay,Colonia del Sacramento
Uruguay,Maldonado
Uruguay,Montevideo
Uruguay,Piriápolis
Uruguay,Punta del Este
Yemen,Al Hudaydah
Yemen,Sana'a
Yemen,Taiz
Algeria,Algiers
Algeria,Constantine
Algeria,Oran
Bhutan,Bumthang (District)
Bhutan,Paro
Bhutan,Phuntsholing (Phuentsholing)
Bhutan,Punakha
Bhutan,Thimphu
Botswana,Francistown
Botswana,Gaborone
Botswana,Kasane
Botswana,Maun
Ecuador,Baños de Agua Santa
Ecuador,Cuenca
Ecuador,Guayaquil
Ecuador,Montañita
Ecuador,Puerto Ayora
Ecuador,Quito
Ecuador,Salinas
Estonia,Haapsalu
Estonia,Kuressaare
Estonia,Narva
Estonia,Pärnu
Estonia,Rakvere
Estonia,Tallinn
Estonia,Tartu
Fiji,Lautoka
Fiji,Nadi
Fiji,Pacific Harbour
Fiji,Savusavu
Fiji,Sigatoka
Fiji,Suva
French Polynesia,Bora Bora (Island)
French Polynesia,Moorea (Island)
French Polynesia,Papeete
French Polynesia,Puna'auia
Iran,Isfahan
Iran,Shiraz
Iran,Tehran
Liechtenstein,Triesen
Liechtenstein,Triesenberg
Liechtenstein,Vaduz
Madagascar,Antananarivo
Madagascar,Antsirabe
Madagascar,Antsiranana
Madagascar,Mahajanga
Madagascar,Nosy Be (Island)
Madagascar,Nosy Boraha (Île Sainte-Marie)
Madagascar,Toamasina
Malta,Mellieha
Malta,Saint Julian's
Malta,Sliema
Malta,St. Paul's Bay
Malta,Valletta
Mauritius,Flic en Flac
Mauritius,Grand-Baie
Mauritius,Port Louis
Mauritius,Rodrigues Island
Mauritius,Tamarin
Monaco,Monaco (All Cities)
Papua New Guinea,Alotau
Papua New Guinea,Lae
Papua New Guinea,Madang
Papua New Guinea,New Britain Island
Papua New Guinea,Port Moresby
Seychelles,Beau Vallon
Seychelles,La Digue Island
Seychelles,Praslin Island
Seychelles,Victoria
Tanzania,Arusha
Tanzania,Dar es Salaam
Tanzania,Jambiani
Tanzania,Moshi
Tanzania,Nungwi
Tanzania,Zanzibar City
Tanzania,Dodoma
Zambia,Kitwe
Zambia,Livingstone
Zambia,Lusaka
Zambia,Ndola
Zimbabwe,Bulawayo
Zimbabwe,Harare
Zimbabwe,Victoria Falls
Armenia,Dilijan
Armenia,Gyumri
Armenia,Tsakhkadzor
Armenia,Yerevan
Cayman Islands,Cayman Brac (Island)
Cayman Islands,East End
Cayman Islands,George Town
Cayman Islands,Little Cayman (Island)
Cayman Islands,West Bay
Faroe Islands,Hoyvík
Faroe Islands,Klaksvík
Faroe Islands,Tórshavn
Georgia,Batumi
Georgia,Borjomi
Georgia,Gagra
Georgia,Kobuleti
Georgia,Kutaisi
Georgia,Mestia
Georgia,Sukhumi
Georgia,Tbilisi
Luxembourg,Differdange
Luxembourg,Echternach
Luxembourg,Esch-sur-Alzette
Luxembourg,Luxembourg City
Luxembourg,Remich
Namibia,Swakopmund
Namibia,Walvis Bay
Namibia,Windhoek
Slovakia,Banská Bystrica
Slovakia,Bratislava
Slovakia,Košice
Slovakia,Liptovský Mikuláš
Slovakia,Nitra
Slovakia,Poprad
Slovakia,Žilina
Slovenia,Bled
Slovenia,Koper
Slovenia,Kranjska Gora
Slovenia,Ljubljana
Slovenia,Maribor
Slovenia,Piran
Slovenia,Portorož
Vatican City,Vatican City (All Cities)
Barbados,Bridgetown
Barbados,Holetown
Barbados,Mullins
Barbados,Oistins
Barbados,Speightstown
Belize,Belize City
Belize,Belmopan
Belize,Caye Caulker (Island)
Belize,Hopkins
Belize,Placencia
Belize,San Ignacio
Belize,San Pedro
Bolivia,Cochabamba
Bolivia,La Paz
Bolivia,Santa Cruz de la Sierra
Bolivia,Sucre
Bolivia,Uyuni
Cape Verde,Mindelo
Cape Verde,Praia
Cape Verde,Sal (Island)
Cape Verde,Sal Rei
Chad,Moundou
Chad,N'Djamena
Chad,Sarh
Democratic Republic of the Congo,Kinshasa
Democratic Republic of the Congo,Kisangani
Democratic Republic of the Congo,Lubumbashi
Democratic Republic of the Congo,Mbuji-Mayi
El Salvador,La Libertad
El Salvador,San Salvador
El Salvador,Santa Ana
El Salvador,Santa Tecla
El Salvador,Suchitoto
Honduras,La Ceiba
Honduras,San Pedro Sula
Honduras,Tegucigalpa
Honduras,Útila (Island)
Honduras,Roatán (Island)
Nicaragua,Estelí
Nicaragua,Granada (Nicaragua)
Nicaragua,León
Nicaragua,Managua
Nicaragua,Matagalpa
Nicaragua,San Juan del Sur
Swaziland,Big Bend
Swaziland,Lobamba
Swaziland,Manzini
Swaziland,Mbabane
Cote d'Ivoire (Ivory Coast),Abidjan
Cote d'Ivoire (Ivory Coast),Korhogo
Cote d'Ivoire (Ivory Coast),Yamoussoukro
Ghana,Aburi
Ghana,Accra
Ghana,Akosombo
Ghana,Cape Coast
Ghana,Elmina
Ghana,Kumasi
Guatemala,Antigua Guatemala
Guatemala,Guatemala City
Guatemala,Livingston
Guatemala,San Martín Zapotitlán
Guatemala,Tecpán Guatemala
Guatemala,Tikal
Haiti,Croix-des-Bouquets
Haiti,Milot
Haiti,Port-au-Prince
Haiti,Port-de-Paix
Iraq,Baghdad
Iraq,Duhok
Iraq,Erbil
Iraq,Hillah
Iraq,Karbala
Iraq,Kirkuk
Iraq,Kufa
Iraq,Samarra
Iraq,Sulaymaniyah
Laos,Luang Prabang
Laos,Champassak (Town)
Laos,Vientiane
Myanmar (Burma),Bagan
Myanmar (Burma),Kyaikto
Myanmar (Burma),Mandalay
Myanmar (Burma),Naypyidaw (Nay Pyi Taw)
Myanmar (Burma),Yangon
Uzbekistan,Bukhara
Uzbekistan,Kokand
Uzbekistan,Samarkand
Uzbekistan,Tashkent
Andorra,Andorra la Vella
Andorra,Les Escaldes
Andorra,Pas de la Casa
Cameroon,Douala
Cameroon,Kribi
Cameroon,Limbe
Cameroon,Yaoundé
Eritrea,Asmara
Eritrea,Keren
Eritrea,Massawa
Ethiopia,Addis Ababa
Ethiopia,Bahir Dar
Ethiopia,Lalibela
Guinea-Bissau,Bafatá
Guinea-Bissau,Bissau
Guinea-Bissau,Gabú
Lithuania,Druskininkai
Lithuania,Kaunas
Lithuania,Klaipeda
Lithuania,Palanga
Lithuania,Vilnius
Marshall Islands,Majuro Atoll
Marshall Islands,Kwajalein Atoll
Marshall Islands,Arno Atoll
Moldova,Bălți
Moldova,Chișinău
Moldova,Tiraspol
Montenegro,Budva
Montenegro,Herceg Novi
Montenegro,Kotor
Montenegro,Podgorica
Montenegro,Tivat
Montenegro,Ulcinj
Nigeria,Abuja
Nigeria,Ibadan
Nigeria,Lagos
Rwanda,Gisenyi
Rwanda,Kigali
Rwanda,Ruhengeri
Saint Lucia,Castries
Saint Lucia,Gros Islet
Saint Lucia,Soufrière
Samoa,Apia
Samoa,Falealupo
Samoa,Lalomanu
Samoa,Salelologa
San Marino,Acquaviva
San Marino,Borgo Maggiore
San Marino,Chiesanuova
San Marino,Domagnano
San Marino,Faetano
San Marino,Fiorentino
San Marino,Montegiardino
San Marino,San Marino City
San Marino,Serravalle
Solomon Islands,Gizo
Solomon Islands,Honiara
Solomon Islands,Munda
Sudan,Khartoum
Sudan,Omdurman
Sudan,Port Sudan
Sudan,Shendi
Tajikistan,Dushanbe
Tajikistan,Khorog
Tajikistan,Khujand
Togo,Kara
Togo,Kpalimé
Togo,Lomé
Trinidad and Tobago,Castara
Trinidad and Tobago,Crown Point
Trinidad and Tobago,Port of Spain
Trinidad and Tobago,San Fernando
Trinidad and Tobago,Scarborough
Turkmenistan,Ashgabat
Turkmenistan,Darvaza
Turkmenistan,Konye-Urgench
Turkmenistan,Mary
Turkmenistan,Türkmenbasy
Uganda,Entebbe
Uganda,Fort Portal
Uganda,Jinja
Uganda,Kabale
Uganda,Kampala
Bahrain,Manama
Bahrain,A'Ali
Bahrain,Al Jasra
Bahrain,Muharraq
Bahrain,Riffa
Bahrain,Saar
Bahrain,Amwaj Islands
Bahrain,Al Hoora
Bahrain,Sitra
Bahrain,Isa Town
Bahrain,Al Qalah
Bahrain,Arad
Bahrain,Durrat Al Bahrain
Bahrain,Al Hidd
Aruba,Oranjestad
Aruba,Noord
Aruba,Savaneta
Aruba,San Nicolas
Aruba,Santa Cruz
Aruba,Paradera
The Bahamas,Nassau
The Bahamas,Paradise Island
The Bahamas,Marsh Harbour
The Bahamas,Governor’s Harbour
The Bahamas,Gregory Town
The Bahamas,McLean’s Town Cay
The Bahamas,Freeport
The Bahamas,Harbour Island
The Bahamas,George Town
The Bahamas,Andros (Island)
The Bahamas,Cat Island
The Bahamas,Bimini Islands
The Bahamas,Treasure Cay
The Bahamas,Hope Town
The Bahamas,Green Turtle Cay
The Bahamas,Spanish Wells
The Bahamas,San Salvador Island
The Bahamas,Clarence Town
The Bahamas,Matthew Town
The Bahamas,Castaway Cay
The Bahamas,Great Guana Cay
Maldives,Malé
Maldives,Maafushi (Island)
Maldives,Addu City
Maldives,Rasdhoo (Island)
Maldives,Thulusdhoo (Island)
Maldives,Ukulhas (Island)
Maldives,Thoddoo (Island)
Maldives,Guraidhoo (Island)
Maldives,Huraa (Island)
Maldives,Fuvahmulah (Island)
Maldives,Dhaalu Atoll
Maldives,Dhiffushi (Island)
Maldives,Dharavandhoo (Island)
Maldives,Hulhumale Island
Maldives,Kuramathi Island
Maldives,Meeru Island
Maldives,Hulhule Island
Maldives,Vaadhoo Island
Maldives,Meedhupparu Island
