﻿travoo id,City Name, Google level
109,Tokyo,administrative_area_level_1
115,Kaohsiung City,administrative_area_level_1
188,Brussels City,administrative_area_level_1
252,Corsica,administrative_area_level_1
303,Goa (State),administrative_area_level_1
378,Taichung City,administrative_area_level_1
407,Krabi (Province),administrative_area_level_1
422,Ras Al Khaimah,administrative_area_level_1
739,Kampot (Province) ,administrative_area_level_1
792,Madeira (Region),administrative_area_level_1
796,Al Rayyan,administrative_area_level_1
811,Córdoba (Argentina) ,administrative_area_level_1
841,Samaná,administrative_area_level_1
884,Seoul,administrative_area_level_1
967,Carolina,administrative_area_level_1
970,Rincón,administrative_area_level_1
1022,Maldonado,administrative_area_level_1
1023,Montevideo,administrative_area_level_1
1029,Algiers,administrative_area_level_1
1032,Bumthang (District),administrative_area_level_1
1080,Triesenberg,administrative_area_level_1
1428,La Libertad,administrative_area_level_1
1468,San Miguel de Tucumán,administrative_area_level_1
1626,Jeju (Island),administrative_area_level_1
1925,Acquaviva,administrative_area_level_1
1926,Borgo Maggiore,administrative_area_level_1
1927,Chiesanuova,administrative_area_level_1
1930,Fiorentino,administrative_area_level_1
1933,Serravalle,administrative_area_level_1
1956,Bimini Islands,administrative_area_level_1
1958,Cat Island,administrative_area_level_1
1967,Hope Town,administrative_area_level_1
1974,Spanish Wells,administrative_area_level_1
