Move places containing keyword "Rawalpindi," in address from city id 133 to 980

Move place id 3587723 from city id 134 to 980

Move place id 3584293 from city id 134 to 980

Move place id 3564645 from city id 134 to 980