Move place id 3640069 from city id 1009 to 41

Move place id 3641439 from city id 1009 to 41

Move place id 3618700 from city id 1010 to 41

Move place id 3643965 from city id 1011 to 41

Move place id 3643467 from city id 1011 to 41

Move place id 3643466 from city id 1011 to 41

Move place id 3642670 from city id 1011 to 41

Move place id 3642630 from city id 1011 to 41

Move place id 3642371 from city id 1011 to 41